-20.0000000000000  1.33148136926766e-05 
-19.8666666666667  1.34853359301344e-05 
-19.7333333333333  1.36592931093170e-05 
-19.6000000000000  1.38367776781089e-05 
-19.4666666666667  1.40178852077590e-05 
-19.3333333333333  1.42027145199807e-05 
-19.2000000000000  1.43913678201093e-05 
-19.0666666666667  1.45839508366466e-05 
-18.9333333333333  1.47805729675445e-05 
-18.8000000000000  1.49813474336010e-05 
-18.6666666666667  1.51863914393647e-05 
-18.5333333333333  1.53958263419697e-05 
-18.4000000000000  1.56097778283495e-05 
-18.2666666666667  1.58283761013062e-05 
-18.1333333333333  1.60517560749429e-05 
-18.0000000000000  1.62800575799992e-05 
-17.8666666666667  1.65134255796667e-05 
-17.7333333333333  1.67520103964957e-05 
-17.6000000000000  1.69959679510493e-05 
-17.4666666666667  1.72454600130002e-05 
-17.3333333333333  1.75006544654158e-05 
-17.2000000000000  1.77617255830252e-05 
-17.0666666666667  1.80288543253165e-05 
-16.9333333333333  1.83022286453711e-05 
-16.8000000000000  1.85820438154038e-05 
-16.6666666666667  1.88685027700442e-05 
-16.5333333333333  1.91618164684704e-05 
-16.4000000000000  1.94622042765792e-05 
-16.2666666666667  1.97698943704665e-05 
-16.1333333333333  2.00851241625792e-05 
-16.0000000000000  2.04081407519996e-05 
-15.8666666666667  2.07392014004291e-05 
-15.7333333333333  2.10785740355534e-05 
-15.6000000000000  2.14265377835948e-05 
-15.4666666666667  2.17833835329915e-05 
-15.3333333333333  2.21494145312908e-05 
-15.2000000000000  2.25249470174985e-05 
-15.0666666666667  2.29103108923005e-05 
-14.9333333333333  2.33058504287545e-05 
-14.8000000000000  2.37119250262562e-05 
-14.6666666666667  2.41289100107960e-05 
-14.5333333333333  2.45571974847686e-05 
-14.4000000000000  2.49971972298478e-05 
-14.2666666666667  2.54493376667273e-05 
-14.1333333333333  2.59140668758295e-05 
-14.0000000000000  2.63918536834228e-05 
-13.8666666666667  2.68831888179481e-05 
-13.7333333333333  2.73885861417559e-05 
-13.6000000000000  2.79085839638881e-05 
-13.4666666666667  2.84437464400130e-05 
-13.3333333333333  2.89946650661421e-05 
-13.2000000000000  2.95619602733242e-05 
-13.0666666666667  3.01462831311349e-05 
-12.9333333333333  3.07483171684623e-05 
-12.8000000000000  3.13687803208365e-05 
-12.6666666666667  3.20084270143728e-05 
-12.5333333333333  3.26680503973021e-05 
-12.4000000000000  3.33484847310507e-05 
-12.2666666666667  3.40506079539287e-05 
-12.1333333333333  3.47753444316852e-05 
-12.0000000000000  3.55236679105163e-05 
-11.8666666666667  3.62966046895739e-05 
-11.7333333333333  3.70952370316397e-05 
-11.6000000000000  3.79207068324120e-05 
-11.4666666666667  3.87742195708295e-05 
-11.3333333333333  3.96570485650407e-05 
-11.2000000000000  4.05705395610507e-05 
-11.0666666666667  4.15161156837638e-05 
-10.9333333333333  4.24952827831218e-05 
-10.8000000000000  4.35096352113531e-05 
-10.6666666666667  4.45608620710326e-05 
-10.5333333333333  4.56507539777559e-05 
-10.4000000000000  4.67812103858041e-05 
-10.2666666666667  4.79542475302742e-05 
-10.1333333333333  4.91720070448453e-05 
-10.0000000000000  5.04367653207127e-05 
-9.86666666666667  5.17509436793429e-05 
-9.73333333333333  5.31171194396712e-05 
-9.60000000000000  5.45380379693001e-05 
-9.46666666666667  5.60166258192810e-05 
-9.33333333333333  5.75560050533221e-05 
-9.20000000000000  5.91595088949228e-05 
-9.06666666666667  6.08306988301811e-05 
-8.93333333333333  6.25733833200668e-05 
-8.80000000000000  6.43916382940489e-05 
-8.66666666666667  6.62898296173832e-05 
-8.53333333333333  6.82726377474444e-05 
-8.40000000000000  7.03450848205665e-05 
-8.26666666666667  7.25125644403874e-05 
-8.13333333333333  7.47808744721339e-05 
-8.00000000000000  7.71562531852013e-05 
-7.86666666666667  7.96454191293974e-05 
-7.73333333333333  8.22556151790591e-05 
-7.60000000000000  8.49946572347338e-05 
-7.46666666666667  8.78709881351834e-05 
-7.33333333333333  9.08937374041878e-05 
-7.20000000000000  9.40727875382002e-05 
-7.06666666666667  9.74188476337189e-05 
-6.93333333333333  0.000100943535258825 
-6.80000000000000  0.000104659467593413 
-6.66666666666667  0.000108580362999151 
-6.53333333333333  0.000112721154335221 
-6.40000000000000  0.000117098115511717 
-6.26666666666667  0.000121729002971684 
-6.13333333333333  0.000126633214017573 
-6.00000000000000  0.000131831964151022 
-5.86666666666667  0.000137348485878542 
-5.73333333333333  0.000143208251751863 
-5.60000000000000  0.000149439224761374 
-5.46666666666667  0.000156072139584011 
-5.33333333333333  0.000163140818600476 
-5.20000000000000  0.000170682527034833 
-5.06666666666667  0.000178738372021060 
-4.93333333333333  0.000187353750847127 
-4.80000000000000  0.000196578854037330 
-4.66666666666667  0.000206469229261447 
-4.53333333333333  0.000217086412234647 
-4.40000000000000  0.000228498630691520 
-4.26666666666667  0.000240781587030104 
-4.13333333333333  0.000254019324109464 
-4.00000000000000  0.000268305176635678 
-3.86666666666667  0.000283742807143970 
-3.73333333333333  0.000300447320157026 
-3.60000000000000  0.000318546439802316 
-3.46666666666667  0.000338181723801967 
-3.33333333333333  0.000359509768660176 
-3.20000000000000  0.000382703334837816 
-3.06666666666667  0.000407952283760408 
-2.93333333333333  0.000435464166803869 
-2.80000000000000  0.000465464235096719 
-2.66666666666667  0.000498194542256163 
-2.53333333333333  0.000533911683608385 
-2.40000000000000  0.000572882548951960 
-2.26666666666667  0.000615377257896406 
-2.13333333333333  0.000661658200159315 
-2.00000000000000  0.000711963834502480 
-1.86666666666667  0.000766485650990234 
-1.73333333333333  0.000825336555919301 
-1.60000000000000  0.000888509045149532 
-1.46666666666667  0.000955822123578194 
-1.33333333333333  0.00102685733335857 
-1.20000000000000  0.00110088685519962 
-1.06666666666667  0.00117680075831017 
-0.933333333333334  0.00125304606185455 
-0.800000000000001  0.00132759651864476 
-0.666666666666668  0.00139797686610456 
-0.533333333333335  0.00146136523509529 
-0.399999999999999  0.00151478840313703 
-0.266666666666666  0.00155540425069973 
-0.133333333333333  0.00158083669364885 
 0.00000000000000  0.00158950007097693 
 0.133333333333333  0.00158083669364885 
 0.266666666666666  0.00155540425069973 
 0.399999999999999  0.00151478840313703 
 0.533333333333331  0.00146136523509529 
 0.666666666666668  0.00139797686610456 
 0.800000000000001  0.00132759651864476 
 0.933333333333334  0.00125304606185455 
 1.06666666666667  0.00117680075831017 
 1.20000000000000  0.00110088685519962 
 1.33333333333333  0.00102685733335857 
 1.46666666666667  0.000955822123578195 
 1.60000000000000  0.000888509045149532 
 1.73333333333333  0.000825336555919301 
 1.86666666666667  0.000766485650990234 
 2.00000000000000  0.000711963834502480 
 2.13333333333333  0.000661658200159315 
 2.26666666666667  0.000615377257896406 
 2.40000000000000  0.000572882548951960 
 2.53333333333333  0.000533911683608386 
 2.66666666666667  0.000498194542256163 
 2.80000000000000  0.000465464235096719 
 2.93333333333333  0.000435464166803869 
 3.06666666666667  0.000407952283760408 
 3.20000000000000  0.000382703334837816 
 3.33333333333333  0.000359509768660176 
 3.46666666666667  0.000338181723801967 
 3.60000000000000  0.000318546439802316 
 3.73333333333333  0.000300447320157026 
 3.86666666666667  0.000283742807143970 
 4.00000000000000  0.000268305176635678 
 4.13333333333333  0.000254019324109464 
 4.26666666666667  0.000240781587030104 
 4.40000000000000  0.000228498630691520 
 4.53333333333333  0.000217086412234647 
 4.66666666666667  0.000206469229261447 
 4.80000000000000  0.000196578854037330 
 4.93333333333333  0.000187353750847127 
 5.06666666666667  0.000178738372021060 
 5.20000000000000  0.000170682527034833 
 5.33333333333333  0.000163140818600476 
 5.46666666666667  0.000156072139584011 
 5.60000000000000  0.000149439224761374 
 5.73333333333333  0.000143208251751863 
 5.86666666666667  0.000137348485878542 
 6.00000000000000  0.000131831964151022 
 6.13333333333333  0.000126633214017573 
 6.26666666666667  0.000121729002971684 
 6.40000000000000  0.000117098115511717 
 6.53333333333333  0.000112721154335221 
 6.66666666666667  0.000108580362999151 
 6.80000000000000  0.000104659467593413 
 6.93333333333333  0.000100943535258825 
 7.06666666666667  9.74188476337189e-05 
 7.20000000000000  9.40727875382002e-05 
 7.33333333333333  9.08937374041878e-05 
 7.46666666666667  8.78709881351834e-05 
 7.60000000000000  8.49946572347339e-05 
 7.73333333333333  8.22556151790591e-05 
 7.86666666666667  7.96454191293974e-05 
 8.00000000000000  7.71562531852013e-05 
 8.13333333333333  7.47808744721339e-05 
 8.26666666666667  7.25125644403875e-05 
 8.40000000000000  7.03450848205666e-05 
 8.53333333333333  6.82726377474444e-05 
 8.66666666666667  6.62898296173832e-05 
 8.80000000000000  6.43916382940489e-05 
 8.93333333333333  6.25733833200668e-05 
 9.06666666666667  6.08306988301811e-05 
 9.20000000000000  5.91595088949228e-05 
 9.33333333333333  5.75560050533222e-05 
 9.46666666666667  5.60166258192811e-05 
 9.60000000000000  5.45380379693001e-05 
 9.73333333333333  5.31171194396712e-05 
 9.86666666666667  5.17509436793429e-05 
 10.0000000000000  5.04367653207127e-05 
 10.1333333333333  4.91720070448453e-05 
 10.2666666666667  4.79542475302743e-05 
 10.4000000000000  4.67812103858041e-05 
 10.5333333333333  4.56507539777559e-05 
 10.6666666666667  4.45608620710325e-05 
 10.8000000000000  4.35096352113531e-05 
 10.9333333333333  4.24952827831218e-05 
 11.0666666666667  4.15161156837638e-05 
 11.2000000000000  4.05705395610507e-05 
 11.3333333333333  3.96570485650407e-05 
 11.4666666666667  3.87742195708295e-05 
 11.6000000000000  3.79207068324121e-05 
 11.7333333333333  3.70952370316397e-05 
 11.8666666666667  3.62966046895739e-05 
 12.0000000000000  3.55236679105163e-05 
 12.1333333333333  3.47753444316852e-05 
 12.2666666666667  3.40506079539287e-05 
 12.4000000000000  3.33484847310507e-05 
 12.5333333333333  3.26680503973022e-05 
 12.6666666666667  3.20084270143729e-05 
 12.8000000000000  3.13687803208365e-05 
 12.9333333333333  3.07483171684623e-05 
 13.0666666666667  3.01462831311349e-05 
 13.2000000000000  2.95619602733242e-05 
 13.3333333333333  2.89946650661421e-05 
 13.4666666666667  2.84437464400130e-05 
 13.6000000000000  2.79085839638881e-05 
 13.7333333333333  2.73885861417559e-05 
 13.8666666666667  2.68831888179481e-05 
 14.0000000000000  2.63918536834228e-05 
 14.1333333333333  2.59140668758295e-05 
 14.2666666666667  2.54493376667273e-05 
 14.4000000000000  2.49971972298478e-05 
 14.5333333333333  2.45571974847686e-05 
 14.6666666666667  2.41289100107960e-05 
 14.8000000000000  2.37119250262562e-05 
 14.9333333333333  2.33058504287545e-05 
 15.0666666666667  2.29103108923005e-05 
 15.2000000000000  2.25249470174985e-05 
 15.3333333333333  2.21494145312908e-05 
 15.4666666666667  2.17833835329915e-05 
 15.6000000000000  2.14265377835948e-05 
 15.7333333333333  2.10785740355534e-05 
 15.8666666666667  2.07392014004291e-05 
 16.0000000000000  2.04081407519996e-05 
 16.1333333333333  2.00851241625792e-05 
 16.2666666666667  1.97698943704665e-05 
 16.4000000000000  1.94622042765792e-05 
 16.5333333333333  1.91618164684704e-05 
 16.6666666666667  1.88685027700442e-05 
 16.8000000000000  1.85820438154038e-05 
 16.9333333333333  1.83022286453711e-05 
 17.0666666666667  1.80288543253165e-05 
 17.2000000000000  1.77617255830252e-05 
 17.3333333333333  1.75006544654158e-05 
 17.4666666666667  1.72454600130002e-05 
 17.6000000000000  1.69959679510493e-05 
 17.7333333333333  1.67520103964957e-05 
 17.8666666666667  1.65134255796667e-05 
 18.0000000000000  1.62800575799992e-05 
 18.1333333333333  1.60517560749429e-05 
 18.2666666666667  1.58283761013062e-05 
 18.4000000000000  1.56097778283495e-05 
 18.5333333333333  1.53958263419697e-05 
 18.6666666666667  1.51863914393647e-05 
 18.8000000000000  1.49813474336010e-05 
 18.9333333333333  1.47805729675445e-05 
 19.0666666666667  1.45839508366466e-05 
 19.2000000000000  1.43913678201093e-05 
 19.3333333333333  1.42027145199807e-05 
 19.4666666666667  1.40178852077590e-05 
 19.6000000000000  1.38367776781089e-05 
 19.7333333333333  1.36592931093170e-05 
 19.8666666666667  1.34853359301344e-05 
 20.0000000000000  1.33148136926766e-05 
