-100.000000000000  1.92775161581227e-06 
-99.8000000000000  1.91973477219828e-06 
-99.6000000000000  1.91208846694216e-06 
-99.4000000000000  1.90479480409842e-06 
-99.2000000000000  1.89783712890990e-06 
-99.0000000000000  1.89119992819781e-06 
-98.8000000000000  1.88486873994610e-06 
-98.6000000000000  1.87883007113223e-06 
-98.4000000000000  1.87307132296441e-06 
-98.2000000000000  1.86758072277952e-06 
-98.0000000000000  1.86234726193842e-06 
-97.8000000000000  1.85736063912863e-06 
-97.6000000000000  1.85261120854798e-06 
-97.4000000000000  1.84808993249974e-06 
-97.2000000000000  1.84378833797931e-06 
-97.0000000000000  1.83969847687693e-06 
-96.8000000000000  1.83581288945991e-06 
-96.6000000000000  1.83212457083235e-06 
-96.4000000000000  1.82862694010136e-06 
-96.2000000000000  1.82531381200586e-06 
-96.0000000000000  1.82217937078861e-06 
-95.8000000000000  1.81921814611358e-06 
-95.6000000000000  1.81642499085033e-06 
-95.4000000000000  1.81379506056423e-06 
-95.2000000000000  1.81132379456674e-06 
-95.0000000000000  1.80900689839404e-06 
-94.8000000000000  1.80684032759448e-06 
-94.6000000000000  1.80482027271644e-06 
-94.4000000000000  1.80294314539849e-06 
-94.2000000000000  1.80120556547229e-06 
-94.0000000000000  1.79960434899713e-06 
-93.8000000000000  1.79813649715207e-06 
-93.6000000000000  1.79679918591838e-06 
-93.4000000000000  1.79558975649083e-06 
-93.2000000000000  1.79450570636167e-06 
-93.0000000000000  1.79354468102629e-06 
-92.8000000000000  1.79270446626359e-06 
-92.6000000000000  1.79198298094825e-06 
-92.4000000000000  1.79137827035587e-06 
-92.2000000000000  1.79088849992485e-06 
-92.0000000000000  1.79051194944224e-06 
-91.8000000000000  1.79024700762329e-06 
-91.6000000000000  1.79009216705699e-06 
-91.4000000000000  1.79004601949215e-06 
-91.2000000000000  1.79010725144057e-06 
-91.0000000000000  1.79027464007575e-06 
-90.8000000000000  1.79054704940746e-06 
-90.6000000000000  1.79092342671367e-06 
-90.4000000000000  1.79140279921340e-06 
-90.2000000000000  1.79198427096458e-06 
-90.0000000000000  1.79266701997306e-06 
-89.8000000000000  1.79345029549928e-06 
-89.6000000000000  1.79433341555066e-06 
-89.4000000000000  1.79531576454841e-06 
-89.2000000000000  1.79639679115842e-06 
-89.0000000000000  1.79757600627678e-06 
-88.8000000000000  1.79885298116093e-06 
-88.6000000000000  1.80022734569857e-06 
-88.4000000000000  1.80169878680651e-06 
-88.2000000000000  1.80326704695289e-06 
-88.0000000000000  1.80493192279600e-06 
-87.8000000000000  1.80669326393412e-06 
-87.6000000000000  1.80855097176086e-06 
-87.4000000000000  1.81050499842084e-06 
-87.2000000000000  1.81255534586136e-06 
-87.0000000000000  1.81470206497569e-06 
-86.8000000000000  1.81694525483414e-06 
-86.6000000000000  1.81928506199932e-06 
-86.4000000000000  1.82172167992243e-06 
-86.2000000000000  1.82425534841756e-06 
-86.0000000000000  1.82688635321126e-06 
-85.8000000000000  1.82961502556515e-06 
-85.6000000000000  1.83244174196907e-06 
-85.4000000000000  1.83536692390309e-06 
-85.2000000000000  1.83839103766646e-06 
-85.0000000000000  1.84151459427197e-06 
-84.8000000000000  1.84473814940446e-06 
-84.6000000000000  1.84806230344218e-06 
-84.4000000000000  1.85148770154015e-06 
-84.2000000000000  1.85501503377457e-06 
-84.0000000000000  1.85864503534780e-06 
-83.8000000000000  1.86237848685322e-06 
-83.6000000000000  1.86621621459988e-06 
-83.4000000000000  1.87015909099652e-06 
-83.2000000000000  1.87420803499512e-06 
-83.0000000000000  1.87836401259409e-06 
-82.8000000000000  1.88262803740124e-06 
-82.6000000000000  1.88700117125707e-06 
-82.4000000000000  1.89148452491892e-06 
-82.2000000000000  1.89607925880668e-06 
-82.0000000000000  1.90078658381083e-06 
-81.8000000000000  1.90560776216398e-06 
-81.6000000000000  1.91054410837687e-06 
-81.4000000000000  1.91559699024024e-06 
-81.2000000000000  1.92076782989398e-06 
-81.0000000000000  1.92605810496510e-06 
-80.8000000000000  1.93146934977644e-06 
-80.6000000000000  1.93700315662783e-06 
-80.4000000000000  1.94266117715196e-06 
-80.2000000000000  1.94844512374709e-06 
-80.0000000000000  1.95435677108919e-06 
-79.8000000000000  1.96039795772599e-06 
-79.6000000000000  1.96657058775582e-06 
-79.4000000000000  1.97287663259431e-06 
-79.2000000000000  1.97931813283209e-06 
-79.0000000000000  1.98589720018702e-06 
-78.8000000000000  1.99261601955457e-06 
-78.6000000000000  1.99947685116033e-06 
-78.4000000000000  2.00648203281879e-06 
-78.2000000000000  2.01363398230283e-06 
-78.0000000000000  2.02093519982870e-06 
-77.8000000000000  2.02838827066144e-06 
-77.6000000000000  2.03599586784608e-06 
-77.4000000000000  2.04376075507037e-06 
-77.2000000000000  2.05168578966497e-06 
-77.0000000000000  2.05977392574749e-06 
-76.8000000000000  2.06802821751717e-06 
-76.6000000000000  2.07645182270741e-06 
-76.4000000000000  2.08504800620377e-06 
-76.2000000000000  2.09382014383553e-06 
-76.0000000000000  2.10277172634934e-06 
-75.8000000000000  2.11190636357427e-06 
-75.6000000000000  2.12122778878771e-06 
-75.4000000000000  2.13073986329260e-06 
-75.2000000000000  2.14044658121681e-06 
-75.0000000000000  2.15035207454623e-06 
-74.8000000000000  2.16046061840410e-06 
-74.6000000000000  2.17077663658935e-06 
-74.4000000000000  2.18130470738823e-06 
-74.2000000000000  2.19204956967374e-06 
-74.0000000000000  2.20301612930879e-06 
-73.8000000000000  2.21420946586974e-06 
-73.6000000000000  2.22563483970826e-06 
-73.4000000000000  2.23729769937031e-06 
-73.2000000000000  2.24920368939271e-06 
-73.0000000000000  2.26135865849855e-06 
-72.8000000000000  2.27376866821476e-06 
-72.6000000000000  2.28644000193590e-06 
-72.4000000000000  2.29937917446067e-06 
-72.2000000000000  2.31259294202882e-06 
-72.0000000000000  2.32608831288819e-06 
-71.8000000000000  2.33987255842379e-06 
-71.6000000000000  2.35395322488281e-06 
-71.4000000000000  2.36833814573186e-06 
-71.2000000000000  2.38303545468529e-06 
-71.0000000000000  2.39805359944616e-06 
-70.8000000000000  2.41340135620434e-06 
-70.6000000000000  2.42908784493936e-06 
-70.4000000000000  2.44512254557917e-06 
-70.2000000000000  2.46151531506938e-06 
-70.0000000000000  2.47827640541192e-06 
-69.8000000000000  2.49541648273607e-06 
-69.6000000000000  2.51294664746945e-06 
-69.4000000000000  2.53087845568194e-06 
-69.2000000000000  2.54922394168055e-06 
-69.0000000000000  2.56799564193935e-06 
-68.8000000000000  2.58720662045515e-06 
-68.6000000000000  2.60687049562626e-06 
-68.4000000000000  2.62700146875950e-06 
-68.2000000000000  2.64761435431864e-06 
-68.0000000000000  2.66872461203660e-06 
-67.8000000000000  2.69034838102320e-06 
-67.6000000000000  2.71250251601112e-06 
-67.4000000000000  2.73520462589393e-06 
-67.2000000000000  2.75847311472306e-06 
-67.0000000000000  2.78232722534375e-06 
-66.8000000000000  2.80678708586560e-06 
-66.6000000000000  2.83187375917911e-06 
-66.4000000000000  2.85760929574815e-06 
-66.2000000000000  2.88401678992719e-06 
-66.0000000000000  2.91112044007420e-06 
-65.8000000000000  2.93894561275337e-06 
-65.6000000000000  2.96751891134755e-06 
-65.4000000000000  2.99686824942881e-06 
-65.2000000000000  3.02702292926665e-06 
-65.0000000000000  3.05801372588756e-06 
-64.8000000000000  3.08987297713748e-06 
-64.6000000000000  3.12263468023995e-06 
-64.4000000000000  3.15633459538914e-06 
-64.2000000000000  3.19101035696693e-06 
-64.0000000000000  3.22670159302936e-06 
-63.8000000000000  3.26345005376974e-06 
-63.6000000000000  3.30129974973372e-06 
-63.4000000000000  3.34029710063779e-06 
-63.2000000000000  3.38049109572662e-06 
-63.0000000000000  3.42193346669781e-06 
-62.8000000000000  3.46467887432674e-06 
-62.6000000000000  3.50878511003940e-06 
-62.4000000000000  3.55431331380949e-06 
-62.2000000000000  3.60132820989983e-06 
-62.0000000000000  3.64989836212784e-06 
-61.8000000000000  3.70009645051360e-06 
-61.6000000000000  3.75199957136925e-06 
-61.4000000000000  3.80568956311238e-06 
-61.2000000000000  3.86125336033746e-06 
-61.0000000000000  3.91878337896127e-06 
-60.8000000000000  3.97837793557570e-06 
-60.6000000000000  4.04014170449796e-06 
-60.4000000000000  4.10418621641082e-06 
-60.2000000000000  4.17063040293933e-06 
-60.0000000000000  4.23960119202347e-06 
-59.8000000000000  4.31123415952678e-06 
-59.6000000000000  4.38567424317869e-06 
-59.4000000000000  4.46307652569427e-06 
-59.2000000000000  4.54360709476351e-06 
-59.0000000000000  4.62744398856669e-06 
-58.8000000000000  4.71477823657204e-06 
-58.6000000000000  4.80581500662655e-06 
-58.4000000000000  4.90077487078515e-06 
-58.2000000000000  4.99989520396489e-06 
-58.0000000000000  5.10343173139304e-06 
-57.8000000000000  5.21166024297939e-06 
-57.6000000000000  5.32487849522836e-06 
-57.4000000000000  5.44340832417056e-06 
-57.2000000000000  5.56759799609656e-06 
-57.0000000000000  5.69782482669450e-06 
-56.8000000000000  5.83449810361323e-06 
-56.6000000000000  5.97806235259766e-06 
-56.4000000000000  6.12900099329572e-06 
-56.2000000000000  6.28784043776134e-06 
-56.0000000000000  6.45515469274663e-06 
-55.8000000000000  6.63157053629458e-06 
-55.6000000000000  6.81777335015191e-06 
-55.4000000000000  7.01451370241138e-06 
-55.2000000000000  7.22261478990483e-06 
-55.0000000000000  7.44298086761324e-06 
-54.8000000000000  7.67660681322322e-06 
-54.6000000000000  7.92458899951774e-06 
-54.4000000000000  8.18813767622800e-06 
-54.2000000000000  8.46859109710303e-06 
-54.0000000000000  8.76743166822868e-06 
-53.8000000000000  9.08630444116925e-06 
-53.6000000000000  9.42703833061581e-06 
-53.4000000000000  9.79167050241010e-06 
-53.2000000000000  1.01824744557784e-05 
-53.0000000000000  1.06019924152558e-05 
-52.8000000000000  1.10530727551538e-05 
-52.6000000000000  1.15389133046236e-05 
-52.4000000000000  1.20631115263313e-05 
-52.2000000000000  1.26297227279885e-05 
-52.0000000000000  1.32433276538617e-05 
-51.8000000000000  1.39091110113761e-05 
-51.6000000000000  1.46329527108973e-05 
-51.4000000000000  1.54215338236594e-05 
-51.2000000000000  1.62824594726520e-05 
-51.0000000000000  1.72244010272081e-05 
-50.8000000000000  1.82572600117531e-05 
-50.6000000000000  1.93923559603372e-05 
-50.4000000000000  2.06426398863374e-05 
-50.2000000000000  2.20229338296997e-05 
-50.0000000000000  2.35501946833884e-05 
-49.8000000000000  2.52437965549647e-05 
-49.6000000000000  2.71258193275137e-05 
-49.4000000000000  2.92213204092561e-05 
-49.2000000000000  3.15585498026766e-05 
-49.0000000000000  3.41690426118961e-05 
-48.8000000000000  3.70874839502973e-05 
-48.6000000000000  4.03511839916019e-05 
-48.4000000000000  4.39989205515056e-05 
-48.2000000000000  4.80688001609824e-05 
-48.0000000000000  5.25946606771861e-05 
-47.8000000000000  5.76004119622009e-05 
-47.6000000000000  6.30916460466977e-05 
-47.4000000000000  6.90439684528941e-05 
-47.2000000000000  7.53880205816068e-05 
-47.0000000000000  8.19923675924730e-05 
-46.8000000000000  8.86475540087681e-05 
-46.6000000000000  9.50575242122464e-05 
-46.4000000000000  0.000100847164352669 
-46.2000000000000  0.000105594527576458 
-46.0000000000000  0.000108890419375376 
-45.8000000000000  0.000110415794930567 
-45.6000000000000  0.000110013885734715 
-45.4000000000000  0.000107729130266815 
-45.2000000000000  0.000103795912902476 
-45.0000000000000  9.85821507157289e-05 
-44.8000000000000  9.25114159306996e-05 
-44.6000000000000  8.59911395434688e-05 
-44.4000000000000  7.93645428710346e-05 
-44.2000000000000  7.28899375303933e-05 
-44.0000000000000  6.67413291296690e-05 
-43.8000000000000  6.10211411913740e-05 
-43.6000000000000  5.57772449830224e-05 
-43.4000000000000  5.10194045707495e-05 
-43.2000000000000  4.67328748675774e-05 
-43.0000000000000  4.28886033981684e-05 
-42.8000000000000  3.94503566094934e-05 
-42.6000000000000  3.63794052790984e-05 
-42.4000000000000  3.36374230248541e-05 
-42.2000000000000  3.11881494373237e-05 
-42.0000000000000  2.89982375953953e-05 
-41.8000000000000  2.70375857218486e-05 
-41.6000000000000  2.52793576592604e-05 
-41.4000000000000  2.36998270807994e-05 
-41.2000000000000  2.22781316009076e-05 
-41.0000000000000  2.09959900451507e-05 
-40.8000000000000  1.98374145197837e-05 
-40.6000000000000  1.87884350505356e-05 
-40.4000000000000  1.78368458680637e-05 
-40.2000000000000  1.69719771164430e-05 
-40.0000000000000  1.61844926408029e-05 
-39.8000000000000  1.54662127682112e-05 
-39.6000000000000  1.48099601082063e-05 
-39.4000000000000  1.42094260285997e-05 
-39.2000000000000  1.36590553938718e-05 
-39.0000000000000  1.31539472532868e-05 
-38.8000000000000  1.26897693509800e-05 
-38.6000000000000  1.22626845508790e-05 
-38.4000000000000  1.18692874963688e-05 
-38.2000000000000  1.15065500420068e-05 
-38.0000000000000  1.11717741942358e-05 
-37.8000000000000  1.08625514765810e-05 
-37.6000000000000  1.05767277916929e-05 
-37.4000000000000  1.03123729887755e-05 
-37.2000000000000  1.00677544621595e-05 
-37.0000000000000  9.84131420707476e-06 
-36.8000000000000  9.63164884415484e-06 
-36.6000000000000  9.43749219684015e-06 
-36.4000000000000  9.25770006747089e-06 
-36.2000000000000  9.09123691008552e-06 
-36.0000000000000  8.93716414218559e-06 
-35.8000000000000  8.79462987521306e-06 
-35.6000000000000  8.66285987525991e-06 
-35.4000000000000  8.54114959248005e-06 
-35.2000000000000  8.42885712055420e-06 
-35.0000000000000  8.32539696700722e-06 
-34.8000000000000  8.23023453172738e-06 
-34.6000000000000  8.14288120514169e-06 
-34.4000000000000  8.06289000953877e-06 
-34.2000000000000  7.98985171731880e-06 
-34.0000000000000  7.92339138875800e-06 
-33.8000000000000  7.86316527942702e-06 
-33.6000000000000  7.80885807388859e-06 
-33.4000000000000  7.76018040787954e-06 
-33.2000000000000  7.71686664599028e-06 
-33.0000000000000  7.67867288600466e-06 
-32.8000000000000  7.64537516465091e-06 
-32.6000000000000  7.61676784262154e-06 
-32.4000000000000  7.59266214941548e-06 
-32.2000000000000  7.57288487089704e-06 
-32.0000000000000  7.55727716450500e-06 
-31.8000000000000  7.54569348882133e-06 
-31.6000000000000  7.53800063576050e-06 
-31.4000000000000  7.53407685499713e-06 
-31.2000000000000  7.53381106143798e-06 
-31.0000000000000  7.53710211758712e-06 
-30.8000000000000  7.54385818356942e-06 
-30.6000000000000  7.55399612838416e-06 
-30.4000000000000  7.56744099667150e-06 
-30.2000000000000  7.58412552590290e-06 
-30.0000000000000  7.60398970946161e-06 
-29.8000000000000  7.62698040157202e-06 
-29.6000000000000  7.65305096047321e-06 
-29.4000000000000  7.68216092662078e-06 
-29.2000000000000  7.71427573304683e-06 
-29.0000000000000  7.74936644531703e-06 
-28.8000000000000  7.78740952879982e-06 
-28.6000000000000  7.82838664121048e-06 
-28.4000000000000  7.87228444861499e-06 
-28.2000000000000  7.91909446327911e-06 
-28.0000000000000  7.96881290192875e-06 
-27.8000000000000  8.02144056315133e-06 
-27.6000000000000  8.07698272281690e-06 
-27.4000000000000  8.13544904653272e-06 
-27.2000000000000  8.19685351826953e-06 
-27.0000000000000  8.26121438441121e-06 
-26.8000000000000  8.32855411258478e-06 
-26.6000000000000  8.39889936472507e-06 
-26.4000000000000  8.47228098391904e-06 
-26.2000000000000  8.54873399466018e-06 
-26.0000000000000  8.62829761622346e-06 
-25.8000000000000  8.71101528894767e-06 
-25.6000000000000  8.79693471328522e-06 
-25.4000000000000  8.88610790154951e-06 
-25.2000000000000  8.97859124235843e-06 
-25.0000000000000  9.07444557783985e-06 
-24.8000000000000  9.17373629373029e-06 
-24.6000000000000  9.27653342256450e-06 
-24.4000000000000  9.38291176021900e-06 
-24.2000000000000  9.49295099613982e-06 
-24.0000000000000  9.60673585765230e-06 
-23.8000000000000  9.72435626882036e-06 
-23.6000000000000  9.84590752439520e-06 
-23.4000000000000  9.97149047946755e-06 
-23.2000000000000  1.01012117555162e-05 
-23.0000000000000  1.02351839636274e-05 
-22.8000000000000  1.03735259457473e-05 
-22.6000000000000  1.05163630349204e-05 
-22.4000000000000  1.06638273355660e-05 
-22.2000000000000  1.08160580249497e-05 
-22.0000000000000  1.09732016771183e-05 
-21.8000000000000  1.11354126106882e-05 
-21.6000000000000  1.13028532620078e-05 
-21.4000000000000  1.14756945853542e-05 
-21.2000000000000  1.16541164819784e-05 
-21.0000000000000  1.18383082599790e-05 
-20.8000000000000  1.20284691271617e-05 
-20.6000000000000  1.22248087192417e-05 
-20.4000000000000  1.24275476659585e-05 
-20.2000000000000  1.26369181979035e-05 
-20.0000000000000  1.28531647971226e-05 
-19.8000000000000  1.30765448948287e-05 
-19.6000000000000  1.33073296198710e-05 
-19.4000000000000  1.35458046019437e-05 
-19.2000000000000  1.37922708338847e-05 
-19.0000000000000  1.40470455978267e-05 
-18.8000000000000  1.43104634604081e-05 
-18.6000000000000  1.45828773427480e-05 
-18.4000000000000  1.48646596714374e-05 
-18.2000000000000  1.51562036173986e-05 
-18.0000000000000  1.54579244301401e-05 
-17.8000000000000  1.57702608756659e-05 
-17.6000000000000  1.60936767871263e-05 
-17.4000000000000  1.64286627382046e-05 
-17.2000000000000  1.67757378502461e-05 
-17.0000000000000  1.71354517452629e-05 
-16.8000000000000  1.75083866582018e-05 
-16.6000000000000  1.78951597232594e-05 
-16.4000000000000  1.82964254505887e-05 
-16.2000000000000  1.87128784114863e-05 
-16.0000000000000  1.91452561520971e-05 
-15.8000000000000  1.95943423578586e-05 
-15.6000000000000  2.00609702933576e-05 
-15.4000000000000  2.05460265450195e-05 
-15.2000000000000  2.10504550971439e-05 
-15.0000000000000  2.15752617752793e-05 
-14.8000000000000  2.21215190948506e-05 
-14.6000000000000  2.26903715573799e-05 
-14.4000000000000  2.32830414416421e-05 
-14.2000000000000  2.39008351427544e-05 
-14.0000000000000  2.45451501186118e-05 
-13.8000000000000  2.52174825103569e-05 
-13.6000000000000  2.59194355118379e-05 
-13.4000000000000  2.66527285724174e-05 
-13.2000000000000  2.74192075282154e-05 
-13.0000000000000  2.82208557691059e-05 
-12.8000000000000  2.90598065627721e-05 
-12.6000000000000  2.99383566731353e-05 
-12.4000000000000  3.08589814288339e-05 
-12.2000000000000  3.18243514185056e-05 
-12.0000000000000  3.28373510138783e-05 
-11.8000000000000  3.39010989496070e-05 
-11.6000000000000  3.50189712210328e-05 
-11.4000000000000  3.61946265982962e-05 
-11.2000000000000  3.74320350983745e-05 
-11.0000000000000  3.87355098066330e-05 
-10.8000000000000  4.01097424975863e-05 
-10.6000000000000  4.15598435721668e-05 
-10.4000000000000  4.30913869075852e-05 
-10.2000000000000  4.47104603078316e-05 
-10.0000000000000  4.64237223503871e-05 
-9.80000000000000  4.82384665506222e-05 
-9.59999999999999  5.01626939130094e-05 
-9.39999999999999  5.22051951116853e-05 
-9.19999999999999  5.43756437468178e-05 
-9.00000000000000  5.66847023633336e-05 
-8.80000000000000  5.91441432015641e-05 
-8.59999999999999  6.17669859832196e-05 
-8.39999999999999  6.45676554302016e-05 
-8.19999999999999  6.75621616791227e-05 
-8.00000000000000  7.07683073038604e-05 
-7.80000000000000  7.42059253068801e-05 
-7.59999999999999  7.78971532042444e-05 
-7.39999999999999  8.18667492280606e-05 
-7.19999999999999  8.61424577238996e-05 
-7.00000000000000  9.07554320504204e-05 
-6.80000000000000  9.57407247137710e-05 
-6.59999999999999  0.000101137856105576 
-6.39999999999999  0.000106991475065806 
-6.19999999999999  0.000113352126546724 
-6.00000000000000  0.000120277143863847 
-5.80000000000000  0.000127831685278886 
-5.59999999999999  0.000136089936767480 
-5.39999999999999  0.000145136504425763 
-5.19999999999999  0.000155068020462582 
-5.00000000000000  0.000165994985116769 
-4.80000000000000  0.000178043861530849 
-4.59999999999999  0.000191359429061247 
-4.39999999999999  0.000206107378725895 
-4.19999999999999  0.000222477096320636 
-4.00000000000000  0.000240684514780138 
-3.80000000000000  0.000260974813538368 
-3.59999999999999  0.000283624578337969 
-3.39999999999999  0.000308942780916818 
-3.19999999999999  0.000337269554849739 
-3.00000000000000  0.000368971182729309 
-2.80000000000000  0.000404428919929990 
-2.59999999999999  0.000444018230689946 
-2.39999999999999  0.000488073745031187 
-2.19999999999999  0.000536833980568888 
-2.00000000000000  0.000590359196357351 
-1.80000000000000  0.000648416873243222 
-1.59999999999999  0.000710334346002526 
-1.39999999999999  0.000774829915287661 
-1.19999999999999  0.000839854742429290 
-1.00000000000000  0.000902506534457659 
-0.799999999999997  0.000959101650762603 
-0.599999999999994  0.00100549084595398 
-0.399999999999991  0.00103764605057506 
-0.199999999999989  0.00105242450422332 
 0.00000000000000  0.00104828186915572 
 0.200000000000003  0.00102565729287326 
 0.400000000000006  0.000986861669211469 
 0.600000000000009  0.000935519294194160 
 0.800000000000011  0.000875798200605013 
 1.00000000000000  0.000811702152078379 
 1.20000000000000  0.000746598359834643 
 1.40000000000001  0.000683015879835817 
 1.60000000000001  0.000622653839105710 
 1.80000000000001  0.000566508352935353 
 2.00000000000000  0.000515041010938379 
 2.20000000000000  0.000468340932106805 
 2.40000000000001  0.000426258375058631 
 2.60000000000001  0.000388504724613185 
 2.80000000000001  0.000354722166473378 
 3.00000000000000  0.000324529379241407 
 3.20000000000000  0.000297549714805899 
 3.40000000000001  0.000273427300572201 
 3.60000000000001  0.000251835186260699 
 3.80000000000001  0.000232478471995246 
 4.00000000000000  0.000215094418437689 
 4.20000000000000  0.000199450854894293 
 4.40000000000001  0.000185343723918179 
 4.60000000000001  0.000172594279367037 
 4.80000000000001  0.000161046244035229 
 5.00000000000000  0.000150563097977145 
 5.20000000000000  0.000141025584231091 
 5.40000000000001  0.000132329467311000 
 5.60000000000001  0.000124383549716831 
 5.80000000000001  0.000117107934985653 
 6.00000000000000  0.000110432517356071 
 6.20000000000000  0.000104295674665294 
 6.40000000000001  9.86431405574467e-05 
 6.60000000000001  9.34270331506778e-05 
 6.80000000000001  8.86050191887509e-05 
 7.00000000000000  8.41395949091379e-05 
 7.20000000000000  7.99974671152770e-05 
 7.40000000000001  7.61490200920217e-05 
 7.60000000000001  7.25678559737648e-05 
 7.80000000000001  6.92303979336173e-05 
 8.00000000000000  6.61155471052827e-05 
 8.20000000000000  6.32043854874277e-05 
 8.40000000000001  6.04799182311290e-05 
 8.60000000000001  5.79268496949065e-05 
 8.80000000000001  5.55313884898140e-05 
 9.00000000000000  5.32810774487824e-05 
 9.20000000000000  5.11646450579106e-05 
 9.40000000000001  4.91718753986648e-05 
 9.60000000000001  4.72934940829126e-05 
 9.80000000000001  4.55210680294373e-05 
 10.0000000000000  4.38469172413130e-05 
 10.2000000000000  4.22640370070243e-05 
 10.4000000000000  4.07660291718914e-05 
 10.6000000000000  3.93470413164280e-05 
 10.8000000000000  3.80017128400017e-05 
 11.0000000000000  3.67251270859747e-05 
 11.2000000000000  3.55127687621097e-05 
 11.4000000000000  3.43604860105439e-05 
 11.6000000000000  3.32644565676816e-05 
 11.8000000000000  3.22211575281517e-05 
 12.0000000000000  3.12273382903543e-05 
 12.2000000000000  3.02799963156649e-05 
 12.4000000000000  2.93763553803729e-05 
 12.6000000000000  2.85138460400263e-05 
 12.8000000000000  2.76900880609645e-05 
 13.0000000000000  2.69028746042546e-05 
 13.2000000000000  2.61501579736451e-05 
 13.4000000000000  2.54300367621164e-05 
 13.6000000000000  2.47407442515863e-05 
 13.8000000000000  2.40806379377416e-05 
 14.0000000000000  2.34481900671431e-05 
 14.2000000000000  2.28419790869714e-05 
 14.4000000000000  2.22606819192641e-05 
 14.6000000000000  2.17030669814264e-05 
 14.8000000000000  2.11679878832902e-05 
 15.0000000000000  2.06543777381427e-05 
 15.2000000000000  2.01612440309502e-05 
 15.4000000000000  1.96876639914405e-05 
 15.6000000000000  1.92327804226570e-05 
 15.8000000000000  1.87957979368657e-05 
 16.0000000000000  1.83759795499745e-05 
 16.2000000000000  1.79726435824803e-05 
 16.4000000000000  1.75851608088050e-05 
 16.6000000000000  1.72129517869479e-05 
 16.8000000000000  1.68554842857013e-05 
 17.0000000000000  1.65122707060959e-05 
 17.2000000000000  1.61828653659455e-05 
 17.4000000000000  1.58668614800415e-05 
 17.6000000000000  1.55638876226337e-05 
 17.8000000000000  1.52736034030513e-05 
 18.0000000000000  1.49956940210191e-05 
 18.2000000000000  1.47298632998191e-05 
 18.4000000000000  1.44758247323952e-05 
 18.6000000000000  1.42332900350644e-05 
 18.8000000000000  1.40019547138327e-05 
 19.0000000000000  1.37814802510605e-05 
 19.2000000000000  1.35714727705400e-05 
 19.4000000000000  1.33714584995215e-05 
 19.6000000000000  1.31808570698646e-05 
 19.8000000000000  1.29989546981878e-05 
 20.0000000000000  1.28248804780039e-05 
 20.2000000000000  1.26575901876509e-05 
 20.4000000000000  1.24958627901335e-05 
 20.6000000000000  1.23383146980282e-05 
 20.8000000000000  1.21834354912533e-05 
 21.0000000000000  1.20296460219750e-05 
 21.2000000000000  1.18753761527246e-05 
 21.4000000000000  1.17191556539404e-05 
 21.6000000000000  1.15597090258039e-05 
 21.8000000000000  1.13960437679737e-05 
 22.0000000000000  1.12275218064487e-05 
 22.2000000000000  1.10539049790353e-05 
 22.4000000000000  1.08753675411381e-05 
 22.6000000000000  1.06924719484914e-05 
 22.8000000000000  1.05061090416961e-05 
 23.0000000000000  1.03174096643187e-05 
 23.2000000000000  1.01276400393184e-05 
 23.4000000000000  9.93809591800952e-06 
 23.6000000000000  9.75000951063448e-06 
 23.8000000000000  9.56447899402177e-06 
 24.0000000000000  9.38242467536805e-06 
 24.2000000000000  9.20457060165903e-06 
 24.4000000000000  9.03144682407850e-06 
 24.6000000000000  8.86340599620242e-06 
 24.8000000000000  8.70064812486848e-06 
 25.0000000000000  8.54324842446243e-06 
 25.2000000000000  8.39118471168068e-06 
 25.4000000000000  8.24436218586045e-06 
 25.6000000000000  8.10263455685440e-06 
 25.8000000000000  7.96582125718214e-06 
 26.0000000000000  7.83372094703785e-06 
 26.2000000000000  7.70612176335922e-06 
 26.4000000000000  7.58280885257299e-06 
 26.6000000000000  7.46356972223492e-06 
 26.8000000000000  7.34819789372283e-06 
 27.0000000000000  7.23649526513911e-06 
 27.2000000000000  7.12827351760169e-06 
 27.4000000000000  7.02335482807464e-06 
 27.6000000000000  6.92157209165748e-06 
 27.8000000000000  6.82276880672608e-06 
 28.0000000000000  6.72679873686397e-06 
 28.2000000000000  6.63352543282840e-06 
 28.4000000000000  6.54282167435552e-06 
 28.6000000000000  6.45456887398064e-06 
 28.8000000000000  6.36865647196835e-06 
 29.0000000000000  6.28498134185802e-06 
 29.2000000000000  6.20344721918621e-06 
 29.4000000000000  6.12396416098387e-06 
 29.6000000000000  6.04644804014825e-06 
 29.8000000000000  5.97082007636956e-06 
 30.0000000000000  5.89700640365443e-06 
 30.2000000000000  5.82493767341585e-06 
 30.4000000000000  5.75454869142926e-06 
 30.6000000000000  5.68577808656785e-06 
 30.8000000000000  5.61856800904164e-06 
 31.0000000000000  5.55286385581003e-06 
 31.2000000000000  5.48861402087184e-06 
 31.4000000000000  5.42576966822880e-06 
 31.6000000000000  5.36428452544352e-06 
 31.8000000000000  5.30411469585739e-06 
 32.0000000000000  5.24521848768500e-06 
 32.2000000000000  5.18755625835336e-06 
 32.4000000000000  5.13109027260118e-06 
 32.6000000000000  5.07578457299301e-06 
 32.8000000000000  5.02160486163314e-06 
 33.0000000000000  4.96851839198501e-06 
 33.2000000000000  4.91649386981149e-06 
 33.4000000000000  4.86550136235223e-06 
 33.6000000000000  4.81551221494476e-06 
 33.8000000000000  4.76649897437777e-06 
 34.0000000000000  4.71843531833884e-06 
 34.2000000000000  4.67129599038460e-06 
 34.4000000000000  4.62505673992048e-06 
 34.6000000000000  4.57969426672991e-06 
 34.8000000000000  4.53518616964022e-06 
 35.0000000000000  4.49151089895433e-06 
 35.2000000000000  4.44864771231511e-06 
 35.4000000000000  4.40657663370289e-06 
 35.6000000000000  4.36527841529624e-06 
 35.8000000000000  4.32473450195346e-06 
 36.0000000000000  4.28492699809537e-06 
 36.2000000000000  4.24583863679213e-06 
 36.4000000000000  4.20745275087529e-06 
 36.6000000000000  4.16975324591366e-06 
 36.8000000000000  4.13272457490693e-06 
 37.0000000000000  4.09635171456462e-06 
 37.2000000000000  4.06062014305004e-06 
 37.4000000000000  4.02551581908054e-06 
 37.6000000000000  3.99102516228470e-06 
 37.8000000000000  3.95713503472644e-06 
 38.0000000000000  3.92383272351395e-06 
 38.2000000000000  3.89110592441857e-06 
 38.4000000000000  3.85894272643563e-06 
 38.6000000000000  3.82733159722466e-06 
 38.8000000000000  3.79626136937247e-06 
 39.0000000000000  3.76572122742680e-06 
 39.2000000000000  3.73570069565326e-06 
 39.4000000000000  3.70618962647198e-06 
 39.6000000000000  3.67717818953417e-06 
 39.8000000000000  3.64865686140220e-06 
 40.0000000000000  3.62061641580002e-06 
 40.2000000000000  3.59304791440311e-06 
 40.4000000000000  3.56594269814044e-06 
 40.6000000000000  3.53929237898271e-06 
 40.8000000000000  3.51308883219375e-06 
 41.0000000000000  3.48732418902374e-06 
 41.2000000000000  3.46199082982512e-06 
 41.4000000000000  3.43708137757352e-06 
 41.6000000000000  3.41258869177802e-06 
 41.8000000000000  3.38850586276637e-06 
 42.0000000000000  3.36482620633239e-06 
 42.2000000000000  3.34154325873431e-06 
 42.4000000000000  3.31865077203379e-06 
 42.6000000000000  3.29614270976705e-06 
 42.8000000000000  3.27401324294058e-06 
 43.0000000000000  3.25225674634504e-06 
 43.2000000000000  3.23086779518223e-06 
 43.4000000000000  3.20984116200133e-06 
 43.6000000000000  3.18917181394120e-06 
 43.8000000000000  3.16885491027745e-06 
 44.0000000000000  3.14888580027339e-06 
 44.2000000000000  3.12926002133554e-06 
 44.4000000000000  3.10997329747550e-06 
 44.6000000000000  3.09102153808102e-06 
 44.8000000000000  3.07240083700042e-06 
 45.0000000000000  3.05410747194581e-06 
 45.2000000000000  3.03613790422190e-06 
 45.4000000000000  3.01848877878838e-06 
 45.6000000000000  3.00115692466560e-06 
 45.8000000000000  2.98413935569456e-06 
 46.0000000000000  2.96743327166400e-06 
 46.2000000000000  2.95103605981910e-06 
 46.4000000000000  2.93494529676811e-06 
 46.6000000000000  2.91915875080525e-06 
 46.8000000000000  2.90367438467053e-06 
 47.0000000000000  2.88849035876914e-06 
 47.2000000000000  2.87360503487600e-06 
 47.4000000000000  2.85901698035340e-06 
 47.6000000000000  2.84472497291307e-06 
 47.8000000000000  2.83072800595688e-06 
 48.0000000000000  2.81702529453417e-06 
 48.2000000000000  2.80361628195764e-06 
 48.4000000000000  2.79050064712390e-06 
 48.6000000000000  2.77767831258949e-06 
 48.8000000000000  2.76514945345850e-06 
 49.0000000000000  2.75291450714347e-06 
 49.2000000000000  2.74097418406772e-06 
 49.4000000000000  2.72932947938409e-06 
 49.6000000000000  2.71798168579282e-06 
 49.8000000000000  2.70693240755004e-06 
 50.0000000000000  2.69618357576748e-06 
 50.2000000000000  2.68573746511487e-06 
 50.4000000000000  2.67559671204817e-06 
 50.6000000000000  2.66576433469968e-06 
 50.8000000000000  2.65624375458086e-06 
 51.0000000000000  2.64703882026484e-06 
 51.2000000000000  2.63815383323402e-06 
 51.4000000000000  2.62959357609813e-06 
 51.6000000000000  2.62136334341143e-06 
 51.8000000000000  2.61346897534314e-06 
 52.0000000000000  2.60591689448402e-06 
 52.2000000000000  2.59871414610444e-06 
 52.4000000000000  2.59186844221602e-06 
 52.6000000000000  2.58538820982987e-06 
 52.8000000000000  2.57928264385131e-06 
 53.0000000000000  2.57356176510344e-06 
 53.2000000000000  2.56823648403198e-06 
 53.4000000000000  2.56331867071105e-06 
 53.6000000000000  2.55882123184725e-06 
 53.8000000000000  2.55475819556622e-06 
 54.0000000000000  2.55114480486649e-06 
 54.2000000000000  2.54799762073868e-06 
 54.4000000000000  2.54533463607884e-06 
 54.6000000000000  2.54317540167348e-06 
 54.8000000000000  2.54154116570495e-06 
 55.0000000000000  2.54045502842215e-06 
 55.2000000000000  2.53994211384698e-06 
 55.4000000000000  2.54002976064756e-06 
 55.6000000000000  2.54074773460887e-06 
 55.8000000000000  2.54212846547873e-06 
 56.0000000000000  2.54420731136832e-06 
 56.2000000000000  2.54702285435244e-06 
 56.4000000000000  2.55061723145544e-06 
 56.6000000000000  2.55503650583825e-06 
 56.8000000000000  2.56033108373542e-06 
 57.0000000000000  2.56655618354719e-06 
 57.2000000000000  2.57377236449274e-06 
 57.4000000000000  2.58204612340284e-06 
 57.6000000000000  2.59145056960483e-06 
 57.8000000000000  2.60206618946703e-06 
 58.0000000000000  2.61398171406865e-06 
 58.2000000000000  2.62729510569578e-06 
 58.4000000000000  2.64211468149965e-06 
 58.6000000000000  2.65856039576067e-06 
 58.8000000000000  2.67676530587118e-06 
 59.0000000000000  2.69687725148217e-06 
 59.2000000000000  2.71906078137456e-06 
 59.4000000000000  2.74349936865194e-06 
 59.6000000000000  2.77039796196651e-06 
 59.8000000000000  2.79998592885722e-06 
 60.0000000000000  2.83252045709012e-06 
 60.2000000000000  2.86829049133837e-06 
 60.4000000000000  2.90762129580922e-06 
 60.6000000000000  2.95087974865733e-06 
 60.8000000000000  2.99848049126931e-06 
 61.0000000000000  3.05089307463414e-06 
 61.2000000000000  3.10865026558345e-06 
 61.4000000000000  3.17235769671445e-06 
 61.6000000000000  3.24270506342645e-06 
 61.8000000000000  3.32047908640125e-06 
 62.0000000000000  3.40657846243413e-06 
 62.2000000000000  3.50203101153905e-06 
 62.4000000000000  3.60801317880814e-06 
 62.6000000000000  3.72587194192364e-06 
 62.8000000000000  3.85714897239822e-06 
 63.0000000000000  4.00360654317585e-06 
 63.2000000000000  4.16725407967165e-06 
 63.4000000000000  4.35037328457602e-06 
 63.6000000000000  4.55553823680387e-06 
 63.8000000000000  4.78562449967869e-06 
 64.0000000000000  5.04379770585419e-06 
 64.2000000000000  5.33346686215636e-06 
 64.4000000000000  5.65818026270052e-06 
 64.6000000000000  6.02143212757645e-06 
 64.8000000000000  6.42633628757402e-06 
 65.0000000000000  6.87511146658550e-06 
 65.2000000000000  7.36831641946112e-06 
 65.4000000000000  7.90378369451918e-06 
 65.6000000000000  8.47524765346358e-06 
 65.8000000000000  9.07077230065816e-06 
 66.0000000000000  9.67127978048045e-06 
 66.2000000000000  1.02497476228228e-05 
 66.4000000000000  1.07718812547527e-05 
 66.6000000000000  1.11990548376505e-05 
 66.8000000000000  1.14937749174084e-05 
 67.0000000000000  1.16267939283852e-05 
 67.2000000000000  1.15837470684988e-05 
 67.4000000000000  1.13687339571457e-05 
 67.6000000000000  1.10032753851996e-05 
 67.8000000000000  1.05211138054396e-05 
 68.0000000000000  9.96104843851311e-06 
 68.2000000000000  9.36034577785901e-06 
 68.4000000000000  8.75034493883885e-06 
 68.6000000000000  8.15458250307823e-06 
 68.8000000000000  7.58887005842392e-06 
 69.0000000000000  7.06247605713085e-06 
 69.2000000000000  6.57969425272562e-06 
 69.4000000000000  6.14135207976182e-06 
 69.6000000000000  5.74605418557695e-06 
 69.8000000000000  5.39111297648855e-06 
 70.0000000000000  5.07319703585111e-06 
 70.2000000000000  4.78875633634483e-06 
 70.4000000000000  4.53428447840231e-06 
 70.6000000000000  4.30646852511328e-06 
 70.8000000000000  4.10226480286970e-06 
 71.0000000000000  3.91892799836201e-06 
 71.2000000000000  3.75401217158068e-06 
 71.4000000000000  3.60535593102749e-06 
 71.6000000000000  3.47105957444390e-06 
 71.8000000000000  3.34945900579501e-06 
 72.0000000000000  3.23909927713520e-06 
 72.2000000000000  3.13870934764305e-06 
 72.4000000000000  3.04717886662111e-06 
 72.6000000000000  2.96353730947656e-06 
 72.8000000000000  2.88693551544780e-06 
 73.0000000000000  2.81662952017400e-06 
 73.2000000000000  2.75196649758737e-06 
 73.4000000000000  2.69237259348045e-06 
 73.6000000000000  2.63734242807828e-06 
 73.8000000000000  2.58643005490177e-06 
 74.0000000000000  2.53924118069239e-06 
 74.2000000000000  2.49542647170748e-06 
 74.4000000000000  2.45467579269135e-06 
 74.6000000000000  2.41671324485206e-06 
 74.8000000000000  2.38129288751530e-06 
 75.0000000000000  2.34819504449773e-06 
 75.2000000000000  2.31722311060650e-06 
 75.4000000000000  2.28820078612725e-06 
 75.6000000000000  2.26096967787317e-06 
 75.8000000000000  2.23538721452670e-06 
 76.0000000000000  2.21132483180381e-06 
 76.2000000000000  2.18866638959600e-06 
 76.4000000000000  2.16730678886163e-06 
 76.6000000000000  2.14715076079699e-06 
 76.8000000000000  2.12811180484712e-06 
 77.0000000000000  2.11011125552947e-06 
 77.2000000000000  2.09307746093540e-06 
 77.4000000000000  2.07694505822703e-06 
 77.6000000000000  2.06165433352808e-06 
 77.8000000000000  2.04715065537656e-06 
 78.0000000000000  2.03338397241175e-06 
 78.2000000000000  2.02030836725029e-06 
 78.4000000000000  2.00788165960025e-06 
 78.6000000000000  1.99606505259694e-06 
 78.8000000000000  1.98482281714457e-06 
 79.0000000000000  1.97412200973366e-06 
 79.2000000000000  1.96393221979357e-06 
 79.4000000000000  1.95422534314566e-06 
 79.6000000000000  1.94497537855973e-06 
 79.8000000000000  1.93615824479240e-06 
 80.0000000000000  1.92775161581227e-06 
 80.2000000000000  1.91973477219828e-06 
 80.4000000000000  1.91208846694216e-06 
 80.6000000000000  1.90479480409842e-06 
 80.8000000000000  1.89783712890990e-06 
 81.0000000000000  1.89119992819781e-06 
 81.2000000000000  1.88486873994610e-06 
 81.4000000000000  1.87883007113223e-06 
 81.6000000000000  1.87307132296441e-06 
 81.8000000000000  1.86758072277952e-06 
 82.0000000000000  1.86234726193842e-06 
 82.2000000000000  1.85736063912863e-06 
 82.4000000000000  1.85261120854798e-06 
 82.6000000000000  1.84808993249974e-06 
 82.8000000000000  1.84378833797931e-06 
 83.0000000000000  1.83969847687693e-06 
 83.2000000000000  1.83581288945991e-06 
 83.4000000000000  1.83212457083235e-06 
 83.6000000000000  1.82862694010135e-06 
 83.8000000000000  1.82531381200586e-06 
 84.0000000000000  1.82217937078861e-06 
 84.2000000000000  1.81921814611358e-06 
 84.4000000000000  1.81642499085034e-06 
 84.6000000000000  1.81379506056423e-06 
 84.8000000000000  1.81132379456674e-06 
 85.0000000000000  1.80900689839404e-06 
 85.2000000000000  1.80684032759448e-06 
 85.4000000000000  1.80482027271644e-06 
 85.6000000000000  1.80294314539849e-06 
 85.8000000000000  1.80120556547229e-06 
 86.0000000000000  1.79960434899713e-06 
 86.2000000000000  1.79813649715207e-06 
 86.4000000000000  1.79679918591838e-06 
 86.6000000000000  1.79558975649083e-06 
 86.8000000000000  1.79450570636167e-06 
 87.0000000000000  1.79354468102629e-06 
 87.2000000000000  1.79270446626359e-06 
 87.4000000000000  1.79198298094825e-06 
 87.6000000000000  1.79137827035587e-06 
 87.8000000000000  1.79088849992485e-06 
 88.0000000000000  1.79051194944224e-06 
 88.2000000000000  1.79024700762329e-06 
 88.4000000000000  1.79009216705699e-06 
 88.6000000000000  1.79004601949215e-06 
 88.8000000000000  1.79010725144057e-06 
 89.0000000000000  1.79027464007575e-06 
 89.2000000000000  1.79054704940746e-06 
 89.4000000000000  1.79092342671367e-06 
 89.6000000000000  1.79140279921340e-06 
 89.8000000000000  1.79198427096458e-06 
 90.0000000000000  1.79266701997306e-06 
 90.2000000000000  1.79345029549928e-06 
 90.4000000000000  1.79433341555066e-06 
 90.6000000000000  1.79531576454841e-06 
 90.8000000000000  1.79639679115842e-06 
 91.0000000000000  1.79757600627678e-06 
 91.2000000000000  1.79885298116093e-06 
 91.4000000000000  1.80022734569857e-06 
 91.6000000000000  1.80169878680652e-06 
 91.8000000000000  1.80326704695289e-06 
 92.0000000000000  1.80493192279600e-06 
 92.2000000000000  1.80669326393412e-06 
 92.4000000000000  1.80855097176086e-06 
 92.6000000000000  1.81050499842084e-06 
 92.8000000000000  1.81255534586136e-06 
 93.0000000000000  1.81470206497569e-06 
 93.2000000000000  1.81694525483414e-06 
 93.4000000000000  1.81928506199932e-06 
 93.6000000000000  1.82172167992244e-06 
 93.8000000000000  1.82425534841756e-06 
 94.0000000000000  1.82688635321126e-06 
 94.2000000000000  1.82961502556515e-06 
 94.4000000000000  1.83244174196907e-06 
 94.6000000000000  1.83536692390309e-06 
 94.8000000000000  1.83839103766646e-06 
 95.0000000000000  1.84151459427197e-06 
 95.2000000000000  1.84473814940446e-06 
 95.4000000000000  1.84806230344218e-06 
 95.6000000000000  1.85148770154015e-06 
 95.8000000000000  1.85501503377457e-06 
 96.0000000000000  1.85864503534780e-06 
 96.2000000000000  1.86237848685323e-06 
 96.4000000000000  1.86621621459988e-06 
 96.6000000000000  1.87015909099652e-06 
 96.8000000000000  1.87420803499512e-06 
 97.0000000000000  1.87836401259409e-06 
 97.2000000000000  1.88262803740124e-06 
 97.4000000000000  1.88700117125707e-06 
 97.6000000000000  1.89148452491892e-06 
 97.8000000000000  1.89607925880668e-06 
 98.0000000000000  1.90078658381083e-06 
 98.2000000000000  1.90560776216398e-06 
 98.4000000000000  1.91054410837687e-06 
 98.6000000000000  1.91559699024024e-06 
 98.8000000000000  1.92076782989398e-06 
 99.0000000000000  1.92605810496510e-06 
 99.2000000000000  1.93146934977644e-06 
 99.4000000000000  1.93700315662783e-06 
 99.6000000000000  1.94266117715196e-06 
 99.8000000000000  1.94844512374709e-06 
 100.000000000000  1.95435677108919e-06 
 100.200000000000  1.96039795772599e-06 
 100.400000000000  1.96657058775582e-06 
 100.600000000000  1.97287663259431e-06 
 100.800000000000  1.97931813283209e-06 
 101.000000000000  1.98589720018702e-06 
 101.200000000000  1.99261601955457e-06 
 101.400000000000  1.99947685116033e-06 
 101.600000000000  2.00648203281879e-06 
 101.800000000000  2.01363398230283e-06 
 102.000000000000  2.02093519982870e-06 
 102.200000000000  2.02838827066144e-06 
 102.400000000000  2.03599586784608e-06 
 102.600000000000  2.04376075507037e-06 
 102.800000000000  2.05168578966498e-06 
 103.000000000000  2.05977392574749e-06 
 103.200000000000  2.06802821751717e-06 
 103.400000000000  2.07645182270741e-06 
 103.600000000000  2.08504800620377e-06 
 103.800000000000  2.09382014383553e-06 
 104.000000000000  2.10277172634934e-06 
 104.200000000000  2.11190636357427e-06 
 104.400000000000  2.12122778878771e-06 
 104.600000000000  2.13073986329260e-06 
 104.800000000000  2.14044658121681e-06 
 105.000000000000  2.15035207454623e-06 
 105.200000000000  2.16046061840410e-06 
 105.400000000000  2.17077663658935e-06 
 105.600000000000  2.18130470738823e-06 
 105.800000000000  2.19204956967374e-06 
 106.000000000000  2.20301612930879e-06 
 106.200000000000  2.21420946586975e-06 
 106.400000000000  2.22563483970826e-06 
 106.600000000000  2.23729769937032e-06 
 106.800000000000  2.24920368939271e-06 
 107.000000000000  2.26135865849855e-06 
 107.200000000000  2.27376866821476e-06 
 107.400000000000  2.28644000193590e-06 
 107.600000000000  2.29937917446067e-06 
 107.800000000000  2.31259294202882e-06 
 108.000000000000  2.32608831288819e-06 
 108.200000000000  2.33987255842379e-06 
 108.400000000000  2.35395322488281e-06 
 108.600000000000  2.36833814573187e-06 
 108.800000000000  2.38303545468529e-06 
 109.000000000000  2.39805359944616e-06 
 109.200000000000  2.41340135620434e-06 
 109.400000000000  2.42908784493936e-06 
 109.600000000000  2.44512254557917e-06 
 109.800000000000  2.46151531506938e-06 
 110.000000000000  2.47827640541192e-06 
 110.200000000000  2.49541648273607e-06 
 110.400000000000  2.51294664746944e-06 
 110.600000000000  2.53087845568194e-06 
 110.800000000000  2.54922394168055e-06 
 111.000000000000  2.56799564193935e-06 
 111.200000000000  2.58720662045515e-06 
 111.400000000000  2.60687049562626e-06 
 111.600000000000  2.62700146875950e-06 
 111.800000000000  2.64761435431864e-06 
 112.000000000000  2.66872461203660e-06 
 112.200000000000  2.69034838102321e-06 
 112.400000000000  2.71250251601112e-06 
 112.600000000000  2.73520462589393e-06 
 112.800000000000  2.75847311472306e-06 
 113.000000000000  2.78232722534375e-06 
 113.200000000000  2.80678708586560e-06 
 113.400000000000  2.83187375917911e-06 
 113.600000000000  2.85760929574816e-06 
 113.800000000000  2.88401678992719e-06 
 114.000000000000  2.91112044007420e-06 
 114.200000000000  2.93894561275338e-06 
 114.400000000000  2.96751891134755e-06 
 114.600000000000  2.99686824942881e-06 
 114.800000000000  3.02702292926665e-06 
 115.000000000000  3.05801372588756e-06 
 115.200000000000  3.08987297713748e-06 
 115.400000000000  3.12263468023994e-06 
 115.600000000000  3.15633459538914e-06 
 115.800000000000  3.19101035696693e-06 
 116.000000000000  3.22670159302936e-06 
 116.200000000000  3.26345005376975e-06 
 116.400000000000  3.30129974973372e-06 
 116.600000000000  3.34029710063780e-06 
 116.800000000000  3.38049109572662e-06 
 117.000000000000  3.42193346669780e-06 
 117.200000000000  3.46467887432675e-06 
 117.400000000000  3.50878511003940e-06 
 117.600000000000  3.55431331380949e-06 
 117.800000000000  3.60132820989983e-06 
 118.000000000000  3.64989836212784e-06 
 118.200000000000  3.70009645051361e-06 
 118.400000000000  3.75199957136926e-06 
 118.600000000000  3.80568956311239e-06 
 118.800000000000  3.86125336033746e-06 
 119.000000000000  3.91878337896127e-06 
 119.200000000000  3.97837793557570e-06 
 119.400000000000  4.04014170449796e-06 
 119.600000000000  4.10418621641083e-06 
 119.800000000000  4.17063040293933e-06 
 120.000000000000  4.23960119202346e-06 
 120.200000000000  4.31123415952679e-06 
 120.400000000000  4.38567424317869e-06 
 120.600000000000  4.46307652569427e-06 
 120.800000000000  4.54360709476351e-06 
 121.000000000000  4.62744398856669e-06 
 121.200000000000  4.71477823657204e-06 
 121.400000000000  4.80581500662654e-06 
 121.600000000000  4.90077487078515e-06 
 121.800000000000  4.99989520396489e-06 
 122.000000000000  5.10343173139304e-06 
 122.200000000000  5.21166024297938e-06 
 122.400000000000  5.32487849522837e-06 
 122.600000000000  5.44340832417058e-06 
 122.800000000000  5.56759799609657e-06 
 123.000000000000  5.69782482669450e-06 
 123.200000000000  5.83449810361324e-06 
 123.400000000000  5.97806235259766e-06 
 123.600000000000  6.12900099329573e-06 
 123.800000000000  6.28784043776133e-06 
 124.000000000000  6.45515469274662e-06 
 124.200000000000  6.63157053629458e-06 
 124.400000000000  6.81777335015190e-06 
 124.600000000000  7.01451370241141e-06 
 124.800000000000  7.22261478990485e-06 
 125.000000000000  7.44298086761324e-06 
 125.200000000000  7.67660681322324e-06 
 125.400000000000  7.92458899951774e-06 
 125.600000000000  8.18813767622802e-06 
 125.800000000000  8.46859109710303e-06 
 126.000000000000  8.76743166822867e-06 
 126.200000000000  9.08630444116925e-06 
 126.400000000000  9.42703833061579e-06 
 126.600000000000  9.79167050241011e-06 
 126.800000000000  1.01824744557785e-05 
 127.000000000000  1.06019924152558e-05 
 127.200000000000  1.10530727551539e-05 
 127.400000000000  1.15389133046236e-05 
 127.600000000000  1.20631115263314e-05 
 127.800000000000  1.26297227279885e-05 
 128.000000000000  1.32433276538617e-05 
 128.200000000000  1.39091110113762e-05 
 128.400000000000  1.46329527108973e-05 
 128.600000000000  1.54215338236594e-05 
 128.800000000000  1.62824594726520e-05 
 129.000000000000  1.72244010272080e-05 
 129.200000000000  1.82572600117532e-05 
 129.400000000000  1.93923559603373e-05 
 129.600000000000  2.06426398863375e-05 
 129.800000000000  2.20229338296998e-05 
 130.000000000000  2.35501946833884e-05 
 130.200000000000  2.52437965549648e-05 
 130.400000000000  2.71258193275136e-05 
 130.600000000000  2.92213204092562e-05 
 130.800000000000  3.15585498026766e-05 
 131.000000000000  3.41690426118960e-05 
 131.200000000000  3.70874839502973e-05 
 131.400000000000  4.03511839916019e-05 
 131.600000000000  4.39989205515061e-05 
 131.800000000000  4.80688001609827e-05 
 132.000000000000  5.25946606771863e-05 
 132.200000000000  5.76004119622012e-05 
 132.400000000000  6.30916460466977e-05 
 132.600000000000  6.90439684528945e-05 
 132.800000000000  7.53880205816068e-05 
 133.000000000000  8.19923675924728e-05 
 133.200000000000  8.86475540087681e-05 
 133.400000000000  9.50575242122460e-05 
 133.600000000000  0.000100847164352670 
 133.800000000000  0.000105594527576458 
 134.000000000000  0.000108890419375376 
 134.200000000000  0.000110415794930567 
 134.400000000000  0.000110013885734715 
 134.600000000000  0.000107729130266815 
 134.800000000000  0.000103795912902476 
 135.000000000000  9.85821507157291e-05 
 135.200000000000  9.25114159306994e-05 
 135.400000000000  8.59911395434692e-05 
 135.600000000000  7.93645428710344e-05 
 135.800000000000  7.28899375303928e-05 
 136.000000000000  6.67413291296687e-05 
 136.200000000000  6.10211411913734e-05 
 136.400000000000  5.57772449830223e-05 
 136.600000000000  5.10194045707490e-05 
 136.800000000000  4.67328748675773e-05 
 137.000000000000  4.28886033981685e-05 
 137.200000000000  3.94503566094933e-05 
 137.400000000000  3.63794052790985e-05 
 137.600000000000  3.36374230248539e-05 
 137.800000000000  3.11881494373238e-05 
 138.000000000000  2.89982375953955e-05 
 138.200000000000  2.70375857218484e-05 
 138.400000000000  2.52793576592603e-05 
 138.600000000000  2.36998270807992e-05 
 138.800000000000  2.22781316009075e-05 
 139.000000000000  2.09959900451507e-05 
 139.200000000000  1.98374145197837e-05 
 139.400000000000  1.87884350505356e-05 
 139.600000000000  1.78368458680637e-05 
 139.800000000000  1.69719771164430e-05 
 140.000000000000  1.61844926408029e-05 
 140.200000000000  1.54662127682111e-05 
 140.400000000000  1.48099601082063e-05 
 140.600000000000  1.42094260285997e-05 
 140.800000000000  1.36590553938717e-05 
 141.000000000000  1.31539472532868e-05 
 141.200000000000  1.26897693509800e-05 
 141.400000000000  1.22626845508790e-05 
 141.600000000000  1.18692874963687e-05 
 141.800000000000  1.15065500420068e-05 
 142.000000000000  1.11717741942358e-05 
 142.200000000000  1.08625514765811e-05 
 142.400000000000  1.05767277916929e-05 
 142.600000000000  1.03123729887755e-05 
 142.800000000000  1.00677544621595e-05 
 143.000000000000  9.84131420707475e-06 
 143.200000000000  9.63164884415482e-06 
 143.400000000000  9.43749219684015e-06 
 143.600000000000  9.25770006747087e-06 
 143.800000000000  9.09123691008552e-06 
 144.000000000000  8.93716414218560e-06 
 144.200000000000  8.79462987521305e-06 
 144.400000000000  8.66285987525992e-06 
 144.600000000000  8.54114959248005e-06 
 144.800000000000  8.42885712055419e-06 
 145.000000000000  8.32539696700722e-06 
 145.200000000000  8.23023453172738e-06 
 145.400000000000  8.14288120514169e-06 
 145.600000000000  8.06289000953876e-06 
 145.800000000000  7.98985171731879e-06 
 146.000000000000  7.92339138875800e-06 
 146.200000000000  7.86316527942702e-06 
 146.400000000000  7.80885807388860e-06 
 146.600000000000  7.76018040787954e-06 
 146.800000000000  7.71686664599028e-06 
 147.000000000000  7.67867288600467e-06 
 147.200000000000  7.64537516465090e-06 
 147.400000000000  7.61676784262154e-06 
 147.600000000000  7.59266214941548e-06 
 147.800000000000  7.57288487089704e-06 
 148.000000000000  7.55727716450500e-06 
 148.200000000000  7.54569348882133e-06 
 148.400000000000  7.53800063576050e-06 
 148.600000000000  7.53407685499713e-06 
 148.800000000000  7.53381106143798e-06 
 149.000000000000  7.53710211758712e-06 
 149.200000000000  7.54385818356943e-06 
 149.400000000000  7.55399612838416e-06 
 149.600000000000  7.56744099667149e-06 
 149.800000000000  7.58412552590290e-06 
 150.000000000000  7.60398970946161e-06 
 150.200000000000  7.62698040157202e-06 
 150.400000000000  7.65305096047321e-06 
 150.600000000000  7.68216092662078e-06 
 150.800000000000  7.71427573304683e-06 
 151.000000000000  7.74936644531703e-06 
 151.200000000000  7.78740952879982e-06 
 151.400000000000  7.82838664121048e-06 
 151.600000000000  7.87228444861499e-06 
 151.800000000000  7.91909446327912e-06 
 152.000000000000  7.96881290192875e-06 
 152.200000000000  8.02144056315134e-06 
 152.400000000000  8.07698272281690e-06 
 152.600000000000  8.13544904653272e-06 
 152.800000000000  8.19685351826953e-06 
 153.000000000000  8.26121438441120e-06 
 153.200000000000  8.32855411258478e-06 
 153.400000000000  8.39889936472507e-06 
 153.600000000000  8.47228098391904e-06 
 153.800000000000  8.54873399466019e-06 
 154.000000000000  8.62829761622346e-06 
 154.200000000000  8.71101528894768e-06 
 154.400000000000  8.79693471328523e-06 
 154.600000000000  8.88610790154951e-06 
 154.800000000000  8.97859124235843e-06 
 155.000000000000  9.07444557783985e-06 
 155.200000000000  9.17373629373030e-06 
 155.400000000000  9.27653342256450e-06 
 155.600000000000  9.38291176021900e-06 
 155.800000000000  9.49295099613982e-06 
 156.000000000000  9.60673585765229e-06 
 156.200000000000  9.72435626882036e-06 
 156.400000000000  9.84590752439522e-06 
 156.600000000000  9.97149047946756e-06 
 156.800000000000  1.01012117555162e-05 
 157.000000000000  1.02351839636274e-05 
 157.200000000000  1.03735259457473e-05 
 157.400000000000  1.05163630349204e-05 
 157.600000000000  1.06638273355660e-05 
 157.800000000000  1.08160580249497e-05 
 158.000000000000  1.09732016771182e-05 
 158.200000000000  1.11354126106882e-05 
 158.400000000000  1.13028532620079e-05 
 158.600000000000  1.14756945853542e-05 
 158.800000000000  1.16541164819784e-05 
 159.000000000000  1.18383082599790e-05 
 159.200000000000  1.20284691271617e-05 
 159.400000000000  1.22248087192418e-05 
 159.600000000000  1.24275476659585e-05 
 159.800000000000  1.26369181979035e-05 
 160.000000000000  1.28531647971226e-05 
 160.200000000000  1.30765448948287e-05 
 160.400000000000  1.33073296198711e-05 
 160.600000000000  1.35458046019437e-05 
 160.800000000000  1.37922708338847e-05 
 161.000000000000  1.40470455978267e-05 
 161.200000000000  1.43104634604081e-05 
 161.400000000000  1.45828773427481e-05 
 161.600000000000  1.48646596714374e-05 
 161.800000000000  1.51562036173986e-05 
 162.000000000000  1.54579244301401e-05 
 162.200000000000  1.57702608756658e-05 
 162.400000000000  1.60936767871263e-05 
 162.600000000000  1.64286627382047e-05 
 162.800000000000  1.67757378502462e-05 
 163.000000000000  1.71354517452629e-05 
 163.200000000000  1.75083866582018e-05 
 163.400000000000  1.78951597232594e-05 
 163.600000000000  1.82964254505887e-05 
 163.800000000000  1.87128784114863e-05 
 164.000000000000  1.91452561520971e-05 
 164.200000000000  1.95943423578586e-05 
 164.400000000000  2.00609702933576e-05 
 164.600000000000  2.05460265450195e-05 
 164.800000000000  2.10504550971439e-05 
 165.000000000000  2.15752617752793e-05 
 165.200000000000  2.21215190948506e-05 
 165.400000000000  2.26903715573800e-05 
 165.600000000000  2.32830414416422e-05 
 165.800000000000  2.39008351427544e-05 
 166.000000000000  2.45451501186118e-05 
 166.200000000000  2.52174825103569e-05 
 166.400000000000  2.59194355118380e-05 
 166.600000000000  2.66527285724174e-05 
 166.800000000000  2.74192075282153e-05 
 167.000000000000  2.82208557691059e-05 
 167.200000000000  2.90598065627720e-05 
 167.400000000000  2.99383566731355e-05 
 167.600000000000  3.08589814288339e-05 
 167.800000000000  3.18243514185057e-05 
 168.000000000000  3.28373510138783e-05 
 168.200000000000  3.39010989496070e-05 
 168.400000000000  3.50189712210329e-05 
 168.600000000000  3.61946265982962e-05 
 168.800000000000  3.74320350983744e-05 
 169.000000000000  3.87355098066329e-05 
 169.200000000000  4.01097424975861e-05 
 169.400000000000  4.15598435721671e-05 
 169.600000000000  4.30913869075853e-05 
 169.800000000000  4.47104603078317e-05 
 170.000000000000  4.64237223503872e-05 
 170.200000000000  4.82384665506221e-05 
 170.400000000000  5.01626939130097e-05 
 170.600000000000  5.22051951116854e-05 
 170.800000000000  5.43756437468178e-05 
 171.000000000000  5.66847023633335e-05 
 171.200000000000  5.91441432015638e-05 
 171.400000000000  6.17669859832197e-05 
 171.600000000000  6.45676554302020e-05 
 171.800000000000  6.75621616791228e-05 
 172.000000000000  7.07683073038604e-05 
 172.200000000000  7.42059253068800e-05 
 172.400000000000  7.78971532042449e-05 
 172.600000000000  8.18667492280609e-05 
 172.800000000000  8.61424577238996e-05 
 173.000000000000  9.07554320504203e-05 
 173.200000000000  9.57407247137704e-05 
 173.400000000000  0.000101137856105577 
 173.600000000000  0.000106991475065806 
 173.800000000000  0.000113352126546724 
 174.000000000000  0.000120277143863847 
 174.200000000000  0.000127831685278886 
 174.400000000000  0.000136089936767481 
 174.600000000000  0.000145136504425763 
 174.800000000000  0.000155068020462582 
 175.000000000000  0.000165994985116769 
 175.200000000000  0.000178043861530848 
 175.400000000000  0.000191359429061248 
 175.600000000000  0.000206107378725896 
 175.800000000000  0.000222477096320636 
 176.000000000000  0.000240684514780137 
 176.200000000000  0.000260974813538365 
 176.400000000000  0.000283624578337973 
 176.600000000000  0.000308942780916821 
 176.800000000000  0.000337269554849739 
 177.000000000000  0.000368971182729309 
 177.200000000000  0.000404428919929988 
 177.400000000000  0.000444018230689951 
 177.600000000000  0.000488073745031189 
 177.800000000000  0.000536833980568886 
 178.000000000000  0.000590359196357349 
 178.200000000000  0.000648416873243215 
 178.400000000000  0.000710334346002538 
 178.600000000000  0.000774829915287667 
 178.800000000000  0.000839854742429292 
 179.000000000000  0.000902506534457660 
 179.200000000000  0.000959101650762600 
 179.400000000000  0.00100549084595398 
 179.600000000000  0.00103764605057506 
 179.800000000000  0.00105242450422332 
 180.000000000000  0.00104828186915572 
 180.200000000000  0.00102565729287326 
 180.400000000000  0.000986861669211467 
 180.600000000000  0.000935519294194154 
 180.800000000000  0.000875798200605011 
 181.000000000000  0.000811702152078377 
 181.200000000000  0.000746598359834645 
 181.400000000000  0.000683015879835809 
 181.600000000000  0.000622653839105706 
 181.800000000000  0.000566508352935354 
 182.000000000000  0.000515041010938381 
 182.200000000000  0.000468340932106808 
 182.400000000000  0.000426258375058627 
 182.600000000000  0.000388504724613185 
 182.800000000000  0.000354722166473380 
 183.000000000000  0.000324529379241409 
 183.200000000000  0.000297549714805899 
 183.400000000000  0.000273427300572198 
 183.600000000000  0.000251835186260698 
 183.800000000000  0.000232478471995246 
 184.000000000000  0.000215094418437689 
 184.200000000000  0.000199450854894294 
 184.400000000000  0.000185343723918178 
 184.600000000000  0.000172594279367037 
 184.800000000000  0.000161046244035229 
 185.000000000000  0.000150563097977145 
 185.200000000000  0.000141025584231092 
 185.400000000000  0.000132329467310998 
 185.600000000000  0.000124383549716830 
 185.800000000000  0.000117107934985653 
 186.000000000000  0.000110432517356071 
 186.200000000000  0.000104295674665294 
 186.400000000000  9.86431405574461e-05 
 186.600000000000  9.34270331506777e-05 
 186.800000000000  8.86050191887510e-05 
 187.000000000000  8.41395949091382e-05 
 187.200000000000  7.99974671152775e-05 
 187.400000000000  7.61490200920211e-05 
 187.600000000000  7.25678559737644e-05 
 187.800000000000  6.92303979336173e-05 
 188.000000000000  6.61155471052827e-05 
 188.200000000000  6.32043854874279e-05 
 188.400000000000  6.04799182311286e-05 
 188.600000000000  5.79268496949064e-05 
 188.800000000000  5.55313884898140e-05 
 189.000000000000  5.32810774487824e-05 
 189.200000000000  5.11646450579108e-05 
 189.400000000000  4.91718753986647e-05 
 189.600000000000  4.72934940829124e-05 
 189.800000000000  4.55210680294372e-05 
 190.000000000000  4.38469172413129e-05 
 190.200000000000  4.22640370070244e-05 
 190.400000000000  4.07660291718912e-05 
 190.600000000000  3.93470413164279e-05 
 190.800000000000  3.80017128400018e-05 
 191.000000000000  3.67251270859747e-05 
 191.200000000000  3.55127687621099e-05 
 191.400000000000  3.43604860105438e-05 
 191.600000000000  3.32644565676816e-05 
 191.800000000000  3.22211575281518e-05 
 192.000000000000  3.12273382903543e-05 
 192.200000000000  3.02799963156649e-05 
 192.400000000000  2.93763553803728e-05 
 192.600000000000  2.85138460400262e-05 
 192.800000000000  2.76900880609645e-05 
 193.000000000000  2.69028746042547e-05 
 193.200000000000  2.61501579736452e-05 
 193.400000000000  2.54300367621163e-05 
 193.600000000000  2.47407442515863e-05 
 193.800000000000  2.40806379377416e-05 
 194.000000000000  2.34481900671431e-05 
 194.200000000000  2.28419790869715e-05 
 194.400000000000  2.22606819192640e-05 
 194.600000000000  2.17030669814264e-05 
 194.800000000000  2.11679878832901e-05 
 195.000000000000  2.06543777381427e-05 
 195.200000000000  2.01612440309502e-05 
 195.400000000000  1.96876639914405e-05 
 195.600000000000  1.92327804226570e-05 
 195.800000000000  1.87957979368657e-05 
 196.000000000000  1.83759795499745e-05 
 196.200000000000  1.79726435824803e-05 
 196.400000000000  1.75851608088050e-05 
 196.600000000000  1.72129517869478e-05 
 196.800000000000  1.68554842857013e-05 
 197.000000000000  1.65122707060959e-05 
 197.200000000000  1.61828653659456e-05 
 197.400000000000  1.58668614800415e-05 
 197.600000000000  1.55638876226337e-05 
 197.800000000000  1.52736034030513e-05 
 198.000000000000  1.49956940210191e-05 
 198.200000000000  1.47298632998191e-05 
 198.400000000000  1.44758247323952e-05 
 198.600000000000  1.42332900350644e-05 
 198.800000000000  1.40019547138327e-05 
 199.000000000000  1.37814802510605e-05 
 199.200000000000  1.35714727705400e-05 
 199.400000000000  1.33714584995215e-05 
 199.600000000000  1.31808570698646e-05 
 199.800000000000  1.29989546981878e-05 
 200.000000000000  1.28248804780039e-05 
 200.200000000000  1.26575901876510e-05 
 200.400000000000  1.24958627901335e-05 
 200.600000000000  1.23383146980282e-05 
 200.800000000000  1.21834354912533e-05 
 201.000000000000  1.20296460219750e-05 
 201.200000000000  1.18753761527246e-05 
 201.400000000000  1.17191556539404e-05 
 201.600000000000  1.15597090258039e-05 
 201.800000000000  1.13960437679737e-05 
 202.000000000000  1.12275218064487e-05 
 202.200000000000  1.10539049790353e-05 
 202.400000000000  1.08753675411381e-05 
 202.600000000000  1.06924719484914e-05 
 202.800000000000  1.05061090416961e-05 
 203.000000000000  1.03174096643187e-05 
 203.200000000000  1.01276400393184e-05 
 203.400000000000  9.93809591800949e-06 
 203.600000000000  9.75000951063446e-06 
 203.800000000000  9.56447899402176e-06 
 204.000000000000  9.38242467536805e-06 
 204.200000000000  9.20457060165904e-06 
 204.400000000000  9.03144682407849e-06 
 204.600000000000  8.86340599620241e-06 
 204.800000000000  8.70064812486848e-06 
 205.000000000000  8.54324842446244e-06 
 205.200000000000  8.39118471168070e-06 
 205.400000000000  8.24436218586043e-06 
 205.600000000000  8.10263455685438e-06 
 205.800000000000  7.96582125718213e-06 
 206.000000000000  7.83372094703785e-06 
 206.200000000000  7.70612176335922e-06 
 206.400000000000  7.58280885257298e-06 
 206.600000000000  7.46356972223492e-06 
 206.800000000000  7.34819789372284e-06 
 207.000000000000  7.23649526513912e-06 
 207.200000000000  7.12827351760167e-06 
 207.400000000000  7.02335482807464e-06 
 207.600000000000  6.92157209165747e-06 
 207.800000000000  6.82276880672607e-06 
 208.000000000000  6.72679873686397e-06 
 208.200000000000  6.63352543282838e-06 
 208.400000000000  6.54282167435550e-06 
 208.600000000000  6.45456887398062e-06 
 208.800000000000  6.36865647196835e-06 
 209.000000000000  6.28498134185802e-06 
 209.200000000000  6.20344721918620e-06 
 209.400000000000  6.12396416098386e-06 
 209.600000000000  6.04644804014825e-06 
 209.800000000000  5.97082007636957e-06 
 210.000000000000  5.89700640365442e-06 
 210.200000000000  5.82493767341584e-06 
 210.400000000000  5.75454869142925e-06 
 210.600000000000  5.68577808656784e-06 
 210.800000000000  5.61856800904164e-06 
 211.000000000000  5.55286385581003e-06 
 211.200000000000  5.48861402087183e-06 
 211.400000000000  5.42576966822879e-06 
 211.600000000000  5.36428452544352e-06 
 211.800000000000  5.30411469585739e-06 
 212.000000000000  5.24521848768500e-06 
 212.200000000000  5.18755625835334e-06 
 212.400000000000  5.13109027260117e-06 
 212.600000000000  5.07578457299300e-06 
 212.800000000000  5.02160486163314e-06 
 213.000000000000  4.96851839198501e-06 
 213.200000000000  4.91649386981148e-06 
 213.400000000000  4.86550136235223e-06 
 213.600000000000  4.81551221494476e-06 
 213.800000000000  4.76649897437777e-06 
 214.000000000000  4.71843531833884e-06 
 214.200000000000  4.67129599038459e-06 
 214.400000000000  4.62505673992047e-06 
 214.600000000000  4.57969426672991e-06 
 214.800000000000  4.53518616964022e-06 
 215.000000000000  4.49151089895433e-06 
 215.200000000000  4.44864771231510e-06 
 215.400000000000  4.40657663370288e-06 
 215.600000000000  4.36527841529624e-06 
 215.800000000000  4.32473450195346e-06 
 216.000000000000  4.28492699809537e-06 
 216.200000000000  4.24583863679213e-06 
 216.400000000000  4.20745275087529e-06 
 216.600000000000  4.16975324591365e-06 
 216.800000000000  4.13272457490693e-06 
 217.000000000000  4.09635171456462e-06 
 217.200000000000  4.06062014305003e-06 
 217.400000000000  4.02551581908053e-06 
 217.600000000000  3.99102516228470e-06 
 217.800000000000  3.95713503472645e-06 
 218.000000000000  3.92383272351395e-06 
 218.200000000000  3.89110592441857e-06 
 218.400000000000  3.85894272643563e-06 
 218.600000000000  3.82733159722466e-06 
 218.800000000000  3.79626136937247e-06 
 219.000000000000  3.76572122742679e-06 
 219.200000000000  3.73570069565325e-06 
 219.400000000000  3.70618962647198e-06 
 219.600000000000  3.67717818953416e-06 
 219.800000000000  3.64865686140220e-06 
 220.000000000000  3.62061641580002e-06 
 220.200000000000  3.59304791440310e-06 
 220.400000000000  3.56594269814043e-06 
 220.600000000000  3.53929237898271e-06 
 220.800000000000  3.51308883219375e-06 
 221.000000000000  3.48732418902375e-06 
 221.200000000000  3.46199082982512e-06 
 221.400000000000  3.43708137757352e-06 
 221.600000000000  3.41258869177802e-06 
 221.800000000000  3.38850586276637e-06 
 222.000000000000  3.36482620633239e-06 
 222.200000000000  3.34154325873431e-06 
 222.400000000000  3.31865077203379e-06 
 222.600000000000  3.29614270976705e-06 
 222.800000000000  3.27401324294058e-06 
 223.000000000000  3.25225674634504e-06 
 223.200000000000  3.23086779518223e-06 
 223.400000000000  3.20984116200133e-06 
 223.600000000000  3.18917181394120e-06 
 223.800000000000  3.16885491027745e-06 
 224.000000000000  3.14888580027339e-06 
 224.200000000000  3.12926002133553e-06 
 224.400000000000  3.10997329747550e-06 
 224.600000000000  3.09102153808102e-06 
 224.800000000000  3.07240083700042e-06 
 225.000000000000  3.05410747194581e-06 
 225.200000000000  3.03613790422190e-06 
 225.400000000000  3.01848877878838e-06 
 225.600000000000  3.00115692466560e-06 
 225.800000000000  2.98413935569456e-06 
 226.000000000000  2.96743327166400e-06 
 226.200000000000  2.95103605981910e-06 
 226.400000000000  2.93494529676811e-06 
 226.600000000000  2.91915875080525e-06 
 226.800000000000  2.90367438467053e-06 
 227.000000000000  2.88849035876914e-06 
 227.200000000000  2.87360503487600e-06 
 227.400000000000  2.85901698035339e-06 
 227.600000000000  2.84472497291307e-06 
 227.800000000000  2.83072800595688e-06 
 228.000000000000  2.81702529453417e-06 
 228.200000000000  2.80361628195763e-06 
 228.400000000000  2.79050064712390e-06 
 228.600000000000  2.77767831258949e-06 
 228.800000000000  2.76514945345850e-06 
 229.000000000000  2.75291450714347e-06 
 229.200000000000  2.74097418406772e-06 
 229.400000000000  2.72932947938409e-06 
 229.600000000000  2.71798168579282e-06 
 229.800000000000  2.70693240755004e-06 
 230.000000000000  2.69618357576748e-06 
 230.200000000000  2.68573746511487e-06 
 230.400000000000  2.67559671204817e-06 
 230.600000000000  2.66576433469968e-06 
 230.800000000000  2.65624375458086e-06 
 231.000000000000  2.64703882026484e-06 
 231.200000000000  2.63815383323402e-06 
 231.400000000000  2.62959357609813e-06 
 231.600000000000  2.62136334341143e-06 
 231.800000000000  2.61346897534314e-06 
 232.000000000000  2.60591689448402e-06 
 232.200000000000  2.59871414610444e-06 
 232.400000000000  2.59186844221602e-06 
 232.600000000000  2.58538820982987e-06 
 232.800000000000  2.57928264385131e-06 
 233.000000000000  2.57356176510344e-06 
 233.200000000000  2.56823648403198e-06 
 233.400000000000  2.56331867071105e-06 
 233.600000000000  2.55882123184725e-06 
 233.800000000000  2.55475819556622e-06 
 234.000000000000  2.55114480486649e-06 
 234.200000000000  2.54799762073868e-06 
 234.400000000000  2.54533463607884e-06 
 234.600000000000  2.54317540167348e-06 
 234.800000000000  2.54154116570496e-06 
 235.000000000000  2.54045502842215e-06 
 235.200000000000  2.53994211384698e-06 
 235.400000000000  2.54002976064756e-06 
 235.600000000000  2.54074773460887e-06 
 235.800000000000  2.54212846547873e-06 
 236.000000000000  2.54420731136832e-06 
 236.200000000000  2.54702285435244e-06 
 236.400000000000  2.55061723145544e-06 
 236.600000000000  2.55503650583825e-06 
 236.800000000000  2.56033108373542e-06 
 237.000000000000  2.56655618354719e-06 
 237.200000000000  2.57377236449274e-06 
 237.400000000000  2.58204612340284e-06 
 237.600000000000  2.59145056960483e-06 
 237.800000000000  2.60206618946703e-06 
 238.000000000000  2.61398171406865e-06 
 238.200000000000  2.62729510569578e-06 
 238.400000000000  2.64211468149965e-06 
 238.600000000000  2.65856039576067e-06 
 238.800000000000  2.67676530587118e-06 
 239.000000000000  2.69687725148217e-06 
 239.200000000000  2.71906078137456e-06 
 239.400000000000  2.74349936865194e-06 
 239.600000000000  2.77039796196650e-06 
 239.800000000000  2.79998592885722e-06 
 240.000000000000  2.83252045709011e-06 
 240.200000000000  2.86829049133838e-06 
 240.400000000000  2.90762129580923e-06 
 240.600000000000  2.95087974865733e-06 
 240.800000000000  2.99848049126932e-06 
 241.000000000000  3.05089307463415e-06 
 241.200000000000  3.10865026558346e-06 
 241.400000000000  3.17235769671446e-06 
 241.600000000000  3.24270506342646e-06 
 241.800000000000  3.32047908640125e-06 
 242.000000000000  3.40657846243413e-06 
 242.200000000000  3.50203101153906e-06 
 242.400000000000  3.60801317880815e-06 
 242.600000000000  3.72587194192363e-06 
 242.800000000000  3.85714897239822e-06 
 243.000000000000  4.00360654317585e-06 
 243.200000000000  4.16725407967167e-06 
 243.400000000000  4.35037328457602e-06 
 243.600000000000  4.55553823680384e-06 
 243.800000000000  4.78562449967866e-06 
 244.000000000000  5.04379770585417e-06 
 244.200000000000  5.33346686215637e-06 
 244.400000000000  5.65818026270052e-06 
 244.600000000000  6.02143212757648e-06 
 244.800000000000  6.42633628757405e-06 
 245.000000000000  6.87511146658553e-06 
 245.200000000000  7.36831641946124e-06 
 245.400000000000  7.90378369451928e-06 
 245.600000000000  8.47524765346359e-06 
 245.800000000000  9.07077230065819e-06 
 246.000000000000  9.67127978048045e-06 
 246.200000000000  1.02497476228228e-05 
 246.400000000000  1.07718812547528e-05 
 246.600000000000  1.11990548376505e-05 
 246.800000000000  1.14937749174084e-05 
 247.000000000000  1.16267939283852e-05 
 247.200000000000  1.15837470684988e-05 
 247.400000000000  1.13687339571457e-05 
 247.600000000000  1.10032753851996e-05 
 247.800000000000  1.05211138054397e-05 
 248.000000000000  9.96104843851318e-06 
 248.200000000000  9.36034577785900e-06 
 248.400000000000  8.75034493883885e-06 
 248.600000000000  8.15458250307829e-06 
 248.800000000000  7.58887005842397e-06 
 249.000000000000  7.06247605713090e-06 
 249.200000000000  6.57969425272552e-06 
 249.400000000000  6.14135207976173e-06 
 249.600000000000  5.74605418557692e-06 
 249.800000000000  5.39111297648852e-06 
 250.000000000000  5.07319703585108e-06 
 250.200000000000  4.78875633634478e-06 
 250.400000000000  4.53428447840227e-06 
 250.600000000000  4.30646852511327e-06 
 250.800000000000  4.10226480286970e-06 
 251.000000000000  3.91892799836201e-06 
 251.200000000000  3.75401217158066e-06 
 251.400000000000  3.60535593102748e-06 
 251.600000000000  3.47105957444390e-06 
 251.800000000000  3.34945900579502e-06 
 252.000000000000  3.23909927713521e-06 
 252.200000000000  3.13870934764304e-06 
 252.400000000000  3.04717886662111e-06 
 252.600000000000  2.96353730947657e-06 
 252.800000000000  2.88693551544781e-06 
 253.000000000000  2.81662952017401e-06 
 253.200000000000  2.75196649758737e-06 
 253.400000000000  2.69237259348044e-06 
 253.600000000000  2.63734242807827e-06 
 253.800000000000  2.58643005490177e-06 
 254.000000000000  2.53924118069238e-06 
 254.200000000000  2.49542647170747e-06 
 254.400000000000  2.45467579269135e-06 
 254.600000000000  2.41671324485206e-06 
 254.800000000000  2.38129288751530e-06 
 255.000000000000  2.34819504449773e-06 
 255.200000000000  2.31722311060650e-06 
 255.400000000000  2.28820078612724e-06 
 255.600000000000  2.26096967787317e-06 
 255.800000000000  2.23538721452670e-06 
 256.000000000000  2.21132483180381e-06 
 256.200000000000  2.18866638959600e-06 
 256.400000000000  2.16730678886163e-06 
 256.600000000000  2.14715076079699e-06 
 256.800000000000  2.12811180484712e-06 
 257.000000000000  2.11011125552947e-06 
 257.200000000000  2.09307746093540e-06 
 257.400000000000  2.07694505822703e-06 
 257.600000000000  2.06165433352808e-06 
 257.800000000000  2.04715065537656e-06 
 258.000000000000  2.03338397241175e-06 
 258.200000000000  2.02030836725029e-06 
 258.400000000000  2.00788165960024e-06 
 258.600000000000  1.99606505259694e-06 
 258.800000000000  1.98482281714457e-06 
 259.000000000000  1.97412200973366e-06 
 259.200000000000  1.96393221979356e-06 
 259.400000000000  1.95422534314566e-06 
 259.600000000000  1.94497537855973e-06 
 259.800000000000  1.93615824479240e-06 
 260.000000000000  1.92775161581227e-06 
 260.200000000000  1.91973477219828e-06 
 260.400000000000  1.91208846694216e-06 
 260.600000000000  1.90479480409842e-06 
 260.800000000000  1.89783712890990e-06 
 261.000000000000  1.89119992819781e-06 
 261.200000000000  1.88486873994610e-06 
 261.400000000000  1.87883007113223e-06 
 261.600000000000  1.87307132296441e-06 
 261.800000000000  1.86758072277952e-06 
 262.000000000000  1.86234726193842e-06 
 262.200000000000  1.85736063912863e-06 
 262.400000000000  1.85261120854798e-06 
 262.600000000000  1.84808993249974e-06 
 262.800000000000  1.84378833797931e-06 
 263.000000000000  1.83969847687693e-06 
 263.200000000000  1.83581288945991e-06 
 263.400000000000  1.83212457083235e-06 
 263.600000000000  1.82862694010136e-06 
 263.800000000000  1.82531381200586e-06 
 264.000000000000  1.82217937078861e-06 
 264.200000000000  1.81921814611358e-06 
 264.400000000000  1.81642499085033e-06 
 264.600000000000  1.81379506056423e-06 
 264.800000000000  1.81132379456674e-06 
 265.000000000000  1.80900689839404e-06 
 265.200000000000  1.80684032759448e-06 
 265.400000000000  1.80482027271644e-06 
 265.600000000000  1.80294314539849e-06 
 265.800000000000  1.80120556547229e-06 
 266.000000000000  1.79960434899713e-06 
 266.200000000000  1.79813649715207e-06 
 266.400000000000  1.79679918591838e-06 
 266.600000000000  1.79558975649083e-06 
 266.800000000000  1.79450570636167e-06 
 267.000000000000  1.79354468102629e-06 
 267.200000000000  1.79270446626359e-06 
 267.400000000000  1.79198298094825e-06 
 267.600000000000  1.79137827035587e-06 
 267.800000000000  1.79088849992485e-06 
 268.000000000000  1.79051194944224e-06 
 268.200000000000  1.79024700762329e-06 
 268.400000000000  1.79009216705699e-06 
 268.600000000000  1.79004601949215e-06 
 268.800000000000  1.79010725144057e-06 
 269.000000000000  1.79027464007575e-06 
 269.200000000000  1.79054704940746e-06 
 269.400000000000  1.79092342671367e-06 
 269.600000000000  1.79140279921340e-06 
 269.800000000000  1.79198427096458e-06 
 270.000000000000  1.79266701997306e-06 
 270.200000000000  1.79345029549928e-06 
 270.400000000000  1.79433341555066e-06 
 270.600000000000  1.79531576454841e-06 
 270.800000000000  1.79639679115842e-06 
 271.000000000000  1.79757600627678e-06 
 271.200000000000  1.79885298116093e-06 
 271.400000000000  1.80022734569857e-06 
 271.600000000000  1.80169878680652e-06 
 271.800000000000  1.80326704695289e-06 
 272.000000000000  1.80493192279600e-06 
 272.200000000000  1.80669326393412e-06 
 272.400000000000  1.80855097176086e-06 
 272.600000000000  1.81050499842084e-06 
 272.800000000000  1.81255534586136e-06 
 273.000000000000  1.81470206497569e-06 
 273.200000000000  1.81694525483414e-06 
 273.400000000000  1.81928506199932e-06 
 273.600000000000  1.82172167992243e-06 
 273.800000000000  1.82425534841756e-06 
 274.000000000000  1.82688635321126e-06 
 274.200000000000  1.82961502556515e-06 
 274.400000000000  1.83244174196907e-06 
 274.600000000000  1.83536692390309e-06 
 274.800000000000  1.83839103766646e-06 
 275.000000000000  1.84151459427197e-06 
 275.200000000000  1.84473814940446e-06 
 275.400000000000  1.84806230344218e-06 
 275.600000000000  1.85148770154015e-06 
 275.800000000000  1.85501503377457e-06 
 276.000000000000  1.85864503534780e-06 
 276.200000000000  1.86237848685323e-06 
 276.400000000000  1.86621621459989e-06 
 276.600000000000  1.87015909099652e-06 
 276.800000000000  1.87420803499512e-06 
 277.000000000000  1.87836401259409e-06 
 277.200000000000  1.88262803740124e-06 
 277.400000000000  1.88700117125707e-06 
 277.600000000000  1.89148452491892e-06 
 277.800000000000  1.89607925880668e-06 
 278.000000000000  1.90078658381083e-06 
 278.200000000000  1.90560776216398e-06 
 278.400000000000  1.91054410837687e-06 
 278.600000000000  1.91559699024024e-06 
 278.800000000000  1.92076782989397e-06 
 279.000000000000  1.92605810496510e-06 
 279.200000000000  1.93146934977644e-06 
 279.400000000000  1.93700315662783e-06 
 279.600000000000  1.94266117715195e-06 
 279.800000000000  1.94844512374709e-06 
 280.000000000000  1.95435677108919e-06 
 280.200000000000  1.96039795772599e-06 
 280.400000000000  1.96657058775582e-06 
 280.600000000000  1.97287663259431e-06 
 280.800000000000  1.97931813283209e-06 
 281.000000000000  1.98589720018702e-06 
 281.200000000000  1.99261601955457e-06 
 281.400000000000  1.99947685116033e-06 
 281.600000000000  2.00648203281879e-06 
 281.800000000000  2.01363398230283e-06 
 282.000000000000  2.02093519982870e-06 
 282.200000000000  2.02838827066144e-06 
 282.400000000000  2.03599586784608e-06 
 282.600000000000  2.04376075507037e-06 
 282.800000000000  2.05168578966497e-06 
 283.000000000000  2.05977392574749e-06 
 283.200000000000  2.06802821751717e-06 
 283.400000000000  2.07645182270741e-06 
 283.600000000000  2.08504800620377e-06 
 283.800000000000  2.09382014383553e-06 
 284.000000000000  2.10277172634934e-06 
 284.200000000000  2.11190636357427e-06 
 284.400000000000  2.12122778878771e-06 
 284.600000000000  2.13073986329260e-06 
 284.800000000000  2.14044658121681e-06 
 285.000000000000  2.15035207454623e-06 
 285.200000000000  2.16046061840410e-06 
 285.400000000000  2.17077663658935e-06 
 285.600000000000  2.18130470738823e-06 
 285.800000000000  2.19204956967374e-06 
 286.000000000000  2.20301612930879e-06 
 286.200000000000  2.21420946586975e-06 
 286.400000000000  2.22563483970826e-06 
 286.600000000000  2.23729769937032e-06 
 286.800000000000  2.24920368939271e-06 
 287.000000000000  2.26135865849855e-06 
 287.200000000000  2.27376866821476e-06 
 287.400000000000  2.28644000193590e-06 
 287.600000000000  2.29937917446067e-06 
 287.800000000000  2.31259294202882e-06 
 288.000000000000  2.32608831288819e-06 
 288.200000000000  2.33987255842379e-06 
 288.400000000000  2.35395322488281e-06 
 288.600000000000  2.36833814573187e-06 
 288.800000000000  2.38303545468529e-06 
 289.000000000000  2.39805359944616e-06 
 289.200000000000  2.41340135620434e-06 
 289.400000000000  2.42908784493937e-06 
 289.600000000000  2.44512254557917e-06 
 289.800000000000  2.46151531506938e-06 
 290.000000000000  2.47827640541192e-06 
 290.200000000000  2.49541648273607e-06 
 290.400000000000  2.51294664746945e-06 
 290.600000000000  2.53087845568194e-06 
 290.800000000000  2.54922394168055e-06 
 291.000000000000  2.56799564193935e-06 
 291.200000000000  2.58720662045515e-06 
 291.400000000000  2.60687049562627e-06 
 291.600000000000  2.62700146875950e-06 
 291.800000000000  2.64761435431864e-06 
 292.000000000000  2.66872461203660e-06 
 292.200000000000  2.69034838102321e-06 
 292.400000000000  2.71250251601112e-06 
 292.600000000000  2.73520462589393e-06 
 292.800000000000  2.75847311472306e-06 
 293.000000000000  2.78232722534375e-06 
 293.200000000000  2.80678708586560e-06 
 293.400000000000  2.83187375917911e-06 
 293.600000000000  2.85760929574815e-06 
 293.800000000000  2.88401678992718e-06 
 294.000000000000  2.91112044007419e-06 
 294.200000000000  2.93894561275338e-06 
 294.400000000000  2.96751891134756e-06 
 294.600000000000  2.99686824942882e-06 
 294.800000000000  3.02702292926665e-06 
 295.000000000000  3.05801372588757e-06 
 295.200000000000  3.08987297713749e-06 
 295.400000000000  3.12263468023995e-06 
 295.600000000000  3.15633459538914e-06 
 295.800000000000  3.19101035696693e-06 
 296.000000000000  3.22670159302936e-06 
 296.200000000000  3.26345005376975e-06 
 296.400000000000  3.30129974973372e-06 
 296.600000000000  3.34029710063780e-06 
 296.800000000000  3.38049109572662e-06 
 297.000000000000  3.42193346669780e-06 
 297.200000000000  3.46467887432675e-06 
 297.400000000000  3.50878511003941e-06 
 297.600000000000  3.55431331380949e-06 
 297.800000000000  3.60132820989982e-06 
 298.000000000000  3.64989836212783e-06 
 298.200000000000  3.70009645051361e-06 
 298.400000000000  3.75199957136927e-06 
 298.600000000000  3.80568956311239e-06 
 298.800000000000  3.86125336033747e-06 
 299.000000000000  3.91878337896128e-06 
 299.200000000000  3.97837793557572e-06 
 299.400000000000  4.04014170449797e-06 
 299.600000000000  4.10418621641083e-06 
 299.800000000000  4.17063040293934e-06 
 300.000000000000  4.23960119202347e-06 
