-0.0100000000000000  0.000144822564614257 
-0.00980000000000003  0.000147565694587071 
-0.00960000000000005  0.000150350890758304 
-0.00939999999999996  0.000153176982838782 
-0.00919999999999999  0.000156042608515017 
-0.00900000000000001  0.000158946201843198 
-0.00880000000000003  0.000161885981748768 
-0.00860000000000005  0.000164859940755516 
-0.00839999999999996  0.000167865834082538 
-0.00819999999999999  0.000170901169261989 
-0.00800000000000001  0.000173963196444514 
-0.00780000000000003  0.000177048899572425 
-0.00760000000000005  0.000180154988612624 
-0.00739999999999996  0.000183277893051389 
-0.00719999999999998  0.000186413756860918 
-0.00700000000000001  0.000189558435152612 
-0.00680000000000003  0.000192707492733556 
-0.00660000000000005  0.000195856204780334 
-0.00639999999999996  0.000198999559837509 
-0.00619999999999998  0.000202132265336308 
-0.00600000000000001  0.000205248755812133 
-0.00580000000000003  0.000208343203976913 
-0.00560000000000005  0.000211409534774294 
-0.00539999999999996  0.000214441442511926 
-0.00519999999999998  0.000217432411126231 
-0.00500000000000000  0.000220375737591262 
-0.00480000000000003  0.000223264558435409 
-0.00460000000000005  0.000226091879278566 
-0.00439999999999996  0.000228850607249144 
-0.00419999999999998  0.000231533586086003 
-0.00400000000000000  0.000234133633676758 
-0.00380000000000003  0.000236643581731818 
-0.00360000000000005  0.000239056317245182 
-0.00339999999999996  0.000241364825349069 
-0.00319999999999998  0.000243562233131859 
-0.00300000000000000  0.000245641853958278 
-0.00280000000000002  0.000247597231808413 
-0.00260000000000005  0.000249422185138571 
-0.00239999999999996  0.000251110849762598 
-0.00219999999999998  0.000252657720256947 
-0.00200000000000000  0.000254057689406568 
-0.00180000000000002  0.000255306085230736 
-0.00160000000000005  0.000256398705157653 
-0.00139999999999996  0.000257331846953171 
-0.00119999999999998  0.000258102336050952 
-0.00100000000000000  0.000258707548978030 
-0.000800000000000023  0.000259145432619603 
-0.000600000000000045  0.000259414519119235 
-0.000399999999999956  0.000259513936264155 
-0.000199999999999978  0.000259443413259547 
 0.00000000000000  0.000259203281849592 
 0.000199999999999978  0.000258794472796207 
 0.000399999999999956  0.000258218507778355 
 0.000600000000000045  0.000257477486825166 
 0.000800000000000023  0.000256574071444517 
 0.00100000000000000  0.000255511463654926 
 0.00119999999999998  0.000254293381172281 
 0.00139999999999996  0.000252924029043610 
 0.00160000000000005  0.000251408068057431 
 0.00180000000000002  0.000249750580293695 
 0.00200000000000000  0.000247957032205319 
 0.00219999999999998  0.000246033235647341 
 0.00239999999999996  0.000243985307288132 
 0.00260000000000005  0.000241819626849372 
 0.00280000000000002  0.000239542794627285 
 0.00300000000000000  0.000237161588746416 
 0.00319999999999998  0.000234682922589182 
 0.00339999999999996  0.000232113802829232 
 0.00360000000000005  0.000229461288474881 
 0.00380000000000003  0.000226732451300840 
 0.00400000000000000  0.000223934338012740 
 0.00419999999999998  0.000221073934450650 
 0.00439999999999996  0.000218158132095523 
 0.00460000000000005  0.000215193697097673 
 0.00480000000000003  0.000212187241999882 
 0.00500000000000000  0.000209145200280821 
 0.00519999999999998  0.000206073803798188 
 0.00539999999999996  0.000202979063166293 
 0.00560000000000005  0.000199866751060758 
 0.00580000000000003  0.000196742388404220 
 0.00600000000000001  0.000193611233351994 
 0.00619999999999998  0.000190478272966269 
 0.00639999999999996  0.000187348217441408 
 0.00660000000000005  0.000184225496721913 
 0.00680000000000003  0.000181114259338207 
 0.00700000000000001  0.000178018373273581 
 0.00719999999999998  0.000174941428668262 
 0.00739999999999996  0.000171886742163060 
 0.00760000000000005  0.000168857362685192 
 0.00780000000000003  0.000165856078482224 
 0.00800000000000001  0.000162885425215958 
 0.00819999999999999  0.000159947694936412 
 0.00839999999999996  0.000157044945765919 
 0.00860000000000005  0.000154179012134719 
 0.00880000000000003  0.000151351515421674 
 0.00900000000000001  0.000148563874866505 
 0.00919999999999999  0.000145817318633089 
 0.00939999999999996  0.000143112894916356 
 0.00960000000000005  0.000140451482998135 
 0.00980000000000003  0.000137833804169693 
 0.0100000000000000  0.000135260432450422 
