-1.00000000000000e-08  0.00000000000000  0.00000000000000  0.00000000000000  0.00000000000000 
-9.00000000000000e-09  0.00000000000000  0.00000000000000  0.00000000000000  0.00000000000000 
-8.00000000000000e-09  0.00000000000000  0.00000000000000  0.00000000000000  0.00000000000000 
-7.00000000000000e-09  0.00000000000000  0.00000000000000  0.00000000000000  0.00000000000000 
-6.00000000000000e-09  0.00000000000000  0.00000000000000  0.00000000000000  0.00000000000000 
-5.00000000000000e-09  0.00000000000000  0.00000000000000  0.00000000000000  0.00000000000000 
-4.00000000000000e-09  0.00000000000000  0.00000000000000  0.00000000000000  0.00000000000000 
-3.00000000000000e-09  0.00000000000000  0.00000000000000  0.00000000000000  0.00000000000000 
-2.00000000000000e-09  0.00000000000000  0.00000000000000  0.00000000000000  0.00000000000000 
-9.99999999999999e-10  0.00000000000000  0.00000000000000  0.00000000000000  0.00000000000000 
 0.00000000000000  0.00000000000000  0.00000000000000  0.00000000000000  0.00000000000000 
 1.00000000000000e-09  0.00000000000000  0.00000000000000  0.00000000000000  0.00000000000000 
 2.00000000000000e-09  0.00000000000000  0.00000000000000  0.00000000000000  0.00000000000000 
 3.00000000000000e-09  0.00000000000000  0.00000000000000  0.00000000000000  0.00000000000000 
 4.00000000000000e-09  0.00000000000000  0.00000000000000  0.00000000000000  0.00000000000000 
 5.00000000000000e-09  0.00000000000000  0.00000000000000  0.00000000000000  0.00000000000000 
 6.00000000000000e-09  0.00000000000000  0.00000000000000  0.00000000000000  0.00000000000000 
 7.00000000000000e-09  0.00000000000000  0.00000000000000  0.00000000000000  0.00000000000000 
 8.00000000000000e-09  0.00000000000000  0.00000000000000  0.00000000000000  0.00000000000000 
 9.00000000000000e-09  0.00000000000000  0.00000000000000  0.00000000000000  0.00000000000000 
 1.00000000000000e-08  0.00000000000000  0.00000000000000  0.00000000000000  0.00000000000000 
