-10.0000000000000  0.0251606390623892 
-8.10000000000000  0.0188075676550785 
-6.20000000000000  0.0137244004113395 
-4.30000000000000  0.00995585725492501 
-2.40000000000000  0.00753509250764271 
-0.500000000000000  0.00648340320925206 
 1.40000000000000  0.00681004175357345 
 3.30000000000000  0.00851213448917025 
 5.20000000000000  0.0115747070007272 
 7.10000000000000  0.0159708158487077 
 9.00000000000000  0.0216617856082917 
 10.9000000000000  0.0285975491222069 
 12.8000000000000  0.0367170879740309 
 14.7000000000000  0.0459489693068312 
 16.6000000000000  0.0562119742644040 
 18.5000000000000  0.0674158125263036 
 20.4000000000000  0.0794619166504354 
 22.3000000000000  0.0922443092348632 
 24.2000000000000  0.105650535269847 
 26.1000000000000  0.119562651477602 
 28.0000000000000  0.133858263935920 
 29.9000000000000  0.148411604856997 
 31.8000000000000  0.163094639048344 
 33.7000000000000  0.177778190321545 
 35.6000000000000  0.192333077939075 
 37.5000000000000  0.206631253101158 
 39.4000000000000  0.220546925474225 
 41.3000000000000  0.233957669850176 
 43.2000000000000  0.246745503200457 
 45.1000000000000  0.258797922649386 
 47.0000000000000  0.270008895235025 
 48.9000000000000  0.280279790750013 
 50.8000000000000  0.289520249455561 
 52.7000000000000  0.297648977034761 
 54.6000000000000  0.304594459791496 
 56.5000000000000  0.310295593802869 
 58.4000000000000  0.314702222490103 
 60.3000000000000  0.317775577878538 
 62.2000000000000  0.319488621664687 
 64.1000000000000  0.319826283089751 
 66.0000000000000  0.318785591526872 
 67.9000000000000  0.316375702615668 
 69.8000000000000  0.312617817714127 
 71.7000000000000  0.307544997376485 
 73.6000000000000  0.301201870498060 
 75.5000000000000  0.293644241685875 
 77.4000000000000  0.284938600309284 
 79.3000000000000  0.275161535549803 
 81.2000000000000  0.264399062596336 
 83.1000000000000  0.252745865913694 
 85.0000000000000  0.240304466241856 
 86.9000000000000  0.227184318654437 
 88.8000000000000  0.213500849611308 
 90.7000000000000  0.199374441477067 
 92.6000000000000  0.184929373439181 
 94.5000000000000  0.170292728143260 
 96.4000000000000  0.155593273664481 
 98.3000000000000  0.140960330651196 
 100.200000000000  0.126522634607196 
 102.100000000000  0.112407203321868 
 104.000000000000  0.0987382194122044 
 105.900000000000  0.0856359378076674 
 107.800000000000  0.0732156277894648 
 109.700000000000  0.0615865588918185 
 111.600000000000  0.0508510395869005 
 113.500000000000  0.0411035172107538 
 115.400000000000  0.0324297470487339 
 117.300000000000  0.0249060378905657 
 119.200000000000  0.0185985806923572 
 121.100000000000  0.0135628662517681 
 123.000000000000  0.00984319701942159 
 124.900000000000  0.00747229734147142 
 126.800000000000  0.00647102556227484 
 128.700000000000  0.00684819051998961 
 130.600000000000  0.00860047404950365 
 132.500000000000  0.0117124601744886 
 134.400000000000  0.0161567707317565 
 136.300000000000  0.0218943062347435 
 138.200000000000  0.0288745898570881 
 140.100000000000  0.0370362115100585 
 142.000000000000  0.0463073681069875 
 143.900000000000  0.0566064952616637 
 145.800000000000  0.0678429848632119 
 147.700000000000  0.0799179822144957 
 149.600000000000  0.0927252557210934 
 151.500000000000  0.106152131479632 
 153.400000000000  0.120080484543298 
 155.300000000000  0.134387778143716 
 157.200000000000  0.148948141726485 
 159.100000000000  0.163633478316204 
 161.000000000000  0.178314591468760 
 162.900000000000  0.192862321896361 
 164.800000000000  0.207148683765678 
 166.700000000000  0.221047990672352 
 168.600000000000  0.234437961385921 
 170.500000000000  0.247200795637230 
 172.400000000000  0.259224210483908 
 174.300000000000  0.270402428136343 
 176.200000000000  0.280637106553593 
 178.100000000000  0.289838204622203 
 180.000000000000  0.297924774306353 
