-0.000100000000000000 -0.0153847048393395  0.0198300432953052 
-9.80000000000000e-05 -0.0153193301055293  0.0191729689359669 
-9.60000000000000e-05 -0.0152357152332122  0.0185048381975358 
-9.40000000000000e-05 -0.0151339976170263  0.0178278534003633 
-9.20000000000000e-05 -0.0150143952447326  0.0171442545413419 
-9.00000000000000e-05 -0.0148772038652272  0.0164562997279491 
-8.80000000000000e-05 -0.0147227932270275  0.0157662455643803 
-8.60000000000000e-05 -0.0145516024657524  0.0150763278200312 
-8.40000000000000e-05 -0.0143641347366502  0.0143887426960421 
-8.20000000000000e-05 -0.0141609512024885  0.0137056289826350 
-8.00000000000000e-05 -0.0139426644977064  0.0130290513696554 
-7.80000000000000e-05 -0.0137099317964518  0.0123609851364217 
-7.60000000000000e-05 -0.0134634476149266  0.0117033024062276 
-7.40000000000000e-05 -0.0132039364774961  0.0110577601072547 
-7.20000000000000e-05 -0.0129321455715545  0.0104259897369078 
-7.00000000000000e-05 -0.0126488375085908  0.00980948898223214 
-6.80000000000000e-05 -0.0123547832987616  0.00920961520658632 
-6.60000000000000e-05 -0.0120507556341113  0.00862758077334474 
-6.40000000000000e-05 -0.0117375225619701  0.00806445014211017 
-6.20000000000000e-05 -0.0114158416155901  0.00752113864247133 
-6.00000000000000e-05 -0.0110864544543027  0.00699841280521550 
-5.80000000000000e-05 -0.0107500820508932  0.00649689211133070 
-5.60000000000000e-05 -0.0104074204499321  0.00601705200508057 
-5.40000000000000e-05 -0.0100591371078248  0.00555922800869780 
-5.20000000000000e-05 -0.00970586781361691  0.00512362077242809 
-5.00000000000000e-05 -0.00934821417931534  0.00471030189426214 
-4.80000000000000e-05 -0.00898674167975829  0.00431922034812313 
-4.60000000000000e-05 -0.00862197821494083  0.00395020936689180 
-4.40000000000000e-05 -0.00825441316215144  0.00360299363680287 
-4.20000000000000e-05 -0.00788449688122683  0.00327719667179591 
-4.00000000000000e-05 -0.00751264063358633  0.00297234824976011 
-3.80000000000000e-05 -0.00713921687431720  0.00268789180673196 
-3.60000000000000e-05 -0.00676455987630035  0.00242319169951695 
-3.40000000000000e-05 -0.00638896664602702  0.00217754026150981 
-3.20000000000000e-05 -0.00601269809219534  0.00195016459035530 
-3.00000000000000e-05 -0.00563598041023491  0.00174023301927077 
-2.80000000000000e-05 -0.00525900664843639  0.00154686123615435 
-2.60000000000000e-05 -0.00488193842422399  0.00136911802590383 
-2.40000000000000e-05 -0.00450490776218270  0.00120603062159935 
-2.20000000000000e-05 -0.00412801902862973  0.00105658965933015 
-2.00000000000000e-05 -0.00375135094071311  0.000919753739482575 
-1.80000000000000e-05 -0.00337495863115412  0.000794453604292504 
-1.60000000000000e-05 -0.00299887575276333  0.000679595947460214 
-1.40000000000000e-05 -0.00262311660970630  0.000574066876706552 
-1.20000000000000e-05 -0.00224767830513649  0.000476735054399612 
-1.00000000000000e-05 -0.00187254289722477  0.000386454544891025 
-7.99999999999999e-06 -0.00149767955777726  0.000302067400058766 
-6.00000000000000e-06 -0.00112304672953507  0.000222406016845248 
-3.99999999999999e-06 -0.000748594279882555  0.000146295302384377 
-1.99999999999999e-06 -0.000374265650051905  7.25546837008113e-05 
 0.00000000000000  0.00000000000000  0.00000000000000 
 2.00000000000001e-06  0.000374265650051907 -7.25546837008120e-05 
 4.00000000000000e-06  0.000748594279882557 -0.000146295302384378 
 6.00000000000001e-06  0.00112304672953508 -0.000222406016845249 
 8.00000000000000e-06  0.00149767955777726 -0.000302067400058766 
 1.00000000000000e-05  0.00187254289722477 -0.000386454544891025 
 1.20000000000000e-05  0.00224767830513649 -0.000476735054399612 
 1.40000000000000e-05  0.00262311660970630 -0.000574066876706552 
 1.60000000000000e-05  0.00299887575276333 -0.000679595947460215 
 1.80000000000000e-05  0.00337495863115412 -0.000794453604292506 
 2.00000000000000e-05  0.00375135094071311 -0.000919753739482575 
 2.20000000000000e-05  0.00412801902862974 -0.00105658965933015 
 2.40000000000000e-05  0.00450490776218271 -0.00120603062159935 
 2.60000000000000e-05  0.00488193842422399 -0.00136911802590383 
 2.80000000000000e-05  0.00525900664843639 -0.00154686123615435 
 3.00000000000000e-05  0.00563598041023491 -0.00174023301927077 
 3.20000000000000e-05  0.00601269809219534 -0.00195016459035530 
 3.40000000000000e-05  0.00638896664602702 -0.00217754026150982 
 3.60000000000000e-05  0.00676455987630035 -0.00242319169951695 
 3.80000000000000e-05  0.00713921687431719 -0.00268789180673195 
 4.00000000000000e-05  0.00751264063358633 -0.00297234824976011 
 4.20000000000000e-05  0.00788449688122683 -0.00327719667179591 
 4.40000000000000e-05  0.00825441316215145 -0.00360299363680287 
 4.60000000000000e-05  0.00862197821494084 -0.00395020936689180 
 4.80000000000000e-05  0.00898674167975829 -0.00431922034812314 
 5.00000000000000e-05  0.00934821417931535 -0.00471030189426214 
 5.20000000000000e-05  0.00970586781361691 -0.00512362077242809 
 5.40000000000000e-05  0.0100591371078248 -0.00555922800869779 
 5.60000000000000e-05  0.0104074204499322 -0.00601705200508057 
 5.80000000000000e-05  0.0107500820508932 -0.00649689211133070 
 6.00000000000000e-05  0.0110864544543027 -0.00699841280521550 
 6.20000000000000e-05  0.0114158416155901 -0.00752113864247133 
 6.40000000000000e-05  0.0117375225619701 -0.00806445014211019 
 6.60000000000000e-05  0.0120507556341113 -0.00862758077334474 
 6.80000000000000e-05  0.0123547832987616 -0.00920961520658632 
 7.00000000000000e-05  0.0126488375085908 -0.00980948898223214 
 7.20000000000000e-05  0.0129321455715545 -0.0104259897369078 
 7.40000000000000e-05  0.0132039364774961 -0.0110577601072547 
 7.60000000000000e-05  0.0134634476149266 -0.0117033024062276 
 7.80000000000000e-05  0.0137099317964518 -0.0123609851364217 
 8.00000000000000e-05  0.0139426644977064 -0.0130290513696554 
 8.20000000000000e-05  0.0141609512024885 -0.0137056289826350 
 8.40000000000000e-05  0.0143641347366503 -0.0143887426960421 
 8.60000000000000e-05  0.0145516024657524 -0.0150763278200312 
 8.80000000000000e-05  0.0147227932270276 -0.0157662455643803 
 9.00000000000000e-05  0.0148772038652272 -0.0164562997279491 
 9.20000000000000e-05  0.0150143952447326 -0.0171442545413419 
 9.40000000000000e-05  0.0151339976170263 -0.0178278534003633 
 9.60000000000000e-05  0.0152357152332123 -0.0185048381975358 
 9.80000000000000e-05  0.0153193301055293 -0.0191729689359669 
 0.000100000000000000  0.0153847048393395 -0.0198300432953052 
