 9.99999999999998e-09  3982.72347737713 
 1.07151930523760e-08  4266.78080373827 
 1.14815362149688e-08  4570.89927967686 
 1.23026877081238e-08  4896.42468226131 
 1.31825673855640e-08  5244.76606023017 
 1.41253754462275e-08  5617.38755494903 
 1.51356124843621e-08  6015.79463606753 
 1.62181009735893e-08  6441.51237239282 
 1.73780082874937e-08  6896.05241325344 
 1.86208713666287e-08  7380.86405154418 
 1.99526231496888e-08  7897.26295316905 
 2.13796208950223e-08  8446.32871401643 
 2.29086765276777e-08  9028.75916218087 
 2.45470891568503e-08  9644.66506622842 
 2.63026799189538e-08  10293.2834813549 
 2.81838293126445e-08  10972.5813433743 
 3.01995172040201e-08  11678.7134280370 
 3.23593656929627e-08  12405.2914822437 
 3.46736850452532e-08  13142.4166653292 
 3.71535229097173e-08  13875.4303985622 
 3.98107170553497e-08  14583.3584844276 
 4.26579518801592e-08  15237.0753976849 
 4.57088189614875e-08  15797.3235142235 
 4.89778819368446e-08  16212.9164146260 
 5.24807460249772e-08  16419.7650455435 
 5.62341325190348e-08  16341.7905499154 
 6.02559586074356e-08  15895.2435479865 
 6.45654229034654e-08  14998.1825945728 
 6.91830970918935e-08  13586.3823027064 
 7.41310241300915e-08  11635.0993836124 
 7.94328234724282e-08  9182.58281673337 
 8.51138038202376e-08  6346.83258755358 
 9.12010839355910e-08  3324.68008704005 
 9.77237220955810e-08  365.596264703656 
 1.04712854805090e-07  2276.90982216231 
 1.12201845430196e-07  4400.61055990919 
 1.20226443461741e-07  5895.00550389024 
 1.28824955169313e-07  6752.08071561731 
 1.38038426460288e-07  7047.67149735083 
 1.47910838816821e-07  6906.33465163927 
 1.58489319246111e-07  6465.58767953434 
 1.69824365246174e-07  5850.01583194447 
 1.81970085860998e-07  5158.10678397026 
 1.94984459975805e-07  4459.41263364858 
 2.08929613085404e-07  3797.85300805200 
 2.23872113856834e-07  3197.49872984129 
 2.39883291901949e-07  2668.50921186620 
 2.57039578276886e-07  2212.11650213550 
 2.75422870333816e-07  1824.34687870495 
 2.95120922666638e-07  1498.57730666469 
 3.16227766016837e-07  1227.17258920756 
 3.38844156139202e-07  1002.46215968692 
 3.63078054770101e-07  817.273230511454 
 3.89045144994280e-07  665.181963606000 
 4.16869383470335e-07  540.594861637705 
 4.46683592150963e-07  438.734277370781 
 4.78630092322638e-07  355.574647160053 
 5.12861383991365e-07  287.757643185161 
 5.49540873857624e-07  232.502497428504 
 5.88843655355588e-07  187.520173989992 
 6.30957344480193e-07  150.935021947744 
 6.76082975391981e-07  121.213117891730 
 7.24435960074989e-07  97.0925013527333 
 7.76247116628692e-07  77.5207642776197 
 8.31763771102671e-07  61.6384188938562 
 8.91250938133745e-07  48.7867152218688 
 9.54992586021437e-07  38.4489717215312 
 1.02329299228075e-06  30.1874992658476 
 1.09647819614319e-06  23.6261573952370 
 1.17489755493953e-06  18.4445825448228 
 1.25892541179417e-06  14.3704479670202 
 1.34896288259165e-06  11.1740849490579 
 1.44543977074593e-06  8.67997218047906 
 1.54881661891248e-06  6.79247527476444 
 1.65958690743756e-06  5.40206335696468 
 1.77827941003892e-06  4.34436104336110 
 1.90546071796325e-06  3.52274457451249 
 2.04173794466953e-06  2.88681219490953 
 2.18776162394955e-06  2.39948792805778 
 2.34422881531992e-06  2.03076397747573 
 2.51188643150958e-06  1.75586845185686 
 2.69153480392692e-06  1.55277246051469 
 2.88403150312661e-06  1.39850575729291 
 3.09029543251359e-06  1.26461411675969 
 3.31131121482591e-06  1.11456598852634 
 3.54813389233575e-06  0.911307681134892 
 3.80189396320561e-06  0.643960168568585 
 4.07380277804113e-06  0.357213170529630 
 4.36515832240166e-06  0.131342396454298 
 4.67735141287199e-06  0.0118906621103661 
 5.01187233627273e-06  0.0215346829017500 
 5.37031796370253e-06  0.0170611971940880 
 5.75439937337157e-06  0.00741541903219409 
 6.16595001861482e-06  0.00221870941530505 
 6.60693448007596e-06  0.000481282348182540 
 7.07945784384137e-06  7.57110302371366e-05 
 7.58577575029183e-06  8.40527323243134e-06 
 8.12830516164098e-06  6.29972764196161e-07 
 8.70963589956081e-06  3.01462185540391e-08 
 9.33254300796991e-06  8.63004243607766e-10 
 1.00000000000000e-05  1.37166379788811e-11 
