-90.0000000000000  3.23427884511225  0.000884876491270209  0.000883458266163042  0.000775481935701238 
-88.2000000000000  3.22246433988145  0.00728030939476019  0.00777185337364447  0.00732599713532736 
-86.4000000000000  3.18636743024120  0.0136093354317663  0.0145931872341183  0.0138168852835298 
-84.6000000000000  3.12655738601913  0.0197721420824926  0.0212398833394288  0.0201457811983369 
-82.8000000000000  3.04397744734081  0.0256715382071243  0.0276071193242184  0.0262128744131239 
-81.0000000000000  2.93992994916948  0.0312144868081234  0.0335944800772057  0.0319224832472553 
-79.2000000000000  2.81605578270570  0.0363135722792025  0.0391075413474138  0.0371845637632865 
-77.4000000000000  2.67430851755295  0.0408883790015881  0.0440593588709409  0.0419161298135746 
-75.6000000000000  2.51692359275793  0.0448667595462853  0.0483718395338501  0.0460425617813128 
-73.8000000000000  2.34638306260148  0.0481859724820408  0.0519769729471249  0.0494987833763633 
-72.0000000000000  2.16537645311980  0.0507936718450910  0.0548179040110183  0.0522302879271174 
-70.2000000000000  1.97675834667226  0.0526487326661704  0.0568498295538171  0.0541939979831468 
-68.4000000000000  1.78350336347236  0.0537218995357273  0.0580407049044939  0.0553589446722035 
-66.6000000000000  1.58865925004997  0.0539962479790862  0.0583717492561760  0.0557067560977017 
-64.8000000000000  1.39529881446798  0.0534674513654000  0.0578377418505512  0.0552319470743666 
-63.0000000000000  1.20647146630347  0.0521438491410770  0.0564471043122046  0.0539420056327451 
-61.2000000000000  1.02515512563714  0.0500463153116057  0.0542217678344300  0.0518572749283556 
-59.4000000000000  0.854209259474621  0.0472079292458965  0.0511968273110755  0.0490106324178398 
-57.6000000000000  0.696329786243689  0.0436734539947582  0.0474199878689729  0.0454469713617041 
-55.8000000000000  0.554006559550169  0.0394986303507360  0.0429508125294675  0.0412224928306631 
-54.0000000000000  0.429484101699205  0.0347492977824150  0.0378597828638778  0.0364038193810705 
-52.2000000000000  0.324726206237688  0.0295003561065789  0.0322271874569104  0.0310669443773069 
-50.4000000000000  0.241384967756896  0.0238345842732769  0.0261418557076282  0.0252960335309394 
-48.6000000000000  0.180774727373877  0.0178413348922656  0.0196997569366886  0.0191820975570989 
-46.8000000000000  0.143851344786863  0.0116151250889234  0.0130024868927680  0.0128215568810758 
-45.0000000000000  0.131197123796831  0.00525414591268405  0.00615566552687250  0.00631472103057253 
-43.2000000000000  0.143011629028686 -0.00114128619449258 -0.000732728697410552 -0.000235793305496953 
-41.4000000000000  0.179108538677914 -0.00747031144834291 -0.00755406168879431 -0.00672668060350019 
-39.6000000000000  0.238918582916723 -0.0136331173413398 -0.0142007569527982 -0.0130555756948976 
-37.8000000000000  0.321498521619292 -0.0195325127455368 -0.0205679921373026 -0.0191226681260749 
-36.0000000000000  0.425546019822001 -0.0250754606746756 -0.0265553521436158 -0.0248322762287784 
-34.2000000000000  0.549420186323780 -0.0301745455329826 -0.0320684127325060 -0.0300943560771230 
-32.4000000000000  0.691167451520563 -0.0347493517112662 -0.0370202296507856 -0.0348259215340198 
-30.6000000000000  0.848552376364939 -0.0387277317890306 -0.0413327097940321 -0.0389523529920443 
-28.8000000000000  1.01909290657531 -0.0420469443423045 -0.0449378427813939 -0.0424085741691217 
-27.0000000000000  1.20009951611462 -0.0446546434132744 -0.0477787735198101 -0.0451400784002590 
-25.2000000000000  1.38871762262258 -0.0465097040371994 -0.0498106988426700 -0.0471037882400930 
-23.4000000000000  1.58197260588475 -0.0475828708075547 -0.0510015740823838 -0.0482687348198091 
-21.6000000000000  1.77681671937027 -0.0478572192511480 -0.0513326184337986 -0.0486165462445704 
-19.8000000000000  1.97017715501526 -0.0473284227370464 -0.0507986111385753 -0.0481417373291378 
-18.0000000000000  2.15900450324163 -0.0460048207100061 -0.0494079738195277 -0.0468517961023809 
-16.2000000000000  2.34032084396773 -0.0439072871723222 -0.0471826376664603 -0.0447670657164538 
-14.4000000000000  2.51126671018697 -0.0410689014882218 -0.0441576975680697 -0.0419204236230000 
-12.6000000000000  2.66914618347068 -0.0375344267024135 -0.0403808586444550 -0.0383567630759729 
-10.8000000000000  2.81146941021221 -0.0333596036000224 -0.0359116839087544 -0.0341322851380826 
-9.00000000000000  2.93599186810565 -0.0286102716410098 -0.0308206549227330 -0.0293136123563524 
-7.20000000000000  3.04074976360345 -0.0233613306324684 -0.0251880602603498 -0.0239767380846546 
-5.39999999999999  3.12409100211375 -0.0176955595138420 -0.0191027293088945 -0.0182058280230357 
-3.59999999999999  3.18470124251905 -0.0117023108835343 -0.0126606313764115 -0.0120918928742746 
-1.80000000000000  3.22162462512074 -0.00547610185500310 -0.00596336219832394 -0.00573135305067418 
 0.00000000000000  3.23427884611764  0.000884876534619066  0.000883458288047737  0.000775481933482154 
 1.80000000000000  3.22246434088472  0.00728030785585952  0.00777185163301732  0.00732599540291905 
 3.60000000000001  3.18636743122652  0.0136093323369312  0.0145931837591959  0.0138168818476471 
 5.40000000000001  3.12655738697097  0.0197721374825760  0.0212398781857784  0.0201457761125590 
 7.20000000000000  3.04397744824415  0.0256715321767155  0.0276071125738823  0.0262128677570507 
 9.00000000000000  2.93992995001007  0.0312144794443712  0.0335944718374064  0.0319224751252504 
 10.8000000000000  2.81605578347029  0.0363135637002832  0.0391075317488637  0.0371845543028324 
 12.6000000000000  2.67430851822947  0.0408883693448421  0.0440593480657808  0.0419161191632620 
 14.4000000000000  2.51692359333573  0.0448667489660511  0.0483718276932496  0.0460425501084971 
 16.2000000000000  2.34638306307144  0.0481859611472206  0.0519769602585832  0.0494987708645255 
 18.0000000000000  2.16537645347451  0.0507936599364873  0.0548178906754072  0.0522302747729702 
 19.8000000000000  1.97675834690613  0.0526487203736350  0.0568498157822130  0.0541939843935328 
 21.6000000000000  1.78350336358169  0.0537218870551661  0.0580406909148490  0.0553589308608324 
 23.4000000000000  1.58865925003304  0.0539962355093710  0.0583717352698813  0.0557067422817809 
 25.2000000000000  1.39529881432505  0.0534674391052313  0.0578377280889446  0.0552319334711749 
 27.0000000000000  1.20647146603682  0.0521438372858508  0.0564470909930808  0.0539419924562068 
 28.8000000000000  1.02515512525095  0.0500463040503314  0.0542217551686055  0.0518572623856661 
 30.6000000000000  0.854209258974988  0.0472079187582171  0.0511968154990637  0.0490106207061985 
 32.4000000000000  0.696329785638494  0.0436734444481161  0.0474199770978221  0.0454469606652042 
 34.2000000000000  0.554006558848956  0.0394986218977334  0.0429508029698111  0.0412224833173885 
 36.0000000000000  0.429484100913034  0.0347492905584063  0.0378597746672431  0.0364038112004448 
 37.8000000000000  0.324726205378956  0.0295003502275368  0.0322271807533290  0.0310669376577371 
 39.6000000000000  0.241384966839147  0.0238345798339631  0.0261418506035855  0.0252960283777908 
 41.4000000000000  0.180774726411582  0.0178413319647364  0.0196997535134442  0.0191820940510333 
 43.2000000000000  0.143851343795200  0.0116151237213933  0.0130024852050745  0.0128215550767796 
 45.0000000000000  0.131197122791438  0.00525414612876563  0.00615566560211166  0.00631472095589431 
 46.8000000000000  0.143011628025420 -0.00114128439616148 -0.000732726859659546 -0.000235791649985938 
 48.6000000000000  0.179108537692595 -0.00747030809407724 -0.00755405811674791 -0.00672667724451458 
 50.4000000000000  0.238918581964893 -0.0136331124819928 -0.0142007517020240 -0.0130555706860171 
 52.2000000000000  0.321498520715960 -0.0195325064556975 -0.0205679852898425 -0.0191226615468988 
 54.0000000000000  0.425546018981412 -0.0250754530514927 -0.0265553438066924 -0.0248322681836706 
 55.8000000000000  0.549420185559194 -0.0301745366946328 -0.0320684030368320 -0.0300943466935661 
 57.6000000000000  0.691167450844034 -0.0347493417950897 -0.0370202187485015 -0.0348259109606043 
 59.4000000000000  0.848552375787140 -0.0387277209493659 -0.0413326978563077 -0.0389523413961258 
 61.2000000000000  1.01909290610535 -0.0420469327480538 -0.0449378299957282 -0.0424085617341811 
 63.0000000000000  1.20009951575991 -0.0446546312452403 -0.0477787600870750 -0.0451400653230090 
 64.8000000000000  1.38871762238872 -0.0465096914852332 -0.0498106849739418 -0.0471037747273760 
 66.6000000000000  1.58197260577542 -0.0475828580675630 -0.0510015599956149 -0.0482687210853352 
 68.4000000000000  1.77681671938720 -0.0478572065220023 -0.0513326043503798 -0.0486165325055468 
 70.2000000000000  1.97017715515818 -0.0473284102174472 -0.0507985972798448 -0.0481417238028433 
 72.0000000000000  2.15900450350829 -0.0460048085953492 -0.0494079604032799 -0.0468517830027397 
 73.8000000000000  2.34032084435392 -0.0439072756516173 -0.0471826249035117 -0.0447670532506614 
 75.6000000000000  2.51126671068660 -0.0410688907411119 -0.0441576856589339 -0.0419204119882559 
 77.4000000000000  2.66914618407588 -0.0375344168963410 -0.0403808477761803 -0.0383567524563703 
 79.2000000000000  2.81146941091342 -0.0333595948875893 -0.0359116742519739 -0.0341322757017051 
 81.0000000000000  2.93599186889182 -0.0286102641575707 -0.0308206466289744 -0.0293136042526239 
 82.8000000000000  3.04074976446218 -0.0233613244939958 -0.0251880534596445 -0.0239767314419820 
 84.6000000000000  3.12409100303150 -0.0176955548150977 -0.0191027241077279 -0.0182058229467843 
 86.4000000000000  3.18470124348134 -0.0117023076965746 -0.0126606278560434 -0.0120918894451063 
 88.2000000000000  3.22162462611240 -0.00547610022804254 -0.00596336041350654 -0.00573135132327526 
 90.0000000000000  3.23427884712303  0.000884876577967905  0.000883458309932420  0.000775481931263066 
