 0.00000000000000  0.00000000000000 -0.106867267613702 
 0.00000000000000  10.0000000000000 -0.111605044672638 
 0.00000000000000  20.0000000000000 -0.112951758924073 
 0.00000000000000  30.0000000000000 -0.110866491136948 
 0.00000000000000  40.0000000000000 -0.105412601117779 
 0.00000000000000  50.0000000000000 -0.0967558025549957 
 0.00000000000000  60.0000000000000 -0.0851591278923773 
 0.00000000000000  70.0000000000000 -0.0709749362213471 
 0.00000000000000  80.0000000000000 -0.0546342070282818 
 0.00000000000000  90.0000000000000 -0.0366334451009050 
 0.00000000000000  100.000000000000 -0.0175195944815548 
 0.00000000000000  110.000000000000  0.00212658015077489 
 0.00000000000000  120.000000000000  0.0217081397213247 
 0.00000000000000  130.000000000000  0.0406301084512909 
 0.00000000000000  140.000000000000  0.0583175518957914 
 0.00000000000000  150.000000000000  0.0742330460360435 
 0.00000000000000  160.000000000000  0.0878930066362242 
 0.00000000000000  170.000000000000  0.0988823827057706 
 0.00000000000000  180.000000000000  0.106867267613702 
 0.00000000000000  190.000000000000  0.111605044672638 
 0.00000000000000  200.000000000000  0.112951758924073 
 0.00000000000000  210.000000000000  0.110866491136948 
 0.00000000000000  220.000000000000  0.105412601117779 
 0.00000000000000  230.000000000000  0.0967558025549957 
 0.00000000000000  240.000000000000  0.0851591278923774 
 0.00000000000000  250.000000000000  0.0709749362213471 
 0.00000000000000  260.000000000000  0.0546342070282818 
 0.00000000000000  270.000000000000  0.0366334451009050 
 0.00000000000000  280.000000000000  0.0175195944815548 
 0.00000000000000  290.000000000000 -0.00212658015077492 
 0.00000000000000  300.000000000000 -0.0217081397213248 
 0.00000000000000  310.000000000000 -0.0406301084512909 
 0.00000000000000  320.000000000000 -0.0583175518957914 
 0.00000000000000  330.000000000000 -0.0742330460360435 
 0.00000000000000  340.000000000000 -0.0878930066362242 
 0.00000000000000  350.000000000000 -0.0988823827057706 
 0.00000000000000  360.000000000000 -0.106867267613702 

 10.0000000000000  0.00000000000000 -0.109067896015136 
 10.0000000000000  10.0000000000000 -0.113651847012330 
 10.0000000000000  20.0000000000000 -0.114782544148664 
 10.0000000000000  30.0000000000000 -0.112425631763810 
 10.0000000000000  40.0000000000000 -0.106652723447927 
 10.0000000000000  50.0000000000000 -0.0976392260989619 
 10.0000000000000  60.0000000000000 -0.0856590102728117 
 10.0000000000000  70.0000000000000 -0.0710760887650729 
 10.0000000000000  80.0000000000000 -0.0543335562664436 
 10.0000000000000  90.0000000000000 -0.0359401261547645 
 10.0000000000000  100.000000000000 -0.0164546734964542 
 10.0000000000000  110.000000000000  0.00353074608957928 
 10.0000000000000  120.000000000000  0.0234088857423246 
 10.0000000000000  130.000000000000  0.0425757582472572 
 10.0000000000000  140.000000000000  0.0604489878822200 
 10.0000000000000  150.000000000000  0.0764855056090454 
 10.0000000000000  160.000000000000  0.0901980499514733 
 10.0000000000000  170.000000000000  0.101169972188541 
 10.0000000000000  180.000000000000  0.109067896015136 
 10.0000000000000  190.000000000000  0.113651847012330 
 10.0000000000000  200.000000000000  0.114782544148664 
 10.0000000000000  210.000000000000  0.112425631763810 
 10.0000000000000  220.000000000000  0.106652723447927 
 10.0000000000000  230.000000000000  0.0976392260989619 
 10.0000000000000  240.000000000000  0.0856590102728117 
 10.0000000000000  250.000000000000  0.0710760887650729 
 10.0000000000000  260.000000000000  0.0543335562664436 
 10.0000000000000  270.000000000000  0.0359401261547645 
 10.0000000000000  280.000000000000  0.0164546734964542 
 10.0000000000000  290.000000000000 -0.00353074608957928 
 10.0000000000000  300.000000000000 -0.0234088857423247 
 10.0000000000000  310.000000000000 -0.0425757582472572 
 10.0000000000000  320.000000000000 -0.0604489878822200 
 10.0000000000000  330.000000000000 -0.0764855056090454 
 10.0000000000000  340.000000000000 -0.0901980499514733 
 10.0000000000000  350.000000000000 -0.101169972188541 
 10.0000000000000  360.000000000000 -0.109067896015136 

 20.0000000000000  0.00000000000000 -0.107954551587169 
 20.0000000000000  10.0000000000000 -0.112245395491162 
 20.0000000000000  20.0000000000000 -0.113125719852067 
 20.0000000000000  30.0000000000000 -0.110568776459643 
 20.0000000000000  40.0000000000000 -0.104652256744993 
 20.0000000000000  50.0000000000000 -0.0955559311657435 
 20.0000000000000  60.0000000000000 -0.0835561869716574 
 20.0000000000000  70.0000000000000 -0.0690176303179082 
 20.0000000000000  80.0000000000000 -0.0523820078915555 
 20.0000000000000  90.0000000000000 -0.0341547846619928 
 20.0000000000000  100.000000000000 -0.0148897855836304 
 20.0000000000000  110.000000000000  0.00482763209509556 
 20.0000000000000  120.000000000000  0.0243983646155117 
 20.0000000000000  130.000000000000  0.0432277651732538 
 20.0000000000000  140.000000000000  0.0607437119605112 
 20.0000000000000  150.000000000000  0.0764139917976498 
 20.0000000000000  160.000000000000  0.0897624711613624 
 20.0000000000000  170.000000000000  0.100383563260839 
 20.0000000000000  180.000000000000  0.107954551587169 
 20.0000000000000  190.000000000000  0.112245395491162 
 20.0000000000000  200.000000000000  0.113125719852067 
 20.0000000000000  210.000000000000  0.110568776459643 
 20.0000000000000  220.000000000000  0.104652256744993 
 20.0000000000000  230.000000000000  0.0955559311657435 
 20.0000000000000  240.000000000000  0.0835561869716574 
 20.0000000000000  250.000000000000  0.0690176303179083 
 20.0000000000000  260.000000000000  0.0523820078915555 
 20.0000000000000  270.000000000000  0.0341547846619928 
 20.0000000000000  280.000000000000  0.0148897855836304 
 20.0000000000000  290.000000000000 -0.00482763209509555 
 20.0000000000000  300.000000000000 -0.0243983646155117 
 20.0000000000000  310.000000000000 -0.0432277651732538 
 20.0000000000000  320.000000000000 -0.0607437119605112 
 20.0000000000000  330.000000000000 -0.0764139917976498 
 20.0000000000000  340.000000000000 -0.0897624711613624 
 20.0000000000000  350.000000000000 -0.100383563260839 
 20.0000000000000  360.000000000000 -0.107954551587169 

 30.0000000000000  0.00000000000000 -0.103561062736865 
 30.0000000000000  10.0000000000000 -0.107428424426906 
 30.0000000000000  20.0000000000000 -0.108031627802141 
 30.0000000000000  30.0000000000000 -0.105352344833250 
 30.0000000000000  40.0000000000000 -0.0994719841774586 
 30.0000000000000  50.0000000000000 -0.0905692176176883 
 30.0000000000000  60.0000000000000 -0.0789145512108400 
 30.0000000000000  70.0000000000000 -0.0648621060981400 
 30.0000000000000  80.0000000000000 -0.0488388587134574 
 30.0000000000000  90.0000000000000 -0.0313316673204214 
 30.0000000000000  100.000000000000 -0.0128724790704430 
 30.0000000000000  110.000000000000  0.00597783294230204 
 30.0000000000000  120.000000000000  0.0246465115260247 
 30.0000000000000  130.000000000000  0.0425663183287657 
 30.0000000000000  140.000000000000  0.0591927690886836 
 30.0000000000000  150.000000000000  0.0740206775128281 
 30.0000000000000  160.000000000000  0.0865995051070156 
 30.0000000000000  170.000000000000  0.0965470505599904 
 30.0000000000000  180.000000000000  0.103561062736865 
 30.0000000000000  190.000000000000  0.107428424426906 
 30.0000000000000  200.000000000000  0.108031627802141 
 30.0000000000000  210.000000000000  0.105352344833250 
 30.0000000000000  220.000000000000  0.0994719841774586 
 30.0000000000000  230.000000000000  0.0905692176176883 
 30.0000000000000  240.000000000000  0.0789145512108400 
 30.0000000000000  250.000000000000  0.0648621060981401 
 30.0000000000000  260.000000000000  0.0488388587134574 
 30.0000000000000  270.000000000000  0.0313316673204214 
 30.0000000000000  280.000000000000  0.0128724790704430 
 30.0000000000000  290.000000000000 -0.00597783294230204 
 30.0000000000000  300.000000000000 -0.0246465115260247 
 30.0000000000000  310.000000000000 -0.0425663183287657 
 30.0000000000000  320.000000000000 -0.0591927690886836 
 30.0000000000000  330.000000000000 -0.0740206775128282 
 30.0000000000000  340.000000000000 -0.0865995051070156 
 30.0000000000000  350.000000000000 -0.0965470505599904 
 30.0000000000000  360.000000000000 -0.103561062736865 

 40.0000000000000  0.00000000000000 -0.0960209233997270 
 40.0000000000000  10.0000000000000 -0.0993472950478437 
 40.0000000000000  20.0000000000000 -0.0996550494080887 
 40.0000000000000  30.0000000000000 -0.0969348355199571 
 40.0000000000000  40.0000000000000 -0.0912693057059451 
 40.0000000000000  50.0000000000000 -0.0828306042225551 
 40.0000000000000  60.0000000000000 -0.0718751367441710 
 40.0000000000000  70.0000000000000 -0.0587357796063892 
 40.0000000000000  80.0000000000000 -0.0438117655270060 
 40.0000000000000  90.0000000000000 -0.0275565531219077 
 40.0000000000000  100.000000000000 -0.0104640487944890 
 40.0000000000000  110.000000000000  0.00694640036048613 
 40.0000000000000  120.000000000000  0.0241457866555560 
 40.0000000000000  130.000000000000  0.0406115154414545 
 40.0000000000000  140.000000000000  0.0558432838810827 
 40.0000000000000  150.000000000000  0.0693782823980494 
 40.0000000000000  160.000000000000  0.0808052569114561 
 40.0000000000000  170.000000000000  0.0897770045830413 
 40.0000000000000  180.000000000000  0.0960209233997270 
 40.0000000000000  190.000000000000  0.0993472950478437 
 40.0000000000000  200.000000000000  0.0996550494080887 
 40.0000000000000  210.000000000000  0.0969348355199571 
 40.0000000000000  220.000000000000  0.0912693057059451 
 40.0000000000000  230.000000000000  0.0828306042225551 
 40.0000000000000  240.000000000000  0.0718751367441710 
 40.0000000000000  250.000000000000  0.0587357796063892 
 40.0000000000000  260.000000000000  0.0438117655270060 
 40.0000000000000  270.000000000000  0.0275565531219077 
 40.0000000000000  280.000000000000  0.0104640487944890 
 40.0000000000000  290.000000000000 -0.00694640036048612 
 40.0000000000000  300.000000000000 -0.0241457866555561 
 40.0000000000000  310.000000000000 -0.0406115154414545 
 40.0000000000000  320.000000000000 -0.0558432838810827 
 40.0000000000000  330.000000000000 -0.0693782823980494 
 40.0000000000000  340.000000000000 -0.0808052569114561 
 40.0000000000000  350.000000000000 -0.0897770045830412 
 40.0000000000000  360.000000000000 -0.0960209233997270 

 50.0000000000000  0.00000000000000 -0.0855632368940202 
 50.0000000000000  10.0000000000000 -0.0882475483809099 
 50.0000000000000  20.0000000000000 -0.0882505027656598 
 50.0000000000000  30.0000000000000 -0.0855720102807842 
 50.0000000000000  40.0000000000000 -0.0802934555650536 
 50.0000000000000  50.0000000000000 -0.0725752248324277 
 50.0000000000000  60.0000000000000 -0.0626518326181043 
 50.0000000000000  70.0000000000000 -0.0508247961730369 
 50.0000000000000  80.0000000000000 -0.0374534740148395 
 50.0000000000000  90.0000000000000 -0.0229441470010735 
 50.0000000000000  100.000000000000 -0.00773767369097854 
 50.0000000000000  110.000000000000  0.00770390491876501 
 50.0000000000000  120.000000000000  0.0229114042759159 
 50.0000000000000  130.000000000000  0.0374227522078730 
 50.0000000000000  140.000000000000  0.0507970287508203 
 50.0000000000000  150.000000000000  0.0626278632797107 
 50.0000000000000  160.000000000000  0.0725557818740750 
 50.0000000000000  170.000000000000  0.0802791297511927 
 50.0000000000000  180.000000000000  0.0855632368940202 
 50.0000000000000  190.000000000000  0.0882475483809099 
 50.0000000000000  200.000000000000  0.0882505027656598 
 50.0000000000000  210.000000000000  0.0855720102807842 
 50.0000000000000  220.000000000000  0.0802934555650536 
 50.0000000000000  230.000000000000  0.0725752248324277 
 50.0000000000000  240.000000000000  0.0626518326181043 
 50.0000000000000  250.000000000000  0.0508247961730369 
 50.0000000000000  260.000000000000  0.0374534740148395 
 50.0000000000000  270.000000000000  0.0229441470010735 
 50.0000000000000  280.000000000000  0.00773767369097857 
 50.0000000000000  290.000000000000 -0.00770390491876501 
 50.0000000000000  300.000000000000 -0.0229114042759159 
 50.0000000000000  310.000000000000 -0.0374227522078730 
 50.0000000000000  320.000000000000 -0.0507970287508203 
 50.0000000000000  330.000000000000 -0.0626278632797107 
 50.0000000000000  340.000000000000 -0.0725557818740750 
 50.0000000000000  350.000000000000 -0.0802791297511928 
 50.0000000000000  360.000000000000 -0.0855632368940202 

 60.0000000000000  0.00000000000000 -0.0725057547323757 
 60.0000000000000  10.0000000000000 -0.0744664446118363 
 60.0000000000000  20.0000000000000 -0.0741645092536054 
 60.0000000000000  30.0000000000000 -0.0716091228107563 
 60.0000000000000  40.0000000000000 -0.0668779294072668 
 60.0000000000000  50.0000000000000 -0.0601146839606028 
 60.0000000000000  60.0000000000000 -0.0515248842612937 
 60.0000000000000  70.0000000000000 -0.0413695270265546 
 60.0000000000000  80.0000000000000 -0.0299571776471044 
 60.0000000000000  90.0000000000000 -0.0176345945839103 
 60.0000000000000  100.000000000000 -0.00477619328781954 
 60.0000000000000  110.000000000000  0.00822733022445122 
 60.0000000000000  120.000000000000  0.0209808704710820 
 60.0000000000000  130.000000000000  0.0330969175852817 
 60.0000000000000  140.000000000000  0.0442073316065010 
 60.0000000000000  150.000000000000  0.0539745282268459 
 60.0000000000000  160.000000000000  0.0621017361194473 
 60.0000000000000  170.000000000000  0.0683420141850540 
 60.0000000000000  180.000000000000  0.0725057547323757 
 60.0000000000000  190.000000000000  0.0744664446118363 
 60.0000000000000  200.000000000000  0.0741645092536054 
 60.0000000000000  210.000000000000  0.0716091228107563 
 60.0000000000000  220.000000000000  0.0668779294072668 
 60.0000000000000  230.000000000000  0.0601146839606028 
 60.0000000000000  240.000000000000  0.0515248842612936 
 60.0000000000000  250.000000000000  0.0413695270265546 
 60.0000000000000  260.000000000000  0.0299571776471045 
 60.0000000000000  270.000000000000  0.0176345945839104 
 60.0000000000000  280.000000000000  0.00477619328781953 
 60.0000000000000  290.000000000000 -0.00822733022445122 
 60.0000000000000  300.000000000000 -0.0209808704710820 
 60.0000000000000  310.000000000000 -0.0330969175852817 
 60.0000000000000  320.000000000000 -0.0442073316065010 
 60.0000000000000  330.000000000000 -0.0539745282268459 
 60.0000000000000  340.000000000000 -0.0621017361194473 
 60.0000000000000  350.000000000000 -0.0683420141850540 
 60.0000000000000  360.000000000000 -0.0725057547323757 

 70.0000000000000  0.00000000000000 -0.0572452219028701 
 70.0000000000000  10.0000000000000 -0.0584227156050712 
 70.0000000000000  20.0000000000000 -0.0578250646569328 
 70.0000000000000  30.0000000000000 -0.0554704283800881 
 70.0000000000000  40.0000000000000 -0.0514303512063055 
 70.0000000000000  50.0000000000000 -0.0458275888361328 
 70.0000000000000  60.0000000000000 -0.0388323783690530 
 70.0000000000000  70.0000000000000 -0.0306572657353612 
 70.0000000000000  80.0000000000000 -0.0215506475956254 
 70.0000000000000  90.0000000000000 -0.0117892239338504 
 70.0000000000000  100.000000000000 -0.00166959066848057 
 70.0000000000000  110.000000000000  0.00850077226449745 
 70.0000000000000  120.000000000000  0.0184128435338170 
 70.0000000000000  130.000000000000  0.0277654498697100 
 70.0000000000000  140.000000000000  0.0362744170613074 
 70.0000000000000  150.000000000000  0.0436812044462376 
 70.0000000000000  160.000000000000  0.0497607605378249 
 70.0000000000000  170.000000000000  0.0543283611006302 
 70.0000000000000  180.000000000000  0.0572452219028701 
 70.0000000000000  190.000000000000  0.0584227156050712 
 70.0000000000000  200.000000000000  0.0578250646569328 
 70.0000000000000  210.000000000000  0.0554704283800881 
 70.0000000000000  220.000000000000  0.0514303512063055 
 70.0000000000000  230.000000000000  0.0458275888361327 
 70.0000000000000  240.000000000000  0.0388323783690530 
 70.0000000000000  250.000000000000  0.0306572657353612 
 70.0000000000000  260.000000000000  0.0215506475956255 
 70.0000000000000  270.000000000000  0.0117892239338504 
 70.0000000000000  280.000000000000  0.00166959066848056 
 70.0000000000000  290.000000000000 -0.00850077226449745 
 70.0000000000000  300.000000000000 -0.0184128435338170 
 70.0000000000000  310.000000000000 -0.0277654498697100 
 70.0000000000000  320.000000000000 -0.0362744170613074 
 70.0000000000000  330.000000000000 -0.0436812044462376 
 70.0000000000000  340.000000000000 -0.0497607605378249 
 70.0000000000000  350.000000000000 -0.0543283611006302 
 70.0000000000000  360.000000000000 -0.0572452219028701 

 80.0000000000000  0.00000000000000 -0.0402453219733258 
 80.0000000000000  10.0000000000000 -0.0406038419479666 
 80.0000000000000  20.0000000000000 -0.0397286347315538 
 80.0000000000000  30.0000000000000 -0.0376462930524820 
 80.0000000000000  40.0000000000000 -0.0344200878089540 
 80.0000000000000  50.0000000000000 -0.0301480456147557 
 80.0000000000000  60.0000000000000 -0.0249599703102003 
 80.0000000000000  70.0000000000000 -0.0190134989381239 
 80.0000000000000  80.0000000000000 -0.0124893120221072 
 80.0000000000000  90.0000000000000 -0.00558564368019566 
 80.0000000000000  100.000000000000  0.00148774161846654 
 80.0000000000000  110.000000000000  0.00851592264088524 
 80.0000000000000  120.000000000000  0.0152853516631254 
 80.0000000000000  130.000000000000  0.0215903430098427 
 80.0000000000000  140.000000000000  0.0272393227094466 
 80.0000000000000  150.000000000000  0.0320606493722863 
 80.0000000000000  160.000000000000  0.0359078294274205 
 80.0000000000000  170.000000000000  0.0386639682556410 
 80.0000000000000  180.000000000000  0.0402453219733257 
 80.0000000000000  190.000000000000  0.0406038419479666 
 80.0000000000000  200.000000000000  0.0397286347315538 
 80.0000000000000  210.000000000000  0.0376462930524820 
 80.0000000000000  220.000000000000  0.0344200878089540 
 80.0000000000000  230.000000000000  0.0301480456147557 
 80.0000000000000  240.000000000000  0.0249599703102003 
 80.0000000000000  250.000000000000  0.0190134989381239 
 80.0000000000000  260.000000000000  0.0124893120221072 
 80.0000000000000  270.000000000000  0.00558564368019566 
 80.0000000000000  280.000000000000 -0.00148774161846654 
 80.0000000000000  290.000000000000 -0.00851592264088524 
 80.0000000000000  300.000000000000 -0.0152853516631254 
 80.0000000000000  310.000000000000 -0.0215903430098427 
 80.0000000000000  320.000000000000 -0.0272393227094466 
 80.0000000000000  330.000000000000 -0.0320606493722864 
 80.0000000000000  340.000000000000 -0.0359078294274205 
 80.0000000000000  350.000000000000 -0.0386639682556410 
 80.0000000000000  360.000000000000 -0.0402453219733257 

 90.0000000000000  0.00000000000000 -0.0220225883007375 
 90.0000000000000  10.0000000000000 -0.0215512410998084 
 90.0000000000000  20.0000000000000 -0.0204250703435158 
 90.0000000000000  30.0000000000000 -0.0186782941604198 
 90.0000000000000  40.0000000000000 -0.0163639874609323 
 90.0000000000000  50.0000000000000 -0.0135524692830216 
 90.0000000000000  60.0000000000000 -0.0103291661838266 
 90.0000000000000  70.0000000000000 -0.00679201659694634 
 90.0000000000000  80.0000000000000 -0.00304849502269410 
 90.0000000000000  90.0000000000000  0.000787653530209768 
 90.0000000000000  100.000000000000  0.00459986962917014 
 90.0000000000000  110.000000000000  0.00827232101709452 
 90.0000000000000  120.000000000000  0.0116934221169109 
 90.0000000000000  130.000000000000  0.0147592245028620 
 90.0000000000000  140.000000000000  0.0173765753208217 
 90.0000000000000  150.000000000000  0.0194659476906295 
 90.0000000000000  160.000000000000  0.0209638570901024 
 90.0000000000000  170.000000000000  0.0218247903001161 
 90.0000000000000  180.000000000000  0.0220225883007375 
 90.0000000000000  190.000000000000  0.0215512410998084 
 90.0000000000000  200.000000000000  0.0204250703435157 
 90.0000000000000  210.000000000000  0.0186782941604197 
 90.0000000000000  220.000000000000  0.0163639874609323 
 90.0000000000000  230.000000000000  0.0135524692830216 
 90.0000000000000  240.000000000000  0.0103291661838266 
 90.0000000000000  250.000000000000  0.00679201659694632 
 90.0000000000000  260.000000000000  0.00304849502269410 
 90.0000000000000  270.000000000000 -0.000787653530209768 
 90.0000000000000  280.000000000000 -0.00459986962917014 
 90.0000000000000  290.000000000000 -0.00827232101709452 
 90.0000000000000  300.000000000000 -0.0116934221169109 
 90.0000000000000  310.000000000000 -0.0147592245028620 
 90.0000000000000  320.000000000000 -0.0173765753208217 
 90.0000000000000  330.000000000000 -0.0194659476906295 
 90.0000000000000  340.000000000000 -0.0209638570901024 
 90.0000000000000  350.000000000000 -0.0218247903001161 
 90.0000000000000  360.000000000000 -0.0220225883007375 

 100.000000000000  0.00000000000000 -0.00313070942659869 
 100.000000000000  10.0000000000000 -0.00184381669628669 
 100.000000000000  20.0000000000000 -0.000500900528674305 
 100.000000000000  30.0000000000000  0.000857235248033980 
 100.000000000000  40.0000000000000  0.00218932436551269 
 100.000000000000  50.0000000000000  0.00345489196999691 
 100.000000000000  60.0000000000000  0.00461548443023244 
 100.000000000000  70.0000000000000  0.00563583773160318 
 100.000000000000  80.0000000000000  0.00648494895537065 
 100.000000000000  90.0000000000000  0.00713701828667171 
 100.000000000000  100.000000000000  0.00757223292883774 
 100.000000000000  110.000000000000  0.00777736910519579 
 100.000000000000  120.000000000000  0.00774619385683112 
 100.000000000000  130.000000000000  0.00747965442788988 
 100.000000000000  140.000000000000  0.00698584948404497 
 100.000000000000  150.000000000000  0.00627978303863771 
 100.000000000000  160.000000000000  0.00538290856332503 
 100.000000000000  170.000000000000  0.00432247713519889 
 100.000000000000  180.000000000000  0.00313070942659870 
 100.000000000000  190.000000000000  0.00184381669628667 
 100.000000000000  200.000000000000  0.000500900528674279 
 100.000000000000  210.000000000000 -0.000857235248033977 
 100.000000000000  220.000000000000 -0.00218932436551270 
 100.000000000000  230.000000000000 -0.00345489196999688 
 100.000000000000  240.000000000000 -0.00461548443023246 
 100.000000000000  250.000000000000 -0.00563583773160318 
 100.000000000000  260.000000000000 -0.00648494895537066 
 100.000000000000  270.000000000000 -0.00713701828667170 
 100.000000000000  280.000000000000 -0.00757223292883774 
 100.000000000000  290.000000000000 -0.00777736910519579 
 100.000000000000  300.000000000000 -0.00774619385683112 
 100.000000000000  310.000000000000 -0.00747965442788988 
 100.000000000000  320.000000000000 -0.00698584948404494 
 100.000000000000  330.000000000000 -0.00627978303863772 
 100.000000000000  340.000000000000 -0.00538290856332502 
 100.000000000000  350.000000000000 -0.00432247713519891 
 100.000000000000  360.000000000000 -0.00313070942659871 

 110.000000000000  0.00000000000000  0.0158562944692519 
 110.000000000000  10.0000000000000  0.0179196311445354 
 110.000000000000  20.0000000000000  0.0194384888952631 
 110.000000000000  30.0000000000000  0.0203667179972581 
 110.000000000000  40.0000000000000  0.0206761146789631 
 110.000000000000  50.0000000000000  0.0203572780787667 
 110.000000000000  60.0000000000000  0.0194198958854267 
 110.000000000000  70.0000000000000  0.0178924499825494 
 110.000000000000  80.0000000000000  0.0158213510409690 
 110.000000000000  90.0000000000000  0.0132695283539986 
 110.000000000000  100.000000000000  0.0103145177626974 
 110.000000000000  110.000000000000  0.00704610576857435 
 110.000000000000  120.000000000000  0.00356360141617478 
 110.000000000000  130.000000000000 -2.71811619859397e-05 
 110.000000000000  140.000000000000 -0.00361713785429408 
 110.000000000000  150.000000000000 -0.00709718964325952 
 110.000000000000  160.000000000000 -0.0103615969162658 
 110.000000000000  170.000000000000 -0.0133111723101923 
 110.000000000000  180.000000000000 -0.0158562944692519 
 110.000000000000  190.000000000000 -0.0179196311445354 
 110.000000000000  200.000000000000 -0.0194384888952631 
 110.000000000000  210.000000000000 -0.0203667179972581 
 110.000000000000  220.000000000000 -0.0206761146789631 
 110.000000000000  230.000000000000 -0.0203572780787667 
 110.000000000000  240.000000000000 -0.0194198958854267 
 110.000000000000  250.000000000000 -0.0178924499825494 
 110.000000000000  260.000000000000 -0.0158213510409690 
 110.000000000000  270.000000000000 -0.0132695283539986 
 110.000000000000  280.000000000000 -0.0103145177626974 
 110.000000000000  290.000000000000 -0.00704610576857435 
 110.000000000000  300.000000000000 -0.00356360141617478 
 110.000000000000  310.000000000000  2.71811619859640e-05 
 110.000000000000  320.000000000000  0.00361713785429407 
 110.000000000000  330.000000000000  0.00709718964325952 
 110.000000000000  340.000000000000  0.0103615969162658 
 110.000000000000  350.000000000000  0.0133111723101923 
 110.000000000000  360.000000000000  0.0158562944692518 

 120.000000000000  0.00000000000000  0.0343615128813264 
 120.000000000000  10.0000000000000  0.0371386000608016 
 120.000000000000  20.0000000000000  0.0387872496704678 
 120.000000000000  30.0000000000000  0.0392573683261922 
 120.000000000000  40.0000000000000  0.0385346717105121 
 120.000000000000  50.0000000000000  0.0366411185943929 
 120.000000000000  60.0000000000000  0.0336342436310837 
 120.000000000000  70.0000000000000  0.0296054091947925 
 120.000000000000  80.0000000000000  0.0246770293811774 
 120.000000000000  90.0000000000000  0.0189988505169946 
 120.000000000000  100.000000000000  0.0127434011937352 
 120.000000000000  110.000000000000  0.00610075007367634 
 120.000000000000  120.000000000000 -0.000727269250242715 
 120.000000000000  130.000000000000 -0.00753319086600918 
 120.000000000000  140.000000000000 -0.0141102202892904 
 120.000000000000  150.000000000000 -0.0202585178091976 
 120.000000000000  160.000000000000 -0.0257912705167769 
 120.000000000000  170.000000000000 -0.0305403685207166 
 120.000000000000  180.000000000000 -0.0343615128813264 
 120.000000000000  190.000000000000 -0.0371386000608016 
 120.000000000000  200.000000000000 -0.0387872496704678 
 120.000000000000  210.000000000000 -0.0392573683261922 
 120.000000000000  220.000000000000 -0.0385346717105121 
 120.000000000000  230.000000000000 -0.0366411185943929 
 120.000000000000  240.000000000000 -0.0336342436310837 
 120.000000000000  250.000000000000 -0.0296054091947925 
 120.000000000000  260.000000000000 -0.0246770293811774 
 120.000000000000  270.000000000000 -0.0189988505169946 
 120.000000000000  280.000000000000 -0.0127434011937352 
 120.000000000000  290.000000000000 -0.00610075007367634 
 120.000000000000  300.000000000000  0.000727269250242739 
 120.000000000000  310.000000000000  0.00753319086600917 
 120.000000000000  320.000000000000  0.0141102202892904 
 120.000000000000  330.000000000000  0.0202585178091976 
 120.000000000000  340.000000000000  0.0257912705167769 
 120.000000000000  350.000000000000  0.0305403685207165 
 120.000000000000  360.000000000000  0.0343615128813264 

 130.000000000000  0.00000000000000  0.0518226741122663 
 130.000000000000  10.0000000000000  0.0552291314072588 
 130.000000000000  20.0000000000000  0.0569574794917308 
 130.000000000000  30.0000000000000  0.0569552033837218 
 130.000000000000  40.0000000000000  0.0552223722416220 
 130.000000000000  50.0000000000000  0.0518116372628291 
 130.000000000000  60.0000000000000  0.0468266319037587 
 130.000000000000  70.0000000000000  0.0404188230297116 
 130.000000000000  80.0000000000000  0.0327829086708181 
 130.000000000000  90.0000000000000  0.0241509022209140 
 130.000000000000  100.000000000000  0.0147850828279736 
 130.000000000000  110.000000000000  0.00497002617491817 
 130.000000000000  120.000000000000 -0.00499604220850761 
 130.000000000000  130.000000000000 -0.0148103083775472 
 130.000000000000  140.000000000000 -0.0241745708209127 
 130.000000000000  150.000000000000 -0.0328043011628078 
 130.000000000000  160.000000000000 -0.0404372894136484 
 130.000000000000  170.000000000000 -0.0468416110879110 
 130.000000000000  180.000000000000 -0.0518226741122663 
 130.000000000000  190.000000000000 -0.0552291314072588 
 130.000000000000  200.000000000000 -0.0569574794917308 
 130.000000000000  210.000000000000 -0.0569552033837218 
 130.000000000000  220.000000000000 -0.0552223722416220 
 130.000000000000  230.000000000000 -0.0518116372628291 
 130.000000000000  240.000000000000 -0.0468266319037587 
 130.000000000000  250.000000000000 -0.0404188230297117 
 130.000000000000  260.000000000000 -0.0327829086708181 
 130.000000000000  270.000000000000 -0.0241509022209140 
 130.000000000000  280.000000000000 -0.0147850828279736 
 130.000000000000  290.000000000000 -0.00497002617491815 
 130.000000000000  300.000000000000  0.00499604220850761 
 130.000000000000  310.000000000000  0.0148103083775472 
 130.000000000000  320.000000000000  0.0241745708209127 
 130.000000000000  330.000000000000  0.0328043011628078 
 130.000000000000  340.000000000000  0.0404372894136483 
 130.000000000000  350.000000000000  0.0468416110879109 
 130.000000000000  360.000000000000  0.0518226741122664 

 140.000000000000  0.00000000000000  0.0677092296138434 
 140.000000000000  10.0000000000000  0.0716415535431955 
 140.000000000000  20.0000000000000  0.0733970851205128 
 140.000000000000  30.0000000000000  0.0729224834071606 
 140.000000000000  40.0000000000000  0.0702321689360388 
 140.000000000000  50.0000000000000  0.0654078855509878 
 140.000000000000  60.0000000000000  0.0585962166614571 
 140.000000000000  70.0000000000000  0.0500041313797844 
 140.000000000000  80.0000000000000  0.0398926958694482 
 140.000000000000  90.0000000000000  0.0285691409817971 
 140.000000000000  100.000000000000  0.0163775272020969 
 140.000000000000  110.000000000000  0.00368829054578967 
 140.000000000000  120.000000000000 -0.00911301295238632 
 140.000000000000  130.000000000000 -0.0216374221634111 
 140.000000000000  140.000000000000 -0.0335043892510646 
 140.000000000000  150.000000000000 -0.0443533424253635 
 140.000000000000  160.000000000000 -0.0538546417339419 
 140.000000000000  170.000000000000 -0.0617195950051981 
 140.000000000000  180.000000000000 -0.0677092296138434 
 140.000000000000  190.000000000000 -0.0716415535431955 
 140.000000000000  200.000000000000 -0.0733970851205129 
 140.000000000000  210.000000000000 -0.0729224834071606 
 140.000000000000  220.000000000000 -0.0702321689360388 
 140.000000000000  230.000000000000 -0.0654078855509878 
 140.000000000000  240.000000000000 -0.0585962166614571 
 140.000000000000  250.000000000000 -0.0500041313797844 
 140.000000000000  260.000000000000 -0.0398926958694483 
 140.000000000000  270.000000000000 -0.0285691409817971 
 140.000000000000  280.000000000000 -0.0163775272020969 
 140.000000000000  290.000000000000 -0.00368829054578968 
 140.000000000000  300.000000000000  0.00911301295238631 
 140.000000000000  310.000000000000  0.0216374221634111 
 140.000000000000  320.000000000000  0.0335043892510646 
 140.000000000000  330.000000000000  0.0443533424253634 
 140.000000000000  340.000000000000  0.0538546417339418 
 140.000000000000  350.000000000000  0.0617195950051981 
 140.000000000000  360.000000000000  0.0677092296138434 

 150.000000000000  0.00000000000000  0.0815384744361273 
 150.000000000000  10.0000000000000  0.0858771833270974 
 150.000000000000  20.0000000000000  0.0876065574586252 
 150.000000000000  30.0000000000000  0.0866740506728298 
 150.000000000000  40.0000000000000  0.0831079967165264 
 150.000000000000  50.0000000000000  0.0770167483346668 
 150.000000000000  60.0000000000000  0.0685853850270134 
 150.000000000000  70.0000000000000  0.0580700895011937 
 150.000000000000  80.0000000000000  0.0457903636907633 
 150.000000000000  90.0000000000000  0.0321193208506312 
 150.000000000000  100.000000000000  0.0174723486996132 
 150.000000000000  110.000000000000  0.00229448807479246 
 150.000000000000  120.000000000000 -0.0129530894091138 
 150.000000000000  130.000000000000 -0.0278070938259037 
 150.000000000000  140.000000000000 -0.0418161937678619 
 150.000000000000  150.000000000000 -0.0545547298221987 
 150.000000000000  160.000000000000 -0.0656356480169132 
 150.000000000000  170.000000000000 -0.0747222602598743 
 150.000000000000  180.000000000000 -0.0815384744361272 
 150.000000000000  190.000000000000 -0.0858771833270974 
 150.000000000000  200.000000000000 -0.0876065574586252 
 150.000000000000  210.000000000000 -0.0866740506728298 
 150.000000000000  220.000000000000 -0.0831079967165264 
 150.000000000000  230.000000000000 -0.0770167483346668 
 150.000000000000  240.000000000000 -0.0685853850270134 
 150.000000000000  250.000000000000 -0.0580700895011937 
 150.000000000000  260.000000000000 -0.0457903636907633 
 150.000000000000  270.000000000000 -0.0321193208506312 
 150.000000000000  280.000000000000 -0.0174723486996132 
 150.000000000000  290.000000000000 -0.00229448807479247 
 150.000000000000  300.000000000000  0.0129530894091138 
 150.000000000000  310.000000000000  0.0278070938259037 
 150.000000000000  320.000000000000  0.0418161937678619 
 150.000000000000  330.000000000000  0.0545547298221986 
 150.000000000000  340.000000000000  0.0656356480169133 
 150.000000000000  350.000000000000  0.0747222602598744 
 150.000000000000  360.000000000000  0.0815384744361273 

 160.000000000000  0.00000000000000  0.0928902139731283 
 160.000000000000  10.0000000000000  0.0975034783515570 
 160.000000000000  20.0000000000000  0.0991541488794144 
 160.000000000000  30.0000000000000  0.0977920707679911 
 160.000000000000  40.0000000000000  0.0934586300714578 
 160.000000000000  50.0000000000000  0.0862854961925520 
 160.000000000000  60.0000000000000  0.0764906211744034 
 160.000000000000  70.0000000000000  0.0643716173379924 
 160.000000000000  80.0000000000000  0.0502967144823766 
 160.000000000000  90.0000000000000  0.0346935714085794 
 160.000000000000  100.000000000000  0.0180362817233267 
 160.000000000000  110.000000000000  0.000830968744709667 
 160.000000000000  120.000000000000 -0.0163995927987249 
 160.000000000000  130.000000000000 -0.0331318610135646 
 160.000000000000  140.000000000000 -0.0488574343970378 
 160.000000000000  150.000000000000 -0.0630984993594116 
 160.000000000000  160.000000000000 -0.0754223483481311 
 160.000000000000  170.000000000000 -0.0854545274478423 
 160.000000000000  180.000000000000 -0.0928902139731283 
 160.000000000000  190.000000000000 -0.0975034783515570 
 160.000000000000  200.000000000000 -0.0991541488794144 
 160.000000000000  210.000000000000 -0.0977920707679910 
 160.000000000000  220.000000000000 -0.0934586300714578 
 160.000000000000  230.000000000000 -0.0862854961925520 
 160.000000000000  240.000000000000 -0.0764906211744034 
 160.000000000000  250.000000000000 -0.0643716173379924 
 160.000000000000  260.000000000000 -0.0502967144823766 
 160.000000000000  270.000000000000 -0.0346935714085794 
 160.000000000000  280.000000000000 -0.0180362817233267 
 160.000000000000  290.000000000000 -0.000830968744709674 
 160.000000000000  300.000000000000  0.0163995927987249 
 160.000000000000  310.000000000000  0.0331318610135646 
 160.000000000000  320.000000000000  0.0488574343970377 
 160.000000000000  330.000000000000  0.0630984993594117 
 160.000000000000  340.000000000000  0.0754223483481311 
 160.000000000000  350.000000000000  0.0854545274478424 
 160.000000000000  360.000000000000  0.0928902139731283 

 170.000000000000  0.00000000000000  0.101419531363272 
 170.000000000000  10.0000000000000  0.106167179525445 
 170.000000000000  20.0000000000000  0.107688991660923 
 170.000000000000  30.0000000000000  0.105938728278042 
 170.000000000000  40.0000000000000  0.100969570244017 
 170.000000000000  50.0000000000000  0.0929325029111944 
 170.000000000000  60.0000000000000  0.0820717285035310 
 170.000000000000  70.0000000000000  0.0687172461555863 
 170.000000000000  80.0000000000000  0.0532748250558085 
 170.000000000000  90.0000000000000  0.0362136753550722 
 170.000000000000  100.000000000000  0.0180521914536759 
 170.000000000000  110.000000000000 -0.000657799150190657 
 170.000000000000  120.000000000000 -0.0193478028597411 
 170.000000000000  130.000000000000 -0.0374499333698590 
 170.000000000000  140.000000000000 -0.0544141666051144 
 170.000000000000  150.000000000000 -0.0697250529229702 
 170.000000000000  160.000000000000 -0.0829173787903408 
 170.000000000000  170.000000000000 -0.0935903020613851 
 170.000000000000  180.000000000000 -0.101419531363272 
 170.000000000000  190.000000000000 -0.106167179525445 
 170.000000000000  200.000000000000 -0.107688991660923 
 170.000000000000  210.000000000000 -0.105938728278042 
 170.000000000000  220.000000000000 -0.100969570244017 
 170.000000000000  230.000000000000 -0.0929325029111944 
 170.000000000000  240.000000000000 -0.0820717285035310 
 170.000000000000  250.000000000000 -0.0687172461555863 
 170.000000000000  260.000000000000 -0.0532748250558085 
 170.000000000000  270.000000000000 -0.0362136753550722 
 170.000000000000  280.000000000000 -0.0180521914536759 
 170.000000000000  290.000000000000  0.000657799150190633 
 170.000000000000  300.000000000000  0.0193478028597411 
 170.000000000000  310.000000000000  0.0374499333698589 
 170.000000000000  320.000000000000  0.0544141666051144 
 170.000000000000  330.000000000000  0.0697250529229702 
 170.000000000000  340.000000000000  0.0829173787903408 
 170.000000000000  350.000000000000  0.0935903020613851 
 170.000000000000  360.000000000000  0.101419531363272 

 180.000000000000  0.00000000000000  0.106867267613702 
 180.000000000000  10.0000000000000  0.111605044672638 
 180.000000000000  20.0000000000000  0.112951758924073 
 180.000000000000  30.0000000000000  0.110866491136948 
 180.000000000000  40.0000000000000  0.105412601117779 
 180.000000000000  50.0000000000000  0.0967558025549957 
 180.000000000000  60.0000000000000  0.0851591278923773 
 180.000000000000  70.0000000000000  0.0709749362213471 
 180.000000000000  80.0000000000000  0.0546342070282818 
 180.000000000000  90.0000000000000  0.0366334451009050 
 180.000000000000  100.000000000000  0.0175195944815548 
 180.000000000000  110.000000000000 -0.00212658015077491 
 180.000000000000  120.000000000000 -0.0217081397213248 
 180.000000000000  130.000000000000 -0.0406301084512909 
 180.000000000000  140.000000000000 -0.0583175518957914 
 180.000000000000  150.000000000000 -0.0742330460360435 
 180.000000000000  160.000000000000 -0.0878930066362242 
 180.000000000000  170.000000000000 -0.0988823827057706 
 180.000000000000  180.000000000000 -0.106867267613702 
 180.000000000000  190.000000000000 -0.111605044672638 
 180.000000000000  200.000000000000 -0.112951758924073 
 180.000000000000  210.000000000000 -0.110866491136948 
 180.000000000000  220.000000000000 -0.105412601117779 
 180.000000000000  230.000000000000 -0.0967558025549957 
 180.000000000000  240.000000000000 -0.0851591278923773 
 180.000000000000  250.000000000000 -0.0709749362213471 
 180.000000000000  260.000000000000 -0.0546342070282818 
 180.000000000000  270.000000000000 -0.0366334451009050 
 180.000000000000  280.000000000000 -0.0175195944815548 
 180.000000000000  290.000000000000  0.00212658015077485 
 180.000000000000  300.000000000000  0.0217081397213247 
 180.000000000000  310.000000000000  0.0406301084512909 
 180.000000000000  320.000000000000  0.0583175518957915 
 180.000000000000  330.000000000000  0.0742330460360435 
 180.000000000000  340.000000000000  0.0878930066362242 
 180.000000000000  350.000000000000  0.0988823827057706 
 180.000000000000  360.000000000000  0.106867267613702 

 190.000000000000  0.00000000000000  0.109067896015136 
 190.000000000000  10.0000000000000  0.113651847012330 
 190.000000000000  20.0000000000000  0.114782544148664 
 190.000000000000  30.0000000000000  0.112425631763810 
 190.000000000000  40.0000000000000  0.106652723447927 
 190.000000000000  50.0000000000000  0.0976392260989619 
 190.000000000000  60.0000000000000  0.0856590102728117 
 190.000000000000  70.0000000000000  0.0710760887650728 
 190.000000000000  80.0000000000000  0.0543335562664436 
 190.000000000000  90.0000000000000  0.0359401261547645 
 190.000000000000  100.000000000000  0.0164546734964542 
 190.000000000000  110.000000000000 -0.00353074608957931 
 190.000000000000  120.000000000000 -0.0234088857423246 
 190.000000000000  130.000000000000 -0.0425757582472572 
 190.000000000000  140.000000000000 -0.0604489878822200 
 190.000000000000  150.000000000000 -0.0764855056090454 
 190.000000000000  160.000000000000 -0.0901980499514733 
 190.000000000000  170.000000000000 -0.101169972188541 
 190.000000000000  180.000000000000 -0.109067896015136 
 190.000000000000  190.000000000000 -0.113651847012330 
 190.000000000000  200.000000000000 -0.114782544148664 
 190.000000000000  210.000000000000 -0.112425631763810 
 190.000000000000  220.000000000000 -0.106652723447927 
 190.000000000000  230.000000000000 -0.0976392260989619 
 190.000000000000  240.000000000000 -0.0856590102728117 
 190.000000000000  250.000000000000 -0.0710760887650729 
 190.000000000000  260.000000000000 -0.0543335562664436 
 190.000000000000  270.000000000000 -0.0359401261547645 
 190.000000000000  280.000000000000 -0.0164546734964542 
 190.000000000000  290.000000000000  0.00353074608957924 
 190.000000000000  300.000000000000  0.0234088857423247 
 190.000000000000  310.000000000000  0.0425757582472572 
 190.000000000000  320.000000000000  0.0604489878822201 
 190.000000000000  330.000000000000  0.0764855056090454 
 190.000000000000  340.000000000000  0.0901980499514733 
 190.000000000000  350.000000000000  0.101169972188541 
 190.000000000000  360.000000000000  0.109067896015136 

 200.000000000000  0.00000000000000  0.107954551587169 
 200.000000000000  10.0000000000000  0.112245395491162 
 200.000000000000  20.0000000000000  0.113125719852067 
 200.000000000000  30.0000000000000  0.110568776459643 
 200.000000000000  40.0000000000000  0.104652256744993 
 200.000000000000  50.0000000000000  0.0955559311657435 
 200.000000000000  60.0000000000000  0.0835561869716574 
 200.000000000000  70.0000000000000  0.0690176303179083 
 200.000000000000  80.0000000000000  0.0523820078915555 
 200.000000000000  90.0000000000000  0.0341547846619928 
 200.000000000000  100.000000000000  0.0148897855836304 
 200.000000000000  110.000000000000 -0.00482763209509556 
 200.000000000000  120.000000000000 -0.0243983646155117 
 200.000000000000  130.000000000000 -0.0432277651732538 
 200.000000000000  140.000000000000 -0.0607437119605112 
 200.000000000000  150.000000000000 -0.0764139917976498 
 200.000000000000  160.000000000000 -0.0897624711613624 
 200.000000000000  170.000000000000 -0.100383563260839 
 200.000000000000  180.000000000000 -0.107954551587169 
 200.000000000000  190.000000000000 -0.112245395491162 
 200.000000000000  200.000000000000 -0.113125719852067 
 200.000000000000  210.000000000000 -0.110568776459643 
 200.000000000000  220.000000000000 -0.104652256744993 
 200.000000000000  230.000000000000 -0.0955559311657435 
 200.000000000000  240.000000000000 -0.0835561869716574 
 200.000000000000  250.000000000000 -0.0690176303179083 
 200.000000000000  260.000000000000 -0.0523820078915555 
 200.000000000000  270.000000000000 -0.0341547846619928 
 200.000000000000  280.000000000000 -0.0148897855836304 
 200.000000000000  290.000000000000  0.00482763209509560 
 200.000000000000  300.000000000000  0.0243983646155118 
 200.000000000000  310.000000000000  0.0432277651732538 
 200.000000000000  320.000000000000  0.0607437119605112 
 200.000000000000  330.000000000000  0.0764139917976498 
 200.000000000000  340.000000000000  0.0897624711613624 
 200.000000000000  350.000000000000  0.100383563260839 
 200.000000000000  360.000000000000  0.107954551587169 

 210.000000000000  0.00000000000000  0.103561062736865 
 210.000000000000  10.0000000000000  0.107428424426906 
 210.000000000000  20.0000000000000  0.108031627802141 
 210.000000000000  30.0000000000000  0.105352344833250 
 210.000000000000  40.0000000000000  0.0994719841774586 
 210.000000000000  50.0000000000000  0.0905692176176883 
 210.000000000000  60.0000000000000  0.0789145512108400 
 210.000000000000  70.0000000000000  0.0648621060981401 
 210.000000000000  80.0000000000000  0.0488388587134574 
 210.000000000000  90.0000000000000  0.0313316673204214 
 210.000000000000  100.000000000000  0.0128724790704430 
 210.000000000000  110.000000000000 -0.00597783294230204 
 210.000000000000  120.000000000000 -0.0246465115260247 
 210.000000000000  130.000000000000 -0.0425663183287657 
 210.000000000000  140.000000000000 -0.0591927690886836 
 210.000000000000  150.000000000000 -0.0740206775128282 
 210.000000000000  160.000000000000 -0.0865995051070156 
 210.000000000000  170.000000000000 -0.0965470505599904 
 210.000000000000  180.000000000000 -0.103561062736865 
 210.000000000000  190.000000000000 -0.107428424426906 
 210.000000000000  200.000000000000 -0.108031627802141 
 210.000000000000  210.000000000000 -0.105352344833250 
 210.000000000000  220.000000000000 -0.0994719841774586 
 210.000000000000  230.000000000000 -0.0905692176176883 
 210.000000000000  240.000000000000 -0.0789145512108400 
 210.000000000000  250.000000000000 -0.0648621060981401 
 210.000000000000  260.000000000000 -0.0488388587134575 
 210.000000000000  270.000000000000 -0.0313316673204215 
 210.000000000000  280.000000000000 -0.0128724790704430 
 210.000000000000  290.000000000000  0.00597783294230208 
 210.000000000000  300.000000000000  0.0246465115260247 
 210.000000000000  310.000000000000  0.0425663183287657 
 210.000000000000  320.000000000000  0.0591927690886836 
 210.000000000000  330.000000000000  0.0740206775128281 
 210.000000000000  340.000000000000  0.0865995051070156 
 210.000000000000  350.000000000000  0.0965470505599904 
 210.000000000000  360.000000000000  0.103561062736865 

 220.000000000000  0.00000000000000  0.0960209233997270 
 220.000000000000  10.0000000000000  0.0993472950478437 
 220.000000000000  20.0000000000000  0.0996550494080887 
 220.000000000000  30.0000000000000  0.0969348355199571 
 220.000000000000  40.0000000000000  0.0912693057059451 
 220.000000000000  50.0000000000000  0.0828306042225551 
 220.000000000000  60.0000000000000  0.0718751367441710 
 220.000000000000  70.0000000000000  0.0587357796063892 
 220.000000000000  80.0000000000000  0.0438117655270060 
 220.000000000000  90.0000000000000  0.0275565531219077 
 220.000000000000  100.000000000000  0.0104640487944890 
 220.000000000000  110.000000000000 -0.00694640036048611 
 220.000000000000  120.000000000000 -0.0241457866555561 
 220.000000000000  130.000000000000 -0.0406115154414545 
 220.000000000000  140.000000000000 -0.0558432838810827 
 220.000000000000  150.000000000000 -0.0693782823980494 
 220.000000000000  160.000000000000 -0.0808052569114561 
 220.000000000000  170.000000000000 -0.0897770045830413 
 220.000000000000  180.000000000000 -0.0960209233997270 
 220.000000000000  190.000000000000 -0.0993472950478437 
 220.000000000000  200.000000000000 -0.0996550494080887 
 220.000000000000  210.000000000000 -0.0969348355199571 
 220.000000000000  220.000000000000 -0.0912693057059451 
 220.000000000000  230.000000000000 -0.0828306042225551 
 220.000000000000  240.000000000000 -0.0718751367441710 
 220.000000000000  250.000000000000 -0.0587357796063893 
 220.000000000000  260.000000000000 -0.0438117655270060 
 220.000000000000  270.000000000000 -0.0275565531219077 
 220.000000000000  280.000000000000 -0.0104640487944889 
 220.000000000000  290.000000000000  0.00694640036048614 
 220.000000000000  300.000000000000  0.0241457866555561 
 220.000000000000  310.000000000000  0.0406115154414545 
 220.000000000000  320.000000000000  0.0558432838810827 
 220.000000000000  330.000000000000  0.0693782823980494 
 220.000000000000  340.000000000000  0.0808052569114561 
 220.000000000000  350.000000000000  0.0897770045830413 
 220.000000000000  360.000000000000  0.0960209233997270 

 230.000000000000  0.00000000000000  0.0855632368940202 
 230.000000000000  10.0000000000000  0.0882475483809099 
 230.000000000000  20.0000000000000  0.0882505027656598 
 230.000000000000  30.0000000000000  0.0855720102807842 
 230.000000000000  40.0000000000000  0.0802934555650536 
 230.000000000000  50.0000000000000  0.0725752248324277 
 230.000000000000  60.0000000000000  0.0626518326181043 
 230.000000000000  70.0000000000000  0.0508247961730369 
 230.000000000000  80.0000000000000  0.0374534740148395 
 230.000000000000  90.0000000000000  0.0229441470010735 
 230.000000000000  100.000000000000  0.00773767369097857 
 230.000000000000  110.000000000000 -0.00770390491876504 
 230.000000000000  120.000000000000 -0.0229114042759159 
 230.000000000000  130.000000000000 -0.0374227522078730 
 230.000000000000  140.000000000000 -0.0507970287508203 
 230.000000000000  150.000000000000 -0.0626278632797107 
 230.000000000000  160.000000000000 -0.0725557818740750 
 230.000000000000  170.000000000000 -0.0802791297511928 
 230.000000000000  180.000000000000 -0.0855632368940202 
 230.000000000000  190.000000000000 -0.0882475483809099 
 230.000000000000  200.000000000000 -0.0882505027656598 
 230.000000000000  210.000000000000 -0.0855720102807842 
 230.000000000000  220.000000000000 -0.0802934555650536 
 230.000000000000  230.000000000000 -0.0725752248324278 
 230.000000000000  240.000000000000 -0.0626518326181044 
 230.000000000000  250.000000000000 -0.0508247961730369 
 230.000000000000  260.000000000000 -0.0374534740148394 
 230.000000000000  270.000000000000 -0.0229441470010735 
 230.000000000000  280.000000000000 -0.00773767369097852 
 230.000000000000  290.000000000000  0.00770390491876502 
 230.000000000000  300.000000000000  0.0229114042759159 
 230.000000000000  310.000000000000  0.0374227522078730 
 230.000000000000  320.000000000000  0.0507970287508203 
 230.000000000000  330.000000000000  0.0626278632797107 
 230.000000000000  340.000000000000  0.0725557818740750 
 230.000000000000  350.000000000000  0.0802791297511927 
 230.000000000000  360.000000000000  0.0855632368940202 

 240.000000000000  0.00000000000000  0.0725057547323757 
 240.000000000000  10.0000000000000  0.0744664446118363 
 240.000000000000  20.0000000000000  0.0741645092536054 
 240.000000000000  30.0000000000000  0.0716091228107563 
 240.000000000000  40.0000000000000  0.0668779294072669 
 240.000000000000  50.0000000000000  0.0601146839606028 
 240.000000000000  60.0000000000000  0.0515248842612936 
 240.000000000000  70.0000000000000  0.0413695270265546 
 240.000000000000  80.0000000000000  0.0299571776471044 
 240.000000000000  90.0000000000000  0.0176345945839104 
 240.000000000000  100.000000000000  0.00477619328781953 
 240.000000000000  110.000000000000 -0.00822733022445122 
 240.000000000000  120.000000000000 -0.0209808704710820 
 240.000000000000  130.000000000000 -0.0330969175852817 
 240.000000000000  140.000000000000 -0.0442073316065010 
 240.000000000000  150.000000000000 -0.0539745282268459 
 240.000000000000  160.000000000000 -0.0621017361194473 
 240.000000000000  170.000000000000 -0.0683420141850540 
 240.000000000000  180.000000000000 -0.0725057547323757 
 240.000000000000  190.000000000000 -0.0744664446118363 
 240.000000000000  200.000000000000 -0.0741645092536054 
 240.000000000000  210.000000000000 -0.0716091228107563 
 240.000000000000  220.000000000000 -0.0668779294072669 
 240.000000000000  230.000000000000 -0.0601146839606028 
 240.000000000000  240.000000000000 -0.0515248842612937 
 240.000000000000  250.000000000000 -0.0413695270265546 
 240.000000000000  260.000000000000 -0.0299571776471044 
 240.000000000000  270.000000000000 -0.0176345945839103 
 240.000000000000  280.000000000000 -0.00477619328781953 
 240.000000000000  290.000000000000  0.00822733022445122 
 240.000000000000  300.000000000000  0.0209808704710820 
 240.000000000000  310.000000000000  0.0330969175852817 
 240.000000000000  320.000000000000  0.0442073316065010 
 240.000000000000  330.000000000000  0.0539745282268460 
 240.000000000000  340.000000000000  0.0621017361194473 
 240.000000000000  350.000000000000  0.0683420141850540 
 240.000000000000  360.000000000000  0.0725057547323756 

 250.000000000000  0.00000000000000  0.0572452219028700 
 250.000000000000  10.0000000000000  0.0584227156050712 
 250.000000000000  20.0000000000000  0.0578250646569328 
 250.000000000000  30.0000000000000  0.0554704283800881 
 250.000000000000  40.0000000000000  0.0514303512063055 
 250.000000000000  50.0000000000000  0.0458275888361328 
 250.000000000000  60.0000000000000  0.0388323783690530 
 250.000000000000  70.0000000000000  0.0306572657353612 
 250.000000000000  80.0000000000000  0.0215506475956255 
 250.000000000000  90.0000000000000  0.0117892239338504 
 250.000000000000  100.000000000000  0.00166959066848057 
 250.000000000000  110.000000000000 -0.00850077226449745 
 250.000000000000  120.000000000000 -0.0184128435338170 
 250.000000000000  130.000000000000 -0.0277654498697100 
 250.000000000000  140.000000000000 -0.0362744170613074 
 250.000000000000  150.000000000000 -0.0436812044462376 
 250.000000000000  160.000000000000 -0.0497607605378249 
 250.000000000000  170.000000000000 -0.0543283611006302 
 250.000000000000  180.000000000000 -0.0572452219028701 
 250.000000000000  190.000000000000 -0.0584227156050712 
 250.000000000000  200.000000000000 -0.0578250646569328 
 250.000000000000  210.000000000000 -0.0554704283800881 
 250.000000000000  220.000000000000 -0.0514303512063055 
 250.000000000000  230.000000000000 -0.0458275888361328 
 250.000000000000  240.000000000000 -0.0388323783690530 
 250.000000000000  250.000000000000 -0.0306572657353612 
 250.000000000000  260.000000000000 -0.0215506475956254 
 250.000000000000  270.000000000000 -0.0117892239338504 
 250.000000000000  280.000000000000 -0.00166959066848058 
 250.000000000000  290.000000000000  0.00850077226449744 
 250.000000000000  300.000000000000  0.0184128435338170 
 250.000000000000  310.000000000000  0.0277654498697100 
 250.000000000000  320.000000000000  0.0362744170613074 
 250.000000000000  330.000000000000  0.0436812044462376 
 250.000000000000  340.000000000000  0.0497607605378249 
 250.000000000000  350.000000000000  0.0543283611006302 
 250.000000000000  360.000000000000  0.0572452219028701 

 260.000000000000  0.00000000000000  0.0402453219733257 
 260.000000000000  10.0000000000000  0.0406038419479665 
 260.000000000000  20.0000000000000  0.0397286347315539 
 260.000000000000  30.0000000000000  0.0376462930524820 
 260.000000000000  40.0000000000000  0.0344200878089540 
 260.000000000000  50.0000000000000  0.0301480456147557 
 260.000000000000  60.0000000000000  0.0249599703102003 
 260.000000000000  70.0000000000000  0.0190134989381239 
 260.000000000000  80.0000000000000  0.0124893120221072 
 260.000000000000  90.0000000000000  0.00558564368019566 
 260.000000000000  100.000000000000 -0.00148774161846655 
 260.000000000000  110.000000000000 -0.00851592264088523 
 260.000000000000  120.000000000000 -0.0152853516631254 
 260.000000000000  130.000000000000 -0.0215903430098427 
 260.000000000000  140.000000000000 -0.0272393227094466 
 260.000000000000  150.000000000000 -0.0320606493722863 
 260.000000000000  160.000000000000 -0.0359078294274205 
 260.000000000000  170.000000000000 -0.0386639682556410 
 260.000000000000  180.000000000000 -0.0402453219733258 
 260.000000000000  190.000000000000 -0.0406038419479666 
 260.000000000000  200.000000000000 -0.0397286347315539 
 260.000000000000  210.000000000000 -0.0376462930524820 
 260.000000000000  220.000000000000 -0.0344200878089540 
 260.000000000000  230.000000000000 -0.0301480456147557 
 260.000000000000  240.000000000000 -0.0249599703102003 
 260.000000000000  250.000000000000 -0.0190134989381238 
 260.000000000000  260.000000000000 -0.0124893120221072 
 260.000000000000  270.000000000000 -0.00558564368019567 
 260.000000000000  280.000000000000  0.00148774161846654 
 260.000000000000  290.000000000000  0.00851592264088523 
 260.000000000000  300.000000000000  0.0152853516631254 
 260.000000000000  310.000000000000  0.0215903430098427 
 260.000000000000  320.000000000000  0.0272393227094466 
 260.000000000000  330.000000000000  0.0320606493722863 
 260.000000000000  340.000000000000  0.0359078294274205 
 260.000000000000  350.000000000000  0.0386639682556410 
 260.000000000000  360.000000000000  0.0402453219733258 

 270.000000000000  0.00000000000000  0.0220225883007375 
 270.000000000000  10.0000000000000  0.0215512410998084 
 270.000000000000  20.0000000000000  0.0204250703435157 
 270.000000000000  30.0000000000000  0.0186782941604198 
 270.000000000000  40.0000000000000  0.0163639874609323 
 270.000000000000  50.0000000000000  0.0135524692830216 
 270.000000000000  60.0000000000000  0.0103291661838266 
 270.000000000000  70.0000000000000  0.00679201659694633 
 270.000000000000  80.0000000000000  0.00304849502269410 
 270.000000000000  90.0000000000000 -0.000787653530209768 
 270.000000000000  100.000000000000 -0.00459986962917014 
 270.000000000000  110.000000000000 -0.00827232101709452 
 270.000000000000  120.000000000000 -0.0116934221169109 
 270.000000000000  130.000000000000 -0.0147592245028620 
 270.000000000000  140.000000000000 -0.0173765753208217 
 270.000000000000  150.000000000000 -0.0194659476906295 
 270.000000000000  160.000000000000 -0.0209638570901024 
 270.000000000000  170.000000000000 -0.0218247903001161 
 270.000000000000  180.000000000000 -0.0220225883007375 
 270.000000000000  190.000000000000 -0.0215512410998084 
 270.000000000000  200.000000000000 -0.0204250703435158 
 270.000000000000  210.000000000000 -0.0186782941604198 
 270.000000000000  220.000000000000 -0.0163639874609322 
 270.000000000000  230.000000000000 -0.0135524692830215 
 270.000000000000  240.000000000000 -0.0103291661838266 
 270.000000000000  250.000000000000 -0.00679201659694633 
 270.000000000000  260.000000000000 -0.00304849502269411 
 270.000000000000  270.000000000000  0.000787653530209761 
 270.000000000000  280.000000000000  0.00459986962917013 
 270.000000000000  290.000000000000  0.00827232101709451 
 270.000000000000  300.000000000000  0.0116934221169109 
 270.000000000000  310.000000000000  0.0147592245028620 
 270.000000000000  320.000000000000  0.0173765753208216 
 270.000000000000  330.000000000000  0.0194659476906295 
 270.000000000000  340.000000000000  0.0209638570901024 
 270.000000000000  350.000000000000  0.0218247903001161 
 270.000000000000  360.000000000000  0.0220225883007375 

 280.000000000000  0.00000000000000  0.00313070942659872 
 280.000000000000  10.0000000000000  0.00184381669628668 
 280.000000000000  20.0000000000000  0.000500900528674281 
 280.000000000000  30.0000000000000 -0.000857235248033986 
 280.000000000000  40.0000000000000 -0.00218932436551266 
 280.000000000000  50.0000000000000 -0.00345489196999687 
 280.000000000000  60.0000000000000 -0.00461548443023245 
 280.000000000000  70.0000000000000 -0.00563583773160319 
 280.000000000000  80.0000000000000 -0.00648494895537065 
 280.000000000000  90.0000000000000 -0.00713701828667170 
 280.000000000000  100.000000000000 -0.00757223292883774 
 280.000000000000  110.000000000000 -0.00777736910519579 
 280.000000000000  120.000000000000 -0.00774619385683113 
 280.000000000000  130.000000000000 -0.00747965442788988 
 280.000000000000  140.000000000000 -0.00698584948404495 
 280.000000000000  150.000000000000 -0.00627978303863772 
 280.000000000000  160.000000000000 -0.00538290856332505 
 280.000000000000  170.000000000000 -0.00432247713519890 
 280.000000000000  180.000000000000 -0.00313070942659871 
 280.000000000000  190.000000000000 -0.00184381669628674 
 280.000000000000  200.000000000000 -0.000500900528674349 
 280.000000000000  210.000000000000  0.000857235248034016 
 280.000000000000  220.000000000000  0.00218932436551272 
 280.000000000000  230.000000000000  0.00345489196999692 
 280.000000000000  240.000000000000  0.00461548443023245 
 280.000000000000  250.000000000000  0.00563583773160318 
 280.000000000000  260.000000000000  0.00648494895537064 
 280.000000000000  270.000000000000  0.00713701828667170 
 280.000000000000  280.000000000000  0.00757223292883774 
 280.000000000000  290.000000000000  0.00777736910519580 
 280.000000000000  300.000000000000  0.00774619385683112 
 280.000000000000  310.000000000000  0.00747965442788986 
 280.000000000000  320.000000000000  0.00698584948404494 
 280.000000000000  330.000000000000  0.00627978303863773 
 280.000000000000  340.000000000000  0.00538290856332505 
 280.000000000000  350.000000000000  0.00432247713519890 
 280.000000000000  360.000000000000  0.00313070942659872 

 290.000000000000  0.00000000000000 -0.0158562944692519 
 290.000000000000  10.0000000000000 -0.0179196311445354 
 290.000000000000  20.0000000000000 -0.0194384888952630 
 290.000000000000  30.0000000000000 -0.0203667179972581 
 290.000000000000  40.0000000000000 -0.0206761146789631 
 290.000000000000  50.0000000000000 -0.0203572780787667 
 290.000000000000  60.0000000000000 -0.0194198958854267 
 290.000000000000  70.0000000000000 -0.0178924499825494 
 290.000000000000  80.0000000000000 -0.0158213510409690 
 290.000000000000  90.0000000000000 -0.0132695283539986 
 290.000000000000  100.000000000000 -0.0103145177626974 
 290.000000000000  110.000000000000 -0.00704610576857435 
 290.000000000000  120.000000000000 -0.00356360141617478 
 290.000000000000  130.000000000000  2.71811619859605e-05 
 290.000000000000  140.000000000000  0.00361713785429407 
 290.000000000000  150.000000000000  0.00709718964325952 
 290.000000000000  160.000000000000  0.0103615969162658 
 290.000000000000  170.000000000000  0.0133111723101923 
 290.000000000000  180.000000000000  0.0158562944692519 
 290.000000000000  190.000000000000  0.0179196311445353 
 290.000000000000  200.000000000000  0.0194384888952631 
 290.000000000000  210.000000000000  0.0203667179972582 
 290.000000000000  220.000000000000  0.0206761146789632 
 290.000000000000  230.000000000000  0.0203572780787667 
 290.000000000000  240.000000000000  0.0194198958854267 
 290.000000000000  250.000000000000  0.0178924499825494 
 290.000000000000  260.000000000000  0.0158213510409690 
 290.000000000000  270.000000000000  0.0132695283539986 
 290.000000000000  280.000000000000  0.0103145177626974 
 290.000000000000  290.000000000000  0.00704610576857435 
 290.000000000000  300.000000000000  0.00356360141617476 
 290.000000000000  310.000000000000 -2.71811619859640e-05 
 290.000000000000  320.000000000000 -0.00361713785429407 
 290.000000000000  330.000000000000 -0.00709718964325951 
 290.000000000000  340.000000000000 -0.0103615969162658 
 290.000000000000  350.000000000000 -0.0133111723101923 
 290.000000000000  360.000000000000 -0.0158562944692519 

 300.000000000000  0.00000000000000 -0.0343615128813264 
 300.000000000000  10.0000000000000 -0.0371386000608017 
 300.000000000000  20.0000000000000 -0.0387872496704678 
 300.000000000000  30.0000000000000 -0.0392573683261922 
 300.000000000000  40.0000000000000 -0.0385346717105121 
 300.000000000000  50.0000000000000 -0.0366411185943929 
 300.000000000000  60.0000000000000 -0.0336342436310837 
 300.000000000000  70.0000000000000 -0.0296054091947925 
 300.000000000000  80.0000000000000 -0.0246770293811774 
 300.000000000000  90.0000000000000 -0.0189988505169946 
 300.000000000000  100.000000000000 -0.0127434011937352 
 300.000000000000  110.000000000000 -0.00610075007367634 
 300.000000000000  120.000000000000  0.000727269250242739 
 300.000000000000  130.000000000000  0.00753319086600917 
 300.000000000000  140.000000000000  0.0141102202892904 
 300.000000000000  150.000000000000  0.0202585178091976 
 300.000000000000  160.000000000000  0.0257912705167769 
 300.000000000000  170.000000000000  0.0305403685207165 
 300.000000000000  180.000000000000  0.0343615128813263 
 300.000000000000  190.000000000000  0.0371386000608017 
 300.000000000000  200.000000000000  0.0387872496704679 
 300.000000000000  210.000000000000  0.0392573683261922 
 300.000000000000  220.000000000000  0.0385346717105121 
 300.000000000000  230.000000000000  0.0366411185943929 
 300.000000000000  240.000000000000  0.0336342436310837 
 300.000000000000  250.000000000000  0.0296054091947925 
 300.000000000000  260.000000000000  0.0246770293811774 
 300.000000000000  270.000000000000  0.0189988505169946 
 300.000000000000  280.000000000000  0.0127434011937352 
 300.000000000000  290.000000000000  0.00610075007367633 
 300.000000000000  300.000000000000 -0.000727269250242739 
 300.000000000000  310.000000000000 -0.00753319086600916 
 300.000000000000  320.000000000000 -0.0141102202892904 
 300.000000000000  330.000000000000 -0.0202585178091976 
 300.000000000000  340.000000000000 -0.0257912705167769 
 300.000000000000  350.000000000000 -0.0305403685207165 
 300.000000000000  360.000000000000 -0.0343615128813264 

 310.000000000000  0.00000000000000 -0.0518226741122663 
 310.000000000000  10.0000000000000 -0.0552291314072588 
 310.000000000000  20.0000000000000 -0.0569574794917308 
 310.000000000000  30.0000000000000 -0.0569552033837218 
 310.000000000000  40.0000000000000 -0.0552223722416220 
 310.000000000000  50.0000000000000 -0.0518116372628291 
 310.000000000000  60.0000000000000 -0.0468266319037587 
 310.000000000000  70.0000000000000 -0.0404188230297116 
 310.000000000000  80.0000000000000 -0.0327829086708181 
 310.000000000000  90.0000000000000 -0.0241509022209140 
 310.000000000000  100.000000000000 -0.0147850828279736 
 310.000000000000  110.000000000000 -0.00497002617491814 
 310.000000000000  120.000000000000  0.00499604220850761 
 310.000000000000  130.000000000000  0.0148103083775472 
 310.000000000000  140.000000000000  0.0241745708209127 
 310.000000000000  150.000000000000  0.0328043011628078 
 310.000000000000  160.000000000000  0.0404372894136483 
 310.000000000000  170.000000000000  0.0468416110879109 
 310.000000000000  180.000000000000  0.0518226741122664 
 310.000000000000  190.000000000000  0.0552291314072589 
 310.000000000000  200.000000000000  0.0569574794917308 
 310.000000000000  210.000000000000  0.0569552033837218 
 310.000000000000  220.000000000000  0.0552223722416220 
 310.000000000000  230.000000000000  0.0518116372628291 
 310.000000000000  240.000000000000  0.0468266319037587 
 310.000000000000  250.000000000000  0.0404188230297116 
 310.000000000000  260.000000000000  0.0327829086708181 
 310.000000000000  270.000000000000  0.0241509022209140 
 310.000000000000  280.000000000000  0.0147850828279736 
 310.000000000000  290.000000000000  0.00497002617491814 
 310.000000000000  300.000000000000 -0.00499604220850760 
 310.000000000000  310.000000000000 -0.0148103083775472 
 310.000000000000  320.000000000000 -0.0241745708209127 
 310.000000000000  330.000000000000 -0.0328043011628078 
 310.000000000000  340.000000000000 -0.0404372894136483 
 310.000000000000  350.000000000000 -0.0468416110879109 
 310.000000000000  360.000000000000 -0.0518226741122663 

 320.000000000000  0.00000000000000 -0.0677092296138434 
 320.000000000000  10.0000000000000 -0.0716415535431955 
 320.000000000000  20.0000000000000 -0.0733970851205129 
 320.000000000000  30.0000000000000 -0.0729224834071606 
 320.000000000000  40.0000000000000 -0.0702321689360388 
 320.000000000000  50.0000000000000 -0.0654078855509878 
 320.000000000000  60.0000000000000 -0.0585962166614571 
 320.000000000000  70.0000000000000 -0.0500041313797844 
 320.000000000000  80.0000000000000 -0.0398926958694482 
 320.000000000000  90.0000000000000 -0.0285691409817971 
 320.000000000000  100.000000000000 -0.0163775272020969 
 320.000000000000  110.000000000000 -0.00368829054578968 
 320.000000000000  120.000000000000  0.00911301295238632 
 320.000000000000  130.000000000000  0.0216374221634111 
 320.000000000000  140.000000000000  0.0335043892510646 
 320.000000000000  150.000000000000  0.0443533424253634 
 320.000000000000  160.000000000000  0.0538546417339418 
 320.000000000000  170.000000000000  0.0617195950051981 
 320.000000000000  180.000000000000  0.0677092296138434 
 320.000000000000  190.000000000000  0.0716415535431955 
 320.000000000000  200.000000000000  0.0733970851205129 
 320.000000000000  210.000000000000  0.0729224834071606 
 320.000000000000  220.000000000000  0.0702321689360388 
 320.000000000000  230.000000000000  0.0654078855509878 
 320.000000000000  240.000000000000  0.0585962166614571 
 320.000000000000  250.000000000000  0.0500041313797844 
 320.000000000000  260.000000000000  0.0398926958694482 
 320.000000000000  270.000000000000  0.0285691409817971 
 320.000000000000  280.000000000000  0.0163775272020969 
 320.000000000000  290.000000000000  0.00368829054578968 
 320.000000000000  300.000000000000 -0.00911301295238631 
 320.000000000000  310.000000000000 -0.0216374221634111 
 320.000000000000  320.000000000000 -0.0335043892510645 
 320.000000000000  330.000000000000 -0.0443533424253634 
 320.000000000000  340.000000000000 -0.0538546417339418 
 320.000000000000  350.000000000000 -0.0617195950051981 
 320.000000000000  360.000000000000 -0.0677092296138434 

 330.000000000000  0.00000000000000 -0.0815384744361272 
 330.000000000000  10.0000000000000 -0.0858771833270974 
 330.000000000000  20.0000000000000 -0.0876065574586252 
 330.000000000000  30.0000000000000 -0.0866740506728298 
 330.000000000000  40.0000000000000 -0.0831079967165264 
 330.000000000000  50.0000000000000 -0.0770167483346668 
 330.000000000000  60.0000000000000 -0.0685853850270134 
 330.000000000000  70.0000000000000 -0.0580700895011937 
 330.000000000000  80.0000000000000 -0.0457903636907634 
 330.000000000000  90.0000000000000 -0.0321193208506311 
 330.000000000000  100.000000000000 -0.0174723486996132 
 330.000000000000  110.000000000000 -0.00229448807479246 
 330.000000000000  120.000000000000  0.0129530894091138 
 330.000000000000  130.000000000000  0.0278070938259037 
 330.000000000000  140.000000000000  0.0418161937678619 
 330.000000000000  150.000000000000  0.0545547298221986 
 330.000000000000  160.000000000000  0.0656356480169132 
 330.000000000000  170.000000000000  0.0747222602598743 
 330.000000000000  180.000000000000  0.0815384744361273 
 330.000000000000  190.000000000000  0.0858771833270974 
 330.000000000000  200.000000000000  0.0876065574586252 
 330.000000000000  210.000000000000  0.0866740506728298 
 330.000000000000  220.000000000000  0.0831079967165264 
 330.000000000000  230.000000000000  0.0770167483346668 
 330.000000000000  240.000000000000  0.0685853850270134 
 330.000000000000  250.000000000000  0.0580700895011937 
 330.000000000000  260.000000000000  0.0457903636907633 
 330.000000000000  270.000000000000  0.0321193208506312 
 330.000000000000  280.000000000000  0.0174723486996132 
 330.000000000000  290.000000000000  0.00229448807479248 
 330.000000000000  300.000000000000 -0.0129530894091138 
 330.000000000000  310.000000000000 -0.0278070938259037 
 330.000000000000  320.000000000000 -0.0418161937678618 
 330.000000000000  330.000000000000 -0.0545547298221986 
 330.000000000000  340.000000000000 -0.0656356480169132 
 330.000000000000  350.000000000000 -0.0747222602598743 
 330.000000000000  360.000000000000 -0.0815384744361273 

 340.000000000000  0.00000000000000 -0.0928902139731283 
 340.000000000000  10.0000000000000 -0.0975034783515570 
 340.000000000000  20.0000000000000 -0.0991541488794144 
 340.000000000000  30.0000000000000 -0.0977920707679910 
 340.000000000000  40.0000000000000 -0.0934586300714578 
 340.000000000000  50.0000000000000 -0.0862854961925520 
 340.000000000000  60.0000000000000 -0.0764906211744034 
 340.000000000000  70.0000000000000 -0.0643716173379924 
 340.000000000000  80.0000000000000 -0.0502967144823766 
 340.000000000000  90.0000000000000 -0.0346935714085794 
 340.000000000000  100.000000000000 -0.0180362817233267 
 340.000000000000  110.000000000000 -0.000830968744709667 
 340.000000000000  120.000000000000  0.0163995927987249 
 340.000000000000  130.000000000000  0.0331318610135646 
 340.000000000000  140.000000000000  0.0488574343970377 
 340.000000000000  150.000000000000  0.0630984993594117 
 340.000000000000  160.000000000000  0.0754223483481311 
 340.000000000000  170.000000000000  0.0854545274478424 
 340.000000000000  180.000000000000  0.0928902139731283 
 340.000000000000  190.000000000000  0.0975034783515570 
 340.000000000000  200.000000000000  0.0991541488794144 
 340.000000000000  210.000000000000  0.0977920707679910 
 340.000000000000  220.000000000000  0.0934586300714578 
 340.000000000000  230.000000000000  0.0862854961925520 
 340.000000000000  240.000000000000  0.0764906211744034 
 340.000000000000  250.000000000000  0.0643716173379924 
 340.000000000000  260.000000000000  0.0502967144823766 
 340.000000000000  270.000000000000  0.0346935714085794 
 340.000000000000  280.000000000000  0.0180362817233267 
 340.000000000000  290.000000000000  0.000830968744709681 
 340.000000000000  300.000000000000 -0.0163995927987249 
 340.000000000000  310.000000000000 -0.0331318610135646 
 340.000000000000  320.000000000000 -0.0488574343970377 
 340.000000000000  330.000000000000 -0.0630984993594117 
 340.000000000000  340.000000000000 -0.0754223483481311 
 340.000000000000  350.000000000000 -0.0854545274478424 
 340.000000000000  360.000000000000 -0.0928902139731283 

 350.000000000000  0.00000000000000 -0.101419531363272 
 350.000000000000  10.0000000000000 -0.106167179525445 
 350.000000000000  20.0000000000000 -0.107688991660923 
 350.000000000000  30.0000000000000 -0.105938728278042 
 350.000000000000  40.0000000000000 -0.100969570244017 
 350.000000000000  50.0000000000000 -0.0929325029111944 
 350.000000000000  60.0000000000000 -0.0820717285035310 
 350.000000000000  70.0000000000000 -0.0687172461555863 
 350.000000000000  80.0000000000000 -0.0532748250558085 
 350.000000000000  90.0000000000000 -0.0362136753550722 
 350.000000000000  100.000000000000 -0.0180521914536759 
 350.000000000000  110.000000000000  0.000657799150190671 
 350.000000000000  120.000000000000  0.0193478028597411 
 350.000000000000  130.000000000000  0.0374499333698589 
 350.000000000000  140.000000000000  0.0544141666051144 
 350.000000000000  150.000000000000  0.0697250529229702 
 350.000000000000  160.000000000000  0.0829173787903408 
 350.000000000000  170.000000000000  0.0935903020613851 
 350.000000000000  180.000000000000  0.101419531363272 
 350.000000000000  190.000000000000  0.106167179525445 
 350.000000000000  200.000000000000  0.107688991660923 
 350.000000000000  210.000000000000  0.105938728278042 
 350.000000000000  220.000000000000  0.100969570244017 
 350.000000000000  230.000000000000  0.0929325029111944 
 350.000000000000  240.000000000000  0.0820717285035310 
 350.000000000000  250.000000000000  0.0687172461555863 
 350.000000000000  260.000000000000  0.0532748250558085 
 350.000000000000  270.000000000000  0.0362136753550722 
 350.000000000000  280.000000000000  0.0180521914536759 
 350.000000000000  290.000000000000 -0.000657799150190643 
 350.000000000000  300.000000000000 -0.0193478028597411 
 350.000000000000  310.000000000000 -0.0374499333698589 
 350.000000000000  320.000000000000 -0.0544141666051144 
 350.000000000000  330.000000000000 -0.0697250529229702 
 350.000000000000  340.000000000000 -0.0829173787903408 
 350.000000000000  350.000000000000 -0.0935903020613851 
 350.000000000000  360.000000000000 -0.101419531363272 

 360.000000000000  0.00000000000000 -0.106867267613702 
 360.000000000000  10.0000000000000 -0.111605044672638 
 360.000000000000  20.0000000000000 -0.112951758924073 
 360.000000000000  30.0000000000000 -0.110866491136948 
 360.000000000000  40.0000000000000 -0.105412601117779 
 360.000000000000  50.0000000000000 -0.0967558025549957 
 360.000000000000  60.0000000000000 -0.0851591278923773 
 360.000000000000  70.0000000000000 -0.0709749362213471 
 360.000000000000  80.0000000000000 -0.0546342070282818 
 360.000000000000  90.0000000000000 -0.0366334451009050 
 360.000000000000  100.000000000000 -0.0175195944815548 
 360.000000000000  110.000000000000  0.00212658015077484 
 360.000000000000  120.000000000000  0.0217081397213247 
 360.000000000000  130.000000000000  0.0406301084512909 
 360.000000000000  140.000000000000  0.0583175518957915 
 360.000000000000  150.000000000000  0.0742330460360435 
 360.000000000000  160.000000000000  0.0878930066362242 
 360.000000000000  170.000000000000  0.0988823827057706 
 360.000000000000  180.000000000000  0.106867267613702 
 360.000000000000  190.000000000000  0.111605044672638 
 360.000000000000  200.000000000000  0.112951758924073 
 360.000000000000  210.000000000000  0.110866491136948 
 360.000000000000  220.000000000000  0.105412601117779 
 360.000000000000  230.000000000000  0.0967558025549957 
 360.000000000000  240.000000000000  0.0851591278923773 
 360.000000000000  250.000000000000  0.0709749362213471 
 360.000000000000  260.000000000000  0.0546342070282818 
 360.000000000000  270.000000000000  0.0366334451009050 
 360.000000000000  280.000000000000  0.0175195944815548 
 360.000000000000  290.000000000000 -0.00212658015077485 
 360.000000000000  300.000000000000 -0.0217081397213247 
 360.000000000000  310.000000000000 -0.0406301084512909 
 360.000000000000  320.000000000000 -0.0583175518957915 
 360.000000000000  330.000000000000 -0.0742330460360435 
 360.000000000000  340.000000000000 -0.0878930066362242 
 360.000000000000  350.000000000000 -0.0988823827057706 
 360.000000000000  360.000000000000 -0.106867267613702 

