 0.00000000000000  0.00000000000000  0.0233335238955010 
 0.00000000000000  10.0000000000000  0.0202895912391585 
 0.00000000000000  20.0000000000000  0.0166291696200426 
 0.00000000000000  30.0000000000000  0.0124634790967876 
 0.00000000000000  40.0000000000000  0.00791909206800146 
 0.00000000000000  50.0000000000000  0.00313408743398302 
 0.00000000000000  60.0000000000000 -0.00174614486079223 
 0.00000000000000  70.0000000000000 -0.00657332142756424 
 0.00000000000000  80.0000000000000 -0.0112007709490209 
 0.00000000000000  90.0000000000000 -0.0154878907130550 
 0.00000000000000  100.000000000000 -0.0193044187550239 
 0.00000000000000  110.000000000000 -0.0225343918016286 
 0.00000000000000  120.000000000000 -0.0250796687562933 
 0.00000000000000  130.000000000000 -0.0268629126667227 
 0.00000000000000  140.000000000000 -0.0278299405690635 
 0.00000000000000  150.000000000000 -0.0279513698098427 
 0.00000000000000  160.000000000000 -0.0272235108230254 
 0.00000000000000  170.000000000000 -0.0256684792356116 
 0.00000000000000  180.000000000000 -0.0233335238955010 
 0.00000000000000  190.000000000000 -0.0202895912391585 
 0.00000000000000  200.000000000000 -0.0166291696200426 
 0.00000000000000  210.000000000000 -0.0124634790967876 
 0.00000000000000  220.000000000000 -0.00791909206800146 
 0.00000000000000  230.000000000000 -0.00313408743398302 
 0.00000000000000  240.000000000000  0.00174614486079222 
 0.00000000000000  250.000000000000  0.00657332142756425 
 0.00000000000000  260.000000000000  0.0112007709490209 
 0.00000000000000  270.000000000000  0.0154878907130550 
 0.00000000000000  280.000000000000  0.0193044187550239 
 0.00000000000000  290.000000000000  0.0225343918016286 
 0.00000000000000  300.000000000000  0.0250796687562933 
 0.00000000000000  310.000000000000  0.0268629126667227 
 0.00000000000000  320.000000000000  0.0278299405690635 
 0.00000000000000  330.000000000000  0.0279513698098427 
 0.00000000000000  340.000000000000  0.0272235108230254 
 0.00000000000000  350.000000000000  0.0256684792356116 
 0.00000000000000  360.000000000000  0.0233335238955010 

 10.0000000000000  0.00000000000000  0.0236537624856534 
 10.0000000000000  10.0000000000000  0.0205602997630342 
 10.0000000000000  20.0000000000000  0.0168421227361290 
 10.0000000000000  30.0000000000000  0.0126122063324117 
 10.0000000000000  40.0000000000000  0.00799907442136847 
 10.0000000000000  50.0000000000000  0.00314289468175892 
 10.0000000000000  60.0000000000000 -0.00180878032237442 
 10.0000000000000  70.0000000000000 -0.00670549645169943 
 10.0000000000000  80.0000000000000 -0.0113984694644845 
 10.0000000000000  90.0000000000000 -0.0157451057504950 
 10.0000000000000  100.000000000000 -0.0196133349656847 
 10.0000000000000  110.000000000000 -0.0228856229227684 
 10.0000000000000  120.000000000000 -0.0254625428080278 
 10.0000000000000  130.000000000000 -0.0272657962147337 
 10.0000000000000  140.000000000000 -0.0282405922006134 
 10.0000000000000  150.000000000000 -0.0283573120829067 
 10.0000000000000  160.000000000000 -0.0276124093870532 
 10.0000000000000  170.000000000000 -0.0260285176045274 
 10.0000000000000  180.000000000000 -0.0236537624856534 
 10.0000000000000  190.000000000000 -0.0205602997630342 
 10.0000000000000  200.000000000000 -0.0168421227361289 
 10.0000000000000  210.000000000000 -0.0126122063324117 
 10.0000000000000  220.000000000000 -0.00799907442136847 
 10.0000000000000  230.000000000000 -0.00314289468175893 
 10.0000000000000  240.000000000000  0.00180878032237442 
 10.0000000000000  250.000000000000  0.00670549645169942 
 10.0000000000000  260.000000000000  0.0113984694644845 
 10.0000000000000  270.000000000000  0.0157451057504950 
 10.0000000000000  280.000000000000  0.0196133349656847 
 10.0000000000000  290.000000000000  0.0228856229227684 
 10.0000000000000  300.000000000000  0.0254625428080278 
 10.0000000000000  310.000000000000  0.0272657962147337 
 10.0000000000000  320.000000000000  0.0282405922006134 
 10.0000000000000  330.000000000000  0.0283573120829067 
 10.0000000000000  340.000000000000  0.0276124093870532 
 10.0000000000000  350.000000000000  0.0260285176045274 
 10.0000000000000  360.000000000000  0.0236537624856534 

 20.0000000000000  0.00000000000000  0.0232552934720606 
 20.0000000000000  10.0000000000000  0.0202062939826239 
 20.0000000000000  20.0000000000000  0.0165433364754033 
 20.0000000000000  30.0000000000000  0.0123777180607098 
 20.0000000000000  40.0000000000000  0.00783600894616917 
 20.0000000000000  50.0000000000000  0.00305620666501103 
 20.0000000000000  60.0000000000000 -0.00181645690914827 
 20.0000000000000  70.0000000000000 -0.00663392835929465 
 20.0000000000000  80.0000000000000 -0.0112498312531736 
 20.0000000000000  90.0000000000000 -0.0155239137171141 
 20.0000000000000  100.000000000000 -0.0193263099182395 
 20.0000000000000  110.000000000000 -0.0225414859720839 
 20.0000000000000  120.000000000000 -0.0250717503812088 
 20.0000000000000  130.000000000000 -0.0268402223419186 
 20.0000000000000  140.000000000000 -0.0277931677285769 
 20.0000000000000  150.000000000000 -0.0279016317778239 
 20.0000000000000  160.000000000000 -0.0271623188644087 
 20.0000000000000  170.000000000000 -0.0255976926370950 
 20.0000000000000  180.000000000000 -0.0232552934720606 
 20.0000000000000  190.000000000000 -0.0202062939826239 
 20.0000000000000  200.000000000000 -0.0165433364754033 
 20.0000000000000  210.000000000000 -0.0123777180607098 
 20.0000000000000  220.000000000000 -0.00783600894616918 
 20.0000000000000  230.000000000000 -0.00305620666501103 
 20.0000000000000  240.000000000000  0.00181645690914827 
 20.0000000000000  250.000000000000  0.00663392835929465 
 20.0000000000000  260.000000000000  0.0112498312531736 
 20.0000000000000  270.000000000000  0.0155239137171141 
 20.0000000000000  280.000000000000  0.0193263099182396 
 20.0000000000000  290.000000000000  0.0225414859720839 
 20.0000000000000  300.000000000000  0.0250717503812088 
 20.0000000000000  310.000000000000  0.0268402223419186 
 20.0000000000000  320.000000000000  0.0277931677285769 
 20.0000000000000  330.000000000000  0.0279016317778239 
 20.0000000000000  340.000000000000  0.0271623188644087 
 20.0000000000000  350.000000000000  0.0255976926370950 
 20.0000000000000  360.000000000000  0.0232552934720606 

 30.0000000000000  0.00000000000000  0.0221502241340655 
 30.0000000000000  10.0000000000000  0.0192383301844297 
 30.0000000000000  20.0000000000000  0.0157418893072048 
 30.0000000000000  30.0000000000000  0.0117671390891608 
 30.0000000000000  40.0000000000000  0.00743485030435237 
 30.0000000000000  50.0000000000000  0.00287665735526197 
 30.0000000000000  60.0000000000000 -0.00176894137190920 
 30.0000000000000  70.0000000000000 -0.00636079171062243 
 30.0000000000000  80.0000000000000 -0.0107593726119243 
 30.0000000000000  90.0000000000000 -0.0148310354209181 
 30.0000000000000  100.000000000000 -0.0184520647235134 
 30.0000000000000  110.000000000000 -0.0215124373766799 
 30.0000000000000  120.000000000000 -0.0239191655059747 
 30.0000000000000  130.000000000000 -0.0255991218950521 
 30.0000000000000  140.000000000000 -0.0265012619191291 
 30.0000000000000  150.000000000000 -0.0265981745100789 
 30.0000000000000  160.000000000000 -0.0258869150278657 
 30.0000000000000  170.000000000000 -0.0243890947319419 
 30.0000000000000  180.000000000000 -0.0221502241340655 
 30.0000000000000  190.000000000000 -0.0192383301844297 
 30.0000000000000  200.000000000000 -0.0157418893072048 
 30.0000000000000  210.000000000000 -0.0117671390891608 
 30.0000000000000  220.000000000000 -0.00743485030435236 
 30.0000000000000  230.000000000000 -0.00287665735526197 
 30.0000000000000  240.000000000000  0.00176894137190920 
 30.0000000000000  250.000000000000  0.00636079171062243 
 30.0000000000000  260.000000000000  0.0107593726119243 
 30.0000000000000  270.000000000000  0.0148310354209181 
 30.0000000000000  280.000000000000  0.0184520647235134 
 30.0000000000000  290.000000000000  0.0215124373766799 
 30.0000000000000  300.000000000000  0.0239191655059747 
 30.0000000000000  310.000000000000  0.0255991218950521 
 30.0000000000000  320.000000000000  0.0265012619191291 
 30.0000000000000  330.000000000000  0.0265981745100789 
 30.0000000000000  340.000000000000  0.0258869150278657 
 30.0000000000000  350.000000000000  0.0243890947319419 
 30.0000000000000  360.000000000000  0.0221502241340655 

 40.0000000000000  0.00000000000000  0.0203721314443110 
 40.0000000000000  10.0000000000000  0.0176858194586463 
 40.0000000000000  20.0000000000000  0.0144621327981871 
 40.0000000000000  30.0000000000000  0.0107990215508473 
 40.0000000000000  40.0000000000000  0.00680778749825360 
 40.0000000000000  50.0000000000000  0.00260970226743214 
 40.0000000000000  60.0000000000000 -0.00166767744621219 
 40.0000000000000  70.0000000000000 -0.00589438562453886 
 40.0000000000000  80.0000000000000 -0.00994199587836696 
 40.0000000000000  90.0000000000000 -0.0136875236183236 
 40.0000000000000  100.000000000000 -0.0170171628793585 
 40.0000000000000  110.000000000000 -0.0198297442574041 
 40.0000000000000  120.000000000000 -0.0220398088905232 
 40.0000000000000  130.000000000000 -0.0235802050831852 
 40.0000000000000  140.000000000000 -0.0244041286765541 
 40.0000000000000  150.000000000000 -0.0244865451691709 
 40.0000000000000  160.000000000000 -0.0238249503776121 
 40.0000000000000  170.000000000000 -0.0224394465248362 
 40.0000000000000  180.000000000000 -0.0203721314443110 
 40.0000000000000  190.000000000000 -0.0176858194586463 
 40.0000000000000  200.000000000000 -0.0144621327981871 
 40.0000000000000  210.000000000000 -0.0107990215508473 
 40.0000000000000  220.000000000000 -0.00680778749825360 
 40.0000000000000  230.000000000000 -0.00260970226743214 
 40.0000000000000  240.000000000000  0.00166767744621218 
 40.0000000000000  250.000000000000  0.00589438562453887 
 40.0000000000000  260.000000000000  0.00994199587836697 
 40.0000000000000  270.000000000000  0.0136875236183235 
 40.0000000000000  280.000000000000  0.0170171628793585 
 40.0000000000000  290.000000000000  0.0198297442574041 
 40.0000000000000  300.000000000000  0.0220398088905232 
 40.0000000000000  310.000000000000  0.0235802050831852 
 40.0000000000000  320.000000000000  0.0244041286765541 
 40.0000000000000  330.000000000000  0.0244865451691709 
 40.0000000000000  340.000000000000  0.0238249503776121 
 40.0000000000000  350.000000000000  0.0224394465248362 
 40.0000000000000  360.000000000000  0.0203721314443110 

 50.0000000000000  0.00000000000000  0.0179750418494171 
 50.0000000000000  10.0000000000000  0.0155959340580685 
 50.0000000000000  20.0000000000000  0.0127429517022889 
 50.0000000000000  30.0000000000000  0.00950278120727994 
 50.0000000000000  40.0000000000000  0.00597387351392710 
 50.0000000000000  50.0000000000000  0.00226345269677944 
 50.0000000000000  60.0000000000000 -0.00151574198519753 
 50.0000000000000  70.0000000000000 -0.00524888161395672 
 50.0000000000000  80.0000000000000 -0.00882253663093810 
 50.0000000000000  90.0000000000000 -0.0121281233368074 
 50.0000000000000  100.000000000000 -0.0150652031522143 
 50.0000000000000  110.000000000000 -0.0175445343932018 
 50.0000000000000  120.000000000000 -0.0194907838346146 
 50.0000000000000  130.000000000000 -0.0208448156720252 
 50.0000000000000  140.000000000000 -0.0215654883332270 
 50.0000000000000  150.000000000000 -0.0216309045440873 
 50.0000000000000  160.000000000000 -0.0210390766661414 
 50.0000000000000  170.000000000000 -0.0198079870899812 
 50.0000000000000  180.000000000000 -0.0179750418494171 
 50.0000000000000  190.000000000000 -0.0155959340580685 
 50.0000000000000  200.000000000000 -0.0127429517022889 
 50.0000000000000  210.000000000000 -0.00950278120727993 
 50.0000000000000  220.000000000000 -0.00597387351392710 
 50.0000000000000  230.000000000000 -0.00226345269677945 
 50.0000000000000  240.000000000000  0.00151574198519753 
 50.0000000000000  250.000000000000  0.00524888161395672 
 50.0000000000000  260.000000000000  0.00882253663093810 
 50.0000000000000  270.000000000000  0.0121281233368074 
 50.0000000000000  280.000000000000  0.0150652031522143 
 50.0000000000000  290.000000000000  0.0175445343932018 
 50.0000000000000  300.000000000000  0.0194907838346146 
 50.0000000000000  310.000000000000  0.0208448156720252 
 50.0000000000000  320.000000000000  0.0215654883332270 
 50.0000000000000  330.000000000000  0.0216309045440873 
 50.0000000000000  340.000000000000  0.0210390766661414 
 50.0000000000000  350.000000000000  0.0198079870899812 
 50.0000000000000  360.000000000000  0.0179750418494171 

 60.0000000000000  0.00000000000000  0.0150317897037387 
 60.0000000000000  10.0000000000000  0.0130321740930597 
 60.0000000000000  20.0000000000000  0.0106365824671613 
 60.0000000000000  30.0000000000000  0.00791780366536866 
 60.0000000000000  40.0000000000000  0.00495844640580578 
 60.0000000000000  50.0000000000000  0.00184842926129743 
 60.0000000000000  60.0000000000000 -0.00131775147096509 
 60.0000000000000  70.0000000000000 -0.00444389299159676 
 60.0000000000000  80.0000000000000 -0.00743500907239712 
 60.0000000000000  90.0000000000000 -0.0102002161648288 
 60.0000000000000  100.000000000000 -0.0126554948506506 
 60.0000000000000  110.000000000000 -0.0147262427294248 
 60.0000000000000  120.000000000000 -0.0163495411747038 
 60.0000000000000  130.000000000000 -0.0174760670846564 
 60.0000000000000  140.000000000000 -0.0180715915395584 
 60.0000000000000  150.000000000000 -0.0181180198301975 
 60.0000000000000  160.000000000000 -0.0176139412564564 
 60.0000000000000  170.000000000000 -0.0165746719907222 
 60.0000000000000  180.000000000000 -0.0150317897037387 
 60.0000000000000  190.000000000000 -0.0130321740930596 
 60.0000000000000  200.000000000000 -0.0106365824671613 
 60.0000000000000  210.000000000000 -0.00791780366536866 
 60.0000000000000  220.000000000000 -0.00495844640580578 
 60.0000000000000  230.000000000000 -0.00184842926129743 
 60.0000000000000  240.000000000000  0.00131775147096509 
 60.0000000000000  250.000000000000  0.00444389299159676 
 60.0000000000000  260.000000000000  0.00743500907239712 
 60.0000000000000  270.000000000000  0.0102002161648288 
 60.0000000000000  280.000000000000  0.0126554948506506 
 60.0000000000000  290.000000000000  0.0147262427294248 
 60.0000000000000  300.000000000000  0.0163495411747038 
 60.0000000000000  310.000000000000  0.0174760670846564 
 60.0000000000000  320.000000000000  0.0180715915395584 
 60.0000000000000  330.000000000000  0.0181180198301975 
 60.0000000000000  340.000000000000  0.0176139412564564 
 60.0000000000000  350.000000000000  0.0165746719907222 
 60.0000000000000  360.000000000000  0.0150317897037387 

 70.0000000000000  0.00000000000000  0.0116318042343648 
 70.0000000000000  10.0000000000000  0.0100724381128315 
 70.0000000000000  20.0000000000000  0.00820702605613942 
 70.0000000000000  30.0000000000000  0.00609224766568712 
 70.0000000000000  40.0000000000000  0.00379235941273899 
 70.0000000000000  50.0000000000000  0.00137724223806124 
 70.0000000000000  60.0000000000000 -0.00107972174510180 
 70.0000000000000  70.0000000000000 -0.00350387892940549 
 70.0000000000000  80.0000000000000 -0.00582157252548748 
 70.0000000000000  90.0000000000000 -0.00796238058624037 
 70.0000000000000  100.000000000000 -0.00986125574203934 
 70.0000000000000  110.000000000000 -0.0114605016321526 
 70.0000000000000  120.000000000000 -0.0127115259794666 
 70.0000000000000  130.000000000000 -0.0135763170422370 
 70.0000000000000  140.000000000000 -0.0140285985816269 
 70.0000000000000  150.000000000000 -0.0140546282519275 
 70.0000000000000  160.000000000000 -0.0136536151547783 
 70.0000000000000  170.000000000000 -0.0128377438702139 
 70.0000000000000  180.000000000000 -0.0116318042343648 
 70.0000000000000  190.000000000000 -0.0100724381128315 
 70.0000000000000  200.000000000000 -0.00820702605613942 
 70.0000000000000  210.000000000000 -0.00609224766568713 
 70.0000000000000  220.000000000000 -0.00379235941273899 
 70.0000000000000  230.000000000000 -0.00137724223806124 
 70.0000000000000  240.000000000000  0.00107972174510180 
 70.0000000000000  250.000000000000  0.00350387892940548 
 70.0000000000000  260.000000000000  0.00582157252548748 
 70.0000000000000  270.000000000000  0.00796238058624037 
 70.0000000000000  280.000000000000  0.00986125574203934 
 70.0000000000000  290.000000000000  0.0114605016321526 
 70.0000000000000  300.000000000000  0.0127115259794666 
 70.0000000000000  310.000000000000  0.0135763170422370 
 70.0000000000000  320.000000000000  0.0140285985816269 
 70.0000000000000  330.000000000000  0.0140546282519275 
 70.0000000000000  340.000000000000  0.0136536151547783 
 70.0000000000000  350.000000000000  0.0128377438702139 
 70.0000000000000  360.000000000000  0.0116318042343648 

 80.0000000000000  0.00000000000000  0.00787839227930666 
 80.0000000000000  10.0000000000000  0.00680665619744456 
 80.0000000000000  20.0000000000000  0.00552810331135733 
 80.0000000000000  30.0000000000000  0.00408158180350976 
 80.0000000000000  40.0000000000000  0.00251104349794259 
 80.0000000000000  50.0000000000000  0.000864208406339756 
 80.0000000000000  60.0000000000000 -0.000808885220379155 
 80.0000000000000  70.0000000000000 -0.00245740127899252 
 80.0000000000000  80.0000000000000 -0.00403125044324874 
 80.0000000000000  90.0000000000000 -0.00548261210269800 
 80.0000000000000  100.000000000000 -0.00676738736774237 
 80.0000000000000  110.000000000000 -0.00784653899208113 
 80.0000000000000  120.000000000000 -0.00868727749968582 
 80.0000000000000  130.000000000000 -0.00926405747643707 
 80.0000000000000  140.000000000000 -0.00955935375460607 
 80.0000000000000  150.000000000000 -0.00956419390620776 
 80.0000000000000  160.000000000000 -0.00927843086568497 
 80.0000000000000  170.000000000000 -0.00871074739842089 
 80.0000000000000  180.000000000000 -0.00787839227930666 
 80.0000000000000  190.000000000000 -0.00680665619744456 
 80.0000000000000  200.000000000000 -0.00552810331135733 
 80.0000000000000  210.000000000000 -0.00408158180350975 
 80.0000000000000  220.000000000000 -0.00251104349794259 
 80.0000000000000  230.000000000000 -0.000864208406339757 
 80.0000000000000  240.000000000000  0.000808885220379153 
 80.0000000000000  250.000000000000  0.00245740127899252 
 80.0000000000000  260.000000000000  0.00403125044324874 
 80.0000000000000  270.000000000000  0.00548261210269800 
 80.0000000000000  280.000000000000  0.00676738736774237 
 80.0000000000000  290.000000000000  0.00784653899208114 
 80.0000000000000  300.000000000000  0.00868727749968582 
 80.0000000000000  310.000000000000  0.00926405747643707 
 80.0000000000000  320.000000000000  0.00955935375460606 
 80.0000000000000  330.000000000000  0.00956419390620777 
 80.0000000000000  340.000000000000  0.00927843086568495 
 80.0000000000000  350.000000000000  0.00871074739842088 
 80.0000000000000  360.000000000000  0.00787839227930666 

 90.0000000000000  0.00000000000000  0.00388559936150066 
 90.0000000000000  10.0000000000000  0.00333405747783250 
 90.0000000000000  20.0000000000000  0.00268121194481489 
 90.0000000000000  30.0000000000000  0.00194689914361280 
 90.0000000000000  40.0000000000000  0.00115343079711052 
 90.0000000000000  50.0000000000000  0.000324916039502192 
 90.0000000000000  60.0000000000000 -0.000513471127550963 
 90.0000000000000  70.0000000000000 -0.00133625673422241 
 90.0000000000000  80.0000000000000 -0.00211844085620304 
 90.0000000000000  90.0000000000000 -0.00283625722475074 
 90.0000000000000  100.000000000000 -0.00346789535273980 
 90.0000000000000  110.000000000000 -0.00399416323527557 
 90.0000000000000  120.000000000000 -0.00439907048905162 
 90.0000000000000  130.000000000000 -0.00467031421205491 
 90.0000000000000  140.000000000000 -0.00479965280101794 
 90.0000000000000  150.000000000000 -0.00478315636836354 
 90.0000000000000  160.000000000000 -0.00462132614985031 
 90.0000000000000  170.000000000000 -0.00431907927477776 
 90.0000000000000  180.000000000000 -0.00388559936150066 
 90.0000000000000  190.000000000000 -0.00333405747783250 
 90.0000000000000  200.000000000000 -0.00268121194481489 
 90.0000000000000  210.000000000000 -0.00194689914361279 
 90.0000000000000  220.000000000000 -0.00115343079711052 
 90.0000000000000  230.000000000000 -0.000324916039502194 
 90.0000000000000  240.000000000000  0.000513471127550962 
 90.0000000000000  250.000000000000  0.00133625673422241 
 90.0000000000000  260.000000000000  0.00211844085620304 
 90.0000000000000  270.000000000000  0.00283625722475074 
 90.0000000000000  280.000000000000  0.00346789535273980 
 90.0000000000000  290.000000000000  0.00399416323527557 
 90.0000000000000  300.000000000000  0.00439907048905162 
 90.0000000000000  310.000000000000  0.00467031421205491 
 90.0000000000000  320.000000000000  0.00479965280101794 
 90.0000000000000  330.000000000000  0.00478315636836352 
 90.0000000000000  340.000000000000  0.00462132614985032 
 90.0000000000000  350.000000000000  0.00431907927477777 
 90.0000000000000  360.000000000000  0.00388559936150066 

 100.000000000000  0.00000000000000 -0.000225255526696395 
 100.000000000000  10.0000000000000 -0.000239844891129006 
 100.000000000000  20.0000000000000 -0.000247146689912029 
 100.000000000000  30.0000000000000 -0.000246939061584340 
 100.000000000000  40.0000000000000 -0.000239228314827601 
 100.000000000000  50.0000000000000 -0.000224248736780197 
 100.000000000000  60.0000000000000 -0.000202455474341063 
 100.000000000000  70.0000000000000 -0.000174510704761485 
 100.000000000000  80.0000000000000 -0.000141263515724409 
 100.000000000000  90.0000000000000 -0.000103724106244834 
 100.000000000000  100.000000000000 -6.30330922839432e-05 
 100.000000000000  110.000000000000 -2.04268497102844e-05 
 100.000000000000  120.000000000000  2.28000523553344e-05 
 100.000000000000  130.000000000000  6.53341863675189e-05 
 100.000000000000  140.000000000000  0.000105883174187615 
 100.000000000000  150.000000000000  0.000143214955339508 
 100.000000000000  160.000000000000  0.000176195222543662 
 100.000000000000  170.000000000000  0.000203821887069911 
 100.000000000000  180.000000000000  0.000225255526696393 
 100.000000000000  190.000000000000  0.000239844891129008 
 100.000000000000  200.000000000000  0.000247146689912034 
 100.000000000000  210.000000000000  0.000246939061584339 
 100.000000000000  220.000000000000  0.000239228314827602 
 100.000000000000  230.000000000000  0.000224248736780196 
 100.000000000000  240.000000000000  0.000202455474341061 
 100.000000000000  250.000000000000  0.000174510704761485 
 100.000000000000  260.000000000000  0.000141263515724410 
 100.000000000000  270.000000000000  0.000103724106244841 
 100.000000000000  280.000000000000  6.30330922839380e-05 
 100.000000000000  290.000000000000  2.04268497102852e-05 
 100.000000000000  300.000000000000 -2.28000523553331e-05 
 100.000000000000  310.000000000000 -6.53341863675132e-05 
 100.000000000000  320.000000000000 -0.000105883174187627 
 100.000000000000  330.000000000000 -0.000143214955339508 
 100.000000000000  340.000000000000 -0.000176195222543666 
 100.000000000000  350.000000000000 -0.000203821887069905 
 100.000000000000  360.000000000000 -0.000225255526696391 

 110.000000000000  0.00000000000000 -0.00432926613969957 
 110.000000000000  10.0000000000000 -0.00380645969444093 
 110.000000000000  20.0000000000000 -0.00316799589752824 
 110.000000000000  30.0000000000000 -0.00243327414835243 
 110.000000000000  40.0000000000000 -0.00162461859547506 
 110.000000000000  50.0000000000000 -0.000766599828670856 
 110.000000000000  60.0000000000000  0.000114711686009281 
 110.000000000000  70.0000000000000  0.000992537744156937 
 110.000000000000  80.0000000000000  0.00184020604519672 
 110.000000000000  90.0000000000000  0.00263196061674239 
 110.000000000000  100.000000000000  0.00334374439678468 
 110.000000000000  110.000000000000  0.00395393019534696 
 110.000000000000  120.000000000000  0.00444397782570885 
 110.000000000000  130.000000000000  0.00479899743859786 
 110.000000000000  140.000000000000  0.00500820194272496 
 110.000000000000  150.000000000000  0.00506523476509482 
 110.000000000000  160.000000000000  0.00496836299225973 
 110.000000000000  170.000000000000  0.00472053002401782 
 110.000000000000  180.000000000000  0.00432926613969958 
 110.000000000000  190.000000000000  0.00380645969444093 
 110.000000000000  200.000000000000  0.00316799589752824 
 110.000000000000  210.000000000000  0.00243327414835243 
 110.000000000000  220.000000000000  0.00162461859547506 
 110.000000000000  230.000000000000  0.000766599828670857 
 110.000000000000  240.000000000000 -0.000114711686009281 
 110.000000000000  250.000000000000 -0.000992537744156937 
 110.000000000000  260.000000000000 -0.00184020604519672 
 110.000000000000  270.000000000000 -0.00263196061674239 
 110.000000000000  280.000000000000 -0.00334374439678468 
 110.000000000000  290.000000000000 -0.00395393019534696 
 110.000000000000  300.000000000000 -0.00444397782570885 
 110.000000000000  310.000000000000 -0.00479899743859787 
 110.000000000000  320.000000000000 -0.00500820194272496 
 110.000000000000  330.000000000000 -0.00506523476509482 
 110.000000000000  340.000000000000 -0.00496836299225973 
 110.000000000000  350.000000000000 -0.00472053002401782 
 110.000000000000  360.000000000000 -0.00432926613969957 

 120.000000000000  0.00000000000000 -0.00830173419176235 
 120.000000000000  10.0000000000000 -0.00725741714609881 
 120.000000000000  20.0000000000000 -0.00599258715288132 
 120.000000000000  30.0000000000000 -0.00454567543141896 
 120.000000000000  40.0000000000000 -0.00296064566219568 
 120.000000000000  50.0000000000000 -0.00128565817268558 
 120.000000000000  60.0000000000000  0.000428393389827145 
 120.000000000000  70.0000000000000  0.00212942843596749 
 120.000000000000  80.0000000000000  0.00376576187662374 
 120.000000000000  90.0000000000000  0.00528767454822623 
 120.000000000000  100.000000000000  0.00664892390437330 
 120.000000000000  110.000000000000  0.00780814907220381 
 120.000000000000  120.000000000000  0.00873012758158949 
 120.000000000000  130.000000000000  0.00938684558206630 
 120.000000000000  140.000000000000  0.00975834902950506 
 120.000000000000  150.000000000000  0.00983334997964519 
 120.000000000000  160.000000000000  0.00960956956656897 
 120.000000000000  170.000000000000  0.00909380724488940 
 120.000000000000  180.000000000000  0.00830173419176236 
 120.000000000000  190.000000000000  0.00725741714609881 
 120.000000000000  200.000000000000  0.00599258715288133 
 120.000000000000  210.000000000000  0.00454567543141896 
 120.000000000000  220.000000000000  0.00296064566219568 
 120.000000000000  230.000000000000  0.00128565817268558 
 120.000000000000  240.000000000000 -0.000428393389827141 
 120.000000000000  250.000000000000 -0.00212942843596748 
 120.000000000000  260.000000000000 -0.00376576187662374 
 120.000000000000  270.000000000000 -0.00528767454822623 
 120.000000000000  280.000000000000 -0.00664892390437330 
 120.000000000000  290.000000000000 -0.00780814907220381 
 120.000000000000  300.000000000000 -0.00873012758158950 
 120.000000000000  310.000000000000 -0.00938684558206630 
 120.000000000000  320.000000000000 -0.00975834902950506 
 120.000000000000  330.000000000000 -0.00983334997964518 
 120.000000000000  340.000000000000 -0.00960956956656897 
 120.000000000000  350.000000000000 -0.00909380724488939 
 120.000000000000  360.000000000000 -0.00830173419176235 

 130.000000000000  0.00000000000000 -0.0120219582512886 
 130.000000000000  10.0000000000000 -0.0104878616502027 
 130.000000000000  20.0000000000000 -0.00863509667998953 
 130.000000000000  30.0000000000000 -0.00651995866672458 
 130.000000000000  40.0000000000000 -0.00420671500862948 
 130.000000000000  50.0000000000000 -0.00176565244369768 
 130.000000000000  60.0000000000000  0.000729058577272626 
 130.000000000000  70.0000000000000  0.00320161752229394 
 130.000000000000  80.0000000000000  0.00557689693899700 
 130.000000000000  90.0000000000000  0.00778272516425464 
 130.000000000000  100.000000000000  0.00975207922364537 
 130.000000000000  110.000000000000  0.0114251212906158 
 130.000000000000  120.000000000000  0.0127510168285613 
 130.000000000000  130.000000000000  0.0136894791724967 
 130.000000000000  140.000000000000  0.0142119936189865 
 130.000000000000  150.000000000000  0.0143026838309792 
 130.000000000000  160.000000000000  0.0139587942322749 
 130.000000000000  170.000000000000  0.0131907737343135 
 130.000000000000  180.000000000000  0.0120219582512886 
 130.000000000000  190.000000000000  0.0104878616502028 
 130.000000000000  200.000000000000  0.00863509667998953 
 130.000000000000  210.000000000000  0.00651995866672458 
 130.000000000000  220.000000000000  0.00420671500862948 
 130.000000000000  230.000000000000  0.00176565244369768 
 130.000000000000  240.000000000000 -0.000729058577272621 
 130.000000000000  250.000000000000 -0.00320161752229394 
 130.000000000000  260.000000000000 -0.00557689693899700 
 130.000000000000  270.000000000000 -0.00778272516425464 
 130.000000000000  280.000000000000 -0.00975207922364537 
 130.000000000000  290.000000000000 -0.0114251212906158 
 130.000000000000  300.000000000000 -0.0127510168285613 
 130.000000000000  310.000000000000 -0.0136894791724967 
 130.000000000000  320.000000000000 -0.0142119936189865 
 130.000000000000  330.000000000000 -0.0143026838309792 
 130.000000000000  340.000000000000 -0.0139587942322748 
 130.000000000000  350.000000000000 -0.0131907737343135 
 130.000000000000  360.000000000000 -0.0120219582512886 

 140.000000000000  0.00000000000000 -0.0153769011927539 
 140.000000000000  10.0000000000000 -0.0133996377851794 
 140.000000000000  20.0000000000000 -0.0110152331640460 
 140.000000000000  30.0000000000000 -0.00829613625720005 
 140.000000000000  40.0000000000000 -0.00532496544822658 
 140.000000000000  50.0000000000000 -0.00219199825867127 
 140.000000000000  60.0000000000000  0.00100757168876912 
 140.000000000000  70.0000000000000  0.00417652708030214 
 140.000000000000  80.0000000000000  0.00721858080992485 
 140.000000000000  90.0000000000000  0.0100413016144161 
 140.000000000000  100.000000000000  0.0125589225504972 
 140.000000000000  110.000000000000  0.0146949469800028 
 140.000000000000  120.000000000000  0.0163844728815230 
 140.000000000000  130.000000000000  0.0175761648654815 
 140.000000000000  140.000000000000  0.0182338139739708 
 140.000000000000  150.000000000000  0.0183374378716162 
 140.000000000000  160.000000000000  0.0178838879987238 
 140.000000000000  170.000000000000  0.0168869452386741 
 140.000000000000  180.000000000000  0.0153769011927539 
 140.000000000000  190.000000000000  0.0133996377851794 
 140.000000000000  200.000000000000  0.0110152331640460 
 140.000000000000  210.000000000000  0.00829613625720005 
 140.000000000000  220.000000000000  0.00532496544822658 
 140.000000000000  230.000000000000  0.00219199825867128 
 140.000000000000  240.000000000000 -0.00100757168876912 
 140.000000000000  250.000000000000 -0.00417652708030214 
 140.000000000000  260.000000000000 -0.00721858080992485 
 140.000000000000  270.000000000000 -0.0100413016144161 
 140.000000000000  280.000000000000 -0.0125589225504972 
 140.000000000000  290.000000000000 -0.0146949469800028 
 140.000000000000  300.000000000000 -0.0163844728815230 
 140.000000000000  310.000000000000 -0.0175761648654815 
 140.000000000000  320.000000000000 -0.0182338139739708 
 140.000000000000  330.000000000000 -0.0183374378716162 
 140.000000000000  340.000000000000 -0.0178838879987238 
 140.000000000000  350.000000000000 -0.0168869452386741 
 140.000000000000  360.000000000000 -0.0153769011927539 

 150.000000000000  0.00000000000000 -0.0182646247725648 
 150.000000000000  10.0000000000000 -0.0159042727065972 
 150.000000000000  20.0000000000000 -0.0130606773623899 
 150.000000000000  30.0000000000000 -0.00982023994554800 
 150.000000000000  40.0000000000000 -0.00628141950724184 
 150.000000000000  50.0000000000000 -0.00255174131575978 
 150.000000000000  60.0000000000000  0.00125547024435824 
 150.000000000000  70.0000000000000  0.00502453497640002 
 150.000000000000  80.0000000000000  0.00864093175572127 
 150.000000000000  90.0000000000000  0.0119947781961674 
 150.000000000000  100.000000000000  0.0149841693707736 
 150.000000000000  110.000000000000  0.0175182741414044 
 150.000000000000  120.000000000000  0.0195200950169230 
 150.000000000000  130.000000000000  0.0209288076829972 
 150.000000000000  140.000000000000  0.0217016091181111 
 150.000000000000  150.000000000000  0.0218150181417154 
 150.000000000000  160.000000000000  0.0212655888780154 
 150.000000000000  170.000000000000  0.0200700154571642 
 150.000000000000  180.000000000000  0.0182646247725648 
 150.000000000000  190.000000000000  0.0159042727065972 
 150.000000000000  200.000000000000  0.0130606773623899 
 150.000000000000  210.000000000000  0.00982023994554801 
 150.000000000000  220.000000000000  0.00628141950724185 
 150.000000000000  230.000000000000  0.00255174131575978 
 150.000000000000  240.000000000000 -0.00125547024435824 
 150.000000000000  250.000000000000 -0.00502453497640002 
 150.000000000000  260.000000000000 -0.00864093175572127 
 150.000000000000  270.000000000000 -0.0119947781961674 
 150.000000000000  280.000000000000 -0.0149841693707736 
 150.000000000000  290.000000000000 -0.0175182741414044 
 150.000000000000  300.000000000000 -0.0195200950169230 
 150.000000000000  310.000000000000 -0.0209288076829972 
 150.000000000000  320.000000000000 -0.0217016091181111 
 150.000000000000  330.000000000000 -0.0218150181417154 
 150.000000000000  340.000000000000 -0.0212655888780154 
 150.000000000000  350.000000000000 -0.0200700154571642 
 150.000000000000  360.000000000000 -0.0182646247725648 

 160.000000000000  0.00000000000000 -0.0205973869710074 
 160.000000000000  10.0000000000000 -0.0179256643497753 
 160.000000000000  20.0000000000000 -0.0147092794880992 
 160.000000000000  30.0000000000000 -0.0110459606124317 
 160.000000000000  40.0000000000000 -0.00704701581308120 
 160.000000000000  50.0000000000000 -0.00283395100421233 
 160.000000000000  60.0000000000000  0.00146522197187113 
 160.000000000000  70.0000000000000  0.00571987491977737 
 160.000000000000  80.0000000000000  0.00980073236264255 
 160.000000000000  90.0000000000000  0.0135837995120787 
 160.000000000000  100.000000000000  0.0169541297870746 
 160.000000000000  110.000000000000  0.0198093174076938 
 160.000000000000  120.000000000000  0.0220626089428785 
 160.000000000000  130.000000000000  0.0236455392695527 
 160.000000000000  140.000000000000  0.0245100118507417 
 160.000000000000  150.000000000000  0.0246297601245104 
 160.000000000000  160.000000000000  0.0240011456001558 
 160.000000000000  170.000000000000  0.0226432684119061 
 160.000000000000  180.000000000000  0.0205973869710074 
 160.000000000000  190.000000000000  0.0179256643497753 
 160.000000000000  200.000000000000  0.0147092794880992 
 160.000000000000  210.000000000000  0.0110459606124317 
 160.000000000000  220.000000000000  0.00704701581308121 
 160.000000000000  230.000000000000  0.00283395100421233 
 160.000000000000  240.000000000000 -0.00146522197187112 
 160.000000000000  250.000000000000 -0.00571987491977737 
 160.000000000000  260.000000000000 -0.00980073236264256 
 160.000000000000  270.000000000000 -0.0135837995120787 
 160.000000000000  280.000000000000 -0.0169541297870746 
 160.000000000000  290.000000000000 -0.0198093174076938 
 160.000000000000  300.000000000000 -0.0220626089428785 
 160.000000000000  310.000000000000 -0.0236455392695527 
 160.000000000000  320.000000000000 -0.0245100118507417 
 160.000000000000  330.000000000000 -0.0246297601245104 
 160.000000000000  340.000000000000 -0.0240011456001558 
 160.000000000000  350.000000000000 -0.0226432684119061 
 160.000000000000  360.000000000000 -0.0205973869710074 

 170.000000000000  0.00000000000000 -0.0223043079891167 
 170.000000000000  10.0000000000000 -0.0194023937525094 
 170.000000000000  20.0000000000000 -0.0159109475998171 
 170.000000000000  30.0000000000000 -0.0119360553556324 
 170.000000000000  40.0000000000000 -0.00759849210940215 
 170.000000000000  50.0000000000000 -0.00303005252545030 
 170.000000000000  60.0000000000000  0.00163045367120681 
 170.000000000000  70.0000000000000  0.00624141935811365 
 170.000000000000  80.0000000000000  0.0106627426761348 
 170.000000000000  90.0000000000000  0.0147600839535498 
 170.000000000000  100.000000000000  0.0184089475489989 
 170.000000000000  110.000000000000  0.0214984645885487 
 170.000000000000  120.000000000000  0.0239347616603235 
 170.000000000000  130.000000000000  0.0256438131106231 
 170.000000000000  140.000000000000  0.0265736902759519 
 170.000000000000  150.000000000000  0.0266961393091821 
 170.000000000000  160.000000000000  0.0260074396584011 
 170.000000000000  170.000000000000  0.0245285171139990 
 170.000000000000  180.000000000000  0.0223043079891167 
 170.000000000000  190.000000000000  0.0194023937525094 
 170.000000000000  200.000000000000  0.0159109475998171 
 170.000000000000  210.000000000000  0.0119360553556324 
 170.000000000000  220.000000000000  0.00759849210940215 
 170.000000000000  230.000000000000  0.00303005252545030 
 170.000000000000  240.000000000000 -0.00163045367120680 
 170.000000000000  250.000000000000 -0.00624141935811366 
 170.000000000000  260.000000000000 -0.0106627426761348 
 170.000000000000  270.000000000000 -0.0147600839535498 
 170.000000000000  280.000000000000 -0.0184089475489989 
 170.000000000000  290.000000000000 -0.0214984645885487 
 170.000000000000  300.000000000000 -0.0239347616603235 
 170.000000000000  310.000000000000 -0.0256438131106231 
 170.000000000000  320.000000000000 -0.0265736902759519 
 170.000000000000  330.000000000000 -0.0266961393091821 
 170.000000000000  340.000000000000 -0.0260074396584011 
 170.000000000000  350.000000000000 -0.0245285171139990 
 170.000000000000  360.000000000000 -0.0223043079891167 

 180.000000000000  0.00000000000000 -0.0233335238955010 
 180.000000000000  10.0000000000000 -0.0202895912391585 
 180.000000000000  20.0000000000000 -0.0166291696200426 
 180.000000000000  30.0000000000000 -0.0124634790967876 
 180.000000000000  40.0000000000000 -0.00791909206800145 
 180.000000000000  50.0000000000000 -0.00313408743398302 
 180.000000000000  60.0000000000000  0.00174614486079223 
 180.000000000000  70.0000000000000  0.00657332142756425 
 180.000000000000  80.0000000000000  0.0112007709490209 
 180.000000000000  90.0000000000000  0.0154878907130550 
 180.000000000000  100.000000000000  0.0193044187550239 
 180.000000000000  110.000000000000  0.0225343918016286 
 180.000000000000  120.000000000000  0.0250796687562933 
 180.000000000000  130.000000000000  0.0268629126667227 
 180.000000000000  140.000000000000  0.0278299405690635 
 180.000000000000  150.000000000000  0.0279513698098427 
 180.000000000000  160.000000000000  0.0272235108230254 
 180.000000000000  170.000000000000  0.0256684792356116 
 180.000000000000  180.000000000000  0.0233335238955010 
 180.000000000000  190.000000000000  0.0202895912391585 
 180.000000000000  200.000000000000  0.0166291696200426 
 180.000000000000  210.000000000000  0.0124634790967876 
 180.000000000000  220.000000000000  0.00791909206800146 
 180.000000000000  230.000000000000  0.00313408743398302 
 180.000000000000  240.000000000000 -0.00174614486079224 
 180.000000000000  250.000000000000 -0.00657332142756425 
 180.000000000000  260.000000000000 -0.0112007709490209 
 180.000000000000  270.000000000000 -0.0154878907130550 
 180.000000000000  280.000000000000 -0.0193044187550239 
 180.000000000000  290.000000000000 -0.0225343918016286 
 180.000000000000  300.000000000000 -0.0250796687562933 
 180.000000000000  310.000000000000 -0.0268629126667227 
 180.000000000000  320.000000000000 -0.0278299405690635 
 180.000000000000  330.000000000000 -0.0279513698098427 
 180.000000000000  340.000000000000 -0.0272235108230254 
 180.000000000000  350.000000000000 -0.0256684792356116 
 180.000000000000  360.000000000000 -0.0233335238955010 

 190.000000000000  0.00000000000000 -0.0236537624856534 
 190.000000000000  10.0000000000000 -0.0205602997630342 
 190.000000000000  20.0000000000000 -0.0168421227361289 
 190.000000000000  30.0000000000000 -0.0126122063324117 
 190.000000000000  40.0000000000000 -0.00799907442136848 
 190.000000000000  50.0000000000000 -0.00314289468175893 
 190.000000000000  60.0000000000000  0.00180878032237443 
 190.000000000000  70.0000000000000  0.00670549645169943 
 190.000000000000  80.0000000000000  0.0113984694644845 
 190.000000000000  90.0000000000000  0.0157451057504950 
 190.000000000000  100.000000000000  0.0196133349656847 
 190.000000000000  110.000000000000  0.0228856229227685 
 190.000000000000  120.000000000000  0.0254625428080278 
 190.000000000000  130.000000000000  0.0272657962147337 
 190.000000000000  140.000000000000  0.0282405922006134 
 190.000000000000  150.000000000000  0.0283573120829067 
 190.000000000000  160.000000000000  0.0276124093870532 
 190.000000000000  170.000000000000  0.0260285176045274 
 190.000000000000  180.000000000000  0.0236537624856534 
 190.000000000000  190.000000000000  0.0205602997630342 
 190.000000000000  200.000000000000  0.0168421227361289 
 190.000000000000  210.000000000000  0.0126122063324117 
 190.000000000000  220.000000000000  0.00799907442136848 
 190.000000000000  230.000000000000  0.00314289468175892 
 190.000000000000  240.000000000000 -0.00180878032237443 
 190.000000000000  250.000000000000 -0.00670549645169943 
 190.000000000000  260.000000000000 -0.0113984694644845 
 190.000000000000  270.000000000000 -0.0157451057504950 
 190.000000000000  280.000000000000 -0.0196133349656847 
 190.000000000000  290.000000000000 -0.0228856229227684 
 190.000000000000  300.000000000000 -0.0254625428080278 
 190.000000000000  310.000000000000 -0.0272657962147337 
 190.000000000000  320.000000000000 -0.0282405922006134 
 190.000000000000  330.000000000000 -0.0283573120829067 
 190.000000000000  340.000000000000 -0.0276124093870532 
 190.000000000000  350.000000000000 -0.0260285176045274 
 190.000000000000  360.000000000000 -0.0236537624856534 

 200.000000000000  0.00000000000000 -0.0232552934720606 
 200.000000000000  10.0000000000000 -0.0202062939826239 
 200.000000000000  20.0000000000000 -0.0165433364754033 
 200.000000000000  30.0000000000000 -0.0123777180607098 
 200.000000000000  40.0000000000000 -0.00783600894616917 
 200.000000000000  50.0000000000000 -0.00305620666501103 
 200.000000000000  60.0000000000000  0.00181645690914828 
 200.000000000000  70.0000000000000  0.00663392835929465 
 200.000000000000  80.0000000000000  0.0112498312531736 
 200.000000000000  90.0000000000000  0.0155239137171141 
 200.000000000000  100.000000000000  0.0193263099182396 
 200.000000000000  110.000000000000  0.0225414859720839 
 200.000000000000  120.000000000000  0.0250717503812088 
 200.000000000000  130.000000000000  0.0268402223419186 
 200.000000000000  140.000000000000  0.0277931677285769 
 200.000000000000  150.000000000000  0.0279016317778239 
 200.000000000000  160.000000000000  0.0271623188644087 
 200.000000000000  170.000000000000  0.0255976926370950 
 200.000000000000  180.000000000000  0.0232552934720606 
 200.000000000000  190.000000000000  0.0202062939826239 
 200.000000000000  200.000000000000  0.0165433364754033 
 200.000000000000  210.000000000000  0.0123777180607098 
 200.000000000000  220.000000000000  0.00783600894616916 
 200.000000000000  230.000000000000  0.00305620666501103 
 200.000000000000  240.000000000000 -0.00181645690914827 
 200.000000000000  250.000000000000 -0.00663392835929465 
 200.000000000000  260.000000000000 -0.0112498312531736 
 200.000000000000  270.000000000000 -0.0155239137171141 
 200.000000000000  280.000000000000 -0.0193263099182395 
 200.000000000000  290.000000000000 -0.0225414859720839 
 200.000000000000  300.000000000000 -0.0250717503812088 
 200.000000000000  310.000000000000 -0.0268402223419186 
 200.000000000000  320.000000000000 -0.0277931677285769 
 200.000000000000  330.000000000000 -0.0279016317778239 
 200.000000000000  340.000000000000 -0.0271623188644087 
 200.000000000000  350.000000000000 -0.0255976926370950 
 200.000000000000  360.000000000000 -0.0232552934720606 

 210.000000000000  0.00000000000000 -0.0221502241340655 
 210.000000000000  10.0000000000000 -0.0192383301844297 
 210.000000000000  20.0000000000000 -0.0157418893072048 
 210.000000000000  30.0000000000000 -0.0117671390891608 
 210.000000000000  40.0000000000000 -0.00743485030435236 
 210.000000000000  50.0000000000000 -0.00287665735526197 
 210.000000000000  60.0000000000000  0.00176894137190919 
 210.000000000000  70.0000000000000  0.00636079171062243 
 210.000000000000  80.0000000000000  0.0107593726119243 
 210.000000000000  90.0000000000000  0.0148310354209181 
 210.000000000000  100.000000000000  0.0184520647235134 
 210.000000000000  110.000000000000  0.0215124373766799 
 210.000000000000  120.000000000000  0.0239191655059747 
 210.000000000000  130.000000000000  0.0255991218950521 
 210.000000000000  140.000000000000  0.0265012619191291 
 210.000000000000  150.000000000000  0.0265981745100789 
 210.000000000000  160.000000000000  0.0258869150278657 
 210.000000000000  170.000000000000  0.0243890947319419 
 210.000000000000  180.000000000000  0.0221502241340655 
 210.000000000000  190.000000000000  0.0192383301844297 
 210.000000000000  200.000000000000  0.0157418893072048 
 210.000000000000  210.000000000000  0.0117671390891608 
 210.000000000000  220.000000000000  0.00743485030435237 
 210.000000000000  230.000000000000  0.00287665735526197 
 210.000000000000  240.000000000000 -0.00176894137190919 
 210.000000000000  250.000000000000 -0.00636079171062243 
 210.000000000000  260.000000000000 -0.0107593726119243 
 210.000000000000  270.000000000000 -0.0148310354209181 
 210.000000000000  280.000000000000 -0.0184520647235134 
 210.000000000000  290.000000000000 -0.0215124373766799 
 210.000000000000  300.000000000000 -0.0239191655059747 
 210.000000000000  310.000000000000 -0.0255991218950521 
 210.000000000000  320.000000000000 -0.0265012619191291 
 210.000000000000  330.000000000000 -0.0265981745100789 
 210.000000000000  340.000000000000 -0.0258869150278657 
 210.000000000000  350.000000000000 -0.0243890947319419 
 210.000000000000  360.000000000000 -0.0221502241340655 

 220.000000000000  0.00000000000000 -0.0203721314443110 
 220.000000000000  10.0000000000000 -0.0176858194586463 
 220.000000000000  20.0000000000000 -0.0144621327981871 
 220.000000000000  30.0000000000000 -0.0107990215508473 
 220.000000000000  40.0000000000000 -0.00680778749825360 
 220.000000000000  50.0000000000000 -0.00260970226743214 
 220.000000000000  60.0000000000000  0.00166767744621219 
 220.000000000000  70.0000000000000  0.00589438562453886 
 220.000000000000  80.0000000000000  0.00994199587836697 
 220.000000000000  90.0000000000000  0.0136875236183236 
 220.000000000000  100.000000000000  0.0170171628793585 
 220.000000000000  110.000000000000  0.0198297442574041 
 220.000000000000  120.000000000000  0.0220398088905232 
 220.000000000000  130.000000000000  0.0235802050831852 
 220.000000000000  140.000000000000  0.0244041286765541 
 220.000000000000  150.000000000000  0.0244865451691709 
 220.000000000000  160.000000000000  0.0238249503776121 
 220.000000000000  170.000000000000  0.0224394465248362 
 220.000000000000  180.000000000000  0.0203721314443110 
 220.000000000000  190.000000000000  0.0176858194586463 
 220.000000000000  200.000000000000  0.0144621327981871 
 220.000000000000  210.000000000000  0.0107990215508473 
 220.000000000000  220.000000000000  0.00680778749825360 
 220.000000000000  230.000000000000  0.00260970226743214 
 220.000000000000  240.000000000000 -0.00166767744621218 
 220.000000000000  250.000000000000 -0.00589438562453885 
 220.000000000000  260.000000000000 -0.00994199587836696 
 220.000000000000  270.000000000000 -0.0136875236183236 
 220.000000000000  280.000000000000 -0.0170171628793585 
 220.000000000000  290.000000000000 -0.0198297442574041 
 220.000000000000  300.000000000000 -0.0220398088905232 
 220.000000000000  310.000000000000 -0.0235802050831852 
 220.000000000000  320.000000000000 -0.0244041286765541 
 220.000000000000  330.000000000000 -0.0244865451691709 
 220.000000000000  340.000000000000 -0.0238249503776121 
 220.000000000000  350.000000000000 -0.0224394465248362 
 220.000000000000  360.000000000000 -0.0203721314443110 

 230.000000000000  0.00000000000000 -0.0179750418494171 
 230.000000000000  10.0000000000000 -0.0155959340580685 
 230.000000000000  20.0000000000000 -0.0127429517022889 
 230.000000000000  30.0000000000000 -0.00950278120727993 
 230.000000000000  40.0000000000000 -0.00597387351392710 
 230.000000000000  50.0000000000000 -0.00226345269677944 
 230.000000000000  60.0000000000000  0.00151574198519753 
 230.000000000000  70.0000000000000  0.00524888161395673 
 230.000000000000  80.0000000000000  0.00882253663093809 
 230.000000000000  90.0000000000000  0.0121281233368074 
 230.000000000000  100.000000000000  0.0150652031522143 
 230.000000000000  110.000000000000  0.0175445343932018 
 230.000000000000  120.000000000000  0.0194907838346146 
 230.000000000000  130.000000000000  0.0208448156720252 
 230.000000000000  140.000000000000  0.0215654883332270 
 230.000000000000  150.000000000000  0.0216309045440873 
 230.000000000000  160.000000000000  0.0210390766661414 
 230.000000000000  170.000000000000  0.0198079870899812 
 230.000000000000  180.000000000000  0.0179750418494171 
 230.000000000000  190.000000000000  0.0155959340580685 
 230.000000000000  200.000000000000  0.0127429517022889 
 230.000000000000  210.000000000000  0.00950278120727994 
 230.000000000000  220.000000000000  0.00597387351392710 
 230.000000000000  230.000000000000  0.00226345269677945 
 230.000000000000  240.000000000000 -0.00151574198519752 
 230.000000000000  250.000000000000 -0.00524888161395671 
 230.000000000000  260.000000000000 -0.00882253663093810 
 230.000000000000  270.000000000000 -0.0121281233368074 
 230.000000000000  280.000000000000 -0.0150652031522143 
 230.000000000000  290.000000000000 -0.0175445343932018 
 230.000000000000  300.000000000000 -0.0194907838346146 
 230.000000000000  310.000000000000 -0.0208448156720252 
 230.000000000000  320.000000000000 -0.0215654883332270 
 230.000000000000  330.000000000000 -0.0216309045440873 
 230.000000000000  340.000000000000 -0.0210390766661414 
 230.000000000000  350.000000000000 -0.0198079870899812 
 230.000000000000  360.000000000000 -0.0179750418494171 

 240.000000000000  0.00000000000000 -0.0150317897037387 
 240.000000000000  10.0000000000000 -0.0130321740930596 
 240.000000000000  20.0000000000000 -0.0106365824671613 
 240.000000000000  30.0000000000000 -0.00791780366536866 
 240.000000000000  40.0000000000000 -0.00495844640580578 
 240.000000000000  50.0000000000000 -0.00184842926129743 
 240.000000000000  60.0000000000000  0.00131775147096509 
 240.000000000000  70.0000000000000  0.00444389299159676 
 240.000000000000  80.0000000000000  0.00743500907239712 
 240.000000000000  90.0000000000000  0.0102002161648288 
 240.000000000000  100.000000000000  0.0126554948506506 
 240.000000000000  110.000000000000  0.0147262427294248 
 240.000000000000  120.000000000000  0.0163495411747038 
 240.000000000000  130.000000000000  0.0174760670846564 
 240.000000000000  140.000000000000  0.0180715915395584 
 240.000000000000  150.000000000000  0.0181180198301975 
 240.000000000000  160.000000000000  0.0176139412564564 
 240.000000000000  170.000000000000  0.0165746719907222 
 240.000000000000  180.000000000000  0.0150317897037387 
 240.000000000000  190.000000000000  0.0130321740930596 
 240.000000000000  200.000000000000  0.0106365824671613 
 240.000000000000  210.000000000000  0.00791780366536866 
 240.000000000000  220.000000000000  0.00495844640580578 
 240.000000000000  230.000000000000  0.00184842926129744 
 240.000000000000  240.000000000000 -0.00131775147096508 
 240.000000000000  250.000000000000 -0.00444389299159676 
 240.000000000000  260.000000000000 -0.00743500907239712 
 240.000000000000  270.000000000000 -0.0102002161648288 
 240.000000000000  280.000000000000 -0.0126554948506506 
 240.000000000000  290.000000000000 -0.0147262427294248 
 240.000000000000  300.000000000000 -0.0163495411747038 
 240.000000000000  310.000000000000 -0.0174760670846564 
 240.000000000000  320.000000000000 -0.0180715915395584 
 240.000000000000  330.000000000000 -0.0181180198301975 
 240.000000000000  340.000000000000 -0.0176139412564564 
 240.000000000000  350.000000000000 -0.0165746719907222 
 240.000000000000  360.000000000000 -0.0150317897037387 

 250.000000000000  0.00000000000000 -0.0116318042343648 
 250.000000000000  10.0000000000000 -0.0100724381128315 
 250.000000000000  20.0000000000000 -0.00820702605613942 
 250.000000000000  30.0000000000000 -0.00609224766568713 
 250.000000000000  40.0000000000000 -0.00379235941273899 
 250.000000000000  50.0000000000000 -0.00137724223806124 
 250.000000000000  60.0000000000000  0.00107972174510180 
 250.000000000000  70.0000000000000  0.00350387892940549 
 250.000000000000  80.0000000000000  0.00582157252548748 
 250.000000000000  90.0000000000000  0.00796238058624037 
 250.000000000000  100.000000000000  0.00986125574203934 
 250.000000000000  110.000000000000  0.0114605016321526 
 250.000000000000  120.000000000000  0.0127115259794666 
 250.000000000000  130.000000000000  0.0135763170422370 
 250.000000000000  140.000000000000  0.0140285985816269 
 250.000000000000  150.000000000000  0.0140546282519275 
 250.000000000000  160.000000000000  0.0136536151547783 
 250.000000000000  170.000000000000  0.0128377438702139 
 250.000000000000  180.000000000000  0.0116318042343648 
 250.000000000000  190.000000000000  0.0100724381128315 
 250.000000000000  200.000000000000  0.00820702605613942 
 250.000000000000  210.000000000000  0.00609224766568713 
 250.000000000000  220.000000000000  0.00379235941273900 
 250.000000000000  230.000000000000  0.00137724223806125 
 250.000000000000  240.000000000000 -0.00107972174510180 
 250.000000000000  250.000000000000 -0.00350387892940549 
 250.000000000000  260.000000000000 -0.00582157252548748 
 250.000000000000  270.000000000000 -0.00796238058624037 
 250.000000000000  280.000000000000 -0.00986125574203934 
 250.000000000000  290.000000000000 -0.0114605016321526 
 250.000000000000  300.000000000000 -0.0127115259794666 
 250.000000000000  310.000000000000 -0.0135763170422370 
 250.000000000000  320.000000000000 -0.0140285985816269 
 250.000000000000  330.000000000000 -0.0140546282519275 
 250.000000000000  340.000000000000 -0.0136536151547783 
 250.000000000000  350.000000000000 -0.0128377438702139 
 250.000000000000  360.000000000000 -0.0116318042343648 

 260.000000000000  0.00000000000000 -0.00787839227930666 
 260.000000000000  10.0000000000000 -0.00680665619744456 
 260.000000000000  20.0000000000000 -0.00552810331135733 
 260.000000000000  30.0000000000000 -0.00408158180350975 
 260.000000000000  40.0000000000000 -0.00251104349794259 
 260.000000000000  50.0000000000000 -0.000864208406339757 
 260.000000000000  60.0000000000000  0.000808885220379155 
 260.000000000000  70.0000000000000  0.00245740127899252 
 260.000000000000  80.0000000000000  0.00403125044324874 
 260.000000000000  90.0000000000000  0.00548261210269800 
 260.000000000000  100.000000000000  0.00676738736774238 
 260.000000000000  110.000000000000  0.00784653899208113 
 260.000000000000  120.000000000000  0.00868727749968582 
 260.000000000000  130.000000000000  0.00926405747643707 
 260.000000000000  140.000000000000  0.00955935375460608 
 260.000000000000  150.000000000000  0.00956419390620776 
 260.000000000000  160.000000000000  0.00927843086568496 
 260.000000000000  170.000000000000  0.00871074739842089 
 260.000000000000  180.000000000000  0.00787839227930666 
 260.000000000000  190.000000000000  0.00680665619744456 
 260.000000000000  200.000000000000  0.00552810331135733 
 260.000000000000  210.000000000000  0.00408158180350976 
 260.000000000000  220.000000000000  0.00251104349794260 
 260.000000000000  230.000000000000  0.000864208406339753 
 260.000000000000  240.000000000000 -0.000808885220379158 
 260.000000000000  250.000000000000 -0.00245740127899252 
 260.000000000000  260.000000000000 -0.00403125044324874 
 260.000000000000  270.000000000000 -0.00548261210269800 
 260.000000000000  280.000000000000 -0.00676738736774237 
 260.000000000000  290.000000000000 -0.00784653899208113 
 260.000000000000  300.000000000000 -0.00868727749968583 
 260.000000000000  310.000000000000 -0.00926405747643709 
 260.000000000000  320.000000000000 -0.00955935375460606 
 260.000000000000  330.000000000000 -0.00956419390620775 
 260.000000000000  340.000000000000 -0.00927843086568496 
 260.000000000000  350.000000000000 -0.00871074739842089 
 260.000000000000  360.000000000000 -0.00787839227930666 

 270.000000000000  0.00000000000000 -0.00388559936150066 
 270.000000000000  10.0000000000000 -0.00333405747783250 
 270.000000000000  20.0000000000000 -0.00268121194481489 
 270.000000000000  30.0000000000000 -0.00194689914361280 
 270.000000000000  40.0000000000000 -0.00115343079711052 
 270.000000000000  50.0000000000000 -0.000324916039502193 
 270.000000000000  60.0000000000000  0.000513471127550962 
 270.000000000000  70.0000000000000  0.00133625673422241 
 270.000000000000  80.0000000000000  0.00211844085620304 
 270.000000000000  90.0000000000000  0.00283625722475074 
 270.000000000000  100.000000000000  0.00346789535273980 
 270.000000000000  110.000000000000  0.00399416323527557 
 270.000000000000  120.000000000000  0.00439907048905162 
 270.000000000000  130.000000000000  0.00467031421205492 
 270.000000000000  140.000000000000  0.00479965280101794 
 270.000000000000  150.000000000000  0.00478315636836353 
 270.000000000000  160.000000000000  0.00462132614985032 
 270.000000000000  170.000000000000  0.00431907927477777 
 270.000000000000  180.000000000000  0.00388559936150066 
 270.000000000000  190.000000000000  0.00333405747783251 
 270.000000000000  200.000000000000  0.00268121194481490 
 270.000000000000  210.000000000000  0.00194689914361280 
 270.000000000000  220.000000000000  0.00115343079711052 
 270.000000000000  230.000000000000  0.000324916039502189 
 270.000000000000  240.000000000000 -0.000513471127550963 
 270.000000000000  250.000000000000 -0.00133625673422241 
 270.000000000000  260.000000000000 -0.00211844085620304 
 270.000000000000  270.000000000000 -0.00283625722475074 
 270.000000000000  280.000000000000 -0.00346789535273980 
 270.000000000000  290.000000000000 -0.00399416323527558 
 270.000000000000  300.000000000000 -0.00439907048905163 
 270.000000000000  310.000000000000 -0.00467031421205490 
 270.000000000000  320.000000000000 -0.00479965280101793 
 270.000000000000  330.000000000000 -0.00478315636836353 
 270.000000000000  340.000000000000 -0.00462132614985032 
 270.000000000000  350.000000000000 -0.00431907927477777 
 270.000000000000  360.000000000000 -0.00388559936150066 

 280.000000000000  0.00000000000000  0.000225255526696386 
 280.000000000000  10.0000000000000  0.000239844891129006 
 280.000000000000  20.0000000000000  0.000247146689912034 
 280.000000000000  30.0000000000000  0.000246939061584341 
 280.000000000000  40.0000000000000  0.000239228314827598 
 280.000000000000  50.0000000000000  0.000224248736780196 
 280.000000000000  60.0000000000000  0.000202455474341062 
 280.000000000000  70.0000000000000  0.000174510704761485 
 280.000000000000  80.0000000000000  0.000141263515724412 
 280.000000000000  90.0000000000000  0.000103724106244839 
 280.000000000000  100.000000000000  6.30330922839414e-05 
 280.000000000000  110.000000000000  2.04268497102835e-05 
 280.000000000000  120.000000000000 -2.28000523553296e-05 
 280.000000000000  130.000000000000 -6.53341863675167e-05 
 280.000000000000  140.000000000000 -0.000105883174187624 
 280.000000000000  150.000000000000 -0.000143214955339506 
 280.000000000000  160.000000000000 -0.000176195222543656 
 280.000000000000  170.000000000000 -0.000203821887069907 
 280.000000000000  180.000000000000 -0.000225255526696389 
 280.000000000000  190.000000000000 -0.000239844891128997 
 280.000000000000  200.000000000000 -0.000247146689912024 
 280.000000000000  210.000000000000 -0.000246939061584343 
 280.000000000000  220.000000000000 -0.000239228314827604 
 280.000000000000  230.000000000000 -0.000224248736780197 
 280.000000000000  240.000000000000 -0.000202455474341063 
 280.000000000000  250.000000000000 -0.000174510704761486 
 280.000000000000  260.000000000000 -0.000141263515724411 
 280.000000000000  270.000000000000 -0.000103724106244840 
 280.000000000000  280.000000000000 -6.30330922839501e-05 
 280.000000000000  290.000000000000 -2.04268497102965e-05 
 280.000000000000  300.000000000000  2.28000523553422e-05 
 280.000000000000  310.000000000000  6.53341863675267e-05 
 280.000000000000  320.000000000000  0.000105883174187624 
 280.000000000000  330.000000000000  0.000143214955339505 
 280.000000000000  340.000000000000  0.000176195222543659 
 280.000000000000  350.000000000000  0.000203821887069908 
 280.000000000000  360.000000000000  0.000225255526696389 

 290.000000000000  0.00000000000000  0.00432926613969958 
 290.000000000000  10.0000000000000  0.00380645969444092 
 290.000000000000  20.0000000000000  0.00316799589752824 
 290.000000000000  30.0000000000000  0.00243327414835243 
 290.000000000000  40.0000000000000  0.00162461859547506 
 290.000000000000  50.0000000000000  0.000766599828670853 
 290.000000000000  60.0000000000000 -0.000114711686009281 
 290.000000000000  70.0000000000000 -0.000992537744156936 
 290.000000000000  80.0000000000000 -0.00184020604519672 
 290.000000000000  90.0000000000000 -0.00263196061674239 
 290.000000000000  100.000000000000 -0.00334374439678468 
 290.000000000000  110.000000000000 -0.00395393019534696 
 290.000000000000  120.000000000000 -0.00444397782570885 
 290.000000000000  130.000000000000 -0.00479899743859787 
 290.000000000000  140.000000000000 -0.00500820194272496 
 290.000000000000  150.000000000000 -0.00506523476509481 
 290.000000000000  160.000000000000 -0.00496836299225973 
 290.000000000000  170.000000000000 -0.00472053002401781 
 290.000000000000  180.000000000000 -0.00432926613969957 
 290.000000000000  190.000000000000 -0.00380645969444092 
 290.000000000000  200.000000000000 -0.00316799589752824 
 290.000000000000  210.000000000000 -0.00243327414835243 
 290.000000000000  220.000000000000 -0.00162461859547506 
 290.000000000000  230.000000000000 -0.000766599828670856 
 290.000000000000  240.000000000000  0.000114711686009280 
 290.000000000000  250.000000000000  0.000992537744156936 
 290.000000000000  260.000000000000  0.00184020604519672 
 290.000000000000  270.000000000000  0.00263196061674238 
 290.000000000000  280.000000000000  0.00334374439678466 
 290.000000000000  290.000000000000  0.00395393019534697 
 290.000000000000  300.000000000000  0.00444397782570886 
 290.000000000000  310.000000000000  0.00479899743859787 
 290.000000000000  320.000000000000  0.00500820194272496 
 290.000000000000  330.000000000000  0.00506523476509481 
 290.000000000000  340.000000000000  0.00496836299225973 
 290.000000000000  350.000000000000  0.00472053002401782 
 290.000000000000  360.000000000000  0.00432926613969957 

 300.000000000000  0.00000000000000  0.00830173419176236 
 300.000000000000  10.0000000000000  0.00725741714609881 
 300.000000000000  20.0000000000000  0.00599258715288132 
 300.000000000000  30.0000000000000  0.00454567543141896 
 300.000000000000  40.0000000000000  0.00296064566219568 
 300.000000000000  50.0000000000000  0.00128565817268558 
 300.000000000000  60.0000000000000 -0.000428393389827145 
 300.000000000000  70.0000000000000 -0.00212942843596748 
 300.000000000000  80.0000000000000 -0.00376576187662374 
 300.000000000000  90.0000000000000 -0.00528767454822623 
 300.000000000000  100.000000000000 -0.00664892390437329 
 300.000000000000  110.000000000000 -0.00780814907220381 
 300.000000000000  120.000000000000 -0.00873012758158950 
 300.000000000000  130.000000000000 -0.00938684558206630 
 300.000000000000  140.000000000000 -0.00975834902950506 
 300.000000000000  150.000000000000 -0.00983334997964519 
 300.000000000000  160.000000000000 -0.00960956956656897 
 300.000000000000  170.000000000000 -0.00909380724488939 
 300.000000000000  180.000000000000 -0.00830173419176234 
 300.000000000000  190.000000000000 -0.00725741714609881 
 300.000000000000  200.000000000000 -0.00599258715288133 
 300.000000000000  210.000000000000 -0.00454567543141896 
 300.000000000000  220.000000000000 -0.00296064566219568 
 300.000000000000  230.000000000000 -0.00128565817268558 
 300.000000000000  240.000000000000  0.000428393389827143 
 300.000000000000  250.000000000000  0.00212942843596748 
 300.000000000000  260.000000000000  0.00376576187662373 
 300.000000000000  270.000000000000  0.00528767454822622 
 300.000000000000  280.000000000000  0.00664892390437330 
 300.000000000000  290.000000000000  0.00780814907220382 
 300.000000000000  300.000000000000  0.00873012758158950 
 300.000000000000  310.000000000000  0.00938684558206630 
 300.000000000000  320.000000000000  0.00975834902950506 
 300.000000000000  330.000000000000  0.00983334997964519 
 300.000000000000  340.000000000000  0.00960956956656897 
 300.000000000000  350.000000000000  0.00909380724488939 
 300.000000000000  360.000000000000  0.00830173419176235 

 310.000000000000  0.00000000000000  0.0120219582512886 
 310.000000000000  10.0000000000000  0.0104878616502028 
 310.000000000000  20.0000000000000  0.00863509667998953 
 310.000000000000  30.0000000000000  0.00651995866672457 
 310.000000000000  40.0000000000000  0.00420671500862948 
 310.000000000000  50.0000000000000  0.00176565244369768 
 310.000000000000  60.0000000000000 -0.000729058577272619 
 310.000000000000  70.0000000000000 -0.00320161752229395 
 310.000000000000  80.0000000000000 -0.00557689693899700 
 310.000000000000  90.0000000000000 -0.00778272516425464 
 310.000000000000  100.000000000000 -0.00975207922364537 
 310.000000000000  110.000000000000 -0.0114251212906158 
 310.000000000000  120.000000000000 -0.0127510168285613 
 310.000000000000  130.000000000000 -0.0136894791724967 
 310.000000000000  140.000000000000 -0.0142119936189865 
 310.000000000000  150.000000000000 -0.0143026838309792 
 310.000000000000  160.000000000000 -0.0139587942322748 
 310.000000000000  170.000000000000 -0.0131907737343135 
 310.000000000000  180.000000000000 -0.0120219582512886 
 310.000000000000  190.000000000000 -0.0104878616502028 
 310.000000000000  200.000000000000 -0.00863509667998953 
 310.000000000000  210.000000000000 -0.00651995866672458 
 310.000000000000  220.000000000000 -0.00420671500862948 
 310.000000000000  230.000000000000 -0.00176565244369768 
 310.000000000000  240.000000000000  0.000729058577272621 
 310.000000000000  250.000000000000  0.00320161752229394 
 310.000000000000  260.000000000000  0.00557689693899699 
 310.000000000000  270.000000000000  0.00778272516425465 
 310.000000000000  280.000000000000  0.00975207922364538 
 310.000000000000  290.000000000000  0.0114251212906158 
 310.000000000000  300.000000000000  0.0127510168285613 
 310.000000000000  310.000000000000  0.0136894791724967 
 310.000000000000  320.000000000000  0.0142119936189865 
 310.000000000000  330.000000000000  0.0143026838309792 
 310.000000000000  340.000000000000  0.0139587942322748 
 310.000000000000  350.000000000000  0.0131907737343135 
 310.000000000000  360.000000000000  0.0120219582512886 

 320.000000000000  0.00000000000000  0.0153769011927539 
 320.000000000000  10.0000000000000  0.0133996377851793 
 320.000000000000  20.0000000000000  0.0110152331640460 
 320.000000000000  30.0000000000000  0.00829613625720005 
 320.000000000000  40.0000000000000  0.00532496544822658 
 320.000000000000  50.0000000000000  0.00219199825867128 
 320.000000000000  60.0000000000000 -0.00100757168876912 
 320.000000000000  70.0000000000000 -0.00417652708030213 
 320.000000000000  80.0000000000000 -0.00721858080992485 
 320.000000000000  90.0000000000000 -0.0100413016144161 
 320.000000000000  100.000000000000 -0.0125589225504972 
 320.000000000000  110.000000000000 -0.0146949469800028 
 320.000000000000  120.000000000000 -0.0163844728815230 
 320.000000000000  130.000000000000 -0.0175761648654815 
 320.000000000000  140.000000000000 -0.0182338139739708 
 320.000000000000  150.000000000000 -0.0183374378716162 
 320.000000000000  160.000000000000 -0.0178838879987237 
 320.000000000000  170.000000000000 -0.0168869452386741 
 320.000000000000  180.000000000000 -0.0153769011927539 
 320.000000000000  190.000000000000 -0.0133996377851794 
 320.000000000000  200.000000000000 -0.0110152331640460 
 320.000000000000  210.000000000000 -0.00829613625720005 
 320.000000000000  220.000000000000 -0.00532496544822658 
 320.000000000000  230.000000000000 -0.00219199825867128 
 320.000000000000  240.000000000000  0.00100757168876911 
 320.000000000000  250.000000000000  0.00417652708030212 
 320.000000000000  260.000000000000  0.00721858080992486 
 320.000000000000  270.000000000000  0.0100413016144161 
 320.000000000000  280.000000000000  0.0125589225504972 
 320.000000000000  290.000000000000  0.0146949469800028 
 320.000000000000  300.000000000000  0.0163844728815230 
 320.000000000000  310.000000000000  0.0175761648654815 
 320.000000000000  320.000000000000  0.0182338139739708 
 320.000000000000  330.000000000000  0.0183374378716162 
 320.000000000000  340.000000000000  0.0178838879987237 
 320.000000000000  350.000000000000  0.0168869452386741 
 320.000000000000  360.000000000000  0.0153769011927539 

 330.000000000000  0.00000000000000  0.0182646247725648 
 330.000000000000  10.0000000000000  0.0159042727065972 
 330.000000000000  20.0000000000000  0.0130606773623899 
 330.000000000000  30.0000000000000  0.00982023994554801 
 330.000000000000  40.0000000000000  0.00628141950724185 
 330.000000000000  50.0000000000000  0.00255174131575977 
 330.000000000000  60.0000000000000 -0.00125547024435824 
 330.000000000000  70.0000000000000 -0.00502453497640002 
 330.000000000000  80.0000000000000 -0.00864093175572127 
 330.000000000000  90.0000000000000 -0.0119947781961674 
 330.000000000000  100.000000000000 -0.0149841693707736 
 330.000000000000  110.000000000000 -0.0175182741414044 
 330.000000000000  120.000000000000 -0.0195200950169230 
 330.000000000000  130.000000000000 -0.0209288076829972 
 330.000000000000  140.000000000000 -0.0217016091181111 
 330.000000000000  150.000000000000 -0.0218150181417154 
 330.000000000000  160.000000000000 -0.0212655888780154 
 330.000000000000  170.000000000000 -0.0200700154571642 
 330.000000000000  180.000000000000 -0.0182646247725648 
 330.000000000000  190.000000000000 -0.0159042727065972 
 330.000000000000  200.000000000000 -0.0130606773623899 
 330.000000000000  210.000000000000 -0.00982023994554800 
 330.000000000000  220.000000000000 -0.00628141950724185 
 330.000000000000  230.000000000000 -0.00255174131575979 
 330.000000000000  240.000000000000  0.00125547024435823 
 330.000000000000  250.000000000000  0.00502453497640003 
 330.000000000000  260.000000000000  0.00864093175572128 
 330.000000000000  270.000000000000  0.0119947781961674 
 330.000000000000  280.000000000000  0.0149841693707736 
 330.000000000000  290.000000000000  0.0175182741414044 
 330.000000000000  300.000000000000  0.0195200950169230 
 330.000000000000  310.000000000000  0.0209288076829972 
 330.000000000000  320.000000000000  0.0217016091181111 
 330.000000000000  330.000000000000  0.0218150181417154 
 330.000000000000  340.000000000000  0.0212655888780154 
 330.000000000000  350.000000000000  0.0200700154571642 
 330.000000000000  360.000000000000  0.0182646247725648 

 340.000000000000  0.00000000000000  0.0205973869710074 
 340.000000000000  10.0000000000000  0.0179256643497753 
 340.000000000000  20.0000000000000  0.0147092794880992 
 340.000000000000  30.0000000000000  0.0110459606124317 
 340.000000000000  40.0000000000000  0.00704701581308121 
 340.000000000000  50.0000000000000  0.00283395100421234 
 340.000000000000  60.0000000000000 -0.00146522197187113 
 340.000000000000  70.0000000000000 -0.00571987491977737 
 340.000000000000  80.0000000000000 -0.00980073236264256 
 340.000000000000  90.0000000000000 -0.0135837995120787 
 340.000000000000  100.000000000000 -0.0169541297870746 
 340.000000000000  110.000000000000 -0.0198093174076938 
 340.000000000000  120.000000000000 -0.0220626089428785 
 340.000000000000  130.000000000000 -0.0236455392695527 
 340.000000000000  140.000000000000 -0.0245100118507417 
 340.000000000000  150.000000000000 -0.0246297601245104 
 340.000000000000  160.000000000000 -0.0240011456001558 
 340.000000000000  170.000000000000 -0.0226432684119061 
 340.000000000000  180.000000000000 -0.0205973869710074 
 340.000000000000  190.000000000000 -0.0179256643497753 
 340.000000000000  200.000000000000 -0.0147092794880992 
 340.000000000000  210.000000000000 -0.0110459606124317 
 340.000000000000  220.000000000000 -0.00704701581308121 
 340.000000000000  230.000000000000 -0.00283395100421234 
 340.000000000000  240.000000000000  0.00146522197187113 
 340.000000000000  250.000000000000  0.00571987491977738 
 340.000000000000  260.000000000000  0.00980073236264256 
 340.000000000000  270.000000000000  0.0135837995120787 
 340.000000000000  280.000000000000  0.0169541297870746 
 340.000000000000  290.000000000000  0.0198093174076938 
 340.000000000000  300.000000000000  0.0220626089428785 
 340.000000000000  310.000000000000  0.0236455392695527 
 340.000000000000  320.000000000000  0.0245100118507417 
 340.000000000000  330.000000000000  0.0246297601245104 
 340.000000000000  340.000000000000  0.0240011456001558 
 340.000000000000  350.000000000000  0.0226432684119061 
 340.000000000000  360.000000000000  0.0205973869710074 

 350.000000000000  0.00000000000000  0.0223043079891167 
 350.000000000000  10.0000000000000  0.0194023937525094 
 350.000000000000  20.0000000000000  0.0159109475998171 
 350.000000000000  30.0000000000000  0.0119360553556324 
 350.000000000000  40.0000000000000  0.00759849210940215 
 350.000000000000  50.0000000000000  0.00303005252545030 
 350.000000000000  60.0000000000000 -0.00163045367120680 
 350.000000000000  70.0000000000000 -0.00624141935811367 
 350.000000000000  80.0000000000000 -0.0106627426761348 
 350.000000000000  90.0000000000000 -0.0147600839535498 
 350.000000000000  100.000000000000 -0.0184089475489989 
 350.000000000000  110.000000000000 -0.0214984645885487 
 350.000000000000  120.000000000000 -0.0239347616603235 
 350.000000000000  130.000000000000 -0.0256438131106231 
 350.000000000000  140.000000000000 -0.0265736902759519 
 350.000000000000  150.000000000000 -0.0266961393091821 
 350.000000000000  160.000000000000 -0.0260074396584011 
 350.000000000000  170.000000000000 -0.0245285171139990 
 350.000000000000  180.000000000000 -0.0223043079891167 
 350.000000000000  190.000000000000 -0.0194023937525094 
 350.000000000000  200.000000000000 -0.0159109475998171 
 350.000000000000  210.000000000000 -0.0119360553556324 
 350.000000000000  220.000000000000 -0.00759849210940217 
 350.000000000000  230.000000000000 -0.00303005252545029 
 350.000000000000  240.000000000000  0.00163045367120681 
 350.000000000000  250.000000000000  0.00624141935811366 
 350.000000000000  260.000000000000  0.0106627426761348 
 350.000000000000  270.000000000000  0.0147600839535498 
 350.000000000000  280.000000000000  0.0184089475489989 
 350.000000000000  290.000000000000  0.0214984645885487 
 350.000000000000  300.000000000000  0.0239347616603235 
 350.000000000000  310.000000000000  0.0256438131106231 
 350.000000000000  320.000000000000  0.0265736902759519 
 350.000000000000  330.000000000000  0.0266961393091821 
 350.000000000000  340.000000000000  0.0260074396584011 
 350.000000000000  350.000000000000  0.0245285171139990 
 350.000000000000  360.000000000000  0.0223043079891167 

 360.000000000000  0.00000000000000  0.0233335238955010 
 360.000000000000  10.0000000000000  0.0202895912391585 
 360.000000000000  20.0000000000000  0.0166291696200426 
 360.000000000000  30.0000000000000  0.0124634790967876 
 360.000000000000  40.0000000000000  0.00791909206800145 
 360.000000000000  50.0000000000000  0.00313408743398302 
 360.000000000000  60.0000000000000 -0.00174614486079224 
 360.000000000000  70.0000000000000 -0.00657332142756424 
 360.000000000000  80.0000000000000 -0.0112007709490209 
 360.000000000000  90.0000000000000 -0.0154878907130550 
 360.000000000000  100.000000000000 -0.0193044187550239 
 360.000000000000  110.000000000000 -0.0225343918016286 
 360.000000000000  120.000000000000 -0.0250796687562933 
 360.000000000000  130.000000000000 -0.0268629126667227 
 360.000000000000  140.000000000000 -0.0278299405690635 
 360.000000000000  150.000000000000 -0.0279513698098427 
 360.000000000000  160.000000000000 -0.0272235108230254 
 360.000000000000  170.000000000000 -0.0256684792356116 
 360.000000000000  180.000000000000 -0.0233335238955010 
 360.000000000000  190.000000000000 -0.0202895912391585 
 360.000000000000  200.000000000000 -0.0166291696200426 
 360.000000000000  210.000000000000 -0.0124634790967876 
 360.000000000000  220.000000000000 -0.00791909206800145 
 360.000000000000  230.000000000000 -0.00313408743398301 
 360.000000000000  240.000000000000  0.00174614486079224 
 360.000000000000  250.000000000000  0.00657332142756425 
 360.000000000000  260.000000000000  0.0112007709490209 
 360.000000000000  270.000000000000  0.0154878907130550 
 360.000000000000  280.000000000000  0.0193044187550239 
 360.000000000000  290.000000000000  0.0225343918016286 
 360.000000000000  300.000000000000  0.0250796687562933 
 360.000000000000  310.000000000000  0.0268629126667227 
 360.000000000000  320.000000000000  0.0278299405690635 
 360.000000000000  330.000000000000  0.0279513698098427 
 360.000000000000  340.000000000000  0.0272235108230254 
 360.000000000000  350.000000000000  0.0256684792356116 
 360.000000000000  360.000000000000  0.0233335238955010 

