 0.00000000000000  0.201169804398500 
 10.0000000000000 -3.44821902206644 
 20.0000000000000 -6.99283545842891 
 30.0000000000000 -10.3249781279325 
 40.0000000000000 -13.3434015617099 
 50.0000000000000 -15.9563924911217 
 60.0000000000000 -18.0845565090150 
 70.0000000000000 -19.6632304286090 
 80.0000000000000 -20.6444470417044 
 90.0000000000000 -20.9983925780319 
 100.000000000000 -20.7143125815752 
 110.000000000000 -19.8008386792753 
 120.000000000000 -18.2857263134135 
 130.000000000000 -16.2150114065425 
 140.000000000000 -13.6516115832755 
 150.000000000000 -10.6734144500994 
 160.000000000000 -7.37091101986534 
 170.000000000000 -3.84444618815362 
 180.000000000000 -0.201169804398503 
 190.000000000000  3.44821902206644 
 200.000000000000  6.99283545842891 
 210.000000000000  10.3249781279325 
 220.000000000000  13.3434015617099 
 230.000000000000  15.9563924911217 
 240.000000000000  18.0845565090150 
 250.000000000000  19.6632304286090 
 260.000000000000  20.6444470417044 
 270.000000000000  20.9983925780319 
 280.000000000000  20.7143125815752 
 290.000000000000  19.8008386792753 
 300.000000000000  18.2857263134135 
 310.000000000000  16.2150114065425 
 320.000000000000  13.6516115832755 
 330.000000000000  10.6734144500994 
 340.000000000000  7.37091101986534 
 350.000000000000  3.84444618815363 
 360.000000000000  0.201169804398505 
