 0.00000000000000  1.00000000000000  0.999999790924841 
 0.333333333333333  1.00000000000000  0.999999790924841 
 0.666666666666667  1.00000000000000  0.999999790924841 
 1.00000000000000  1.00000000000000  0.999999790924841 
