-0.300000000000000  0.196037392654353  0.191370919554357 
-0.299250000000000  0.196381948013879  0.191702042449163 
-0.298500000000000  0.196727445515598  0.192034068969135 
-0.297750000000000  0.197073887276946  0.192367001287506 
-0.297000000000000  0.197421275403318  0.192700841569062 
-0.296250000000000  0.197769611987727  0.193035591969868 
-0.295500000000000  0.198118899110449  0.193371254636970 
-0.294750000000000  0.198469138838670  0.193707831708116 
-0.294000000000000  0.198820333226129  0.194045325311456 
-0.293250000000000  0.199172484312744  0.194383737565242 
-0.292500000000000  0.199525594124248  0.194723070577525 
-0.291750000000000  0.199879664671808  0.195063326445848 
-0.290999999999999  0.200234697951642  0.195404507256928 
-0.290249999999999  0.200590695944629  0.195746615086344 
-0.289499999999999  0.200947660615918  0.196089651998201 
-0.288749999999999  0.201305593914523  0.196433620044820 
-0.288000000000000  0.201664497772918  0.196778521266385 
-0.287250000000000  0.202024374106627  0.197124357690621 
-0.286500000000000  0.202385224813797  0.197471131332437 
-0.285750000000000  0.202747051774784  0.197818844193583 
-0.285000000000000  0.203109856851710  0.198167498262298 
-0.284250000000000  0.203473641888033  0.198517095512943 
-0.283500000000000  0.203838408708102  0.198867637905643 
-0.282750000000000  0.204204159116700  0.199219127385911 
-0.282000000000000  0.204570894898593  0.199571565884274 
-0.281250000000000  0.204938617818063  0.199924955315889 
-0.280500000000000  0.205307329618438  0.200279297580161 
-0.279750000000000  0.205677032021613  0.200634594560341 
-0.279000000000000  0.206047726727565  0.200990848123133 
-0.278250000000000  0.206419415413866  0.201348060118286 
-0.277500000000000  0.206792099735176  0.201706232378184 
-0.276750000000000  0.207165781322745  0.202065366717428 
-0.276000000000000  0.207540461783895  0.202425464932414 
-0.275250000000000  0.207916142701501  0.202786528800899 
-0.274500000000000  0.208292825633466  0.203148560081573 
-0.273750000000000  0.208670512112179  0.203511560513607 
-0.273000000000000  0.209049203643979  0.203875531816215 
-0.272250000000000  0.209428901708602  0.204240475688189 
-0.271500000000000  0.209809607758620  0.204606393807443 
-0.270750000000000  0.210191323218883  0.204973287830547 
-0.270000000000000  0.210574049485936  0.205341159392244 
-0.269250000000000  0.210957787927445  0.205710010104976 
-0.268500000000000  0.211342539881598  0.206079841558392 
-0.267749999999999  0.211728306656519  0.206450655318851 
-0.266999999999999  0.212115089529653  0.206822452928924 
-0.266249999999999  0.212502889747155  0.207195235906882 
-0.265499999999999  0.212891708523268  0.207569005746177 
-0.264750000000000  0.213281547039686  0.207943763914920 
-0.264000000000000  0.213672406444929  0.208319511855354 
-0.263250000000000  0.214064287853675  0.208696250983310 
-0.262500000000000  0.214457192346119  0.209073982687658 
-0.261750000000000  0.214851120967298  0.209452708329763 
-0.261000000000000  0.215246074726422  0.209832429242919 
-0.260250000000000  0.215642054596188  0.210213146731774 
-0.259500000000000  0.216039061512089  0.210594862071766 
-0.258750000000000  0.216437096371707  0.210977576508527 
-0.258000000000000  0.216836160034010  0.211361291257298 
-0.257250000000000  0.217236253318630  0.211746007502323 
-0.256500000000000  0.217637377005126  0.212131726396246 
-0.255750000000000  0.218039531832258  0.212518449059491 
-0.255000000000000  0.218442718497226  0.212906176579637 
-0.254250000000000  0.218846937654922  0.213294910010787 
-0.253500000000000  0.219252189917154  0.213684650372923 
-0.252750000000000  0.219658475851877  0.214075398651259 
-0.252000000000000  0.220065795982398  0.214467155795581 
-0.251250000000000  0.220474150786584  0.214859922719583 
-0.250500000000000  0.220883540696052  0.215253700300183 
-0.249750000000000  0.221293966095353  0.215648489376847 
-0.249000000000000  0.221705427321146  0.216044290750892 
-0.248250000000000  0.222117924661355  0.216441105184781 
-0.247500000000000  0.222531458354328  0.216838933401415 
-0.246750000000000  0.222946028587973  0.217237776083412 
-0.246000000000000  0.223361635498893  0.217637633872372 
-0.245250000000000  0.223778279171503  0.218038507368147 
-0.244499999999999  0.224195959637144  0.218440397128085 
-0.243749999999999  0.224614676873178  0.218843303666277 
-0.242999999999999  0.225034430802080  0.219247227452782 
-0.242249999999999  0.225455221290515  0.219652168912862 
-0.241500000000000  0.225877048148400  0.220058128426183 
-0.240750000000000  0.226299911127971  0.220465106326030 
-0.240000000000000  0.226723809922814  0.220873102898493 
-0.239250000000000  0.227148744166906  0.221282118381651 
-0.238500000000000  0.227574713433641  0.221692152964755 
-0.237750000000000  0.228001717234831  0.222103206787380 
-0.237000000000000  0.228429755019716  0.222515279938587 
-0.236250000000000  0.228858826173946  0.222928372456068 
-0.235500000000000  0.229288930018560  0.223342484325273 
-0.234750000000000  0.229720065808954  0.223757615478537 
-0.234000000000000  0.230152232733829  0.224173765794196 
-0.233250000000000  0.230585429914141  0.224590935095683 
-0.232500000000000  0.231019656402026  0.225009123150629 
-0.231750000000000  0.231454911179722  0.225428329669935 
-0.231000000000000  0.231891193158475  0.225848554306848 
-0.230250000000000  0.232328501177437  0.226269796656023 
-0.229500000000000  0.232766834002547  0.226692056252569 
-0.228750000000000  0.233206190325401  0.227115332571091 
-0.228000000000000  0.233646568762121  0.227539625024712 
-0.227250000000000  0.234087967852191  0.227964932964098 
-0.226500000000000  0.234530386057302  0.228391255676458 
-0.225750000000000  0.234973821760173  0.228818592384543 
-0.225000000000000  0.235418273263360  0.229246942245624 
-0.224250000000000  0.235863738788064  0.229676304350474 
-0.223500000000000  0.236310216472909  0.230106677722322 
-0.222750000000000  0.236757704372726  0.230538061315806 
-0.222000000000000  0.237206200457310  0.230970454015912 
-0.221250000000000  0.237655702610178  0.231403854636902 
-0.220499999999999  0.238106208627303  0.231838261921232 
-0.219749999999999  0.238557716215843  0.232273674538453 
-0.219000000000000  0.239010222992858  0.232710091084109 
-0.218250000000000  0.239463726484011  0.233147510078621 
-0.217500000000000  0.239918224122258  0.233585929966148 
-0.216750000000000  0.240373713246529  0.234025349113458 
-0.216000000000000  0.240830191100396  0.234465765808770 
-0.215250000000000  0.241287654830718  0.234907178260588 
-0.214500000000000  0.241746101486301  0.235349584596536 
-0.213750000000000  0.242205528016509  0.235792982862156 
-0.213000000000000  0.242665931269897  0.236237371019724 
-0.212250000000000  0.243127307992809  0.236682746947027 
-0.211500000000000  0.243589654827980  0.237129108436155 
-0.210750000000000  0.244052968313111  0.237576453192256 
-0.210000000000000  0.244517244879444  0.238024778832300 
-0.209250000000000  0.244982480850324  0.238474082883813 
-0.208500000000000  0.245448672439741  0.238924362783621 
-0.207750000000000  0.245915815750868  0.239375615876560 
-0.207000000000000  0.246383906774589  0.239827839414192 
-0.206250000000000  0.246852941388009  0.240281030553496 
-0.205500000000000  0.247322915352950  0.240735186355561 
-0.204750000000000  0.247793824314458  0.241190303784254 
-0.204000000000000  0.248265663799264  0.241646379704887 
-0.203250000000000  0.248738429214261  0.242103410882871 
-0.202500000000000  0.249212115844963  0.242561393982345 
-0.201750000000000  0.249686718853951  0.243020325564823 
-0.201000000000000  0.250162233279303  0.243480202087795 
-0.200250000000000  0.250638654033029  0.243941019903341 
-0.199500000000000  0.251115975899476  0.244402775256727 
-0.198750000000000  0.251594193533745  0.244865464284991 
-0.198000000000000  0.252073301460072  0.245329083015509 
-0.197249999999999  0.252553294070227  0.245793627364568 
-0.196499999999999  0.253034165621882  0.246259093135909 
-0.195750000000000  0.253515910236973  0.246725476019272 
-0.195000000000000  0.253998521900072  0.247192771588931 
-0.194250000000000  0.254481994456714  0.247660975302206 
-0.193500000000000  0.254966321611756  0.248130082497979 
-0.192750000000000  0.255451496927691  0.248600088395187 
-0.192000000000000  0.255937513822981  0.249070988091326 
-0.191250000000000  0.256424365570368  0.249542776560909 
-0.190500000000000  0.256912045295173  0.250015448653958 
-0.189750000000000  0.257400545973606  0.250488999094450 
-0.189000000000000  0.257889860431049  0.250963422478771 
-0.188250000000000  0.258379981340342  0.251438713274160 
-0.187500000000000  0.258870901220063  0.251914865817141 
-0.186750000000000  0.259362612432792  0.252391874311942 
-0.186000000000000  0.259855107183387  0.252869732828915 
-0.185250000000000  0.260348377517229  0.253348435302943 
-0.184500000000000  0.260842415318491  0.253827975531827 
-0.183750000000000  0.261337212308374  0.254308347174692 
-0.183000000000000  0.261832760043357  0.254789543750353 
-0.182250000000000  0.262329049913438  0.255271558635705 
-0.181500000000000  0.262826073140365  0.255754385064073 
-0.180750000000000  0.263323820775878  0.256238016123588 
-0.180000000000000  0.263822283699922  0.256722444755527 
-0.179250000000000  0.264321452618895  0.257207663752666 
-0.178500000000000  0.264821318063854  0.257693665757619 
-0.177750000000000  0.265321870388746  0.258180443261170 
-0.177000000000000  0.265823099768634  0.258667988600604 
-0.176250000000000  0.266324996197913  0.259156293958030 
-0.175500000000000  0.266827549488528  0.259645351358698 
-0.174750000000000  0.267330749268201  0.260135152669310 
-0.173999999999999  0.267834584978659  0.260625689596339 
-0.173250000000000  0.268339045873834  0.261116953684316 
-0.172500000000000  0.268844121018125  0.261608936314155 
-0.171750000000000  0.269349799284590  0.262101628701430 
-0.171000000000000  0.269856069353202  0.262595021894687 
-0.170250000000000  0.270362919709075  0.263089106773729 
-0.169500000000000  0.270870338640705  0.263583874047907 
-0.168750000000000  0.271378314238211  0.264079314254418 
-0.168000000000000  0.271886834391593  0.264575417756585 
-0.167250000000000  0.272395886788984  0.265072174742156 
-0.166500000000000  0.272905458914916  0.265569575221583 
-0.165750000000000  0.273415538048593  0.266067609026317 
-0.165000000000000  0.273926111262166  0.266566265807098 
-0.164250000000000  0.274437165419027  0.267065535032244 
-0.163500000000000  0.274948687172115  0.267565405985950 
-0.162750000000000  0.275460662962213  0.268065867766583 
-0.162000000000000  0.275973079016285  0.268566909284978 
-0.161250000000000  0.276485921345800  0.269068519262747 
-0.160500000000000  0.276999175745087  0.269570686230586 
-0.159750000000000  0.277512827789696  0.270073398526585 
-0.159000000000000  0.278026862834773  0.270576644294552 
-0.158250000000000  0.278541266013458  0.271080411482338 
-0.157500000000000  0.279056022235294  0.271584687840162 
-0.156750000000000  0.279571116184651  0.272089460918960 
-0.156000000000000  0.280086532319184  0.272594718068732 
-0.155250000000000  0.280602254868285  0.273100446436894 
-0.154500000000000  0.281118267831583  0.273606632966650 
-0.153750000000000  0.281634554977448  0.274113264395370 
-0.153000000000000  0.282151099841525  0.274620327252978 
-0.152250000000000  0.282667885725281  0.275127807860354 
-0.151500000000000  0.283184895694599  0.275635692327747 
-0.150749999999999  0.283702112578377  0.276143966553207 
-0.149999999999999  0.284219518967162  0.276652616221025 
-0.149250000000000  0.284737097211809  0.277161626800189 
-0.148500000000000  0.285254829422178  0.277670983542862 
-0.147750000000000  0.285772697465849  0.278180671482876 
-0.147000000000000  0.286290682966876  0.278690675434234 
-0.146250000000000  0.286808767304573  0.279200979989645 
-0.145500000000000  0.287326931612334  0.279711569519072 
-0.144750000000000  0.287845156776485  0.280222428168297 
-0.144000000000000  0.288363423435176  0.280733539857523 
-0.143250000000000  0.288881711977307  0.281244888279970 
-0.142500000000000  0.289400002541500  0.281756456900537 
-0.141750000000000  0.289918275015097  0.282268228954441 
-0.141000000000000  0.290436509033216  0.282780187445924 
-0.140250000000000  0.290954683977844  0.283292315146963 
-0.139500000000000  0.291472778976965  0.283804594596005 
-0.138750000000000  0.291990772903746  0.284317008096756 
-0.138000000000000  0.292508644375757  0.284829537716974 
-0.137250000000000  0.293026371754259  0.285342165287304 
-0.136500000000000  0.293543933143521  0.285854872400146 
-0.135750000000000  0.294061306390194  0.286367640408558 
-0.135000000000000  0.294578469082747  0.286880450425192 
-0.134250000000000  0.295095398550942  0.287393283321260 
-0.133500000000000  0.295612071865375  0.287906119725544 
-0.132750000000000  0.296128465837067  0.288418940023453 
-0.132000000000000  0.296644557017122  0.288931724356094 
-0.131250000000000  0.297160321696433  0.289444452619411 
-0.130500000000000  0.297675735905452  0.289957104463349 
-0.129750000000000  0.298190775414033  0.290469659291069 
-0.129000000000000  0.298705415731330  0.290982096258207 
-0.128250000000000  0.299219632105752  0.291494394272180 
-0.127500000000000  0.299733399525008  0.292006531991526 
-0.126750000000000  0.300246692716192  0.292518487825322 
-0.126000000000000  0.300759486145965  0.293030239932609 
-0.125250000000000  0.301271754020799  0.293541766221925 
-0.124500000000000  0.301783470287274  0.294053044350824 
-0.123750000000000  0.302294608632484  0.294564051725515 
-0.123000000000000  0.302805142484498  0.295074765500504 
-0.122250000000000  0.303315045012896  0.295585162578319 
-0.121500000000000  0.303824289129402  0.296095219609297 
-0.120750000000000  0.304332847488573  0.296604912991407 
-0.120000000000000  0.304840692488601  0.297114218870168 
-0.119250000000000  0.305347796272162  0.297623113138591 
-0.118500000000000  0.305854130727380  0.298131571437213 
-0.117750000000000  0.306359667488876  0.298639569154194 
-0.117000000000000  0.306864377938873  0.299147081425457 
-0.116250000000000  0.307368233208436  0.299654083134935 
-0.115500000000000  0.307871204178765  0.300160548914845 
-0.114750000000000  0.308373261482608  0.300666453146072 
-0.114000000000000  0.308874375505752  0.301171769958592 
-0.113250000000000  0.309374516388612  0.301676473231999 
-0.112500000000000  0.309873654027912  0.302180536596081 
-0.111750000000000  0.310371758078492  0.302683933431490 
-0.111000000000000  0.310868797955170  0.303186636870485 
-0.110250000000000  0.311364742834744  0.303688619797756 
-0.109500000000000  0.311859561658071  0.304189854851321 
-0.108750000000000  0.312353223132261  0.304690314423521 
-0.108000000000000  0.312845695732976  0.305189970662083 
-0.107250000000000  0.313336947706832  0.305688795471281 
-0.106500000000000  0.313826947073909  0.306186760513170 
-0.105750000000000  0.314315661630373  0.306683837208928 
-0.105000000000000  0.314803058951184  0.307179996740264 
-0.104250000000000  0.315289106392977  0.307675210050936 
-0.103499999999999  0.315773771096965  0.308169447848353 
-0.102750000000000  0.316257019992031  0.308662680605268 
-0.102000000000000  0.316738819797899  0.309154878561566 
-0.101250000000000  0.317219137028433  0.309646011726164 
-0.100500000000000  0.317697937995024  0.310136049878979 
-0.0997500000000002  0.318175188810138  0.310624962573020 
-0.0990000000000002  0.318650855390946  0.311112719136573 
-0.0982500000000002  0.319124903463090  0.311599288675476 
-0.0975000000000001  0.319597298564554  0.312084640075509 
-0.0967500000000001  0.320068006049673  0.312568742004885 
-0.0960000000000001  0.320536991093247  0.313051562916837 
-0.0952500000000001  0.321004218694782  0.313533071052329 
-0.0945000000000000  0.321469653682852  0.314013234442847 
-0.0937500000000000  0.321933260719584  0.314492020913322 
-0.0930000000000000  0.322395004305261  0.314969398085139 
-0.0922499999999999  0.322854848783056  0.315445333379283 
-0.0914999999999999  0.323312758343868  0.315919794019569 
-0.0907499999999999  0.323768697031321  0.316392747036000 
-0.0899999999999999  0.324222628746841  0.316864159268224 
-0.0892499999999998  0.324674517254878  0.317333997369114 
-0.0884999999999998  0.325124326188264  0.317802227808465 
-0.0877499999999998  0.325572019053667  0.318268816876780 
-0.0869999999999997  0.326017559237182  0.318733730689208 
-0.0862499999999997  0.326460910010044  0.319196935189562 
-0.0854999999999997  0.326902034534479  0.319658396154487 
-0.0847499999999997  0.327340895869627  0.320118079197704 
-0.0839999999999996  0.327777456977652  0.320575949774404 
-0.0832499999999996  0.328211680729920  0.321031973185745 
-0.0824999999999996  0.328643529913341  0.321486114583475 
-0.0817499999999995  0.329072967236779  0.321938338974654 
-0.0809999999999995  0.329499955337632  0.322388611226512 
-0.0802500000000004  0.329924456788497  0.322836896071415 
-0.0795000000000003  0.330346434103966  0.323283158111950 
-0.0787500000000003  0.330765849747537  0.323727361826143 
-0.0780000000000003  0.331182666138620  0.324169471572760 
-0.0772500000000003  0.331596845659692  0.324609451596754 
-0.0765000000000002  0.332008350663530  0.325047266034822 
-0.0757500000000002  0.332417143480578  0.325482878921077 
-0.0750000000000002  0.332823186426403  0.325916254192838 
-0.0742500000000001  0.333226441809276  0.326347355696532 
-0.0735000000000001  0.333626871937844  0.326776147193705 
-0.0727500000000001  0.334024439128918  0.327202592367176 
-0.0720000000000001  0.334419105715342  0.327626654827259 
-0.0712500000000000  0.334810834053991  0.328048298118141 
-0.0705000000000000  0.335199586533843  0.328467485724354 
-0.0697500000000000  0.335585325584151  0.328884181077337 
-0.0690000000000000  0.335968013682708  0.329298347562162 
-0.0682499999999999  0.336347613364207  0.329709948524299 
-0.0674999999999999  0.336724087228683  0.330118947276562 
-0.0667499999999999  0.337097397950038  0.330525307106089 
-0.0659999999999998  0.337467508284656  0.330928991281485 
-0.0652499999999998  0.337834381080089  0.331329963060029 
-0.0644999999999998  0.338197979283815  0.331728185695009 
-0.0637499999999998  0.338558265952095  0.332123622443143 
-0.0629999999999997  0.338915204258850  0.332516236572092 
-0.0622499999999997  0.339268757504667  0.332905991368084 
-0.0614999999999997  0.339618889125814  0.333292850143624 
-0.0607499999999996  0.339965562703344  0.333676776245299 
-0.0599999999999996  0.340308741972239  0.334057733061661 
-0.0592499999999996  0.340648390830636  0.334435684031215 
-0.0584999999999996  0.340984473349053  0.334810592650483 
-0.0577499999999995  0.341316953779702  0.335182422482140 
-0.0570000000000004  0.341645796565830  0.335551137163258 
-0.0562500000000004  0.341970966351086  0.335916700413598 
-0.0555000000000003  0.342292427988931  0.336279076043986 
-0.0547500000000003  0.342610146552072  0.336638227964770 
-0.0540000000000003  0.342924087341940  0.336994120194331 
-0.0532500000000002  0.343234215898145  0.337346716867669 
-0.0525000000000002  0.343540498007983  0.337695982245055 
-0.0517500000000002  0.343842899715955  0.338041880720722 
-0.0510000000000002  0.344141387333262  0.338384376831645 
-0.0502500000000001  0.344435927447328  0.338723435266328 
-0.0495000000000001  0.344726486931314  0.339059020873686 
-0.0487500000000001  0.345013032953621  0.339391098671948 
-0.0480000000000000  0.345295532987378  0.339719633857598 
-0.0472500000000000  0.345573954819931  0.340044591814372 
-0.0465000000000000  0.345848266562276  0.340365938122267 
-0.0457500000000000  0.346118436658498  0.340683638566607 
-0.0449999999999999  0.346384433895164  0.340997659147093 
-0.0442499999999999  0.346646227410668  0.341307966086929 
-0.0434999999999999  0.346903786704567  0.341614525841932 
-0.0427499999999998  0.347157081646822  0.341917305109646 
-0.0419999999999998  0.347406082487029  0.342216270838507 
-0.0412499999999998  0.347650759863572  0.342511390236958 
-0.0404999999999998  0.347891084812714  0.342802630782624 
-0.0397499999999997  0.348127028777626  0.343089960231434 
-0.0389999999999997  0.348358563617342  0.343373346626762 
-0.0382499999999997  0.348585661615626  0.343652758308545 
-0.0374999999999996  0.348808295489771  0.343928163922392 
-0.0367499999999996  0.349026438399287  0.344199532428653 
-0.0359999999999996  0.349240063954543  0.344466833111487 
-0.0352499999999996  0.349449146225228  0.344730035587879 
-0.0345000000000004  0.349653659748800  0.344989109816618 
-0.0337500000000004  0.349853579538754  0.345244026107260 
-0.0330000000000004  0.350048881092821  0.345494755129014 
-0.0322500000000003  0.350239540401013  0.345741267919595 
-0.0315000000000003  0.350425533953583  0.345983535894016 
-0.0307500000000003  0.350606838748812  0.346221530853318 
-0.0300000000000002  0.350783432300693  0.346455224993246 
-0.0292500000000002  0.350955292646473  0.346684590912837 
-0.0285000000000002  0.351122398354021  0.346909601622941 
-0.0277500000000002  0.351284728529101  0.347130230554668 
-0.0270000000000001  0.351442262822435  0.347346451567734 
-0.0262500000000001  0.351594981436647  0.347558238958746 
-0.0255000000000001  0.351742865133027  0.347765567469342 
-0.0247500000000000  0.351885895238133  0.347968412294297 
-0.0240000000000000  0.352024053650220  0.348166749089464 
-0.0232500000000000  0.352157322845500  0.348360553979640 
-0.0225000000000000  0.352285685884202  0.348549803566308 
-0.0217499999999999  0.352409126416485  0.348734474935260 
-0.0209999999999999  0.352527628688122  0.348914545664107 
-0.0202499999999999  0.352641177546011  0.349089993829628 
-0.0194999999999999  0.352749758443511  0.349260798015025 
-0.0187499999999998  0.352853357445537  0.349426937317031 
-0.0179999999999998  0.352951961233483  0.349588391352852 
-0.0172499999999998  0.353045557109938  0.349745140266988 
-0.0164999999999997  0.353134133003172  0.349897164737889 
-0.0157499999999997  0.353217677471432  0.350044445984479 
-0.0149999999999997  0.353296179707015  0.350186965772480 
-0.0142499999999997  0.353369629540109  0.350324706420611 
-0.0134999999999996  0.353438017442457  0.350457650806604 
-0.0127499999999996  0.353501334530730  0.350585782373039 
-0.0119999999999996  0.353559572569739  0.350709085133026 
-0.0112499999999995  0.353612723975386  0.350827543675693 
-0.0105000000000004  0.353660781817380  0.350941143171483 
-0.00975000000000037  0.353703739821751  0.351049869377291 
-0.00900000000000034  0.353741592373097  0.351153708641392 
-0.00825000000000031  0.353774334516622  0.351252647908173 
-0.00750000000000028  0.353801961959917  0.351346674722682 
-0.00675000000000026  0.353824471074525  0.351435777234981 
-0.00600000000000023  0.353841858897237  0.351519944204261 
-0.00525000000000020  0.353854123131182  0.351599165002814 
-0.00450000000000017  0.353861262146656  0.351673429619728 
-0.00375000000000014  0.353863274981710  0.351742728664439 
-0.00300000000000011  0.353860161342507  0.351807053370005 
-0.00225000000000009  0.353851921603421  0.351866395596221 
-0.00150000000000006  0.353838556806918  0.351920747832479 
-0.000750000000000028  0.353820068663163  0.351970103200438 
 0.00000000000000  0.353796459549425  0.352014455456438 
 0.000750000000000028  0.353767732509204  0.352053798993731 
 0.00150000000000006  0.353733891251127  0.352088128844450 
 0.00225000000000009  0.353694940147633  0.352117440681395 
 0.00300000000000011  0.353650884233370  0.352141730819543 
 0.00375000000000014  0.353601729203402  0.352160996217378 
 0.00450000000000017  0.353547481411145  0.352175234477943 
 0.00525000000000020  0.353488147866086  0.352184443849724 
 0.00600000000000023  0.353423736231261  0.352188623227237 
 0.00675000000000026  0.353354254820507  0.352187772151444 
 0.00750000000000028  0.353279712595479  0.352181890809886 
 0.00825000000000031  0.353200119162440  0.352170980036622 
 0.00900000000000034  0.353115484768840  0.352155041311937 
 0.00975000000000037  0.353025820299645  0.352134076761791 
 0.0105000000000004  0.352931137273451  0.352108089157060 
 0.0112499999999995  0.352831447838433  0.352077081912543 
 0.0119999999999996  0.352726764767983  0.352041059085740 
 0.0127499999999996  0.352617101456216  0.352000025375399 
 0.0134999999999996  0.352502471913253  0.351953986119846 
 0.0142499999999997  0.352382890760239  0.351902947295054 
 0.0149999999999997  0.352258373224266  0.351846915512557 
 0.0157499999999997  0.352128935132988  0.351785898017065 
 0.0164999999999997  0.351994592909112  0.351719902683902 
 0.0172499999999998  0.351855363564676  0.351648938016215 
 0.0179999999999998  0.351711264695123  0.351573013141953 
 0.0187499999999998  0.351562314473231  0.351492137810656 
 0.0194999999999999  0.351408531642821  0.351406322390004 
 0.0202499999999999  0.351249935512321  0.351315577862167 
 0.0209999999999999  0.351086545948136  0.351219915819949 
 0.0217499999999999  0.350918383367878  0.351119348462730 
 0.0225000000000000  0.350745468733399  0.351013888592170 
 0.0232500000000000  0.350567823543704  0.350903549607773 
 0.0240000000000000  0.350385469827682  0.350788345502198 
 0.0247500000000000  0.350198430136701  0.350668290856412 
 0.0255000000000001  0.350006727537065  0.350543400834631 
 0.0262500000000001  0.349810385602314  0.350413691179079 
 0.0270000000000001  0.349609428405413  0.350279178204575 
 0.0277500000000002  0.349403880510787  0.350139878792928 
 0.0285000000000002  0.349193766966265  0.349995810387148 
 0.0292500000000002  0.348979113294864  0.349846990985504 
 0.0300000000000002  0.348759945486492  0.349693439135398 
 0.0307500000000003  0.348536289989538  0.349535173927081 
 0.0315000000000003  0.348308173702334  0.349372214987202 
 0.0322500000000003  0.348075623964549  0.349204582472218 
 0.0330000000000004  0.347838668548472  0.349032297061616 
 0.0337500000000004  0.347597335650209  0.348855379951028 
 0.0345000000000004  0.347351653880803  0.348673852845176 
 0.0352500000000004  0.347101652257276  0.348487737950691 
 0.0359999999999996  0.346847360193580  0.348297057968780 
 0.0367499999999996  0.346588807491511  0.348101836087791 
 0.0374999999999996  0.346326024331539  0.347902095975624 
 0.0382499999999997  0.346059041263583  0.347697861772042 
 0.0389999999999997  0.345787889197743  0.347489158080846 
 0.0397499999999997  0.345512599394981  0.347276009961977 
 0.0404999999999998  0.345233203457758  0.347058442923450 
 0.0412499999999998  0.344949733320625  0.346836482913248 
 0.0419999999999998  0.344662221240814  0.346610156311092 
 0.0427499999999998  0.344370699788766  0.346379489920100 
 0.0434999999999999  0.344075201838655  0.346144510958409 
 0.0442499999999999  0.343775760558896  0.345905247050658 
 0.0449999999999999  0.343472409402633  0.345661726219442 
 0.0457500000000000  0.343165182098230  0.345413976876664 
 0.0465000000000000  0.342854112639754  0.345162027814829 
 0.0472500000000000  0.342539235277452  0.344905908198282 
 0.0480000000000000  0.342220584508259  0.344645647554380 
 0.0487500000000001  0.341898195066281  0.344381275764602 
 0.0495000000000001  0.341572101913334  0.344112823055646 
 0.0502500000000001  0.341242340229473  0.343840319990445 
 0.0510000000000002  0.340908945403564  0.343563797459160 
 0.0517500000000002  0.340571953023863  0.343283286670154 
 0.0525000000000002  0.340231398868662  0.342998819140898 
 0.0532500000000002  0.339887318896936  0.342710426688910 
 0.0540000000000003  0.339539749239063  0.342418141422628 
 0.0547500000000003  0.339188726187560  0.342121995732273 
 0.0555000000000003  0.338834286187888  0.341822022280738 
 0.0562500000000004  0.338476465829310  0.341518253994431 
 0.0570000000000004  0.338115301835786  0.341210724054140 
 0.0577499999999995  0.337750831056950  0.340899465885883 
 0.0584999999999996  0.337383090459140  0.340584513151800 
 0.0592499999999996  0.337012117116490  0.340265899741009 
 0.0599999999999996  0.336637948202114  0.339943659760527 
 0.0607499999999996  0.336260620979324  0.339617827526170 
 0.0614999999999997  0.335880172792964  0.339288437553513 
 0.0622499999999997  0.335496641060809  0.338955524548846 
 0.0629999999999997  0.335110063265031  0.338619123400198 
 0.0637499999999998  0.334720476943772  0.338279269168350 
 0.0644999999999998  0.334327919682787  0.337935997077949 
 0.0652499999999998  0.333932429107201  0.337589342508602 
 0.0659999999999998  0.333534042873330  0.337239340986082 
 0.0667499999999999  0.333132798660615  0.336886028173516 
 0.0674999999999999  0.332728734163641  0.336529439862686 
 0.0682499999999999  0.332321887084285  0.336169611965369 
 0.0690000000000000  0.331912295123916  0.335806580504708 
 0.0697500000000000  0.331499995975741  0.335440381606706 
 0.0705000000000000  0.331085027317246  0.335071051491728 
 0.0712500000000000  0.330667426802730  0.334698626466121 
 0.0720000000000001  0.330247232055962  0.334323142913869 
 0.0727500000000001  0.329824480662939  0.333944637288351 
 0.0735000000000001  0.329399210164771  0.333563146104171 
 0.0742500000000001  0.328971458050662  0.333178705929063 
 0.0750000000000002  0.328541261751011  0.332791353375871 
 0.0757500000000002  0.328108658630643  0.332401125094661 
 0.0765000000000002  0.327673685982120  0.332008057764846 
 0.0772500000000003  0.327236381019225  0.331612188087486 
 0.0780000000000003  0.326796780870511  0.331213552777606 
 0.0787500000000003  0.326354922572999  0.330812188556665 
 0.0795000000000003  0.325910843065996  0.330408132145093 
 0.0802500000000004  0.325464579185022  0.330001420254925 
 0.0810000000000004  0.325016167655867  0.329592089582560 
 0.0817500000000004  0.324565645088757  0.329180176801595 
 0.0824999999999996  0.324113047972675  0.328765718555783 
 0.0832499999999996  0.323658412669767  0.328348751452078 
 0.0839999999999996  0.323201775409884  0.327929312053811 
 0.0847499999999997  0.322743172285261  0.327507436873944 
 0.0854999999999997  0.322282639245299  0.327083162368465 
 0.0862499999999997  0.321820212091488  0.326656524929866 
 0.0869999999999997  0.321355926472436  0.326227560880750 
 0.0877499999999998  0.320889817879033  0.325796306467543 
 0.0884999999999998  0.320421921639738  0.325362797854323 
 0.0892499999999998  0.319952272915978  0.324927071116761 
 0.0899999999999999  0.319480906697679  0.324489162236171 
 0.0907499999999999  0.319007857798918  0.324049107093692 
 0.0914999999999999  0.318533160853695  0.323606941464565 
 0.0922499999999999  0.318056850311826  0.323162701012542 
 0.0930000000000000  0.317578960434942  0.322716421284410 
 0.0937500000000000  0.317099525292641  0.322268137704614 
 0.0945000000000000  0.316618578758725  0.321817885570028 
 0.0952500000000001  0.316136154507587  0.321365700044824 
 0.0960000000000001  0.315652286010664  0.320911616155449 
 0.0967500000000001  0.315167006533084  0.320455668785748 
 0.0975000000000001  0.314680349130348  0.319997892672181 
 0.0982500000000002  0.314192346645188  0.319538322399165 
 0.0990000000000002  0.313703031704501  0.319076992394533 
 0.0997500000000002  0.313212436716414  0.318613936925115 
 0.100500000000000  0.312720593867458  0.318149190092420 
 0.101250000000000  0.312227535119851  0.317682785828460 
 0.102000000000000  0.311733292208889  0.317214757891667 
 0.102750000000000  0.311237896640446  0.316745139862923 
 0.103499999999999  0.310741379688585  0.316273965141736 
 0.104250000000000  0.310243772393263  0.315801266942493 
 0.105000000000000  0.309745105558169  0.315327078290844 
 0.105750000000000  0.309245409748621  0.314851432020203 
 0.106500000000000  0.308744715289616  0.314374360768358 
 0.107250000000000  0.308243052263931  0.313895896974178 
 0.108000000000000  0.307740450510367  0.313416072874454 
 0.108750000000000  0.307236939622058  0.312934920500831 
 0.109500000000000  0.306732548944899  0.312452471676863 
 0.110250000000000  0.306227307576057  0.311968758015155 
 0.111000000000000  0.305721244362579  0.311483810914641 
 0.111750000000000  0.305214387900095  0.310997661557943 
 0.112500000000000  0.304706766531607  0.310510340908848 
 0.113250000000000  0.304198408346367  0.310021879709871 
 0.114000000000000  0.303689341178858  0.309532308479960 
 0.114750000000000  0.303179592607841  0.309041657512249 
 0.115500000000000  0.302669189955493  0.308549956871951 
 0.116250000000000  0.302158160286638  0.308057236394343 
 0.117000000000000  0.301646530408053  0.307563525682826 
 0.117750000000000  0.301134326867851  0.307068854107112 
 0.118500000000000  0.300621575954944  0.306573250801486 
 0.119250000000000  0.300108303698598  0.306076744663176 
 0.120000000000000  0.299594535868036  0.305579364350791 
 0.120750000000000  0.299080297972151  0.305081138282890 
 0.121500000000000  0.298565615259255  0.304582094636600 
 0.122250000000000  0.298050512716923  0.304082261346343 
 0.123000000000000  0.297535015071905  0.303581666102659 
 0.123750000000000  0.297019146790100  0.303080336351089 
 0.124500000000000  0.296502932076592  0.302578299291168 
 0.125250000000000  0.295986394875767  0.302075581875482 
 0.126000000000000  0.295469558871486  0.301572210808820 
 0.126750000000000  0.294952447487307  0.301068212547392 
 0.127500000000000  0.294435083886798  0.300563613298148 
 0.128250000000000  0.293917490973881  0.300058439018148 
 0.129000000000000  0.293399691393242  0.299552715414024 
 0.129750000000000  0.292881707530809  0.299046467941511 
 0.130500000000000  0.292363561514274  0.298539721805065 
 0.131250000000000  0.291845275213665  0.298032501957519 
 0.132000000000000  0.291326870241984  0.297524833099845 
 0.132750000000000  0.290808367955881  0.297016739680966 
 0.133500000000000  0.290289789456395  0.296508245897643 
 0.134250000000000  0.289771155589715  0.295999375694414 
 0.135000000000000  0.289252486948024  0.295490152763620 
 0.135750000000000  0.288733803870357  0.294980600545468 
 0.136500000000000  0.288215126443516  0.294470742228180 
 0.137250000000000  0.287696474503034  0.293960600748182 
 0.138000000000000  0.287177867634163  0.293450198790370 
 0.138750000000000  0.286659325172925  0.292939558788413 
 0.139500000000000  0.286140866207175  0.292428702925130 
 0.140250000000000  0.285622509577725  0.291917653132915 
 0.141000000000000  0.285104273879491  0.291406431094204 
 0.141750000000000  0.284586177462677  0.290895058242019 
 0.142500000000000  0.284068238433997  0.290383555760533 
 0.143250000000000  0.283550474657930  0.289871944585716 
 0.144000000000000  0.283032903757992  0.289360245405986 
 0.144750000000000  0.282515543118063  0.288848478662963 
 0.145500000000000  0.281998409883722  0.288336664552210 
 0.146250000000000  0.281481520963615  0.287824823024060 
 0.147000000000000  0.280964893030864  0.287312973784468 
 0.147750000000000  0.280448542524473  0.286801136295897 
 0.148500000000000  0.279932485650796  0.286289329778271 
 0.149250000000000  0.279416738384992  0.285777573209936 
 0.149999999999999  0.278901316472529  0.285265885328682 
 0.150749999999999  0.278386235430690  0.284754284632777 
 0.151500000000000  0.277871510550123  0.284242789382069 
 0.152250000000000  0.277357156896382  0.283731417599093 
 0.153000000000000  0.276843189311519  0.283220187070223 
 0.153750000000000  0.276329622415654  0.282709115346856 
 0.154500000000000  0.275816470608608  0.282198219746630 
 0.155250000000000  0.275303748071511  0.281687517354654 
 0.156000000000000  0.274791468768448  0.281177025024794 
 0.156750000000000  0.274279646448112  0.280666759380963 
 0.157500000000000  0.273768294645476  0.280156736818443 
 0.158250000000000  0.273257426683465  0.279646973505249 
 0.159000000000000  0.272747055674647  0.279137485383480 
 0.159750000000000  0.272237194522951  0.278628288170748 
 0.160500000000000  0.271727855925355  0.278119397361562 
 0.161250000000000  0.271219052373630  0.277610828228799 
 0.162000000000000  0.270710796156051  0.277102595825149 
 0.162750000000000  0.270203099359151  0.276594714984598 
 0.163500000000000  0.269695973869452  0.276087200323933 
 0.164250000000000  0.269189431375227  0.275580066244248 
 0.165000000000000  0.268683483368250  0.275073326932489 
 0.165750000000000  0.268178141145559  0.274566996362994 
 0.166500000000000  0.267673415811228  0.274061088299061 
 0.167250000000000  0.267169318278126  0.273555616294521 
 0.168000000000000  0.266665859269700  0.273050593695339 
 0.168750000000000  0.266163049321744  0.272546033641205 
 0.169500000000000  0.265660898784185  0.272041949067160 
 0.170250000000000  0.265159417822848  0.271538352705213 
 0.171000000000000  0.264658616421251  0.271035257085983 
 0.171750000000000  0.264158504382376  0.270532674540345 
 0.172500000000000  0.263659091330448  0.270030617201078 
 0.173250000000000  0.263160386712717  0.269529097004537 
 0.174000000000000  0.262662399801241  0.269028125692311 
 0.174750000000000  0.262165139694651  0.268527714812909 
 0.175500000000000  0.261668615319929  0.268027875723431 
 0.176250000000000  0.261172835434189  0.267528619591271 
 0.177000000000000  0.260677808626426  0.267029957395793 
 0.177750000000000  0.260183543319300  0.266531899930038 
 0.178500000000000  0.259690047770880  0.266034457802415 
 0.179250000000000  0.259197330076419  0.265537641438414 
 0.180000000000000  0.258705398170087  0.265041461082297 
 0.180750000000000  0.258214259826726  0.264545926798818 
 0.181500000000000  0.257723922663595  0.264051048474920 
 0.182250000000000  0.257234394142099  0.263556835821453 
 0.183000000000000  0.256745681569521  0.263063298374873 
 0.183750000000000  0.256257792100747  0.262570445498958 
 0.184500000000000  0.255770732739976  0.262078286386511 
 0.185250000000000  0.255284510342434  0.261586830061067 
 0.186000000000000  0.254799131616078  0.261096085378604 
 0.186750000000000  0.254314603123284  0.260606061029234 
 0.187500000000000  0.253830931282533  0.260116765538912 
 0.188250000000000  0.253348122370100  0.259628207271132 
 0.189000000000000  0.252866182521706  0.259140394428616 
 0.189750000000000  0.252385117734197  0.258653335055008 
 0.190500000000000  0.251904933867183  0.258167037036559 
 0.191250000000000  0.251425636644689  0.257681508103812 
 0.192000000000000  0.250947231656783  0.257196755833269 
 0.192750000000000  0.250469724361204  0.256712787649068 
 0.193500000000000  0.249993120084977  0.256229610824655 
 0.194250000000000  0.249517424026015  0.255747232484434 
 0.195000000000000  0.249042641254716  0.255265659605421 
 0.195750000000000  0.248568776715546  0.254784899018902 
 0.196499999999999  0.248095835228610  0.254304957412064 
 0.197249999999999  0.247623821491225  0.253825841329630 
 0.198000000000000  0.247152740079466  0.253347557175490 
 0.198750000000000  0.246682595449705  0.252870111214312 
 0.199500000000000  0.246213391940151  0.252393509573165 
 0.200250000000000  0.245745133772364  0.251917758243108 
 0.201000000000000  0.245277825052765  0.251442863080800 
 0.201750000000000  0.244811469774135  0.250968829810072 
 0.202500000000000  0.244346071817101  0.250495664023513 
 0.203250000000000  0.243881634951610  0.250023371184043 
 0.204000000000000  0.243418162838395  0.249551956626460 
 0.204750000000000  0.242955659030425  0.249081425559003 
 0.205500000000000  0.242494126974340  0.248611783064889 
 0.206250000000000  0.242033570011895  0.248143034103842 
 0.207000000000000  0.241573991381356  0.247675183513621 
 0.207750000000000  0.241115394218921  0.247208236011526 
 0.208500000000000  0.240657781560104  0.246742196195905 
 0.209250000000000  0.240201156341121  0.246277068547645 
 0.210000000000000  0.239745521400255  0.245812857431651 
 0.210750000000000  0.239290879479215  0.245349567098324 
 0.211500000000000  0.238837233224480  0.244887201685012 
 0.212250000000000  0.238384585188632  0.244425765217472 
 0.213000000000000  0.237932937831677  0.243965261611300 
 0.213750000000000  0.237482293522352  0.243505694673363 
 0.214500000000000  0.237032654539421  0.243047068103219 
 0.215250000000000  0.236584023072964  0.242589385494524 
 0.216000000000000  0.236136401225641  0.242132650336424 
 0.216750000000000  0.235689791013961  0.241676866014944 
 0.217500000000000  0.235244194369522  0.241222035814358 
 0.218250000000000  0.234799613140249  0.240768162918555 
 0.219000000000000  0.234356049091620  0.240315250412387 
 0.219750000000000  0.233913503907875  0.239863301283010 
 0.220500000000000  0.233471979193216  0.239412318421216 
 0.221250000000000  0.233031476472992  0.238962304622741 
 0.222000000000000  0.232591997194879  0.238513262589579 
 0.222750000000000  0.232153542730039  0.238065194931273 
 0.223500000000000  0.231716114374271  0.237618104166197 
 0.224250000000000  0.231279713349157  0.237171992722827 
 0.225000000000000  0.230844340803176  0.236726862941000 
 0.225750000000000  0.230409997812834  0.236282717073163 
 0.226500000000000  0.229976685383758  0.235839557285611 
 0.227250000000000  0.229544404451792  0.235397385659706 
 0.228000000000000  0.229113155884077  0.234956204193095 
 0.228750000000000  0.228682940480114  0.234516014800911 
 0.229500000000000  0.228253758972830  0.234076819316960 
 0.230250000000000  0.227825612029617  0.233638619494905 
 0.231000000000000  0.227398500253363  0.233201417009424 
 0.231750000000000  0.226972424183484  0.232765213457377 
 0.232500000000000  0.226547384296922  0.232330010358938 
 0.233250000000000  0.226123381009154  0.231895809158734 
 0.234000000000000  0.225700414675181  0.231462611226971 
 0.234750000000000  0.225278485590491  0.231030417860527 
 0.235500000000000  0.224857593992042  0.230599230284067 
 0.236250000000000  0.224437740059207  0.230169049651122 
 0.237000000000000  0.224018923914714  0.229739877045164 
 0.237750000000000  0.223601145625590  0.229311713480672 
 0.238500000000000  0.223184405204073  0.228884559904185 
 0.239250000000000  0.222768702608525  0.228458417195341 
 0.240000000000000  0.222354037744333  0.228033286167911 
 0.240750000000000  0.221940410464799  0.227609167570814 
 0.241499999999999  0.221527820572016  0.227186062089132 
 0.242249999999999  0.221116267817736  0.226763970345097 
 0.242999999999999  0.220705751904232  0.226342892899090 
 0.243749999999999  0.220296272485141  0.225922830250602 
 0.244499999999999  0.219887829166300  0.225503782839212 
 0.245250000000000  0.219480421506578  0.225085751045532 
 0.246000000000000  0.219074049018687  0.224668735192155 
 0.246750000000000  0.218668711169990  0.224252735544579 
 0.247500000000000  0.218264407383300  0.223837752312140 
 0.248250000000000  0.217861137037664  0.223423785648917 
 0.249000000000000  0.217458899469137  0.223010835654628 
 0.249750000000000  0.217057693971556  0.222598902375530 
 0.250500000000000  0.216657519797290  0.222187985805292 
 0.251250000000000  0.216258376157992  0.221778085885869 
 0.252000000000000  0.215860262225335  0.221369202508353 
 0.252750000000000  0.215463177131745  0.220961335513831 
 0.253500000000000  0.215067119971108  0.220554484694222 
 0.254250000000000  0.214672089799497  0.220148649793100 
 0.255000000000000  0.214278085635863  0.219743830506522 
 0.255750000000000  0.213885106462724  0.219340026483830 
 0.256500000000000  0.213493151226857  0.218937237328455 
 0.257250000000000  0.213102218839964  0.218535462598702 
 0.258000000000000  0.212712308179340  0.218134701808535 
 0.258750000000000  0.212323418088529  0.217734954428343 
 0.259500000000000  0.211935547377973  0.217336219885705 
 0.260250000000000  0.211548694825646  0.216938497566135 
 0.261000000000000  0.211162859177690  0.216541786813836 
 0.261750000000000  0.210778039149033  0.216146086932416 
 0.262500000000000  0.210394233424006  0.215751397185627 
 0.263250000000000  0.210011440656945  0.215357716798072 
 0.264000000000000  0.209629659472792  0.214965044955911 
 0.264750000000000  0.209248888467674  0.214573380807560 
 0.265500000000000  0.208869126209502  0.214182723464374 
 0.266250000000000  0.208490371238526  0.213793072001331 
 0.267000000000000  0.208112622067911  0.213404425457698 
 0.267749999999999  0.207735877184291  0.213016782837700 
 0.268500000000000  0.207360135048316  0.212630143111157 
 0.269250000000000  0.206985394095201  0.212244505214148 
 0.270000000000000  0.206611652735254  0.211859868049632 
 0.270750000000000  0.206238909354407  0.211476230488084 
 0.271500000000000  0.205867162314733  0.211093591368110 
 0.272250000000000  0.205496409954962  0.210711949497061 
 0.273000000000000  0.205126650590981  0.210331303651632 
 0.273750000000000  0.204757882516337  0.209951652578465 
 0.274500000000000  0.204390104002727  0.209572994994726 
 0.275250000000000  0.204023313300481  0.209195329588691 
 0.276000000000000  0.203657508639035  0.208818655020317 
 0.276750000000000  0.203292688227413  0.208442969921804 
 0.277500000000000  0.202928850254677  0.208068272898152 
 0.278250000000000  0.202565992890393  0.207694562527708 
 0.279000000000000  0.202204114285080  0.207321837362712 
 0.279750000000000  0.201843212570646  0.206950095929821 
 0.280500000000000  0.201483285860839  0.206579336730649 
 0.281250000000000  0.201124332251667  0.206209558242274 
 0.282000000000000  0.200766349821824  0.205840758917758 
 0.282750000000000  0.200409336633115  0.205472937186646 
 0.283500000000000  0.200053290730860  0.205106091455469 
 0.284250000000000  0.199698210144304  0.204740220108228 
 0.285000000000000  0.199344092887021  0.204375321506892 
 0.285750000000000  0.198990936957301  0.204011393991858 
 0.286500000000000  0.198638740338542  0.203648435882431 
 0.287250000000000  0.198287500999632  0.203286445477290 
 0.287999999999999  0.197937216895329  0.202925421054939 
 0.288749999999999  0.197587885966623  0.202565360874161 
 0.289499999999999  0.197239506141115  0.202206263174463 
 0.290249999999999  0.196892075333368  0.201848126176515 
 0.290999999999999  0.196545591445257  0.201490948082575 
 0.291750000000000  0.196200052366334  0.201134727076927 
 0.292500000000000  0.195855455974156  0.200779461326288 
 0.293250000000000  0.195511800134634  0.200425148980228 
 0.294000000000000  0.195169082702359  0.200071788171575 
 0.294750000000000  0.194827301520937  0.199719377016820 
 0.295500000000000  0.194486454423308  0.199367913616508 
 0.296250000000000  0.194146539232064  0.199017396055632 
 0.297000000000000  0.193807553759765  0.198667822404011 
 0.297750000000000  0.193469495809246  0.198319190716678 
 0.298500000000000  0.193132363173919  0.197971499034240 
 0.299250000000000  0.192796153638076  0.197624745383258 
 0.300000000000000  0.192460864977178  0.197278927776602 
