-10.0000000000000  0.674846505283950  178.598593504443  181.531787129237  10.6423745857081  8.22885885288657 
-9.80000000000000  0.673956937465594  185.566736976516  188.614370835538  11.0856131021831  8.22508349318812 
-9.60000000000000  0.673014236891601  192.954864132263  196.123835739886  11.5556333335792  8.22108003756103 
-9.40000000000000  0.672014164570031  200.796947485502  204.094712294071  12.0546089251439  8.21682996938395 
-9.20000000000000  0.670952059195934  209.130414981350  212.565043130145  12.5849355628678  8.21231287889731 
-9.00000000000000  0.669822786973864  217.996573512525  221.576813532142  13.1492583332921  8.20750622944633 
-8.80000000000000  0.668620684581592  227.441093106950  231.176443575478  13.7505030274831  8.20238508988353 
-8.60000000000000  0.667339494231811  237.514561704447  241.415352014733  14.3919120383659  8.19692182751669 
-8.40000000000000  0.665972289618647  248.273122252215  252.350603842106  15.0770856199653  8.19108575494108 
-8.20000000000000  0.664511391337842  259.779206023078  264.045655648898  15.8100294204118  8.18484272283233 
-8.00000000000000  0.662948270139250  272.102378674852  276.571215579635  16.5952093729132  8.17815464925047 
-7.80000000000000  0.661273436103589  285.320318718261  290.006237869242  17.4376152364499  8.17097897415695 
-7.60000000000000  0.659476311527334  299.519951860165  304.439075815441  18.3428343281599  8.16326802560300 
-7.40000000000000  0.657545084945776  314.798769279209  319.968821704225  19.3171372912013  8.15496828131849 
-7.20000000000000  0.655466543320320  331.266363443043  336.706867849539  20.3675781059328  8.14601950610705 
-7.00000000000000  0.653225878958361  349.046221796226  354.778729738553  21.5021109910008  8.13635374140119 
-6.80000000000000  0.650806467220205  368.277826782836  374.326180542502  22.7297273686274  8.12589411838804 
-6.60000000000000  0.648189610495975  389.119120510639  395.509756257463  24.0606167008321  8.11455346009283 
-6.40000000000000  0.645354243305402  411.749404255620  418.511702826770  25.5063557568760  8.10223263047708 
-6.20000000000000  0.642276592681295  436.372757334929  443.539451161313  27.0801317620289  8.08881857972763 
-6.00000000000000  0.638929787229768  463.222077066337  470.829723446348  28.7970059140210  8.07418202422626 
-5.80000000000000  0.635283407375323  492.563862013841  500.653394941443  30.6742249348466  8.05817468697638 
-5.60000000000000  0.631302968189489  524.703884871675  533.321260029509  32.7315896273492  8.04062600942752 
-5.40000000000000  0.626949324617473  559.993929378504  569.190879771043  34.9918907609251  8.02133922885749 
-5.20000000000000  0.622177986315738  598.839797429923  608.674720518214  37.4814238772353  8.00008669752250 
-5.00000000000000  0.616938324580374  641.710827197399  652.249828352749  40.2305955207326  7.97660430256011 
-4.80000000000000  0.611172644802629  689.151198354587  700.469319984772  43.2746335035420  7.95058483309750 
-4.60000000000000  0.604815080480224  741.793331865086  753.976002618940  46.6544123737186  7.92167014073042 
-4.40000000000000  0.597790231942911  800.373710473106  813.518454290438  50.4174011757292  7.88944196496285 
-4.20000000000000  0.590011413229119  865.751436290242  879.969886267536  54.6187324305714  7.85341136870775 
-4.00000000000000  0.581378268295261  938.929776090395  954.350042259324  59.3223775260003  7.81300688447357 
-3.80000000000000  0.571773358136536  1021.08077591757  1037.85021738741  64.6023937812861  7.76756175353822 
-3.60000000000000  0.561057108889249  1113.57267517368  1131.86112267165  70.5441845855584  7.71630108886325 
-3.40000000000000  0.549060322335911  1217.99918585995  1238.00264536560  77.2456940656022  7.65833040489775 
-3.20000000000000  0.535573519177813  1336.20851372056  1358.15334700119  84.8184554032552  7.59262761441610 
-3.00000000000000  0.520333202292753  1470.32795069509  1494.47545998317  93.3884338694101  7.51804100032081 
-2.80000000000000  0.503007358196393  1622.77645225542  1649.42767156791  103.096607495669  7.43329551503882 
-2.60000000000000  0.483186391470328  1796.25209110275  1825.75237121323  114.099037087931  7.33700942467148 
-2.40000000000000  0.460389778029271  1993.67268263702  2026.41530010433  126.565460359190  7.22772513878580 
-2.20000000000000  0.434099426122965  2218.03518218899  2254.46263798567  140.673916139603  7.10396655328540 
-2.00000000000000  0.403825168116065  2472.14219828590  2512.74302365667  156.596814321152  6.96435330763516 
-1.80000000000000  0.369199318440765  2758.12384988769  2803.42155890207  174.472237463783  6.80782465693401 
-1.60000000000000  0.330094905137821  3076.66746265839  3127.19685403897  194.354222734063  6.63403760244556 
-1.40000000000000  0.286769223197054  3425.87490215070  3482.13959545263  216.137857855227  6.44399043808828 
-1.20000000000000  0.240039037552432  3799.73471743485  3862.13959739696  239.460119909328  6.24087229963299 
-1.00000000000000  0.191477726727774  4186.37884826238  4255.13387866931  263.588391461388  6.03103368473216 
-0.799999999999999  0.143579412574540  4566.63496580932  4641.63522774849  287.328965331001  5.82479093474833 
-0.600000000000000  0.0997732749554597  4913.82775434378  4994.53022068685  309.014867801976  5.63654452141856 
-0.399999999999999  0.0641354260467282  5196.03048033830  5281.36776898688  326.647728427582  5.48356111825296 
-0.199999999999999  0.0407058600151795  5381.47880621858  5469.86184774320  338.237911298327  5.38303633712253 
 0.00000000000000  0.0325181512457022  5446.27415708880  5535.72137966648  342.287998922040  5.34791412054291 
 0.200000000000001  0.0407058599656303  5381.47880621842  5469.86184774305  338.237911290407  5.38303633717979 
 0.400000000000000  0.0641354259510166  5196.03048033799  5281.36776898658  326.647728411442  5.48356111836438 
 0.600000000000001  0.0997732748213364  4913.82775434331  4994.53022068638  309.014867777123  5.63654452157685 
 0.800000000000001  0.143579412416000  4566.63496580867  4641.63522774784  287.328965296981  5.82479093493993 
 1.00000000000000  0.191477726567500  4186.37884826156  4255.13387866850  263.588391418186  6.03103368493438 
 1.20000000000000  0.240039037423977  3799.73471743387  3862.13959739600  239.460119857950  6.24087229981127 
 1.40000000000000  0.286769223145119  3425.87490214963  3482.13959545156  216.137857798390  6.44399043819525 
 1.60000000000000  0.330094905214318  3076.66746265731  3127.19685403789  194.354222676751  6.63403760242445 
 1.80000000000000  0.369199318694850  2758.12384988674  2803.42155890112  174.472237413245  6.80782465672861 
 2.00000000000000  0.403825168579172  2472.14219828525  2512.74302365602  156.596814285908  6.96435330720574 
 2.20000000000000  0.434099426794491  2218.03518218877  2254.46263798545  140.673916127455  7.10396655262504 
 2.40000000000000  0.460389778871222  1993.67268263733  2026.41530010465  126.565460374962  7.22772513792784 
 2.60000000000000  0.483186392415616  1796.25209110360  1825.75237121407  114.099037132086  7.33700942368263 
 2.80000000000000  0.503007359167121  1622.77645225674  1649.42767156922  103.096607564513  7.43329551400062 
 3.00000000000000  0.520333203219034  1470.32795069675  1494.47545998482  93.3884339565998  7.51804099930935 
 3.20000000000000  0.535573520009413  1336.20851372243  1358.15334700305  84.8184555016862  7.59262761348853 
 3.40000000000000  0.549060323044907  1217.99918586190  1238.00264536756  77.2456941688619  7.65833040408822 
 3.60000000000000  0.561057109466532  1113.57267517563  1131.86112267360  70.5441846886568  7.71630108818571 
 3.80000000000000  0.571773358585977  1021.08077591945  1037.85021738929  64.6023938807867  7.76756175299210 
 4.00000000000000  0.581378268628158  938.929776092169  954.350042261094  59.3223776198124  7.81300688404961 
 4.20000000000000  0.590011413460049  865.751436291886  879.969886269177  54.6187325176249  7.85341136839238 
 4.40000000000000  0.597790232087061  800.373710474614  813.518454291944  50.4174012556581  7.88944196474124 
 4.60000000000000  0.604815080551909  741.793331866460  753.976002620312  46.6544124466059  7.92167014058814 
 4.80000000000000  0.611172644814603  689.151198355834  700.469319986017  43.2746335697330  7.95058483302147 
 5.00000000000000  0.616938324543614  641.710827198528  652.249828353876  40.2305955807091  7.97660430253886 
 5.20000000000000  0.622177986239489  598.839797430945  608.674720519234  37.4814239315347  8.00008669754627 
 5.40000000000000  0.626949324509417  559.993929379428  569.190879771965  34.9918908100907  8.02133922891806 
 5.60000000000000  0.631302968055953  524.703884872512  533.321260030344  32.7315896719022  8.04062600951806 
 5.80000000000000  0.635283407221486  492.563862014600  500.653394942200  30.6742249752715  8.05817468709124 
 6.00000000000000  0.638929787059864  463.222077067026  470.829723447036  28.7970059507592  8.07418202436076 
 6.20000000000000  0.642276592498773  436.372757335555  443.539451161938  27.0801317954771  8.08881857987795 
 6.40000000000000  0.645354243113073  411.749404256191  418.511702827340  25.5063557873882  8.10223263064005 
 6.60000000000000  0.648189610296130  389.119120511161  395.509756257984  24.0606167287224  8.11455346026587 
 6.80000000000000  0.650806467014712  368.277826783313  374.326180542978  22.7297273941734  8.12589411856899 
 7.00000000000000  0.653225878748743  349.046221796663  354.778729738990  21.5021110144478  8.13635374158830 
 7.20000000000000  0.655466543107819  331.266363443446  336.706867849941  20.3675781274972  8.14601950629887 
 7.40000000000000  0.657545084731408  314.798769279579  319.968821704595  19.3171373110739  8.15496828151381 
 7.60000000000000  0.659476311311926  299.519951860507  304.439075815782  18.3428343465094  8.16326802580085 
 7.80000000000000  0.661273435887816  285.320318718577  290.006237869557  17.4376152534254  8.17097897435649 
 8.00000000000000  0.662948269923661  272.102378675144  276.571215579927  16.5952093886467  8.17815464945103 
 8.20000000000000  0.664511391122886  259.779206023349  264.045655649169  15.8100294350202  8.18484272303334 
 8.40000000000000  0.665972289404686  248.273122252467  252.350603842357  15.0770856335528  8.19108575514208 
 8.60000000000000  0.667339494019137  237.514561704682  241.415352014967  14.3919120510249  8.19692182771731 
 8.80000000000000  0.668620684370440  227.441093107169  231.176443575696  13.7505030392962  8.20238509008344 
 9.00000000000000  0.669822786764422  217.996573512729  221.576813532346  13.1492583443329  8.20750622964528 
 9.20000000000000  0.670952058988350  209.130414981540  212.565043130335  12.5849355732023  8.21231287909508 
 9.40000000000000  0.672014164364421  200.796947485680  204.094712294249  12.0546089348314  8.21682996958037 
 9.60000000000000  0.673014236688052  192.954864132430  196.123835740053  11.5556333426729  8.22108003775596 
 9.80000000000000  0.673956937264171  185.566736976673  188.614370835695  11.0856131107308  8.22508349338145 
 10.0000000000000  0.674846505084701  178.598593504591  181.531787129384  10.6423745937531  8.22885885307821 
