-10.0000000000000  0.251571286685306  0.00000000000000  0.251571286685306 
-9.00000000000000  0.247186993463052  0.00000000000000  0.247186993463052 
-8.00000000000000  0.243026292319019  0.00000000000000  0.243026292319019 
-7.00000000000000  0.239079189972504  0.00000000000000  0.239079189972504 
-6.00000000000000  0.235336326818483  0.00000000000000  0.235336326818483 
-5.00000000000000  0.231788939480576  0.00000000000000  0.231788939480576 
-4.00000000000000  0.228428825735373  0.00000000000000  0.228428825735373 
-3.00000000000000  0.225248311711561  0.00000000000000  0.225248311711561 
-2.00000000000000  0.222240221262019  0.00000000000000  0.222240221262019 
-1.00000000000000  0.219397847404543  0.00000000000000  0.219397847404543 
 0.00000000000000  0.216714925726587  0.00000000000000  0.216714925726587 
 1.00000000000000  0.214185609650613  0.00000000000000  0.214185609650613 
 2.00000000000000  0.211804447459257  0.00000000000000  0.211804447459257 
 3.00000000000000  0.209566360982883  0.00000000000000  0.209566360982883 
 4.00000000000000  0.207466625856239  0.00000000000000  0.207466625856239 
 5.00000000000000  0.205500853255420  0.00000000000000  0.205500853255420 
 6.00000000000000  0.203664973031199  0.00000000000000  0.203664973031199 
 7.00000000000000  0.201955218159745  0.00000000000000  0.201955218159745 
 8.00000000000000  0.200368110436833  0.00000000000000  0.200368110436833 
 9.00000000000000  0.198900447346678  0.00000000000000  0.198900447346678 
 10.0000000000000  0.197549290041547  0.00000000000000  0.197549290041547 
