 1.00000000000000  8.55649348260249  0.488460983591434  3.22733753068138  0.279185558652057 
 1.00925288607668  8.55650240555991  0.492980333267191  3.22733920280004  0.281768745472118 
 1.01859138805412  8.55651149440475  0.497541490889539  3.22734090600602  0.284375831834454 
 1.02801629812647  8.55652075222089  0.502144843048320  3.22734264087727  0.287007038811783 
 1.03752841581801  8.55653018214972  0.506790779903200  3.22734440800253  0.289662589520584 
 1.04712854805090  8.55653978739083  0.511479695216759  3.22734620798144  0.292342709139839 
 1.05681750921366  8.55654957120348  0.516211986387342  3.22734804142481  0.295047624930072 
 1.06659612123026  8.55655953690740  0.520988054482773  3.22734990895480  0.297777566252658 
 1.07646521362983  8.55656968788418  0.525808304273822  3.22735181120517  0.300532764589053 
 1.08642562361707  8.55658002757808  0.530673144268454  3.22735374882141  0.303313453560485 
 1.09647819614319  8.55659055949747  0.535582986746074  3.22735572246104  0.306119868947548 
 1.10662378397767  8.55660128721594  0.540538247792275  3.22735773279379  0.308952248710390 
 1.11686324778056  8.55661221437360  0.545539347333680  3.22735978050188  0.311810833008474 
 1.12719745617551  8.55662334467804  0.550586709173300  3.22736186628015  0.314695864221028 
 1.13762728582343  8.55663468190595  0.555680761026300  3.22736399083642  0.317607586967635 
 1.14815362149688  8.55664622990416  0.560821934555514  3.22736615489164  0.320546248128622 
 1.15877735615513  8.55665799259106  0.566010665408254  3.22736835918017  0.323512096866168 
 1.16949939101987  8.55666997395771  0.571247393252482  3.22737060445001  0.326505384645231 
 1.18032063565173  8.55668217806952  0.576532561813958  3.22737289146308  0.329526365254732 
 1.19124200802737  8.55669460906758  0.581866618913280  3.22737522099550  0.332575294829032 
 1.20226443461741  8.55670727116967  0.587250016503610  3.22737759383774  0.335652431869573 
 1.21338885046498  8.55672016867218  0.592683210708800  3.22738001079504  0.338758037266690 
 1.22461619926505  8.55673330595136  0.598166661861091  3.22738247268758  0.341892374321596 
 1.23594743344451  8.55674668746469  0.603700834540413  3.22738498035077  0.345055708768687 
 1.24738351424294  8.55676031775268  0.609286197612855  3.22738753463561  0.348248308797853 
 1.25892541179417  8.55677420144011  0.614923224270076  3.22739013640887  0.351470445077088 
 1.27057410520854  8.55678834323778  0.620612392069259  3.22739278655344  0.354722390775619 
 1.28233058265602  8.55680274794406  0.626354182972694  3.22739548596866  0.358004421586462 
 1.29419584144999  8.55681742044659  0.632149083388580  3.22739823557056  0.361316815750159 
 1.30617088813184  8.55683236572371  0.637997584211445  3.22740103629221  0.364659854077970 
 1.31825673855641  8.55684758884646  0.643900180863439  3.22740388908402  0.368033819975597 
 1.33045441797809  8.55686309498008  0.649857373335800  3.22740679491411  0.371438999467117 
 1.34276496113786  8.55687888938571  0.655869666230662  3.22740975476851  0.374875681219077 
 1.35518941235104  8.55689497742260  0.661937568803323  3.22741276965171  0.378344156564878 
 1.36772882559585  8.55691136454932  0.668061595004875  3.22741584058676  0.381844719529306 
 1.38038426460288  8.55692805632600  0.674242263525048  3.22741896861579  0.385377666853204 
 1.39315680294530  8.55694505841626  0.680480097835873  3.22742215480032  0.388943298018712 
 1.40604752412991  8.55696237658881  0.686775626235136  3.22742540022155  0.392541915274276 
 1.41905752168909  8.55698001671972  0.693129381890792  3.22742870598084  0.396173823660306 
 1.43218789927354  8.55699798479418  0.699541902885319  3.22743207319997  0.399839331034652 
 1.44543977074593  8.55701628690881  0.706013732260767  3.22743550302165  0.403538748098757 
 1.45881426027535  8.55703492927333  0.712545418064190  3.22743899660975  0.407272388423779 
 1.47231250243272  8.55705391821314  0.719137513393157  3.22744255514987  0.411040568476819 
 1.48593564228701  8.55707326017097  0.725790576442205  3.22744617984957  0.414843607647813 
 1.49968483550237  8.55709296170955  0.732505170549161  3.22744987193892  0.418681828276216 
 1.51356124843621  8.55711302951352  0.739281864242311  3.22745363267085  0.422555555678331 
 1.52756605823807  8.55713347039159  0.746121231287734  3.22745746332156  0.426465118174520 
 1.54170045294956  8.55715429127932  0.753023850737058  3.22746136519100  0.430410847116858 
 1.55596563160507  8.55717549924109  0.759990306975928  3.22746533960330  0.434393076917168 
 1.57036280433355  8.55719710147246  0.767021189772482  3.22746938790717  0.438412145074982 
 1.58489319246111  8.55721910530294  0.774117094326468  3.22747351147644  0.442468392205958 
 1.59955802861467  8.55724151819813  0.781278621319002  3.22747771171046  0.446562162070637 
 1.61435855682649  8.55726434776263  0.788506376962332  3.22748199003462  0.450693801603193 
 1.62929603263972  8.55728760174205  0.795800973050286  3.22748634790077  0.454863660940714 
 1.64437172321493  8.55731128802628  0.803163027009268  3.22749078678781  0.459072093452598 
 1.65958690743756  8.55733541465164  0.810593161949506  3.22749530820207  0.463319455770198 
 1.67494287602644  8.55735998980407  0.818092006716914  3.22749991367796  0.467606107816958 
 1.69044093164326  8.55738502182156  0.825660195945200  3.22750460477840  0.471932412838468 
 1.70608238900312  8.55741051919698  0.833298370108510  3.22750938309532  0.476298737432998 
 1.72186857498601  8.55743649058114  0.841007175574767  3.22751425025030  0.480705451582358 
 1.73780082874938  8.55746294478579  0.848787264659338  3.22751920789507  0.485152928683082 
 1.75388050184176  8.55748989078622  0.856639295678795  3.22752425771205  0.489641545577449 
 1.77010895831742  8.55751733772466  0.864563933005764  3.22752940141493  0.494171682585341 
 1.78648757485205  8.55754529491342  0.872561847123903  3.22753464074932  0.498743723536226 
 1.80301774085957  8.55757377183766  0.880633714683501  3.22753997749323  0.503358055801144 
 1.81970085860998  8.55760277815906  0.888780218557174  3.22754541345778  0.508015070325317 
 1.83653834334835  8.55763232371859  0.897002047896908  3.22755095048769  0.512715161661065 
 1.85353162341481  8.55766241854053  0.905299898190549  3.22755659046206  0.517458728000590 
 1.87068214036580  8.55769307283523  0.913674471319521  3.22756233529490  0.522246171209635 
 1.88799134909629  8.55772429700280  0.922126475616868  3.22756818693579  0.527077896861008 
 1.90546071796325  8.55775610163676  0.930656625925645  3.22757414737058  0.531954314268666 
 1.92309172891016  8.55778849752759  0.939265643657850  3.22758021862206  0.536875836521849 
 1.94088587759278  8.55782149566610  0.947954256854156  3.22758640275059  0.541842880519905 
 1.95884467350599  8.55785510724763  0.956723200243819  3.22759270185487  0.546855867007055 
 1.97696964011186  8.55788934367548  0.965573215305166  3.22759911807262  0.551915220607606 
 1.99526231496888  8.55792421656493  0.974505050326743  3.22760565358131  0.557021369861501 
 2.01372424986239  8.55795973774716  0.983519460468930  3.22761231059890  0.562174747260252 
 2.03235701093622  8.55799591927312  0.992617207826043  3.22761909138455  0.567375789283058 
 2.05116217882557  8.55803277341795  1.00179906148893  3.22762599823950  0.572624936433315 
 2.07014134879104  8.55807031268492  1.01106579760826  3.22763303350775  0.577922633275438 
 2.08929613085404  8.55810854980949  1.02041819945831  3.22764019957685  0.583269328472002 
 2.10862814993329  8.55814749776393  1.02985705750113  3.22764749887877  0.588665474821359 
 2.12813904598271  8.55818716976183  1.03938316945138  3.22765493389076  0.594111529295223 
 2.14783047413053  8.55822757926186  1.04899734034191  3.22766250713601  0.599607953077106 
 2.16770410481969  8.55826873997337  1.05870038258934  3.22767022118473  0.605155211600571 
 2.18776162394955  8.55831066586024  1.06849311606110  3.22767807865491  0.610753774588356 
 2.20800473301890  8.55835337114590  1.07837636814197  3.22768608221317  0.616404116091259 
 2.22843514927030  8.55839687031805  1.08835097380208  3.22769423457574  0.622106714527918 
 2.24905460583578  8.55844117813388  1.09841777566484  3.22770253850940  0.627862052724593 
 2.26986485188382  8.55848630962454  1.10857762407614  3.22771099683229  0.633670617955486 
 2.29086765276777  8.55853228010097  1.11883137717325  3.22771961241507  0.639532901983212 
 2.31206479017559  8.55857910515814  1.12917990095511  3.22772838818167  0.645449401099939 
 2.33345806228100  8.55862680068123  1.13962406935261  3.22773732711044  0.651420616168556 
 2.35504928389601  8.55867538285051  1.15016476430007  3.22774643223513  0.657447052664602 
 2.37684028662488  8.55872486814696  1.16080287580661  3.22775570664586  0.663529220717956 
 2.39883291901949  8.55877527335788  1.17153930202871  3.22776515349026  0.669667635155682 
 2.42102904673618  8.55882661558260  1.18237494934298  3.22777477597446  0.675862815544569 
 2.44343055269397  8.55887891223806  1.19331073241982  3.22778457736421  0.682115286234351 
 2.46603933723434  8.55893218106502  1.20434757429752  3.22779456098600  0.688425576401489 
 2.48885731828239  8.55898644013387  1.21548640645709  3.22780473022816  0.694794220092815 
 2.51188643150958  8.55904170785089  1.22672816889735  3.22781508854206  0.701221756270132 
 2.53512863049791  8.55909800296441  1.23807381021127  3.22782563944324  0.707708728854715 
 2.55858588690565  8.55915534457113  1.24952428766249  3.22783638651261  0.714255686772690 
 2.58226019063460  8.55921375212264  1.26108056726243  3.22784733339767  0.720863184000406 
 2.60615354999890  8.55927324543189  1.27274362384839  3.22785848381371  0.727531779610286 
 2.63026799189538  8.55933384468031  1.28451444116184  3.22786984154519  0.734262037817312 
 2.65460556197554  8.55939557042408  1.29639401192781  3.22788141044690  0.741054528025711 
 2.67916832481903  8.55945844360155  1.30838333793434  3.22789319444532  0.747909824875924 
 2.70395836410884  8.55952248554005  1.32048343011340  3.22790519753994  0.754828508292443 
 2.72897778280804  8.55958771796333  1.33269530862153  3.22791742380466  0.761811163531519 
 2.75422870333817  8.55965416299880  1.34502000292186  3.22792987738911  0.768858381229655 
 2.77971326775929  8.55972184318483  1.35745855186647  3.22794256252008  0.775970757452487 
 2.80543363795171  8.55979078147895  1.37001200377918  3.22795548350301  0.783148893743733 
 2.83139199579938  8.55986100126501  1.38268141653975  3.22796864472336  0.790393397175229 
 2.85759054337495  8.55993252636159  1.39546785766782  3.22798205064818  0.797704880396608 
 2.88403150312661  8.56000538102970  1.40837240440822  3.22799570582760  0.805083961686205 
 2.91071711806661  8.56007958998113  1.42139614381664  3.22800961489632  0.812531265001721 
 2.93764965196153  8.56015517838697  1.43454017284590  3.22802378257528  0.820047420031730 
 2.96483138952434  8.56023217188600  1.44780559843321  3.22803821367321  0.827633062247502 
 2.99226463660819  8.56031059659329  1.46119353758782  3.22805291308827  0.835288832955308 
 3.01995172040202  8.56039047910918  1.47470511747951  3.22806788580969  0.843015379349127 
 3.04789498962798  8.56047184652840  1.48834147552761  3.22808313691955  0.850813354563809 
 3.07609681474071  8.56055472644880  1.50210375949096  3.22809867159436  0.858683417728762 
 3.10455958812836  8.56063914698134  1.51599312755829  3.22811449510697  0.866626234022041 
 3.13328572431559  8.56072513675900  1.53001074843953  3.22813061282827  0.874642474724813 
 3.16227766016838  8.56081272494698  1.54415780145754  3.22814703022907  0.882732817276574 
 3.19153785510076  8.56090194125214  1.55843547664093  3.22816375288187  0.890897945330566 
 3.22106879128344  8.56099281593342  1.57284497481704  3.22818078646287  0.899138548809532 
 3.25087297385434  8.56108537981185  1.58738750770634  3.22819813675379  0.907455323962636 
 3.28095293113119  8.56117966428122  1.60206429801662  3.22821580964395  0.915848973421715 
 3.31131121482591  8.56127570131829  1.61687657953896  3.22823381113212  0.924320206259486 
 3.34195040026114  8.56137352349418  1.63182559724341  3.22825214732873  0.932869738046722 
 3.37287308658869  8.56147316398485  1.64691260737594  3.22827082445776  0.941498290910999 
 3.40408189701001  8.56157465658294  1.66213887755604  3.22828984885907  0.950206593595499 
 3.43557947899875  8.56167803570857  1.67750568687485  3.22830922699036  0.958995381518268 
 3.46736850452532  8.56178333642134  1.69301432599442  3.22832896542944  0.967865396832386 
 3.49945167028357  8.56189059443227  1.70866609724680  3.22834907087651  0.976817388485845 
 3.53183169791957  8.56199984611564  1.72446231473516  3.22836955015636  0.985852112282818 
 3.56451133426244  8.56211112852158  1.74040430443422  3.22839041022074  0.994970330944813 
 3.59749335155742  8.56222447938834  1.75649340429258  3.22841165815072  1.00417281417260 
 3.63078054770101  8.56233993715524  1.77273096433508  3.22843330115904  1.01346033870874 
 3.66437574647833  8.56245754097561  1.78911834676610  3.22845534659262  1.02283368840033 
 3.69828179780266  8.56257733073014  1.80565692607330  3.22847780193508  1.03229365426237 
 3.73250157795721  8.56269934704017  1.82234808913284  3.22850067480917  1.04184103454197 
 3.76703798983909  8.56282363128167  1.83919323531438  3.22852397297949  1.05147663478264 
 3.80189396320561  8.56295022559920  1.85619377658742  3.22854770435508  1.06120126788936 
 3.83707245492279  8.56307917291991  1.87335113762798  3.22857187699204  1.07101575419398 
 3.87257644921617  8.56321051696845  1.89066675592651  3.22859649909638  1.08092092152152 
 3.90840895792402  8.56334430228148  1.90814208189593  3.22862157902674  1.09091760525665 
 3.94457302075278  8.56348057422296  1.92577857898079  3.22864712529726  1.10100664841088 
 3.98107170553497  8.56361937899932  1.94357772376677  3.22867314658047  1.11118890169014 
 4.01790810848940  8.56376076367507  1.96154100609152  3.22869965171021  1.12146522356312 
 4.05508535448384  8.56390477618895  1.97966992915551  3.22872664968466  1.13183648033011 
 4.09260659730011  8.56405146536979  1.99796600963405  3.22875414966938  1.14230354619223 
 4.13047501990161  8.56420088095359  2.01643077778979  3.22878216100051  1.15286730332129 
 4.16869383470335  8.56435307359973  2.03506577758596  3.22881069318781  1.16352864193034 
 4.20726628384444  8.56450809490838  2.05387256680073  3.22883975591796  1.17428846034473 
 4.24619563946313  8.56466599743798  2.07285271714138  3.22886935905787  1.18514766507352 
 4.28548520397440  8.56482683472292  2.09200781435999  3.22889951265798  1.19610717088173 
 4.32513831035009  8.56499066129189  2.11133945836945  3.22893022695581  1.20716790086286 
 4.36515832240166  8.56515753268582  2.13084926336032  3.22896151237921  1.21833078651257 
 4.40554863506553  8.56532750547726  2.15053885791812  3.22899337955017  1.22959676780196 
 4.44631267469109  8.56550063728894  2.17040988514152  3.22902583928820  1.24096679325248 
 4.48745389933132  8.56567698681362  2.19046400276141  3.22905890261417  1.25244182001077 
 4.52897579903621  8.56585661383397  2.21070288325993  3.22909258075399  1.26402281392407 
 4.57088189614875  8.56603957924246  2.23112821399084  3.22912688514245  1.27571074961649 
 4.61317574560379  8.56622594506208  2.25174169730054  3.22916182742705  1.28750661056588 
 4.65586093522959  8.56641577446756  2.27254505064914  3.22919741947209  1.29941138918097 
 4.69894108605215  8.56660913180633  2.29354000673272  3.22923367336256  1.31142608687927 
 4.74241985260245  8.56680608262043  2.31472831360622  3.22927060140835  1.32355171416578 
 4.78630092322638  8.56700669366878  2.33611173480670  3.22930821614840  1.33578929071193 
 4.83058802039773  8.56721103294941  2.35769204947715  3.22934653035494  1.34813984543516 
 4.87528490103386  8.56741916972282  2.37947105249145  3.22938555703793  1.36060441657943 
 4.92039535681451  8.56763117453513  2.40145055457941  3.22942530944936  1.37318405179599 
 4.96592321450336  8.56784711924203  2.42363238245239  3.22946580108787  1.38587980822472 
 5.01187233627272  8.56806707703278  2.44601837893015  3.22950704570324  1.39869275257643 
 5.05824662003114  8.56829112245551  2.46861040306736  3.22954905730121  1.41162396121536 
 5.10504999975406  8.56851933144170  2.49141033028140  3.22959185014808  1.42467452024250 
 5.15228644581757  8.56875178133227  2.51442005248053  3.22963543877568  1.43784552557950 
 5.19995996533516  8.56898855090367  2.53764147819216  3.22967983798630  1.45113808305304 
 5.24807460249773  8.56922972039412  2.56107653269244  3.22972506285766  1.46455330848007 
 5.29663443891658  8.56947537153115  2.58472715813570  3.22977112874813  1.47809232775329 
 5.34564359396972  8.56972558755909  2.60859531368446  3.22981805130195  1.49175627692748 
 5.39510622515128  8.56998045326673  2.63268297564066  3.22986584645443  1.50554630230668 
 5.44502652842421  8.57024005501657  2.65699213757616  3.22991453043758  1.51946356053117 
 5.49540873857625  8.57050448077352  2.68152481046483  3.22996411978546  1.53350921866599 
 5.54625712957911  8.57077382013471  2.70628302281425  3.23001463133990  1.54768445428951 
 5.59757601495110  8.57104816435985  2.73126882079824  3.23006608225622  1.56199045558259 
 5.64936974812303  8.57132760640181  2.75648426838991  3.23011849000905  1.57642842141874 
 5.70164272280748  8.57161224093810  2.78193144749464  3.23017187239831  1.59099956145439 
 5.75439937337157  8.57190216440268  2.80761245808405  3.23022624755525  1.60570509622032 
 5.80764417521312  8.57219747501866  2.83352941832954  3.23028163394862  1.62054625721303 
 5.86138164514029  8.57249827283126  2.85968446473690  3.23033805039101  1.63552428698728 
 5.91561634175474  8.57280465974166  2.88607975228076  3.23039551604520  1.65064043924894 
 5.97035286583837  8.57311673954125  2.91271745453952  3.23045405043072  1.66589597894863 
 6.02559586074358  8.57343461794672  2.93959976383042  3.23051367343049  1.68129218237555 
 6.08135001278718  8.57375840263556  2.96672889134497  3.23057440529758  1.69683033725246 
 6.13762005164794  8.57408820328248  2.99410706728451  3.23063626666218  1.71251174283084 
 6.19441075076781  8.57442413159623  3.02173654099598  3.23069927853850  1.72833770998692 
 6.25172692775686  8.57476630135736  3.04961958110794  3.23076346233208  1.74430956131800 
 6.30957344480193  8.57511482845664  3.07775847566612  3.23082883984701  1.76042863123952 
 6.36795520907916  8.57546983093364  3.10615553227034  3.23089543329331  1.77669626608283 
 6.42687717317020  8.57583142901706  3.13481307820991  3.23096326529462  1.79311382419331 
 6.48634433548238  8.57619974516486  3.16373346060061  3.23103235889585  1.80968267602926 
 6.54636174067275  8.57657490410550  3.19291904652035  3.23110273757099  1.82640420426112 
 6.60693448007596  8.57695703288020  3.22237222314543  3.23117442523122  1.84327980387137 
 6.66806769213622  8.57734626088535  3.25209539788728  3.23124744623299  1.86031088225543 
 6.72976656284318  8.57774271991623  3.28209099852757  3.23132182538632  1.87749885932208 
 6.79203632617185  8.57814654421145  3.31236147335486  3.23139758796334  1.89484516759560 
 6.85488226452662  8.57855787049790  3.34290929129997  3.23147475970681  1.91235125231760 
 6.91830970918937  8.57897683803688  3.37373694207144  3.23155336683897  1.93001857154981 
 6.98232404077171  8.57940358867092  3.40484693629100  3.23163343607047  1.94784859627729 
 7.04693068967147  8.57983826687151  3.43624180562821  3.23171499460948  1.96584281051220 
 7.11213513653329  8.58028101978748  3.46792410293517  3.23179807017096  1.98400271139798 
 7.17794291271362  8.58073199729476  3.49989640238082  3.23188269098615  2.00232980931425 
 7.24435960074990  8.58119135204658  3.53216129958437  3.23196888581219  2.02082562798197 
 7.31139083483418  8.58165923952468  3.56472141174896  3.23205668394191  2.03949170456935 
 7.37904230129101  8.58213581809188  3.59757937779382  3.23214611521389  2.05832958979787 
 7.44731973905989  8.58262124904505  3.63073785848686  3.23223721002264  2.07734084804939 
 7.51622894018206  8.58311569666903  3.66419953657602  3.23232999932887  2.09652705747313 
 7.58577575029184  8.58361932829240  3.69796711691963  3.23242451467022  2.11588981009324 
 7.65596606911256  8.58413231434322  3.73204332661701  3.23252078817193  2.13543071191721 
 7.72680585095703  8.58465482840626  3.76643091513725  3.23261885255785  2.15515138304434 
 7.79830110523259  8.58518704728150  3.80113265444739  3.23271874116160  2.17505345777451 
 7.87045789695099  8.58572915104329  3.83615133914009  3.23282048793802  2.19513858471791 
 7.94328234724282  8.58628132310071  3.87148978655977  3.23292412747465  2.21540842690462 
 8.01678063387679  8.58684375025920  3.90715083692785  3.23302969500370  2.23586466189494 
 8.09095899178382  8.58741662278323  3.94313735346677  3.23313722641397  2.25650898188982 
 8.16582371358593  8.58800013446001  3.97945222252293  3.23324675826322  2.27734309384192 
 8.24138115013002  8.58859448266440  4.01609835368850  3.23335832779056  2.29836871956696 
 8.31763771102671  8.58919986842521  4.05307867992114  3.23347197292928  2.31958759585501 
 8.39459986519398  8.58981649649239  4.09039615766316  3.23358773231978  2.34100147458284 
 8.47227414140597  8.59044457540586  4.12805376695855  3.23370564532281  2.36261212282580 
 8.55066712884683  8.59108431756513  4.16605451156858  3.23382575203290  2.38442132297051 
 8.62978547766970  8.59173593930038  4.20440141908582  3.23394809329211  2.40643087282754 
 8.70963589956081  8.59239966094515  4.24309754104637  3.23407271070398  2.42864258574460 
 8.79022516830884  8.59307570690989  4.28214595303967  3.23419964664784  2.45105829071941 
 8.87156012037961  8.59376430575702  4.32154975481723  3.23432894429320  2.47367983251360 
 8.95364765549594  8.59446569027749  4.36131207039872  3.23446064761465  2.49650907176594 
 9.03649473722301  8.59518009756849  4.40143604817596  3.23459480140680  2.51954788510640 
 9.12010839355910  8.59590776911293  4.44192486101469  3.23473145129976  2.54279816526987 
 9.20449571753172  8.59664895085999  4.48278170635402  3.23487064377465  2.56626182121030 
 9.28966386779936  8.59740389330745  4.52400980630336  3.23501242617959  2.58994077821485 
 9.37562006925880  8.59817285158514  4.56561240773677  3.23515684674592  2.61383697801795 
 9.46237161365793  8.59895608554046  4.60759278238449  3.23530395460472  2.63795237891564 
 9.54992586021436  8.59975385982486  4.64995422692200  3.23545379980362  2.66228895587980 
 9.63829023623971  8.60056644398238  4.69270006305541  3.23560643332405  2.68684870067220 
 9.72747223776965  8.60139411253944  4.73583363760495  3.23576190709862  2.71163362195891 
 9.81747943019984  8.60223714509662  4.77935832258388  3.23592027402903  2.73664574542416 
 9.90831944892768  8.60309582642164  4.82327751527530  3.23608158800411  2.76188711388449 
 10.0000000000000  8.60397044654460  4.86759463830461  3.23624590391844  2.78735978740239 
 10.0925288607668  8.60486130085458  4.91231313970890  3.23641327769112  2.81306584340015 
 10.1859138805412  8.60576869019771  4.95743649300250  3.23658376628492  2.83900737677314 
 10.2801629812647  8.60669292097798  5.00296819723841  3.23675742772595  2.86518650000310 
 10.3752841581801  8.60763430525867  5.04891177706605  3.23693432112351  2.89160534327096 
 10.4712854805090  8.60859316086680  5.09527078278433  3.23711450669043  2.91826605456937 
 10.5681750921366  8.60956981149841  5.14204879039112  3.23729804576375  2.94517079981521 
 10.6659612123026  8.61056458682660  5.18924940162727  3.23748500082581  2.97232176296090 
 10.7646521362983  8.61157782261097  5.23687624401677  3.23767543552572  2.99972114610605 
 10.8642562361707  8.61260986080908  5.28493297090187  3.23786941470121  3.02737116960846 
 10.9647819614319  8.61366104969073  5.33342326147246  3.23806700440107  3.05527407219397 
 11.0662378397767  8.61473174395271  5.38235082079167  3.23826827190764  3.08343211106670 
 11.1686324778056  8.61582230483758  5.43171937981426  3.23847328576024  3.11184756201755 
 11.2719745617551  8.61693310025279  5.48153269540139  3.23868211577852  3.14052271953319 
 11.3762728582343  8.61806450489310  5.53179455032804  3.23889483308664  3.16945989690328 
 11.4815362149688  8.61921690036502  5.58250875328517  3.23911151013772  3.19866142632753 
 11.5877735615513  8.62039067531315  5.63367913887576  3.23933222073883  3.22812965902168 
 11.6949939101987  8.62158622554885  5.68530956760418  3.23955704007637  3.25786696532248 
 11.8032063565173  8.62280395418184  5.73740392585906  3.23978604474206  3.28787573479198 
 11.9124200802738  8.62404427175324  5.78996612588940  3.24001931275928  3.31815837632045 
 12.0226443461741  8.62530759637178  5.84300010577370  3.24025692361003  3.34871731822862 
 12.1338885046498  8.62659435385192  5.89650982938163  3.24049895826230  3.37955500836830 
 12.2461619926505  8.62790497785506  5.95049928632815  3.24074549919811  3.41067391422213 
 12.3594743344451  8.62923991003265  6.00497249192007  3.24099663044190  3.44207652300189 
 12.4738351424294  8.63059960017194  6.05993348709480  3.24125243758953  3.47376534174554 
 12.5892541179417  8.63198450634532  6.11538633835002  3.24151300783797  3.50574289741245 
 12.7057410520854  8.63339509506086  6.17133513766576  3.24177843001532  3.53801173697781 
 12.8233058265602  8.63483184141652  6.22778400241721  3.24204879461156  3.57057442752480 
 12.9419584144999  8.63629522925703  6.28473707527849  3.24232419380986  3.60343355633534 
 13.0617088813184  8.63778575133328  6.34219852411734  3.24260472151843  3.63659173097928 
 13.1825673855641  8.63930390946488  6.40017254187958  3.24289047340308  3.67005157940120 
 13.3045441797809  8.64085021470525  6.45866334646467  3.24318154692027  3.70381575000610 
 13.4276496113786  8.64242518751012  6.51767518058995  3.24347804135092  3.73788691174209 
 13.5518941235104  8.64402935790898  6.57721231164476  3.24378005783480  3.77226775418166 
 13.6772882559585  8.64566326567893  6.63727903153429  3.24408769940555  3.80696098760080 
 13.8038426460289  8.64732746052270  6.69787965651153  3.24440107102645  3.84196934305525 
 13.9315680294530  8.64902250224895  6.75901852699781  3.24472027962681  3.87729557245458 
 14.0604752412991  8.65074896095647  6.82070000739182  3.24504543413910  3.91294244863418 
 14.1905752168909  8.65250741722115  6.88292848586629  3.24537664553677  3.94891276542386 
 14.3218789927354  8.65429846228622  6.94570837415278  3.24571402687269  3.98520933771462 
 14.4543977074593  8.65612269825704  7.00904410731141  3.24605769331871  4.02183500152119 
 14.5881426027535  8.65798073829729  7.07294014349123  3.24640776220533  4.05879261404368 
 14.7231250243272  8.65987320683086  7.13740096367250  3.24676435306282  4.09608505372370 
 14.8593564228701  8.66180073974584  7.20243107139870  3.24712758766271  4.13371522029945 
 14.9968483550237  8.66376398460245  7.26803499249205  3.24749759006007  4.17168603485599 
 15.1356124843621  8.66576360084525  7.33421727475471  3.24787448663691  4.21000043987264 
 15.2756605823807  8.66780026001864  7.40098248765520  3.24825840614615  4.24866139926676 
 15.4170045294956  8.66987464598594  7.46833522199900  3.24864947975646  4.28767189843373 
 15.5596563160507  8.67198745515292  7.53628008958286  3.24904784109808  4.32703494428290 
 15.7036280433355  8.67413939669511  7.60482172283290  3.24945362630946  4.36675356526960 
 15.8489319246111  8.67633119278881  7.67396477442644  3.24986697408478  4.40683081142319 
 15.9955802861467  8.67856357884684  7.74371391689492  3.25028802572244  4.44726975437011 
 16.1435855682649  8.68083730375773  7.81407384221085  3.25071692517445  4.48807348735326 
 16.2929603263972  8.68315313012999  7.88504926135489  3.25115381909682  4.52924512524578 
 16.4437172321493  8.68551183453946  7.95664490386617  3.25159885690079  4.57078780456123 
 16.5958690743756  8.68791420778251  8.02886551737124  3.25205219080528  4.61270468345730 
 16.7494287602644  8.69036105513279  8.10171586709443  3.25251397589021  4.65499894173520 
 16.9044093164326  8.69285319660271  8.17520073534853  3.25298437015086  4.69767378083392 
 17.0608238900312  8.69539146720932  8.24932492100378  3.25346353455328  4.74073242381776 
 17.2186857498601  8.69797671724556  8.32409323893627  3.25395163309088  4.78417811535962 
 17.3780082874938  8.70060981255553  8.39951051945420  3.25444883284201  4.82801412171694 
 17.5388050184176  8.70329163481502  8.47558160770236  3.25495530402869  4.87224373070233 
 17.7010895831742  8.70602308181692  8.55231136304349  3.25547122007654  4.91687025164756 
 17.8648757485205  8.70880506776183  8.62970465841604  3.25599675767584  4.96189701536083 
 18.0301774085957  8.71163852355308  8.70776637966913  3.25653209684373  5.00732737407769 
 18.1970085860998  8.71452439709791  8.78650142487152  3.25707742098771  5.05316470140419 
 18.3653834334835  8.71746365361352  8.86591470359629  3.25763291697043  5.09941239225327 
 18.5353162341481  8.72045727593796  8.94601113618068  3.25819877517553  5.14607386277386 
 18.7068214036580  8.72350626484764  9.02679565295757  3.25877518957505  5.19315255027121 
 18.8799134909629  8.72661163937913  9.10827319346312  3.25936235779793  5.24065191312082 
 19.0546071796325  8.72977443715786  9.19044870561365  3.25996048120007  5.28857543067225 
 19.2309172891016  8.73299571473146  9.27332714485728  3.26056976493556  5.33692660314586 
 19.4088587759278  8.73627654790991  9.35691347329507  3.26119041802951  5.38570895151993 
 19.5884467350599  8.73961803211066  9.44121265877433  3.26182265345209  5.43492601740944 
 19.7696964011186  8.74302128271092  9.52622967395031  3.26246668819434  5.48458136293437 
 19.9526231496888  8.74648743540509  9.61196949531876  3.26312274334512  5.53467857057941 
 20.1372424986239  8.75001764656914  9.69843710221657  3.26379104416992  5.58522124304326 
 20.3235701093622  8.75361309363113  9.78563747579047  3.26447182019102  5.63621300307752 
 20.5116217882557  8.75727497544813  9.87357559793318  3.26516530526928  5.68765749331520 
 20.7014134879104  8.76100451268982  9.96225645018695  3.26587173768763  5.73955837608838 
 20.8929613085404  8.76480294822895  10.0516850126119  3.26659136023615  5.79191933323437 
 21.0862814993329  8.76867154753825  10.1418662626212  3.26732442029885  5.84474406589074 
 21.2813904598271  8.77261159909491  10.2328051737793  3.26807116994227  5.89803629427760 
 21.4783047413053  8.77662441479127  10.3245067145664  3.26883186600568  5.95179975746874 
 21.6770410481970  8.78071133035355  10.4169758471034  3.26960677019328  6.00603821314907 
 21.8776162394955  8.78487370576728  10.5102175258420  3.27039614916809  6.06075543735949 
 22.0800473301890  8.78911292571052  10.6042366962151  3.27120027464782  6.11595522422870 
 22.2843514927030  8.79343039999472  10.6990382932488  3.27201942350268  6.17164138569017 
 22.4905460583578  8.79782756401258  10.7946272401352  3.27285387785501  6.22781775118633 
 22.6986485188382  8.80230587919507  10.8910084467642  3.27370392518116  6.28448816735661 
 22.9086765276777  8.80686683347491  10.9881868082150  3.27456985841517  6.34165649771193 
 23.1206479017559  8.81151194175939  11.0861672032055  3.27545197605478  6.39932662229234 
 23.3345806228100  8.81624274641061  11.1849544924995  3.27635058226937  6.45750243731012 
 23.5504928389601  8.82106081773502  11.2845535172698  3.27726598701033  6.51618785477492 
 23.7684028662488  8.82596775448056  11.3849690974189  3.27819850612346  6.57538680210371 
 23.9883291901949  8.83096518434305  11.4862060298546  3.27914846146375  6.63510322171249 
 24.2102904673618  8.83605476448154  11.5882690867189  3.28011618101252  6.69534107059014 
 24.4343055269397  8.84123818204242  11.6911630135727  3.28110199899694  6.75610431985452 
 24.6603933723434  8.84651715469291  11.7948925275327  3.28210625601198  6.81739695428951 
 24.8885731828239  8.85189343116372  11.8994623153612  3.28312929914485  6.87922297186254 
 25.1188643150958  8.85736879180156  12.0048770315075  3.28417148210205  6.94158638322291 
 25.3512863049791  8.86294504913116  12.1111412960998  3.28523316533902  7.00449121117885 
 25.5858588690565  8.86862404842718  12.2182596928893  3.28631471619241  7.06794149015441 
 25.8226019063460  8.87440766829623  12.3262367671418  3.28741650901517  7.13194126562474 
 26.0615354999890  8.88029782126924  12.4350770234802  3.28853892531437  7.19649459352884 
 26.3026799189538  8.88629645440415  12.5447849236741  3.28968235389191  7.26160553966019 
 26.5460556197554  8.89240554989948  12.6553648843777  3.29084719098818  7.32727817903373 
 26.7916832481903  8.89862712571862  12.7668212748144  3.29203384042870  7.39351659522916 
 27.0395836410884  8.90496323622500  12.8791584144089  3.29324271377377  7.46032487970990 
 27.2897778280804  8.91141597282917  12.9923805703629  3.29447423047140  7.52770713111625 
 27.5422870333817  8.91798746464643  13.1064919551794  3.29572881801321  7.59566745453389 
 27.7971326775929  8.92467987916741  13.2214967241275  3.29700691209392  7.66420996073429 
 28.0543363795171  8.93149542293934  13.3373989726550  3.29830895677393  7.73333876538983 
 28.3139199579938  8.93843634226069  13.4542027337418  3.29963540464553  7.80305798825917 
 28.5759054337495  8.94550492388721  13.5719119751987  3.30098671700246  7.87337175234599 
 28.8403150312661  8.95270349575157  13.6905305969063  3.30236336401326  7.94428418302661 
 29.1071711806661  8.96003442769550  13.8100624279970  3.30376582489820  8.01579940714868 
 29.3764965196153  8.96750013221497  13.9305112239795  3.30519458810997  8.08792155209905 
 29.6483138952434  8.97510306521959  14.0518806638025  3.30665015151836  8.16065474483952 
 29.9226463660819  8.98284572680494  14.1741743468605  3.30813302259877  8.23400311091068 
 30.1995172040202  8.99073066203962  14.2973957899394  3.30964371862487  8.30797077340231 
 30.4789498962798  8.99876046176630  14.4215484241023  3.31118276686540  8.38256185189052 
 30.7609681474071  9.00693776341786  14.5466355915148  3.31275070478522  8.45778046133876 
 31.0455958812836  9.01526525184782  14.6726605422102  3.31434808025075  8.53363071096475 
 31.3328572431559  9.02374566017712  14.7996264307926  3.31597545173986  8.61011670306954 
 31.6227766016838  9.03238177065553  14.9275363130814  3.31763338855635  8.68724253183028 
 31.9153785510076  9.04117641554008  15.0563931426911  3.31932247104924  8.76501228205355 
 32.2106879128344  9.05013247798875  15.1861997675546  3.32104329083662  8.84343002789124 
 32.5087297385434  9.05925289297224  15.3169589263796  3.32279645103477  8.92249983151402 
 32.8095293113119  9.06854064820167  15.4486732450488  3.32458256649207  9.00222574174589 
 33.1131121482591  9.07799878507483  15.5813452329546  3.32640226402834  9.08261179265500 
 33.4195040026114  9.08763039963951  15.7149772792756  3.32825618267928  9.16366200210292 
 33.7287308658869  9.09743864357602  15.8495716491900  3.33014497394658  9.24538037024877 
 34.0408189701001  9.10742672519816  15.9851304800284  3.33206930205354  9.32777087800872 
 34.3557947899875  9.11759791047323  16.1216557773673  3.33402984420640  9.41083748547007 
 34.6736850452532  9.12795552406258  16.2591494110592  3.33602729086174  9.49458413025672 
 34.9945167028357  9.13850295038164  16.3976131112058  3.33806234599973  9.57901472584836 
 35.3183169791957  9.14924363468141  16.5370484640687  3.34013572740384  9.66413315984870 
 35.6451133426244  9.16018108415047  16.6774569079231  3.34224816694666  9.74994329220492 
 35.9749335155742  9.17131886903989  16.8188397288507  3.34440041088256  9.83644895337408 
 36.3078054770101  9.18266062380968  16.9611980564761  3.34659322014688  9.92365394243827 
 36.6437574647833  9.19421004829887  17.1045328596441  3.34882737066221  10.0115620251650 
 36.9828179780266  9.20597090891872  17.2488449420425  3.35110365365151  10.1001769320139 
 37.3250157795721  9.21794703987078  17.3941349377661  3.35342287595889  10.1895023560857 
 37.6703798983909  9.23014234438962  17.5404033068272  3.35578586037757  10.2795419510152 
 38.0189396320561  9.24256079601114  17.6876503306123  3.35819344598575  10.3702993288053 
 38.3707245492279  9.25520643986744  17.8358761072840  3.36064648849033  10.4617780576009 
 38.7257644921617  9.26808339400894  17.9850805471315  3.36314586057879  10.5539816594019 
 39.0840895792402  9.28119585075384  18.1352633678712  3.36569245227940  10.6469136077146 
 39.4457302075278  9.29454807806680  18.2864240898959  3.36828717133013  10.7405773251386 
 39.8107170553497  9.30814442096731  18.4385620314761  3.37093094355638  10.8349761808886 
 40.1790810848940  9.32198930296790  18.5916763039140  3.37362471325778  10.9301134882509 
 40.5508535448384  9.33608722754423  18.7457658066529  3.37636944360446  11.0259925019713 
 40.9260659730011  9.35044277963710  18.9008292223410  3.37916611704287  11.1226164155748 
 41.3047501990162  9.36506062718811  19.0568650118541  3.38201573571160  11.2199883586139 
 41.6869383470335  9.37994552270937  19.2138714092758  3.38491932186744  11.3181113938461 
 42.0726628384444  9.39510230488890  19.3718464168399  3.38787791832190  11.4169885143374 
 42.4619563946313  9.41053590023190  19.5307877998365  3.39089258888857  11.5166226404918 
 42.8548520397440  9.42625132474080  19.6906930814793  3.39396441884177  11.6170166170036 
 43.2513831035009  9.44225368563300  19.8515595377439  3.39709451538654  11.7181732097333 
 43.6515832240166  9.45854818309983  20.0133841921715  3.40028400814061  11.8200951025031 
 44.0554863506554  9.47514011210639  20.1761638106447  3.40353404962851  11.9227848938126 
 44.4631267469109  9.49203486423439  20.3398948961369  3.40684581578829  12.0262450934717 
 44.8745389933132  9.50923792956952  20.5045736834361  3.41022050649126  12.1304781191502 
 45.2897579903621  9.52675489863450  20.6701961338463  3.41365934607507  12.2354862928414 
 45.7088189614875  9.54459146436952  20.8367579298695  3.41716358389060  12.3412718372384 
 46.1317574560380  9.56275342416184  21.0042544698700  3.42073449486313  12.4478368720235 
 46.5586093522959  9.58124668192595  21.1726808627232  3.42437338006818  12.5551834100649 
 46.9894108605215  9.60007725023660  21.3420319224523  3.42808156732250  12.6633133535226 
 47.4241985260245  9.61925125251591  21.5123021628549  3.43186041179077  12.7722284898612 
 47.8630092322639  9.63877492527687  21.6834857921228  3.43571129660837  12.8819304877654 
 48.3058802039773  9.65865462042545  21.8555767074566  3.43963563352097  12.9924208929605 
 48.7528490103386  9.67889680762294  22.0285684896789  3.44363486354119  13.1037011239323 
 49.2039535681451  9.69950807671131  22.2024543978479  3.44771045762328  13.2157724675466 
 49.6592321450336  9.72049514020336  22.3772273638740  3.45186391735601  13.3286360745660 
 50.1187233627272  9.74186483584029  22.5528799871454  3.45609677567466  13.4422929550635 
 50.5824662003114  9.76362412921958  22.7294045291591  3.46041059759272  13.5567439737272 
 51.0504999975406  9.78578011649501  22.9067929081669  3.46480698095381  13.6719898450592 
 51.5228644581757  9.80834002715258  23.0850366938343  3.46928755720471  13.7880311284626 
 51.9995996533516  9.83131122686416  23.2641271019174  3.47385399219008  13.9048682232173 
 52.4807460249773  9.85470122042311  23.4440549889584  3.47850798696983  14.0225013633399 
 52.9663443891658  9.87851765476321  23.6248108470076  3.48325127865946  14.1409306123301 
 53.4564359396972  9.90276832206674  23.8063847983654  3.48808564129492  14.2601558577951 
 53.9510622515128  9.92746116296224  23.9887665903570  3.49301288672202  14.3801768059567 
 54.4502652842421  9.95260426981819  24.1719455901340  3.49803486551206  14.5009929760328 
 54.9540873857625  9.97820589013446  24.3559107795104  3.50315346790392  14.6226036944962 
 55.4625712957911  10.0042744300363  24.5406507498337  3.50837062477409  14.7450080892043 
 55.9757601495110  10.0308184578754  24.7261536968916  3.51368830863535  14.8682050834002 
 56.4936974812303  10.0578467079407  24.9124074158599  3.51910853466528  14.9921933895810 
 57.0164272280747  10.0853680842854  25.0993992962900  3.52463336176565  15.1169715032322 
 57.5439937337157  10.1133916646743  25.2871163171381  3.53026489365391  15.2425376964235 
 58.0764417521312  10.1419267046542  25.4755450418442  3.53600527998773  15.3688900112682 
 58.6138164514029  10.1709826417566  25.6646716134486  3.54185671752426  15.4960262532351 
 59.1561634175474  10.2005690998346  25.8544817497626  3.54782145131498  15.6239439843203 
 59.7035286583837  10.2306958935406  26.0449607385828  3.55390177593780  15.7526405160679 
 60.2559586074358  10.2613730329519  26.2360934329552  3.56010003676766  15.8821129024399 
 60.8135001278718  10.2926107283485  26.4278642464885  3.56641863128723  16.0123579325340 
 61.3762005164794  10.3244193951506  26.6202571487171  3.57286001043908  16.1433721231417 
 61.9441075076782  10.3568096590229  26.8132556605100  3.57942668002133  16.2751517111474 
 62.5172692775686  10.3897923611512  27.0068428495324  3.58612120212792  16.4076926457635 
 63.0957344480194  10.4233785637005  27.2010013257513  3.59294619663579  16.5409905805972 
 63.6795520907916  10.4575795554609  27.3957132369893  3.59990434274051  16.6750408655470 
 64.2687717317020  10.4924068576904  27.5909602645226  3.60699838054244  16.8098385385239 
 64.8634433548238  10.5278722301626  27.7867236187217  3.61423111268543  16.9453783169935 
 65.4636174067275  10.5639876774273  27.9829840347322  3.62160540605011  17.0816545893351 
 66.0693448007596  10.6007654552959  28.1797217681922  3.62912419350418  17.2186614060122 
 66.6806769213622  10.6382180775580  28.3769165909850  3.63679047571186  17.3563924705529 
 67.2976656284318  10.6763583229419  28.5745477870189  3.64460732300504  17.4948411303304 
 67.9203632617184  10.7151992423279  28.7725941480356  3.65257787731856  17.6340003671443 
 68.5488226452662  10.7547541662280  28.9710339694349  3.66070535419266  17.7738627875918 
 69.1830970918937  10.7950367125404  29.1698450461159  3.66899304484490  17.9144206132273 
 69.8232404077172  10.8360607945939  29.3690046683245  3.67744431831499  18.0556656705028 
 70.4693068967147  10.8778406294939  29.5684896175045  3.68606262368520  18.1975893804831 
 71.1213513653329  10.9203907467837  29.7682761621352  3.69485149238016  18.3401827483275 
 71.7794291271362  10.9637259974345  29.9683400535612  3.70381454054873  18.4834363525361 
 72.4435960074990  11.0078615631812  30.1686565217901  3.71295547153220  18.6273403339461 
 73.1139083483418  11.0528129662165  30.3692002712587  3.72227807842214  18.7718843844766 
 73.7904230129101  11.0985960792620  30.5699454765503  3.73178624671214  18.9170577356101 
 74.4731973905989  11.1452271360331  30.7708657780566  3.74148395704725  19.0628491466037 
 75.1622894018206  11.1927227421144  30.9719342775637  3.75137528807594  19.2092468924190 
 75.8577575029184  11.2410998862663  31.1731235337560  3.76146441940864  19.3562387513627 
 76.5596606911256  11.2903759521817  31.3744055576193  3.77175563468815  19.5038119924263 
 77.2680585095702  11.3405687307134  31.5757518077257  3.78225332477661  19.6519533623143 
 77.9830110523259  11.3916964325954  31.7771331853866  3.79296199106462  19.8006490721485 
 78.7045789695099  11.4437777016800  31.9785200296516  3.80388624890795  19.9498847838357 
 79.4328234724282  11.4968316287151  32.1798821121385  3.81503083119780  20.0996455960877 
 80.1678063387680  11.5508777656882  32.3811886316686  3.82640059207079  20.2499160300762 
 80.9095899178382  11.6059361407625  32.5824082086866  3.83800051076525  20.4006800147085 
 81.6582371358592  11.6620272738343  32.7835088794446  3.84983569563064  20.5519208715100 
 82.4138115013002  11.7191721927415  32.9844580899184  3.86191138829745  20.7036212990923 
 83.1763771102671  11.7773924501537  33.1852226894378  3.87423296801495  20.8557633571933 
 83.9459986519398  11.8367101411774  33.3857689239939  3.88680595616525  21.0083284502650 
 84.7227414140597  11.8971479217110  33.5860624291997  3.89963602096180  21.1612973105922 
 85.5066712884684  11.9587290275857  33.7860682228704  3.91272898234143  21.3146499809175 
 86.2978547766970  12.0214772945320  33.9857506971867  3.92609081705942  21.4683657965494 
 87.0963589956081  12.0854171790105  34.1850736104113  3.93972766399739  21.6224233669296 
 87.9022516830885  12.1505737799518  34.3840000781152  3.95364582969471  21.7768005566304 
 88.7156012037961  12.2169728614494  34.5824925638762  3.96785179411449  21.9314744657543 
 89.5364765549594  12.2846408764539  34.7805128694106  3.98235221665567  22.0864214097073 
 90.3649473722302  12.3536049915187  34.9780221240859  3.99715394242407  22.2416168983086 
 91.2010839355910  12.4238931126504  35.1749807737771  4.01226400877484  22.3970356142068 
 92.0449571753171  12.4955339123202  35.3713485690068  4.02768965214085  22.5526513905604 
 92.8966386779936  12.5685568576954  35.5670845523253  4.04343831516110  22.7084371879464 
 93.7562006925881  12.6429922401536  35.7621470448715  4.05951765412491  22.8643650704542 
 94.6237161365793  12.7188712061471  35.9564936320538  4.07593554674828  23.0204061809163 
 95.4992586021437  12.7962257894860  36.1500811482931  4.09270010029960  23.1765307152295 
 96.3829023623970  12.8750889451159  36.3428656607611  4.10981966009332  23.3327078957158 
 97.2747223776965  12.9554945844678  36.5348024520430  4.12730281837077  23.4889059434641 
 98.1747943019985  13.0374776124639  36.7258460016566  4.14515842358887  23.6450920495978 
 99.0831944892768  13.1210739662677  36.9159499663414  4.16339559013874  23.8012323453994 
 100.000000000000  13.2063206558717  37.1050671590473  4.18202370851699  23.9572918712299 
 100.925288607669  13.2932558066218  37.2931495265290  4.20105245597462  24.1132345441681 
 101.859138805412  13.3819187037845  37.4801481254544  4.22049180766945  24.2690231242900 
 102.801629812647  13.4723498392668  37.6660130969375  4.24035204834972  24.4246191795117 
 103.752841581801  13.5645909606092  37.8506936393823  4.26064378459832  24.5799830488983 
 104.712854805090  13.6586851223762  38.0341379795392  4.28137795766884  24.7350738043540 
 105.681750921366  13.7546767400789  38.2162933416544  4.30256585694653  24.8898492105839 
 106.659612123026  13.8526116467710  38.3971059145861  4.32421913406960  25.0442656832216 
 107.646521362984  13.9525371524701  38.5765208167666  4.34634981774805  25.1982782450085 
 108.642562361707  14.0545021065644  38.7544820588644  4.36897032932029  25.3518404798966 
 109.647819614319  14.1585569633754  38.9309325040054  4.39209349908957  25.5049044849436 
 110.662378397767  14.2647538510597  39.1058138253932  4.41573258348569  25.6574208198571 
 111.686324778056  14.3731466440420  39.2790664611664  4.43990128309997  25.8093384540336 
 112.719745617551  14.4837910391882  39.4506295663133  4.46461376164480  25.9606047109288 
 113.762728582343  14.5967446359356  39.6204409614607  4.48988466589216  26.1111652095849 
 114.815362149688  14.7120670206170  39.7884370783289  4.51572914664974  26.2609638031205 
 115.877735615513  14.8298198552285  39.9545529016475  4.54216288083639  26.4099425139873 
 116.949939101987  14.9500669709071  40.1187219072965  4.56920209472336  26.5580414657696 
 118.032063565173  15.0728744664040  40.2808759964343  4.59686358841200  26.7051988112978 
 119.124200802738  15.1983108118579  40.4409454253478  4.62516476162352  26.8513506568210 
 120.226443461741  15.3264469581929  40.5988587307478  4.65412364088135  26.9964309819714 
 121.338885046498  15.4573564524896  40.7545426502083  4.68375890817259  27.1403715552274 
 122.461619926505  15.5911155597001  40.9079220374341  4.71408993118030  27.2831018445673 
 123.594743344451  15.7278033911046  41.0589197720050  4.74513679518572  27.4245489229719 
 124.738351424294  15.8675020399362  41.2074566632392  4.77692033674533  27.5646373684215 
 125.892541179417  16.0102967246270  41.3534513477680  4.80946217925613  27.7032891579903 
 127.057410520854  16.1562759401655  41.4968201804052  4.84278477052955  27.8404235556236 
 128.233058265602  16.3055316180867  41.6374771178480  4.87691142250371  27.9759569931426 
 129.419584144999  16.4581592956550  41.7753335947208  4.91186635323246  28.1098029439895 
 130.617088813184  16.6142582948393  41.9102983914253  4.94767473129992  28.2418717891846 
 131.825673855641  16.7739319117274  42.0422774932293  4.98436272281996  28.3720706749263 
 133.045441797809  16.9372876170652  42.1711739399779  5.02195754119098  28.5003033612229 
 134.276496113786  17.1044372686673  42.2968876657523  5.06048749979000  28.6264700608825 
 135.518941235104  17.2754973364913  42.4193153277632  5.09998206780222  28.7504672681497 
 136.772882559585  17.4505891412327  42.5383501236988  5.14047192939730  28.8721875762087 
 138.038426460288  17.6298391073559  42.6538815966815  5.18198904647922  28.9915194827055 
 139.315680294530  17.8133790315505  42.7657954269199  5.22456672525291  29.1083471823793 
 140.604752412991  18.0013463676710  42.8739732090706  5.26823968686938  29.2225503458102 
 141.905752168909  18.1938845292998  42.9782922142323  5.31304414243009  29.3340038832077 
 143.218789927354  18.3911432111586  43.0786251354097  5.35901787265256  29.4425776920723 
 144.543977074593  18.5932787306858  43.1748398151818  5.40620031252153  29.5481363874616 
 145.881426027535  18.8004543911951  43.2667989541962  5.45463264127435  29.6505390134798 
 147.231250243272  19.0128408681407  43.3543597989979  5.50435787809532  29.7496387344905 
 148.593564228701  19.2306166201243  43.4373738075593  5.55542098392131  29.8452825044182 
 149.968483550237  19.4539683264093  43.5156862907431  5.60786896979200  29.9373107123602 
 151.356124843621  19.6830913528327  43.5891360277528  5.66175101220880  30.0255568025601 
 152.756605823807  19.9181902481541  43.6575548534751  5.71711857600254  30.1098468666362 
 154.170045294956  20.1594792730283  43.7207672153963  5.77402554524555  30.1899992057430 
 155.596563160507  20.4071829639535  43.7785896975852  5.83252836278388  30.2658238601461 
 157.036280433355  20.6615367347206  43.8308305089851  5.89268617900703  30.3371221034456 
 158.489319246111  20.9227875180706  43.8772889330037  5.95456101051641  30.4036858984283 
 159.955802861467  21.1911944504679  43.9177547351072  6.01821790940178  30.4652973112431 
 161.435855682649  21.4670296030993  43.9520075248062  6.08372514388323  30.5217278802771 
 162.929603263972  21.7505787624292  43.9798160680701  6.15115439112891  30.5727379357591 
 164.437172321493  22.0421422638693  44.0009375458309  6.22058094311254  30.6180758657394 
 165.958690743756  22.3420358823558  44.0151167538073  6.29208392643022  30.6574773236646 
 167.494287602644  22.6505917838740  44.0220852384092  6.36574653705418  30.6906643722971 
 169.044093164326  22.9681595422187  44.0215603629757  6.44165629105822  30.7173445582170 
 170.608238900312  23.2951072255279  44.0132442980094  6.51990529240773  30.7372099105609 
 172.186857498601  23.6318225573782  43.9968229284544  6.60059051896365  30.7499358570272 
 173.780082874938  23.9787141574666  43.9719646703543  6.68381412790246  30.7551800494741 
 175.388050184176  24.3362128671276  43.9383191884561  6.76968378180284  30.7525810906633 
 177.010895831742  24.7047731651254  43.8955160054717  6.85831299668908  30.7417571528443 
 178.648757485205  25.0848746793176  43.8431629927610  6.94982151335023  30.7223044779338 
 180.301774085957  25.4770237998807  43.7808447311744  7.04433569326634  30.6937957480095 
 181.970085860998  25.8817553997978  43.7081207296127  7.14198894046306  30.6557783136674 
 183.653834334835  26.2996346682182  43.6245234876301  7.24292215057761  30.6077722665501 
 185.353162341481  26.7312590620551  43.5295563869977  7.34728418834138  30.5492683409527 
 187.068214036580  27.1772603807505  43.4226913956239  7.45523239455588  30.4797256278858 
 188.799134909629  27.6383069684610  43.3033665655476  7.56693312344570  30.3985690833010 
 190.546071796325  28.1151060469052  43.1709833049207  7.68256231099417  30.3051868103778 
 192.309172891016  28.6084061806953  43.0249034018853  7.80230607448140  30.1989270937670 
 194.088587759278  29.1189998750222  42.8644457761358  7.92636134292119  30.0790951615647 
 195.884467350599  29.6477263029307  42.6888829316378  8.05493651739511  29.9449496484757 
 197.696964011186  30.1954741559306  42.4974370815239  8.18825215936239  29.7956987311755 
 199.526231496888  30.7631846071075  42.2892759136081  8.32654170382469  29.6304959042947 
 201.372424986239  31.3518543699351  42.0635079622594  8.47005219267332  29.4484353627585 
 203.235701093622  31.9625388282944  41.8191775496250  8.61904502155033  29.2485469534558 
 205.116217882557  32.5963552033182  41.5552592564715  8.77379669100224  29.0297906564945 
 207.014134879104  33.2544857100594  41.2706518802926  8.93459954945591  28.7910505536803 
 208.929613085404  33.9381806408984  40.9641718359933  9.10176251142009  28.5311282395163 
 210.862814993329  34.6487612922504  40.6345459525976  9.27561172910530  28.2487356281588 
 212.813904598271  35.3876226253805  40.2804036183424  9.45649118908063  27.9424871086815 
 214.783047413053  36.1562355197222  39.9002682265538  9.64476319733037  27.6108910010319 
 216.770410481970  36.9561484363661  39.4925478764763  9.84080870572141  27.2523402668429 
 218.776162394955  37.7889882584155  39.0555252873118  10.0450274199645  26.8651024333420 
 220.800473301890  38.6564600112741  38.5873468912023  10.2578376130468  26.4473086960875 
 222.843514927030  39.5603450868295  38.0860110828695  10.4796755481282  25.9969421782295 
 224.905460583578  40.5024974974994  37.5493556217876  10.7109943901888  25.5118253421698 
 226.986485188382  41.4848375653514  36.9750442092357  10.9522624553267  24.9896065759524 
 229.086765276777  42.5093423034657  36.3605523000048  11.2039606094333  24.4277460141553 
 231.206479017560  43.5780315665557  35.7031522604924  11.4665785828331  23.8235007050080 
 233.345806228100  44.6929488304460  34.9998980558216  11.7406099131264  23.1739093063639 
 235.504928389601  45.8561352005335  34.2476097439654  12.0265451637854  22.4757765885018 
 237.684028662488  47.0695949440321  33.4428581816442  12.3248629901606  21.7256581485184 
 239.883291901949  48.3352504882056  32.5819505131851  12.6360185372293  20.9198459074932 
 242.102904673618  49.6548844300073  31.6609172295063  12.9604285556041  20.0543551775860 
 244.343055269397  51.0300656721586  30.6755018610031  13.2984525168804  19.1249143628364 
 246.603933723434  52.4620563596449  29.6211547174402  13.6503689023686  18.1269587067657 
 248.885731828239  53.9516958804865  28.4930325215537  14.0163457414017  17.0556299334805 
 251.188643150958  55.4992578847681  27.2860063103640  14.3964044044919  15.9057841562771 
 253.512863049791  57.1042761746366  25.9946806025255  14.7903756402476  14.6720110520658 
 255.858588690565  58.7653355862903  24.6134275433729  15.1978469239053  13.3486680132752 
 258.226019063460  60.4798248506182  23.1364405138160  15.6181004169906  11.9299337633848 
 260.615354999890  62.2436501877728  21.5578124657222  16.0500412985994  10.4098866987214 
 263.026799189538  64.0509114466952  19.8716449190600  16.4921170148236  8.78261389179377 
 265.460556197554  65.8935473845323  18.0721939551076  16.9422292129396  7.04235709046630 
 267.916832481903  67.7609636279238  16.1540594141707  17.3976418871173  5.18370192141474 
 270.395836410884  69.6396662703493  14.1124225136096  17.8548916331862  3.20181551366510 
 272.897778280804  71.5129358903902  11.9433348188403  18.3097088720295  1.09273547487821 
 275.422870333817  73.3605903170905  9.64405746740200  18.7569622668037 -1.14629087952604 
 277.971326775929  75.1588979707237  7.21344337371411  19.1906418779091 -3.51642431678204 
 280.543363795171  76.8807139360623  4.65234668704908  19.6038990749451 -6.01682422420225 
 283.139199579938  78.4959134712876  1.96403339402273  19.9891616962024 -8.64423800230850 
 285.759054337495  79.9721868138417 -0.845444216665246  20.3383400158948 -11.3926265959367 
 288.403150312661  81.2762296869475 -3.76695637129701  20.6431314639965 -14.2528733073701 
 291.071711806661  82.3753133554026 -6.78814059827177  20.8954191720542 -17.2126285797624 
 293.764965196153  83.2391495969453 -9.89343301202362  21.0877421560064 -20.2563412775610 
 296.483138952434  83.8418905679692 -13.0643240296871  21.2137961299938 -23.3655143998941 
 299.226463660819  84.1640398017748 -16.2798527616395  21.2689082705905 -26.5191994680475 
 301.995172040202  84.1940202824886 -19.5173220696796  21.2504221710237 -29.6947115807878 
 304.789498962798  83.9291658178401 -22.7531814899980  21.1579349447134 -32.8685123346845 
 307.609681474071  83.3759766694669 -25.9639960638336  20.9933477767002 -36.0171786523219 
 310.455958812836  82.5495956512915 -29.1274033948907  20.7607205173211 -39.1183598374718 
 313.328572431559  81.4725879556120 -32.2229634380615  20.4659528459924 -42.1516273617694 
 316.227766016838  80.1732135457421 -35.2328249856687  20.1163407440871 -45.0991413491005 
 319.153785510076  78.6834398261214 -38.1421640700820  19.7200712635398 -47.9460889765544 
 322.106879128344  77.0369457920615 -40.9393843887057  19.2857188403452 -50.6808848979297 
 325.087297385435  75.2673255623921 -43.6161005085779  18.8217949911580 -53.2951544470360 
 328.095293113119  73.4066287336038 -46.1669457795246  18.3363851766295 -55.7835415497248 
 331.131121482591  71.4842991163767 -48.5892568545872  17.8368874097182 -58.1433932433671 
 334.195040026114  69.5265088797764 -50.8826867681132  17.3298510089634 -60.3743727541623 
 337.287308658869  67.5558405899135 -53.0487916542796  16.8209028575558 -62.4780462150428 
 340.408189701001  65.5912462559467 -55.0906257754153  16.3147428565638 -64.4574776935371 
 343.557947899875  63.6482065889779 -57.0123683907220  15.8151889746215 -66.3168560601845 
 346.736850452532  61.7390195674673 -58.8189960002027  15.3252539414127 -68.0611672323086 
 349.945167028358  59.8731595700950 -60.5160055731532  14.8472388105477 -69.6959174024973 
 353.183169791957  58.0576625234148 -62.1091887287409  14.3828322594477 -71.2269072193110 
 356.451133426244  56.2975059870653 -63.6044532565071  13.9332079212947 -72.6600533080500 
 359.749335155742  54.5959644597560 -65.0076864272638  13.4991149139804 -74.0012515820469 
 363.078054770102  52.9549289744767 -66.3246537922984  13.0809589368506 -75.2562760423922 
 366.437574647833  51.3751863674151 -67.5609271942346  12.6788728818594 -76.4307067894396 
 369.828179780266  49.8566578327750 -68.7218361958321  12.2927769524807 -77.5298814523638 
 373.250157795721  48.3985989801030 -69.8124378428035  11.9224289215896 -78.5588649528500 
 376.703798983909  46.9997650342657 -70.8375004602626  11.5674655016539 -79.5224333025213 
 380.189396320561  45.6585454323332 -71.8014979464268  11.2274359412605 -80.4250678977220 
 383.707245492279  44.3730721643211 -72.7086117211375  10.9018289739273 -81.2709574692188 
 387.257644921617  43.1413059859012 -73.5627380883993  10.5900941810244 -82.0640054460136 
 390.840895792402  41.9611042463366 -74.3674992766776  10.2916587267750 -82.8078409970035 
 394.457302075279  40.8302736198597 -75.1262568335006  10.0059403035077 -83.5058324270315 
 398.107170553497  39.7466105631891 -75.8421263819453  9.73235700427221 -84.1611019349005 
 401.790810848940  38.7079318805579 -76.5179930078528  9.47033472604352 -84.7765410021930 
 405.508535448384  37.7120973783926 -77.1565267499179  9.21931260426606 -85.3548258850385 
 409.260659730011  36.7570262418263 -77.7601978210747  8.97874689004441 -85.8984328372435 
 413.047501990162  35.8407084653608 -78.3312913082223  8.74811360489883 -86.4096528118260 
 416.869383470336  34.9612124172550 -78.8719211863931  8.52691024381406 -86.8906054770537 
 420.726628384444  34.1166894069374 -79.3840435494034  8.31465674404121 -87.3432524490190 
 424.619563946313  33.3053759515264 -79.8694690072210  8.11089589333855 -87.7694096909851 
 428.548520397440  32.5255942959616 -80.3298742348335  7.91519331563910 -88.1707590642802 
 432.513831035009  31.7757516263169 -80.7668126816860  7.72713714321678 -88.5488590398079 
 436.515832240166  31.0543383230187 -81.1817244672963  7.54633746111445 -88.9051545957747 
 440.554863506554  30.3599255260669 -81.5759454994534  7.37242559090279 -89.2409863380413 
 444.631267469109  29.6911622245824 -81.9507158579531  7.20505326589986 -89.5575988860445 
 448.745389933132  29.0467720353209 -82.3071874903323  7.04389173808904 -89.8561485707498 
 452.897579903621  28.4255497968666 -82.6464312673277  6.88863084753961 -90.1377104923578 
 457.088189614875  27.8263580761576 -82.9694434455475  6.73897807767434 -90.4032849852484 
 461.317574560380  27.2481236602462 -83.2771515835306  6.59465761385305 -90.6538035363357 
 465.586093522959  26.6898340874950 -83.5704199553641  6.45540941812754 -90.8901342010006 
 469.894108605216  26.1505342577513 -83.8500545036243  6.32098832942015 -91.1130865583646 
 474.241985260245  25.6293231495836 -84.1168073707390  6.19116319557222 -91.3234162449989 
 478.630092322638  25.1253506637730 -84.3713810451370  6.06571604154096 -91.5218291034331 
 483.058802039773  24.6378146053782 -84.6144321558012  5.94444127635675 -91.7089849790766 
 487.528490103387  24.1659578114257 -84.8465749461803  5.82714494018258 -91.8855011965060 
 492.039535681451  23.7090654272785 -85.0683844558422  5.71364399186144 -92.0519557434985 
 496.592321450336  23.2664623317304 -85.2803994358459  5.60376563662514 -92.2088901887879 
 501.187233627273  22.8375107086546 -85.4831250215383  5.49734669311809 -92.3568123572438 
 505.824662003114  22.4216077614260 -85.6770351843774  5.39423299852034 -92.4961987840782 
 510.504999975406  22.0181835652065 -85.8625749824407  5.29427885029906 -92.6274969677323 
 515.228644581757  21.6266990514221 -86.0401626274956  5.19734648295401 -92.7511274393211 
 519.995996533516  21.2466441182850 -86.2101913848657  5.10330557802594 -92.8674856648665 
 524.807460249773  20.8775358609542 -86.3730313208401  5.01203280559302 -92.9769437950648 
 529.663443891658  20.5189169148380 -86.5290309110058  4.92341139547569 -93.0798522759677 
 534.564359396972  20.1703539055690 -86.6785185216529  4.83733073639347 -93.1765413327240 
 539.510622515128  19.8314359993051 -86.8218037752772  4.75368600136295 -93.2673223374059 
 544.502652842421  19.5017735471939 -86.9591788101811  4.67237779768457 -93.3524890709186 
 549.540873857625  19.1809968180708 -87.0909194432637  4.59331183993562 -93.4323188880847 
 554.625712957911  18.8687548137180 -87.2172862442426  4.51639864446221 -93.5070737941419 
 559.757601495111  18.5647141612958 -87.3385255288036  4.44155324394173 -93.5770014401516 
 564.936974812303  18.2685580778384 -87.4548702774860  4.36869492066728 -93.6423360441237 
 570.164272280748  17.9799854020018 -87.5665409864951  4.29774695728550 -93.7032992440484 
 575.439937337157  17.6987096885342 -87.6737464560710  4.22863640379705 -93.7601008884638 
 580.764417521312  17.4244583612213 -87.7766845215394  4.16129385970527 -93.8129397696826 
 586.138164514029  17.1569719203297 -87.8755427317128  4.09565327027111 -93.8620043043475 
 591.561634175474  16.8960032008300 -87.9704989788908  4.03165173590224 -93.9074731655621 
 597.035286583837  16.6413166779309 -88.0617220843375  3.96922933377024 -93.9495158704738 
 602.559586074358  16.3926878166897 -88.1493723427720  3.90832895081246 -93.9882933268467 
 608.135001278718  16.1499024626857 -88.2336020291047  3.84889612733352 -94.0239583418530 
 613.762005164794  15.9127562709528 -88.3145558703586  3.79087891047717 -94.0566560960249 
 619.441075076782  15.6810541705638 -88.3923714854826  3.73422771689034 -94.0865245850719 
 625.172692775686  15.4546098624401 -88.4671797955152  3.67889520394966 -94.1136950320206 
 630.957344480194  15.2332453481342 -88.5391054063578  3.62483614896610 -94.1382922719383 
 636.795520907916  15.0167904874910 -88.6082669662256  3.57200733582449 -94.1604351113057 
 642.687717317020  14.8050825832422 -88.6747774996702  3.52036744855424 -94.1802366639334 
 648.634433548239  14.5979659907272 -88.7387447199126  3.46987697136361 -94.1978046651613 
 654.636174067275  14.3952917510619 -88.8002713210805  3.42049809470313 -94.2132417659331 
 660.693448007596  14.1969172461965 -88.8594552518176  3.37219462695535 -94.2266458082144 
 666.806769213623  14.0027058744140 -88.9163899716086  3.32493191137677 -94.2381100830986 
 672.976656284318  13.8125267449240 -88.9711646910633  3.27867674794426 -94.2477235728411 
 679.203632617185  13.6262543903006 -89.0238645972917  3.23339731978361 -94.2555711779580 
 685.488226452662  13.4437684956040 -89.0745710654319  3.18906312388025 -94.2617339304461 
 691.830970918937  13.2649536431036 -89.1233618572859  3.14564490579381 -94.2662891940841 
 698.232404077172  13.0896990715997 -89.1703113079658  3.10311459811747 -94.2693108527127 
 704.693068967147  12.9178984494091 -89.2154905013682  3.06144526244168 -94.2708694873161 
 711.213513653330  12.7494496601441 -89.2589674352394  3.02061103459824 -94.2710325426637 
 717.794291271362  12.5842546004787 -89.3008071765354  2.98058707297675 -94.2698644842184 
 724.435960074990  12.4222189891462 -89.3410720077227  2.94134950971951 -94.2674269459568 
 731.139083483418  12.2632521864683 -89.3798215646268  2.90287540461458 -94.2637788697083 
 737.904230129101  12.1072670237622 -89.4171129663791  2.86514270151915 -94.2589766365638 
 744.731973905990  11.9541796420166 -89.4530009379839  2.82813018715636 -94.2530741908764 
 751.622894018206  11.8039093392688 -89.4875379259782  2.79181745214026 -94.2461231573268 
 758.577575029184  11.6563784261538 -89.5207742076312  2.75618485409237 -94.2381729514996 
 765.596606911256  11.5115120891314 -89.5527579940948  2.72121348272354 -94.2292708843836 
 772.680585095703  11.3692382609296 -89.5835355278851  2.68688512676222 -94.2194622611748 
 779.830110523259  11.2294874977752 -89.6131511750534  2.65318224261919 -94.2087904747419 
 787.045789695099  11.0921928630076 -89.6416475123740  2.62008792468524 -94.1972970940813 
 794.328234724282  10.9572898167018 -89.6690654098577  2.58758587716541 -94.1850219480711 
 801.678063387680  10.8247161109481 -89.6954441088772  2.55566038735997 -94.1720032048096 
 809.095899178382  10.6944116904604 -89.7208212961687  2.52429630030763 -94.1582774468049 
 816.582371358593  10.5663185982056 -89.7452331739613  2.49347899471238 -94.1438797422652 
 824.138115013003  10.4403808857662 -89.7687145264623  2.46319436008001 -94.1288437127197 
 831.763771102671  10.3165445281676 -89.7912987829169  2.43342877499559 -94.1132015971884 
 839.459986519398  10.1947573429158 -89.8130180774417  2.40416908647696 -94.0969843131007 
 847.227414140597  10.0749689130107 -89.8339033058226  2.37540259034384 -94.0802215141530 
 855.066712884683  9.95713051371317 -89.8539841794513  2.34711701254571 -94.0629416452809 
 862.978547766970  9.84119504285616 -89.8732892765647  2.31930049139519 -94.0451719949106 
 870.963589956081  9.72711695450704 -89.8918460909430  2.29194156065712 -94.0269387446438 
 879.022516830885  9.61485219579624 -89.9096810782075  2.26502913344619 -94.0082670165203 
 887.156012037961  9.50435814674092 -89.9268196998562  2.23855248688940 -93.9891809179941 
 895.364765549594  9.39559356290198 -89.9432864651610  2.21250124751181 -93.9697035847491 
 903.649473722302  9.28851852072248 -89.9591049710450  2.18686537730683 -93.9498572214720 
 912.010839355910  9.18309436540465 -89.9742979400534  2.16163516045443 -93.9296631406967 
 920.449571753172  9.07928366119132 -89.9888872565181  2.13680119065316 -93.9091417998211 
 928.966386779937  8.97705014392530 -90.0028940010180  2.11235435903335 -93.8883128363978 
 937.562006925881  8.87635867576786 -90.0163384832232  2.08828584262136 -93.8671951017871 
 946.237161365794  8.77717520196425 -90.0292402732108  2.06458709332615 -93.8458066932626 
 954.992586021437  8.67946670955084 -90.0416182313352  2.04124982742119 -93.8241649846490 
 963.829023623971  8.58320118790440 -90.0534905367239  2.01826601549633 -93.8022866555669 
 972.747223776965  8.48834759103988 -90.0648747144775  1.99562787285573 -93.7801877193611 
 981.747943019985  8.39487580156833 -90.0757876616343  1.97332785033918 -93.7578835497750 
 990.831944892768  8.30275659623141 -90.0862456719690  1.95135862554561 -93.7353889064399 
 1000.00000000000  8.21196161293409 -90.0962644596809  1.92971309443868 -93.7127179592351 
 1009.25288607669  8.12246331920104 -90.1058591820307  1.90838436331536 -93.6898843115782 
 1018.59138805412  8.03423498198664 -90.1150444609771  1.88736574111976 -93.6669010226980 
 1028.01629812647  7.94725063877239 -90.1238344038660  1.86665073208520 -93.6437806289418 
 1037.52841581801  7.86148506988892 -90.1322426232160  1.84623302868850 -93.6205351641620 
 1047.12854805090  7.77691377200360 -90.1402822556479  1.82610650490145 -93.5971761792295 
 1056.81750921366  7.69351293271763 -90.1479659799990  1.80626520972509 -93.5737147607165 
 1066.59612123026  7.61125940621949 -90.1553060346616  1.78670336099338 -93.5501615487856 
 1076.46521362984  7.53013068994502 -90.1623142341848  1.76741533943327 -93.5265267543278 
 1086.42562361707  7.45010490219607 -90.1690019851733  1.74839568296934 -93.5028201753811 
 1096.47819614319  7.37116076067335 -90.1753803015189  1.72963908126123 -93.4790512128667 
 1106.62378397767  7.29327756188045 -90.1814598189941  1.71114037046324 -93.4552288856727 
 1116.86324778056  7.21643516135903 -90.1872508092403  1.69289452819569 -93.4313618451179 
 1127.19745617551  7.14061395471651 -90.1927631931776  1.67489666871825 -93.4074583888218 
 1137.62728582343  7.06579485941036 -90.1980065538635  1.65714203829608 -93.3835264740109 
 1148.15362149688  6.99195929725435 -90.2029901488263  1.63962601074994 -93.3595737302853 
 1158.77735615513  6.91908917761430 -90.2077229218977  1.62234408318191 -93.3356074718717 
 1169.49939101987  6.84716688126198 -90.2122135145662  1.60529187186895 -93.3116347093825 
 1180.32063565173  6.77617524485826 -90.2164702768756  1.58846510831659 -93.2876621611097 
 1191.24200802738  6.70609754603697 -90.2205012778863  1.57185963546586 -93.2636962638667 
 1202.26443461741  6.63691748906344 -90.2243143157210  1.55547140404643 -93.2397431834044 
 1213.38885046498  6.56861919104217 -90.2279169272142  1.53929646906979 -93.2158088244169 
 1224.61619926505  6.50118716864968 -90.2313163971794  1.52333098645613 -93.1918988401550 
 1235.94743344451  6.43460632536993 -90.2345197673158  1.50757120978928 -93.1680186416673 
 1247.38351424294  6.36886193921027 -90.2375338447659  1.49201348719397 -93.1441734066807 
 1258.92541179417  6.30393965087773 -90.2403652103432  1.47665425833049 -93.1203680881404 
 1270.57410520854  6.23982545239547 -90.2430202264412  1.46149005150128 -93.0966074224202 
 1282.33058265602  6.17650567614126 -90.2455050446387  1.44651748086514 -93.0728959372195 
 1294.19584144999  6.11396698428960 -90.2478256130157  1.43173324375419 -93.0492379591600 
 1306.17088813184  6.05219635864108 -90.2499876831891  1.41713411808940 -93.0256376210926 
 1318.25673855641  5.99118109082242 -90.2519968170843  1.40271695989063 -93.0020988691310 
 1330.45441797809  5.93090877284190 -90.2538583934500  1.38847870087708 -92.9786254694175 
 1342.76496113786  5.87136728798562 -90.2555776141294  1.37441634615452 -92.9552210146384 
 1355.18941235104  5.81254480204035 -90.2571595100970  1.36052697198576 -92.9318889302941 
 1367.72882559585  5.75442975482997 -90.2586089472711  1.34680772364090 -92.9086324807370 
 1380.38426460289  5.69701085205226 -90.2599306321113  1.33325581332408 -92.8854547749853 
 1393.15680294530  5.64027705740445 -90.2611291170097  1.31986851817377 -92.8623587723231 
 1406.04752412991  5.58421758498548 -90.2622088054836  1.30664317833344 -92.8393472876936 
 1419.05752168909  5.52882189196411 -90.2631739571800  1.29357719508998 -92.8164229968949 
 1432.18789927354  5.47407967150232 -90.2640286926965  1.28066802907711 -92.7935884415868 
 1445.43977074593  5.41998084592365 -90.2647769982285  1.26791319854110 -92.7708460341141 
 1458.81426027535  5.36651556011718 -90.2654227300481  1.25531027766651 -92.7481980621562 
 1472.31250243272  5.31367417516766 -90.2659696188224  1.24285689495948 -92.7256466932078 
 1485.93564228701  5.26144726220304 -90.2664212737769  1.23055073168638 -92.7031939788980 
 1499.68483550237  5.20982559645104 -90.2667811867111  1.21838952036564 -92.6808418591550 
 1513.56124843621  5.15880015149649 -90.2670527358703  1.20637104331071 -92.6585921662204 
 1527.56605823807  5.10836209373208 -90.2672391896814  1.19449313122220 -92.6364466285212 
 1541.70045294956  5.05850277699469 -90.2673437103569  1.18275366182733 -92.6144068744031 
 1555.96563160507  5.00921373738058 -90.2673693573713  1.17115055856482 -92.5924744357311 
 1570.36280433355  4.96048668823260 -90.2673190908170  1.15968178931359 -92.5706507513632 
 1584.89319246111  4.91231351529282 -90.2671957746431  1.14834536516358 -92.5489371705007 
 1599.55802861467  4.86468627201447 -90.2670021797803  1.13713933922704 -92.5273349559204 
 1614.35855682649  4.81759717502725 -90.2667409871594  1.12606180548895 -92.5058452870934 
 1629.29603263972  4.77103859975038 -90.2664147906245  1.11511089769492 -92.4844692631942 
 1644.37172321493  4.72500307614777 -90.2660260997460  1.10428478827533 -92.4632079060044 
 1659.58690743756  4.67948328462018 -90.2655773425378  1.09358168730431 -92.4420621627153 
 1674.94287602644  4.63447205202942 -90.2650708680810  1.08299984149225 -92.4210329086321 
 1690.44093164327  4.58996234784971 -90.2645089490590  1.07253753321079 -92.4001209497849 
 1706.08238900312  4.54594728044156 -90.2638937842051  1.06219307954880 -92.3793270254481 
 1721.86857498601  4.50242009344378 -90.2632275006692  1.05196483139860 -92.3586518105731 
 1737.80082874938  4.45937416227948 -90.2625121563032  1.04185117257104 -92.3380959181363 
 1753.88050184176  4.41680299077182 -90.2617497418697  1.03185051893852 -92.3176599014068 
 1770.10895831742  4.37470020786570 -90.2609421831773  1.02196131760503 -92.2973442561343 
 1786.48757485205  4.33305956445163 -90.2600913431438  1.01218204610205 -92.2771494226638 
 1803.01774085957  4.29187493028819 -90.2591990237908  1.00251121160965 -92.2570757879752 
 1819.70085860999  4.25114029101955 -90.2582669681725  0.992947350201699 -92.2371236876551 
 1836.53834334835  4.21084974528486 -90.2572968622393  0.983489026114406 -92.2172934077990 
 1853.53162341481  4.17099750191615 -90.2562903366410  0.974134831037444 -92.1975851868493 
 1870.68214036580  4.13157787722185 -90.2552489684698  0.964883383426781 -92.1779992173702 
 1887.99134909629  4.09258529235287 -90.2541742829465  0.955733327838525 -92.1585356477624 
 1905.46071796325  4.05401427074835 -90.2530677550508  0.946683334283035 -92.1391945839177 
 1923.09172891016  4.01585943565862 -90.2519308110986  0.937732097598614 -92.1199760908185 
 1940.88587759278  3.97811550774241 -90.2507648302676  0.928878336844133 -92.1008801940824 
 1958.84467350599  3.94077730273601 -90.2495711460736  0.920120794709906 -92.0819068814535 
 1976.96964011186  3.90383972919198 -90.2483510477981  0.911458236946235 -92.0630561042435 
 1995.26231496888  3.86729778628488 -90.2471057818706  0.902889451809021 -92.0443277787234 
 2013.72424986239  3.83114656168199 -90.2458365532052  0.894413249521858 -92.0257217874675 
 2032.35701093622  3.79538122947675 -90.2445445264947  0.886028461754074 -92.0072379806523 
 2051.16217882557  3.75999704818290 -90.2432308274631  0.877733941114198 -91.9888761773103 
 2070.14134879104  3.72498935878721 -90.2418965440772  0.869528560658308 -91.9706361665418 
 2089.29613085404  3.69035358285907 -90.2405427277201  0.861411213412818 -91.9525177086847 
 2108.62814993329  3.65608522071492 -90.2391703943265  0.853380811911199 -91.9345205364447 
 2128.13904598271  3.62217984963579 -90.2377805254824  0.845436287744188 -91.9166443559872 
 2147.83047413054  3.58863312213626 -90.2363740694894  0.837576591123059 -91.8988888479916 
 2167.70410481970  3.55544076428315 -90.2349519423946  0.829800690455505 -91.8812536686694 
 2187.76162394955  3.52259857406238 -90.2335150289894  0.822107571933772 -91.8637384507480 
 2208.00473301890  3.49010241979240 -90.2320641837744  0.814496239134598 -91.8463428044202 
 2228.43514927030  3.45794823858279 -90.2306002318960  0.806965712630632 -91.8290663182618 
 2249.05460583578  3.42613203483658 -90.2291239700517  0.799515029612935 -91.8119085601169 
 2269.86485188382  3.39464987879488 -90.2276361673678  0.792143243524221 -91.7948690779536 
 2290.86765276777  3.36349790512250 -90.2261375662495  0.784849423702515 -91.7779474006899 
 2312.06479017560  3.33267231153336 -90.2246288832032  0.777632655034883 -91.7611430389904 
 2333.45806228100  3.30216935745436 -90.2231108096349  0.770492037620930 -91.7444554860370 
 2355.04928389601  3.27198536272658 -90.2215840126213  0.763426686445764 -91.7278842182712 
 2376.84028662488  3.24211670634263 -90.2200491356589  0.756435731062133 -91.7114286961122 
 2398.83291901949  3.21255982521912 -90.2185067993880  0.749518315281454 -91.6950883646484 
 2421.02904673618  3.18331121300305 -90.2169576022954  0.742673596873454 -91.6788626543062 
 2443.43055269397  3.15436741891127 -90.2154021213940  0.735900747274188 -91.6627509814945 
 2466.03933723434  3.12572504660186 -90.2138409128826  0.729198951302143 -91.6467527492270 
 2488.85731828239  3.09738075307654 -90.2122745127837  0.722567406882212 -91.6308673477219 
 2511.88643150958  3.06933124761325 -90.2107034375627  0.716005324777303 -91.6150941549816 
 2535.12863049791  3.04157329072787 -90.2091281847273  0.709511928327340 -91.5994325373502 
 2558.58588690565  3.01410369316436 -90.2075492334083  0.703086453195452 -91.5838818500530 
 2582.26019063460  2.98691931491245 -90.2059670449226  0.696728147121127 -91.5684414377145 
 2606.15354999890  2.96001706425198 -90.2043820633189  0.690436269680142 -91.5531106348600 
 2630.26799189538  2.93339389682329 -90.2027947159059  0.684210092051063 -91.5378887663970 
 2654.60556197554  2.90704681472281 -90.2012054137650  0.678048896788118 -91.5227751480806 
 2679.16832481903  2.88097286562316 -90.1996145522466  0.671951977600282 -91.5077690869614 
 2703.95836410885  2.85516914191705 -90.1980225114512  0.665918639136379 -91.4928698818162 
 2728.97778280804  2.82963277988433 -90.1964296566959  0.659948196776033 -91.4780768235638 
 2754.22870333817  2.80436095888157 -90.1948363389662  0.654039976426318 -91.4633891956649 
 2779.71326775929  2.77935090055352 -90.1932428953537  0.648193314323919 -91.4488062745064 
 2805.43363795171  2.75459986806581 -90.1916496494814  0.642407556842691 -91.4343273297721 
 2831.39199579938  2.73010516535842 -90.1900569119146  0.636682060306434 -91.4199516247989 
 2857.59054337495  2.70586413641925 -90.1884649805592  0.631016190806760 -91.4056784169184 
 2884.03150312661  2.68187416457732 -90.1868741410491  0.625409324025904 -91.3915069577866 
 2910.71711806661  2.65813267181512 -90.1852846671203  0.619860845064359 -91.3774364936998 
 2937.64965196153  2.63463711809943 -90.1836968209739  0.614370148273201 -91.3634662658982 
 2964.83138952434  2.61138500073038 -90.1821108536279  0.608936637090973 -91.3495955108573 
 2992.26463660819  2.58837385370809 -90.1805270052586  0.603559723885018 -91.3358234605671 
 3019.95172040202  2.56560124711655 -90.1789455055304  0.598238829797164 -91.3221493428008 
 3047.89498962798  2.54306478652423 -90.1773665739168  0.592973384593600 -91.3085723813711 
 3076.09681474071  2.52076211240111 -90.1757904200106  0.587762826518895 -91.2950917963762 
 3104.55958812836  2.49869089955163 -90.1742172438241  0.582606602154027 -91.2817068044357 
 3133.28572431559  2.47684885656317 -90.1726472360817  0.577504166278316 -91.2684166189153 
 3162.27766016838  2.45523372526991 -90.1710805785013  0.572454981735204 -91.2552204501420 
 3191.53785510077  2.43384328023131 -90.1695174440691  0.567458519301733 -91.2421175056100 
 3221.06879128344  2.41267532822530 -90.1679579973039  0.562514257561700 -91.2291069901764 
 3250.87297385434  2.39172770775553 -90.1664023945147  0.557621682782348 -91.2161881062475 
 3280.95293113119  2.37099828857256 -90.1648507840495  0.552780288794542 -91.2033600539574 
 3311.31121482591  2.35048497120860 -90.1633033065368  0.547989576876357 -91.1906220313365 
 3341.95040026115  2.33018568652552 -90.1617600951187  0.543249055639973 -91.1779732344722 
 3372.87308658869  2.31009839527591 -90.1602212756781  0.538558240921846 -91.1654128576609 
 3404.08189701001  2.29022108767679 -90.1586869670576  0.533916655676044 -91.1529400935521 
 3435.57947899875  2.27055178299594 -90.1571572812717  0.529323829870734 -91.1405541332847 
 3467.36850452532  2.25108852915035 -90.1556323237132  0.524779300387696 -91.1282541666153 
 3499.45167028358  2.23182940231681 -90.1541121933516  0.520282610924859 -91.1160393820384 
 3531.83169791957  2.21277250655419 -90.1525969829265  0.515833311901783 -91.1039089669009 
 3564.51133426245  2.19391597343741 -90.1510867791346  0.511430960368006 -91.0918621075072 
 3597.49335155742  2.17525796170273 -90.1495816628097  0.507075119914258 -91.0798979892187 
 3630.78054770101  2.15679665690434 -90.1480817090984  0.502765360586445 -91.0680157965459 
 3664.37574647834  2.13853027108187 -90.1465869876293  0.498501258802387 -91.0562147132336 
 3698.28179780266  2.12045704243891 -90.1450975626766  0.494282397271246 -91.0444939223392 
 3732.50157795721  2.10257523503215 -90.1436134933192  0.490108364915627 -91.0328526063054 
 3767.03798983909  2.08488313847113 -90.1421348335934  0.485978756796286 -91.0212899470248 
 3801.89396320562  2.06737906762841 -90.1406616326421  0.481893174039432 -91.0098051258998 
 3837.07245492279  2.05006136236015 -90.1391939348574  0.477851223766580 -90.9983973238955 
 3872.57644921617  2.03292838723670 -90.1377317800198  0.473852519026918 -90.9870657215859 
 3908.40895792402  2.01597853128352 -90.1362752034321  0.469896678732176 -90.9758094991953 
 3944.57302075278  1.99921020773195 -90.1348242360488  0.465983327593958 -90.9646278366326 
 3981.07170553498  1.98262185377993 -90.1333789046013  0.462112096063513 -90.9535199135203 
 4017.90810848940  1.96621193036265 -90.1319392317187  0.458282620273936 -90.9424849092171 
 4055.08535448384  1.94997892193287 -90.1305052360444  0.454494541984768 -90.9315220028355 
 4092.60659730011  1.93392133625104 -90.1290769323488  0.450747508528987 -90.9206303732527 
 4130.47501990161  1.91803770418514 -90.1276543316374  0.447041172762367 -90.9098091991165 
 4168.69383470336  1.90232657952008 -90.1262374412563  0.443375193015214 -90.8990576588450 
 4207.26628384444  1.88678653877683 -90.1248262649920  0.439749233046442 -90.8883749306212 
 4246.19563946313  1.87141618104113 -90.1234208031699  0.436162962000006 -90.8777601923817 
 4285.48520397440  1.85621412780184 -90.1220210527469  0.432616054363687 -90.8672126217995 
 4325.13831035009  1.84117902279891 -90.1206270074017  0.429108189930208 -90.8567313962613 
 4365.15832240166  1.82630953188101 -90.1192386576220  0.425639053760711 -90.8463156928403 
 4405.54863506553  1.81160434287286 -90.1178559907869  0.422208336150584 -90.8359646882608 
 4446.31267469109  1.79706216545230 -90.1164789912475  0.418815732597643 -90.8256775588607 
 4487.45389933132  1.78268173103714 -90.1151076404032  0.415460943772693 -90.8154534805449 
 4528.97579903621  1.76846179268186 -90.1137419167757  0.412143675492469 -90.8052916287351 
 4570.88189614875  1.75440112498430 -90.1123817960790  0.408863638694981 -90.7951911783135 
 4613.17574560379  1.74049852400232 -90.1110272512874  0.405620549417280 -90.7851513035604 
 4655.86093522959  1.72675280718067 -90.1096782526992  0.402414128775664 -90.7751711780859 
 4698.94108605215  1.71316281328811 -90.1083347679988  0.399244102948367 -90.7652499747560 
 4742.41985260245  1.69972740236490 -90.1069967623149  0.396110203160731 -90.7553868656128 
 4786.30092322638  1.68644545568095 -90.1056641982768  0.393012165672930 -90.7455810217882 
 4830.58802039773  1.67331587570454 -90.1043370360667  0.389949731770242 -90.7358316134119 
 4875.28490103387  1.66033758608212 -90.1030152334704  0.386922647755964 -90.7261378095126 
 4920.39535681451  1.64750953162908 -90.1016987459248  0.383930664946946 -90.7164987779135 
 4965.92321450337  1.63483067833193 -90.1003875265625  0.380973539671859 -90.7069136851211 
 5011.87233627272  1.62230001336203 -90.0990815262540  0.378051033272208 -90.6973816962065 
 5058.24662003115  1.60991654510110 -90.0977806936475  0.375162912106161 -90.6879019746814 
 5105.04999975406  1.59767930317884 -90.0964849752056  0.372308947555255 -90.6784736823658 
 5152.28644581757  1.58558733852299 -90.0951943152399  0.369488916034051 -90.6690959792498 
 5199.95996533516  1.57363972342199 -90.0939086559426  0.366702599002803 -90.6597680233468 
 5248.07460249773  1.56183555160078 -90.0926279374158  0.363949782983216 -90.6504889705400 
 5296.63443891658  1.55017393830993 -90.0913520976986  0.361230259577393 -90.6412579744214 
 5345.64359396972  1.53865402042865 -90.0900810727907  0.358543825490039 -90.6320741861222 
 5395.10622515128  1.52727495658187 -90.0888147966747  0.355890282554027 -90.6229367541350 
 5445.02652842422  1.51603592727216 -90.0875532013350  0.353269437759434 -90.6138448241282 
 5495.40873857624  1.50493613502660 -90.0862962167746  0.350681103286141 -90.6047975387511 
 5546.25712957911  1.49397480455937 -90.0850437710290  0.348125096540124 -90.5957940374300 
 5597.57601495110  1.48315118295049 -90.0837957901782  0.345601240193560 -90.5868334561553 
 5649.36974812303  1.47246453984123 -90.0825521983554  0.343109362228866 -90.5779149272584 
 5701.64272280748  1.46191416764697 -90.0813129177540  0.340649295986830 -90.5690375791790 
 5754.39937337158  1.45149938178790 -90.0800778686309  0.338220880218968 -90.5602005362213 
 5807.64417521312  1.44121952093851 -90.0788469693085  0.335823959144269 -90.5514029183003 
 5861.38164514029  1.43107394729637 -90.0776201361726  0.333458382510505 -90.5426438406761 
 5915.61634175475  1.42106204687111 -90.0763972836694  0.331124005660268 -90.5339224136765 
 5970.35286583837  1.41118322979446 -90.0751783242979  0.328820689601946 -90.5252377424076 
 6025.59586074359  1.40143693065198 -90.0739631686008  0.326548301085818 -90.5165889264515 
 6081.35001278718  1.39182260883773 -90.0727517251524  0.324306712685498 -90.5079750595509 
 6137.62005164795  1.38233974893262 -90.0715439005434  0.322095802884955 -90.4993952292793 
 6194.41075076782  1.37298786110761 -90.0703395993624  0.319915456171345 -90.4908485166975 
 6251.72692775686  1.36376648155281 -90.0691387241755  0.317765563133917 -90.4823339959938 
 6309.57344480194  1.35467517293369 -90.0679411755018  0.315646020569267 -90.4738507341098 
 6367.95520907916  1.34571352487566 -90.0667468517863  0.313556731593238 -90.4653977903477 
 6426.87717317020  1.33688115447833 -90.0655556493693  0.311497605759758 -90.4569742159623 
 6486.34433548239  1.32817770686088 -90.0643674624529  0.309468559186969 -90.4485790537327 
 6546.36174067275  1.31960285574006 -90.0631821830633  0.307469514690978 -90.4402113375167 
 6606.93448007597  1.31115630404237 -90.0619997010104  0.305500401927613 -90.4318700917834 
 6668.06769213622  1.30283778455221 -90.0608199038433  0.303561157542583 -90.4235543311261 
 6729.76656284319  1.29464706059775 -90.0596426768018  0.301651725330451 -90.4152630597522 
 6792.03632617185  1.28658392677644 -90.0584679027648  0.299772056402886 -90.4069952709500 
 6854.88226452663  1.27864820972228 -90.0572954621936  0.297922109366658 -90.3987499465310 
 6918.30970918937  1.27083976891701 -90.0561252330718  0.296101850511900 -90.3905260562466 
 6982.32404077171  1.26315849754755 -90.0549570908400  0.294311254011168 -90.3823225571770 
 7046.93068967148  1.25560432341207 -90.0537909083269  0.292550302129885 -90.3741383930917 
 7112.13513653329  1.24817720987768 -90.0526265556748  0.290818985448786 -90.3659724937805 
 7177.94291271363  1.24087715689205 -90.0514639002603  0.289117303099020 -90.3578237743514 
 7244.35960074990  1.23370420205253 -90.0503028066098  0.287445263010616 -90.3496911344954 
 7311.39083483418  1.22665842173553 -90.0491431363100  0.285802882175065 -90.3415734577163 
 7379.04230129102  1.21973993228996 -90.0479847479115  0.284190186922813 -90.3334696105216 
 7447.31973905989  1.21294889129810 -90.0468274968277  0.282607213216527 -90.3253784415756 
 7516.22894018206  1.20628549890812 -90.0456712352266  0.281054006961059 -90.3172987808077 
 7585.77575029184  1.19974999924224 -90.0445158119160  0.279530624331065 -90.3092294384796 
 7655.96606911257  1.19334268188517 -90.0433610722219  0.278037132117359 -90.3011692042022 
 7726.80585095703  1.18706388345753 -90.0422068578595  0.276573608093102 -90.2931168459049 
 7798.30110523259  1.18091398927957 -90.0410530067968  0.275140141401032 -90.2850711087506 
 7870.45789695099  1.17489343513052 -90.0398993531088  0.273736832963047 -90.2770307139949 
 7943.28234724282  1.16900270910977 -90.0387457268247  0.272363795913492 -90.2689943577862 
 8016.78063387680  1.16324235360596 -90.0375919537643  0.271021156057664 -90.2609607099013 
 8090.95899178383  1.15761296738110 -90.0364378553666  0.269709052357110 -90.2529284124148 
 8165.82371358594  1.15211520777679 -90.0352832485062  0.268427637443445 -90.2448960782966 
 8241.38115013003  1.14674979305074 -90.0341279453002  0.267177078162521 -90.2368622899327 
 8317.63771102671  1.14151750485179 -90.0329717529032  0.265957556150935 -90.2288255975658 
 8394.59986519398  1.13641919084283 -90.0318144732897  0.264769268447008 -90.2207845176481 
 8472.27414140597  1.13145576748134 -90.0306559030242  0.263612428138527 -90.2127375311045 
 8550.66712884684  1.12662822296810 -90.0294958330170  0.262487265049737 -90.2046830814942 
 8629.78547766971  1.12193762037577 -90.0283340482654  0.261394026470237 -90.1966195730706 
 8709.63589956082  1.11738510096940 -90.0271703275798  0.260332977928676 -90.1885453687273 
 8790.22516830885  1.11297188773246 -90.0260044432920  0.259304404014363 -90.1804587878249 
 8871.56012037961  1.10869928911270 -90.0248361609468  0.258308609250133 -90.1723581038898 
 8953.64765549595  1.10456870300342 -90.0236652389743  0.257345919020148 -90.1642415421766 
 9036.49473722302  1.10058162097720 -90.0224914283417  0.256416680556530 -90.1561072770824 
 9120.10839355911  1.09673963279016 -90.0213144721838  0.255521263989127 -90.1479534294059 
 9204.49571753172  1.09304443117682 -90.0201341054101  0.254660063463019 -90.1397780634355 
 9289.66386779936  1.08949781695693 -90.0189500542871  0.253833498328796 -90.1315791838586 
 9375.62006925881  1.08610170447773 -90.0177620359943  0.253042014411054 -90.1233547324752 
 9462.37161365793  1.08285812741701 -90.0165697581513  0.252286085361040 -90.1151025847032 
 9549.92586021437  1.07976924497462 -90.0153729183145  0.251566214099888 -90.1068205458587 
 9638.29023623971  1.07683734848255 -90.0141712034409  0.250882934359470 -90.0985063471945 
 9727.47223776966  1.07406486846630 -90.0129642893168  0.250236812328501 -90.0901576416781 
 9817.47943019985  1.07145438219343 -90.0117518399483  0.249628448412261 -90.0817719994884 
 9908.31944892767  1.06900862174818 -90.0105335069107  0.249058479115016 -90.0733469032093 
 10000.0000000000  1.06673048267504 -90.0093089286539  0.248527579055119 -90.0648797426958 
