-90.0000000000000 -0.0208624605919947 
-88.2000000000000 -0.0220034802956003 
-86.4000000000000 -0.0231010740140062 
-84.6000000000000 -0.0241530755404157 
-82.8000000000000 -0.0251574086486089 
-81.0000000000000 -0.0261120911905753 
-79.2000000000000 -0.0270152390084736 
-77.4000000000000 -0.0278650696531981 
-75.6000000000000 -0.0286599059022138 
-73.8000000000000 -0.0293981790697164 
-72.0000000000000 -0.0300784321025845 
-70.2000000000000 -0.0306993224560143 
-68.4000000000000 -0.0312596247431607 
-66.6000000000000 -0.0317582331535565 
-64.8000000000000 -0.0321941636355353 
-63.0000000000000 -0.0325665558383524 
-61.2000000000000 -0.0328746748101696 
-59.4000000000000 -0.0331179124485536 
-57.6000000000000 -0.0332957887006246 
-55.8000000000000 -0.0334079525104864 
-54.0000000000000 -0.0334541825120697 
-52.2000000000000 -0.0334343874660188 
-50.4000000000000 -0.0333486064397615 
-48.6000000000000 -0.0331970087304056 
-46.8000000000000 -0.0329798935306150 
-45.0000000000000 -0.0326976893381238 
-43.2000000000000 -0.0323509531100553 
-41.4000000000000 -0.0319403691637133 
-39.6000000000000 -0.0314667478260159 
-37.8000000000000 -0.0309310238342376 
-36.0000000000000 -0.0303342544912154 
-34.2000000000000 -0.0296776175786595 
-32.4000000000000 -0.0289624090326885 
-30.6000000000000 -0.0281900403861742 
-28.8000000000000 -0.0273620359829459 
-27.0000000000000 -0.0264800299693512 
-25.2000000000000 -0.0255457630691111 
-23.4000000000000 -0.0245610791478338 
-21.6000000000000 -0.0235279215739692 
-19.8000000000000 -0.0224483293833839 
-18.0000000000000 -0.0213244332551276 
-16.2000000000000 -0.0201584513063335 
-14.4000000000000 -0.0189526847145504 
-12.6000000000000 -0.0177095131761475 
-10.8000000000000 -0.0164313902097546 
-9.00000000000000 -0.0151208383140073 
-7.20000000000000 -0.0137804439891529 
-5.39999999999999 -0.0124128526323436 
-3.59999999999999 -0.0110207633166908 
-1.80000000000000 -0.00960692346438418 
 0.00000000000000 -0.00817412342439029 
 1.80000000000000 -0.00672519096543001 
 3.60000000000001 -0.00526298569510505 
 5.40000000000001 -0.00379039341618734 
 7.20000000000000 -0.00231032043120944 
 9.00000000000000 -0.000825687806597072 
 10.8000000000000  0.000660574392336577 
 12.6000000000000  0.00214553288415666 
 14.4000000000000  0.00362625696041971 
 16.2000000000000  0.00509982426970874 
 18.0000000000000  0.00656332658517485 
 19.8000000000000  0.00801387554420287 
 21.6000000000000  0.00944860834887261 
 23.4000000000000  0.0108646934159662 
 25.2000000000000  0.0122593359653697 
 27.0000000000000  0.0136297835358409 
 28.8000000000000  0.0149733314172561 
 30.6000000000000  0.0162873279886159 
 32.4000000000000  0.0175691799512740 
 34.2000000000000  0.0188163574470622 
 36.0000000000000  0.0200263990512082 
 37.8000000000000  0.0211969166301948 
 39.6000000000000  0.0223256000549705 
 41.4000000000000  0.0234102217602121 
 43.2000000000000  0.0244486411406387 
 45.0000000000000  0.0254388087757021 
 46.8000000000000  0.0263787704743160 
 48.6000000000000  0.0272666711316395 
 50.4000000000000  0.0281007583903052 
 52.2000000000000  0.0288793860988651 
 54.0000000000000  0.0296010175606288 
 55.8000000000000  0.0302642285664822 
 57.6000000000000  0.0308677102057012 
 59.4000000000000  0.0314102714492133 
 61.2000000000000  0.0318908415002074 
 63.0000000000000  0.0323084719074548 
 64.8000000000000  0.0326623384371689 
 66.6000000000000  0.0329517426997097 
 68.4000000000000  0.0331761135279230 
 70.2000000000000  0.0333350081043939 
 72.0000000000000  0.0334281128353892 
 73.8000000000000  0.0334552439697653 
 75.6000000000000  0.0334163479616183 
 77.4000000000000  0.0333115015759623 
 79.2000000000000  0.0331409117372261 
 81.0000000000000  0.0329049151208679 
 82.8000000000000  0.0326039774889141 
 84.6000000000000  0.0322386927707330 
 86.4000000000000  0.0318097818908579 
 88.2000000000000  0.0313180913461736 
 90.0000000000000  0.0307645915352727 
