 217.000000000  3.33506948084 
 217.003000000  3.34573419282 
 217.006000000  3.35644984098 
 217.009000000  3.36721674813 
 217.012000000  3.37803523966 
 217.015000000  3.38890564348 
 217.018000000  3.39982829015 
 217.021000000  3.41080351280 
 217.024000000  3.42183164723 
 217.027000000  3.43291303190 
 217.030000000  3.44404800795 
 217.033000000  3.45523691927 
 217.036000000  3.46648011245 
 217.039000000  3.47777793690 
 217.042000000  3.48913074477 
 217.045000000  3.50053889109 
 217.048000000  3.51200273369 
 217.051000000  3.52352263332 
 217.054000000  3.53509895360 
 217.057000000  3.54673206111 
 217.060000000  3.55842232537 
 217.063000000  3.57017011891 
 217.066000000  3.58197581727 
 217.069000000  3.59383979902 
 217.072000000  3.60576244584 
 217.075000000  3.61774414249 
 217.078000000  3.62978527689 
 217.081000000  3.64188624010 
 217.084000000  3.65404742641 
 217.087000000  3.66626923332 
 217.090000000  3.67855206160 
 217.093000000  3.69089631530 
 217.096000000  3.70330240181 
 217.099000000  3.71577073188 
 217.102000000  3.72830171964 
 217.105000000  3.74089578265 
 217.108000000  3.75355334194 
 217.111000000  3.76627482201 
 217.114000000  3.77906065090 
 217.117000000  3.79191126022 
 217.120000000  3.80482708516 
 217.123000000  3.81780856456 
 217.126000000  3.83085614092 
 217.129000000  3.84397026045 
 217.132000000  3.85715137310 
 217.135000000  3.87039993261 
 217.138000000  3.88371639652 
 217.141000000  3.89710122625 
 217.144000000  3.91055488710 
 217.147000000  3.92407784830 
 217.150000000  3.93767058308 
 217.153000000  3.95133356866 
 217.156000000  3.96506728632 
 217.159000000  3.97887222145 
 217.162000000  3.99274886356 
 217.165000000  4.00669770636 
 217.168000000  4.02071924775 
 217.171000000  4.03481398994 
 217.174000000  4.04898243941 
 217.177000000  4.06322510702 
 217.180000000  4.07754250801 
 217.183000000  4.09193516207 
 217.186000000  4.10640359338 
 217.189000000  4.12094833066 
 217.192000000  4.13556990720 
 217.195000000  4.15026886093 
 217.198000000  4.16504573445 
 217.201000000  4.17990107507 
 217.204000000  4.19483543492 
 217.207000000  4.20984937091 
 217.210000000  4.22494344484 
 217.213000000  4.24011822343 
 217.216000000  4.25537427840 
 217.219000000  4.27071218646 
 217.222000000  4.28613252943 
 217.225000000  4.30163589426 
 217.228000000  4.31722287308 
 217.231000000  4.33289406327 
 217.234000000  4.34865006750 
 217.237000000  4.36449149381 
 217.240000000  4.38041895563 
 217.243000000  4.39643307189 
 217.246000000  4.41253446702 
 217.249000000  4.42872377104 
 217.252000000  4.44500161962 
 217.255000000  4.46136865414 
 217.258000000  4.47782552172 
 217.261000000  4.49437287536 
 217.264000000  4.51101137389 
 217.267000000  4.52774168214 
 217.270000000  4.54456447093 
 217.273000000  4.56148041717 
 217.276000000  4.57849020394 
 217.279000000  4.59559452050 
 217.282000000  4.61279406241 
 217.285000000  4.63008953159 
 217.288000000  4.64748163635 
 217.291000000  4.66497109152 
 217.294000000  4.68255861847 
 217.297000000  4.70024494522 
 217.300000000  4.71803080648 
 217.303000000  4.73591694373 
 217.306000000  4.75390410533 
 217.309000000  4.77199304654 
 217.312000000  4.79018452964 
 217.315000000  4.80847932399 
 217.318000000  4.82687820610 
 217.321000000  4.84538195973 
 217.324000000  4.86399137594 
 217.327000000  4.88270725322 
 217.330000000  4.90153039752 
 217.333000000  4.92046162237 
 217.336000000  4.93950174894 
 217.339000000  4.95865160613 
 217.342000000  4.97791203069 
 217.345000000  4.99728386726 
 217.348000000  5.01676796848 
 217.351000000  5.03636519508 
 217.354000000  5.05607641599 
 217.357000000  5.07590250839 
 217.360000000  5.09584435784 
 217.363000000  5.11590285835 
 217.366000000  5.13607891251 
 217.369000000  5.15637343156 
 217.372000000  5.17678733547 
 217.375000000  5.19732155309 
 217.378000000  5.21797702222 
 217.381000000  5.23875468973 
 217.384000000  5.25965551162 
 217.387000000  5.28068045320 
 217.390000000  5.30183048912 
 217.393000000  5.32310660354 
 217.396000000  5.34450979019 
 217.399000000  5.36604105251 
 217.402000000  5.38770140378 
 217.405000000  5.40949186718 
 217.408000000  5.43141347595 
 217.411000000  5.45346727349 
 217.414000000  5.47565431349 
 217.417000000  5.49797566004 
 217.420000000  5.52043238775 
 217.423000000  5.54302558188 
 217.426000000  5.56575633847 
 217.429000000  5.58862576446 
 217.432000000  5.61163497780 
 217.435000000  5.63478510764 
 217.438000000  5.65807729438 
 217.441000000  5.68151268988 
 217.444000000  5.70509245755 
 217.447000000  5.72881777249 
 217.450000000  5.75268982166 
 217.453000000  5.77670980400 
 217.456000000  5.80087893055 
 217.459000000  5.82519842466 
 217.462000000  5.84966952208 
 217.465000000  5.87429347111 
 217.468000000  5.89907153280 
 217.471000000  5.92400498107 
 217.474000000  5.94909510285 
 217.477000000  5.97434319829 
 217.480000000  5.99975058085 
 217.483000000  6.02531857754 
 217.486000000  6.05104852902 
 217.489000000  6.07694178981 
 217.492000000  6.10299972843 
 217.495000000  6.12922372760 
 217.498000000  6.15561518438 
 217.501000000  6.18217551039 
 217.504000000  6.20890613194 
 217.507000000  6.23580849027 
 217.510000000  6.26288404168 
 217.513000000  6.29013425774 
 217.516000000  6.31756062550 
 217.519000000  6.34516464762 
 217.522000000  6.37294784266 
 217.525000000  6.40091174520 
 217.528000000  6.42905790605 
 217.531000000  6.45738789250 
 217.534000000  6.48590328849 
 217.537000000  6.51460569482 
 217.540000000  6.54349672937 
 217.543000000  6.57257802733 
 217.546000000  6.60185124138 
 217.549000000  6.63131804197 
 217.552000000  6.66098011749 
 217.555000000  6.69083917453 
 217.558000000  6.72089693810 
 217.561000000  6.75115515187 
 217.564000000  6.78161557843 
 217.567000000  6.81227999947 
 217.570000000  6.84315021611 
 217.573000000  6.87422804909 
 217.576000000  6.90551533903 
 217.579000000  6.93701394671 
 217.582000000  6.96872575332 
 217.585000000  7.00065266073 
 217.588000000  7.03279659175 
 217.591000000  7.06515949039 
 217.594000000  7.09774332217 
 217.597000000  7.13055007439 
 217.600000000  7.16358175640 
 217.603000000  7.19684039989 
 217.606000000  7.23032805922 
 217.609000000  7.26404681168 
 217.612000000  7.29799875779 
 217.615000000  7.33218602165 
 217.618000000  7.36661075120 
 217.621000000  7.40127511859 
 217.624000000  7.43618132046 
 217.627000000  7.47133157827 
 217.630000000  7.50672813866 
 217.633000000  7.54237327377 
 217.636000000  7.57826928158 
 217.639000000  7.61441848625 
 217.642000000  7.65082323848 
 217.645000000  7.68748591591 
 217.648000000  7.72440892339 
 217.651000000  7.76159469343 
 217.654000000  7.79904568655 
 217.657000000  7.83676439167 
 217.660000000  7.87475332645 
 217.663000000  7.91301503775 
 217.666000000  7.95155210200 
 217.669000000  7.99036712558 
 217.672000000  8.02946274528 
 217.675000000  8.06884162866 
 217.678000000  8.10850647456 
 217.681000000  8.14846001342 
 217.684000000  8.18870500782 
 217.687000000  8.22924425287 
 217.690000000  8.27008057667 
 217.693000000  8.31121684078 
 217.696000000  8.35265594068 
 217.699000000  8.39440080623 
 217.702000000  8.43645440219 
 217.705000000  8.47881972868 
 217.708000000  8.52149982167 
 217.711000000  8.56449775351 
 217.714000000  8.60781663343 
 217.717000000  8.65145960807 
 217.720000000  8.69542986200 
 217.723000000  8.73973061825 
 217.726000000  8.78436513888 
 217.729000000  8.82933672554 
 217.732000000  8.87464871999 
 217.735000000  8.92030450474 
 217.738000000  8.96630750358 
 217.741000000  9.01266118220 
 217.744000000  9.05936904879 
 217.747000000  9.10643465463 
 217.750000000  9.15386159477 
 217.753000000  9.20165350859 
 217.756000000  9.24981408050 
 217.759000000  9.29834704059 
 217.762000000  9.34725616525 
 217.765000000  9.39654527789 
 217.768000000  9.44621824962 
 217.771000000  9.49627899995 
 217.774000000  9.54673149749 
 217.777000000  9.59757976066 
 217.780000000  9.64882785846 
 217.783000000  9.70047991122 
 217.786000000  9.75254009131 
 217.789000000  9.80501262394 
 217.792000000  9.85790178798 
 217.795000000  9.91121191670 
 217.798000000  9.96494739862 
 217.801000000  10.0191126783 
 217.804000000  10.0737122573 
 217.807000000  10.1287506948 
 217.810000000  10.1842326087 
 217.813000000  10.2401626764 
 217.816000000  10.2965456358 
 217.819000000  10.3533862858 
 217.822000000  10.4106894880 
 217.825000000  10.4684601669 
 217.828000000  10.5267033114 
 217.831000000  10.5854239752 
 217.834000000  10.6446272784 
 217.837000000  10.7043184083 
 217.840000000  10.7645026202 
 217.843000000  10.8251852388 
 217.846000000  10.8863716589 
 217.849000000  10.9480673469 
 217.852000000  11.0102778416 
 217.855000000  11.0730087553 
 217.858000000  11.1362657752 
 217.861000000  11.2000546645 
 217.864000000  11.2643812633 
 217.867000000  11.3292514902 
 217.870000000  11.3946713430 
 217.873000000  11.4606469008 
 217.876000000  11.5271843243 
 217.879000000  11.5942898578 
 217.882000000  11.6619698302 
 217.885000000  11.7302306563 
 217.888000000  11.7990788384 
 217.891000000  11.8685209676 
 217.894000000  11.9385637248 
 217.897000000  12.0092138830 
 217.900000000  12.0804783079 
 217.903000000  12.1523639598 
 217.906000000  12.2248778953 
 217.909000000  12.2980272683 
 217.912000000  12.3718193321 
 217.915000000  12.4462614407 
 217.918000000  12.5213610504 
 217.921000000  12.5971257217 
 217.924000000  12.6735631209 
 217.927000000  12.7506810216 
 217.930000000  12.8284873067 
 217.933000000  12.9069899701 
 217.936000000  12.9861971186 
 217.939000000  13.0661169734 
 217.942000000  13.1467578726 
 217.945000000  13.2281282725 
 217.948000000  13.3102367498 
 217.951000000  13.3930920038 
 217.954000000  13.4767028581 
 217.957000000  13.5610782626 
 217.960000000  13.6462272961 
 217.963000000  13.7321591680 
 217.966000000  13.8188832203 
 217.969000000  13.9064089306 
 217.972000000  13.9947459135 
 217.975000000  14.0839039234 
 217.978000000  14.1738928566 
 217.981000000  14.2647227539 
 217.984000000  14.3564038030 
 217.987000000  14.4489463406 
 217.990000000  14.5423608556 
 217.993000000  14.6366579909 
 217.996000000  14.7318485467 
 217.999000000  14.8279434828 
 218.002000000  14.9249539213 
 218.005000000  15.0228911495 
 218.008000000  15.1217666227 
 218.011000000  15.2215919671 
 218.014000000  15.3223789826 
 218.017000000  15.4241396457 
 218.020000000  15.5268861130 
 218.023000000  15.6306307239 
 218.026000000  15.7353860036 
 218.029000000  15.8411646668 
 218.032000000  15.9479796208 
 218.035000000  16.0558439684 
 218.038000000  16.1647710121 
 218.041000000  16.2747742568 
 218.044000000  16.3858674138 
 218.047000000  16.4980644042 
 218.050000000  16.6113793627 
 218.053000000  16.7258266412 
 218.056000000  16.8414208125 
 218.059000000  16.9581766746 
 218.062000000  17.0761092542 
 218.065000000  17.1952338111 
 218.068000000  17.3155658418 
 218.071000000  17.4371210842 
 218.074000000  17.5599155218 
 218.077000000  17.6839653875 
 218.080000000  17.8092871687 
 218.083000000  17.9358976115 
 218.086000000  18.0638137253 
 218.089000000  18.1930527874 
 218.092000000  18.3236323480 
 218.095000000  18.4555702348 
 218.098000000  18.5888845584 
 218.101000000  18.7235937165 
 218.104000000  18.8597164001 
 218.107000000  18.9972715979 
 218.110000000  19.1362786021 
 218.113000000  19.2767570136 
 218.116000000  19.4187267477 
 218.119000000  19.5622080397 
 218.122000000  19.7072214507 
 218.125000000  19.8537878733 
 218.128000000  20.0019285377 
 218.131000000  20.1516650179 
 218.134000000  20.3030192376 
 218.137000000  20.4560134769 
 218.140000000  20.6106703784 
 218.143000000  20.7670129538 
 218.146000000  20.9250645910 
 218.149000000  21.0848490602 
 218.152000000  21.2463905215 
 218.155000000  21.4097135315 
 218.158000000  21.5748430507 
 218.161000000  21.7418044507 
 218.164000000  21.9106235219 
 218.167000000  22.0813264808 
 218.170000000  22.2539399780 
 218.173000000  22.4284911057 
 218.176000000  22.6050074062 
 218.179000000  22.7835168797 
 218.182000000  22.9640479926 
 218.185000000  23.1466296864 
 218.188000000  23.3312913856 
 218.191000000  23.5180630072 
 218.194000000  23.7069749691 
 218.197000000  23.8980581993 
 218.200000000  24.0913441451 
 218.203000000  24.2868647829 
 218.206000000  24.4846526271 
 218.209000000  24.6847407402 
 218.212000000  24.8871627427 
 218.215000000  25.0919528231 
 218.218000000  25.2991457479 
 218.221000000  25.5087768723 
 218.224000000  25.7208821507 
 218.227000000  25.9354981472 
 218.230000000  26.1526620470 
 218.233000000  26.3724116668 
 218.236000000  26.5947854666 
 218.239000000  26.8198225610 
 218.242000000  27.0475627306 
 218.245000000  27.2780464342 
 218.248000000  27.5113148204 
 218.251000000  27.7474097397 
 218.254000000  27.9863737571 
 218.257000000  28.2282501647 
 218.260000000  28.4730829938 
 218.263000000  28.7209170283 
 218.266000000  28.9717978174 
 218.269000000  29.2257716890 
 218.272000000  29.4828857628 
 218.275000000  29.7431879643 
 218.278000000  30.0067270377 
 218.281000000  30.2735525608 
 218.284000000  30.5437149580 
 218.287000000  30.8172655150 
 218.290000000  31.0942563933 
 218.293000000  31.3747406441 
 218.296000000  31.6587722233 
 218.299000000  31.9464060061 
 218.302000000  32.2376978018 
 218.305000000  32.5327043690 
 218.308000000  32.8314834305 
 218.311000000  33.1340936883 
 218.314000000  33.4405948394 
 218.317000000  33.7510475906 
 218.320000000  34.0655136744 
 218.323000000  34.3840558640 
 218.326000000  34.7067379893 
 218.329000000  35.0336249520 
 218.332000000  35.3647827414 
 218.335000000  35.7002784499 
 218.338000000  36.0401802888 
 218.341000000  36.3845576030 
 218.344000000  36.7334808874 
 218.347000000  37.0870218013 
 218.350000000  37.4452531843 
 218.353000000  37.8082490709 
 218.356000000  38.1760847055 
 218.359000000  38.5488365574 
 218.362000000  38.9265823347 
 218.365000000  39.3094009988 
 218.368000000  39.6973727780 
 218.371000000  40.0905791817 
 218.374000000  40.4891030124 
 218.377000000  40.8930283795 
 218.380000000  41.3024407107 
 218.383000000  41.7174267641 
 218.386000000  42.1380746391 
 218.389000000  42.5644737869 
 218.392000000  42.9967150201 
 218.395000000  43.4348905218 
 218.398000000  43.8790938535 
 218.401000000  44.3294199625 
 218.404000000  44.7859651878 
 218.407000000  45.2488272654 
 218.410000000  45.7181053322 
 218.413000000  46.1938999288 
 218.416000000  46.6763130002 
 218.419000000  47.1654478964 
 218.422000000  47.6614093705 
 218.425000000  48.1643035747 
 218.428000000  48.6742380559 
 218.431000000  49.1913217480 
 218.434000000  49.7156649629 
 218.437000000  50.2473793787 
 218.440000000  50.7865780264 
 218.443000000  51.3333752732 
 218.446000000  51.8878868034 
 218.449000000  52.4502295967 
 218.452000000  53.0205219029 
 218.455000000  53.5988832139 
 218.458000000  54.1854342321 
 218.461000000  54.7802968344 
 218.464000000  55.3835940337 
 218.467000000  55.9954499349 
 218.470000000  56.6159896875 
 218.473000000  57.2453394325 
 218.476000000  57.8836262459 
 218.479000000  58.5309780754 
 218.482000000  59.1875236724 
 218.485000000  59.8533925186 
 218.488000000  60.5287147451 
 218.491000000  61.2136210468 
 218.494000000  61.9082425884 
 218.497000000  62.6127109039 
 218.500000000  63.3271577888 
 218.503000000  64.0517151837 
 218.506000000  64.7865150500 
 218.509000000  65.5316892363 
 218.512000000  66.2873693363 
 218.515000000  67.0536865360 
 218.518000000  67.8307714516 
 218.521000000  68.6187539561 
 218.524000000  69.4177629954 
 218.527000000  70.2279263918 
 218.530000000  71.0493706361 
 218.533000000  71.8822206667 
 218.536000000  72.7265996349 
 218.539000000  73.5826286571 
 218.542000000  74.4504265522 
 218.545000000  75.3301095635 
 218.548000000  76.2217910660 
 218.551000000  77.1255812563 
 218.554000000  78.0415868267 
 218.557000000  78.9699106209 
 218.560000000  79.9106512726 
 218.563000000  80.8639028247 
 218.566000000  81.8297543299 
 218.569000000  82.8082894309 
 218.572000000  83.7995859204 
 218.575000000  84.8037152808 
 218.578000000  85.8207422012 
 218.581000000  86.8507240740 
 218.584000000  87.8937104675 
 218.587000000  88.9497425770 
 218.590000000  90.0188526522 
 218.593000000  91.1010634005 
 218.596000000  92.1963873681 
 218.599000000  93.3048262951 
 218.602000000  94.4263704484 
 218.605000000  95.5609979296 
 218.608000000  96.7086739589 
 218.611000000  97.8693501355 
 218.614000000  99.0429636748 
 218.617000000  100.229436622 
 218.620000000  101.428675044 
 218.623000000  102.640568197 
 218.626000000  103.864987682 
 218.629000000  105.101786565 
 218.632000000  106.350798496 
 218.635000000  107.611836802 
 218.638000000  108.884693563 
 218.641000000  110.169138685 
 218.644000000  111.464918952 
 218.647000000  112.771757073 
 218.650000000  114.089350730 
 218.653000000  115.417371617 
 218.656000000  116.755464480 
 218.659000000  118.103246169 
 218.662000000  119.460304690 
 218.665000000  120.826198285 
 218.668000000  122.200454512 
 218.671000000  123.582569366 
 218.674000000  124.972006423 
 218.677000000  126.368196014 
 218.680000000  127.770534455 
 218.683000000  129.178383311 
 218.686000000  130.591068723 
 218.689000000  132.007880803 
 218.692000000  133.428073086 
 218.695000000  134.850862077 
 218.698000000  136.275426872 
 218.701000000  137.700908882 
 218.704000000  139.126411660 
 218.707000000  140.551000836 
 218.710000000  141.973704182 
 218.713000000  143.393511802 
 218.716000000  144.809376460 
 218.719000000  146.220214062 
 218.722000000  147.624904285 
 218.725000000  149.022291384 
 218.728000000  150.411185152 
 218.731000000  151.790362078 
 218.734000000  153.158566677 
 218.737000000  154.514513018 
 218.740000000  155.856886442 
 218.743000000  157.184345487 
 218.746000000  158.495524008 
 218.749000000  159.789033506 
 218.752000000  161.063465661 
 218.755000000  162.317395062 
 218.758000000  163.549382144 
 218.761000000  164.757976321 
 218.764000000  165.941719300 
 218.767000000  167.099148588 
 218.770000000  168.228801166 
 218.773000000  169.329217320 
 218.776000000  170.398944628 
 218.779000000  171.436542072 
 218.782000000  172.440584269 
 218.785000000  173.409665801 
 218.788000000  174.342405609 
 218.791000000  175.237451459 
 218.794000000  176.093484423 
 218.797000000  176.909223376 
 218.800000000  177.683429464 
 218.803000000  178.414910533 
 218.806000000  179.102525482 
 218.809000000  179.745188508 
 218.812000000  180.341873228 
 218.815000000  180.891616639 
 218.818000000  181.393522896 
 218.821000000  181.846766871 
 218.824000000  182.250597479 
 218.827000000  182.604340746 
 218.830000000  182.907402577 
 218.833000000  183.159271233 
 218.836000000  183.359519473 
 218.839000000  183.507806358 
 218.842000000  183.603878696 
 218.845000000  183.647572119 
 218.848000000  183.638811788 
 218.851000000  183.577612714 
 218.854000000  183.464079688 
 218.857000000  183.298406840 
 218.860000000  183.080876805 
 218.863000000  182.811859522 
 218.866000000  182.491810671 
 218.869000000  182.121269749 
 218.872000000  181.700857818 
 218.875000000  181.231274930 
 218.878000000  180.713297250 
 218.881000000  180.147773905 
 218.884000000  179.535623579 
 218.887000000  178.877830869 
 218.890000000  178.175442451 
 218.893000000  177.429563063 
 218.896000000  176.641351333 
 218.899000000  175.812015499 
 218.902000000  174.942809028 
 218.905000000  174.035026169 
 218.908000000  173.089997474 
 218.911000000  172.109085300 
 218.914000000  171.093679334 
 218.917000000  170.045192151 
 218.920000000  168.965054830 
 218.923000000  167.854712663 
 218.926000000  166.715620959 
 218.929000000  165.549240972 
 218.932000000  164.357035964 
 218.935000000  163.140467425 
 218.938000000  161.900991456 
 218.941000000  160.640055322 
 218.944000000  159.359094199 
 218.947000000  158.059528106 
 218.950000000  156.742759039 
 218.953000000  155.410168303 
 218.956000000  154.063114047 
 218.959000000  152.702929010 
 218.962000000  151.330918457 
 218.965000000  149.948358336 
 218.968000000  148.556493612 
 218.971000000  147.156536814 
 218.974000000  145.749666757 
 218.977000000  144.337027457 
 218.980000000  142.919727217 
 218.983000000  141.498837884 
 218.986000000  140.075394271 
 218.989000000  138.650393723 
 218.992000000  137.224795839 
 218.995000000  135.799522324 
 218.998000000  134.375456970 
 219.001000000  132.953445755 
 219.004000000  131.534297054 
 219.007000000  130.118781950 
 219.010000000  128.707634636 
 219.013000000  127.301552904 
 219.016000000  125.901198711 
 219.019000000  124.507198809 
 219.022000000  123.120145439 
 219.025000000  121.740597077 
 219.028000000  120.369079229 
 219.031000000  119.006085260 
 219.034000000  117.652077265 
 219.037000000  116.307486961 
 219.040000000  114.972716604 
 219.043000000  113.648139922 
 219.046000000  112.334103063 
 219.049000000  111.030925548 
 219.052000000  109.738901230 
 219.055000000  108.458299253 
 219.058000000  107.189365005 
 219.061000000  105.932321071 
 219.064000000  104.687368172 
 219.067000000  103.454686092 
 219.070000000  102.234434596 
 219.073000000  101.026754331 
 219.076000000  99.8317677037 
 219.079000000  98.6495797495 
 219.082000000  97.4802789743 
 219.085000000  96.3239381777 
 219.088000000  95.1806152544 
 219.091000000  94.0503539722 
 219.094000000  92.9331847280 
 219.097000000  91.8291252790 
 219.100000000  90.7381814507 
 219.103000000  89.6603478210 
 219.106000000  88.5956083801 
 219.109000000  87.5439371656 
 219.112000000  86.5052988754 
 219.115000000  85.4796494552 
 219.118000000  84.4669366638 
 219.121000000  83.4671006145 
 219.124000000  82.4800742944 
 219.127000000  81.5057840611 
 219.130000000  80.5441501181 
 219.133000000  79.5950869678 
 219.136000000  78.6585038456 
 219.139000000  77.7343051316 
 219.142000000  76.8223907450 
 219.145000000  75.9226565171 
 219.148000000  75.0349945482 
 219.151000000  74.1592935447 
 219.154000000  73.2954391400 
 219.157000000  72.4433141989 
 219.160000000  71.6027991050 
 219.163000000  70.7737720338 
 219.166000000  69.9561092104 
 219.169000000  69.1496851524 
 219.172000000  68.3543729005 
 219.175000000  67.5700442345 
 219.178000000  66.7965698778 
 219.181000000  66.0338196892 
 219.184000000  65.2816628435 
 219.187000000  64.5399680009 
 219.190000000  63.8086034662 
 219.193000000  63.0874373378 
 219.196000000  62.3763376468 
 219.199000000  61.6751724876 
 219.202000000  60.9838101396 
 219.205000000  60.3021191805 
 219.208000000  59.6299685915 
 219.211000000  58.9672278562 
 219.214000000  58.3137670509 
 219.217000000  57.6694569293 
 219.220000000  57.0341690004 
 219.223000000  56.4077756004 
 219.226000000  55.7901499589 
 219.229000000  55.1811662598 
 219.232000000  54.5806996969 
 219.235000000  53.9886265249 
 219.238000000  53.4048241057 
 219.241000000  52.8291709504 
 219.244000000  52.2615467572 
 219.247000000  51.7018324457 
 219.250000000  51.1499101871 
 219.253000000  50.6056634319 
 219.256000000  50.0689769332 
 219.259000000  49.5397367682 
 219.262000000  49.0178303561 
 219.265000000  48.5031464735 
 219.268000000  47.9955752675 
 219.271000000  47.4950082667 
 219.274000000  47.0013383892 
 219.277000000  46.5144599494 
 219.280000000  46.0342686627 
 219.283000000  45.5606616483 
 219.286000000  45.0935374299 
 219.289000000  44.6327959363 
 219.292000000  44.1783384986 
 219.295000000  43.7300678479 
 219.298000000  43.2878881106 
 219.301000000  42.8517048030 
 219.304000000  42.4214248247 
 219.307000000  41.9969564514 
 219.310000000  41.5782093260 
 219.313000000  41.1650944499 
 219.316000000  40.7575241730 
 219.319000000  40.3554121827 
 219.322000000  39.9586734929 
 219.325000000  39.5672244320 
 219.328000000  39.1809826307 
 219.331000000  38.7998670092 
 219.334000000  38.4237977636 
 219.337000000  38.0526963527 
 219.340000000  37.6864854836 
 219.343000000  37.3250890979 
 219.346000000  36.9684323568 
 219.349000000  36.6164416265 
 219.352000000  36.2690444632 
 219.355000000  35.9261695984 
 219.358000000  35.5877469227 
 219.361000000  35.2537074716 
 219.364000000  34.9239834094 
 219.367000000  34.5985080136 
 219.370000000  34.2772156599 
 219.373000000  33.9600418063 
 219.376000000  33.6469229774 
 219.379000000  33.3377967495 
 219.382000000  33.0326017343 
 219.385000000  32.7312775639 
 219.388000000  32.4337648754 
 219.391000000  32.1400052954 
 219.394000000  31.8499414248 
 219.397000000  31.5635168238 
 219.400000000  31.2806759966 
 219.403000000  31.0013643768 
 219.406000000  30.7255283122 
 219.409000000  30.4531150503 
 219.412000000  30.1840727238 
 219.415000000  29.9183503362 
 219.418000000  29.6558977473 
 219.421000000  29.3966656594 
 219.424000000  29.1406056032 
 219.427000000  28.8876699238 
 219.430000000  28.6378117674 
 219.433000000  28.3909850677 
 219.436000000  28.1471445325 
 219.439000000  27.9062456307 
 219.442000000  27.6682445793 
 219.445000000  27.4330983305 
 219.448000000  27.2007645592 
 219.451000000  26.9712016506 
 219.454000000  26.7443686880 
 219.457000000  26.5202254403 
 219.460000000  26.2987323507 
 219.463000000  26.0798505245 
 219.466000000  25.8635417177 
 219.469000000  25.6497683257 
 219.472000000  25.4384933722 
 219.475000000  25.2296804977 
 219.478000000  25.0232939493 
 219.481000000  24.8192985694 
 219.484000000  24.6176597857 
 219.487000000  24.4183436005 
 219.490000000  24.2213165809 
 219.493000000  24.0265458484 
 219.496000000  23.8339990694 
 219.499000000  23.6436444454 
 219.502000000  23.4554507034 
 219.505000000  23.2693870867 
 219.508000000  23.0854233458 
 219.511000000  22.9035297292 
 219.514000000  22.7236769746 
 219.517000000  22.5458363002 
 219.520000000  22.3699793961 
 219.523000000  22.1960784161 
 219.526000000  22.0241059690 
 219.529000000  21.8540351109 
 219.532000000  21.6858393372 
 219.535000000  21.5194925746 
 219.538000000  21.3549691732 
 219.541000000  21.1922438997 
 219.544000000  21.0312919292 
 219.547000000  20.8720888383 
 219.550000000  20.7146105980 
 219.553000000  20.5588335663 
 219.556000000  20.4047344820 
 219.559000000  20.2522904572 
 219.562000000  20.1014789712 
 219.565000000  19.9522778635 
 219.568000000  19.8046653280 
 219.571000000  19.6586199062 
 219.574000000  19.5141204813 
 219.577000000  19.3711462720 
 219.580000000  19.2296768267 
 219.583000000  19.0896920177 
 219.586000000  18.9511720352 
 219.589000000  18.8140973821 
 219.592000000  18.6784488680 
 219.595000000  18.5442076044 
 219.598000000  18.4113549987 
 219.601000000  18.2798727497 
 219.604000000  18.1497428419 
 219.607000000  18.0209475407 
 219.610000000  17.8934693876 
 219.613000000  17.7672911954 
 219.616000000  17.6423960430 
 219.619000000  17.5187672714 
 219.622000000  17.3963884785 
 219.625000000  17.2752435152 
 219.628000000  17.1553164807 
 219.631000000  17.0365917180 
 219.634000000  16.9190538100 
 219.637000000  16.8026875755 
 219.640000000  16.6874780645 
 219.643000000  16.5734105546 
 219.646000000  16.4604705472 
 219.649000000  16.3486437634 
 219.652000000  16.2379161402 
 219.655000000  16.1282738270 
 219.658000000  16.0197031819 
 219.661000000  15.9121907678 
 219.664000000  15.8057233495 
 219.667000000  15.7002878897 
 219.670000000  15.5958715459 
 219.673000000  15.4924616670 
 219.676000000  15.3900457901 
 219.679000000  15.2886116374 
 219.682000000  15.1881471127 
 219.685000000  15.0886402987 
 219.688000000  14.9900794539 
 219.691000000  14.8924530096 
 219.694000000  14.7957495669 
 219.697000000  14.6999578940 
 219.700000000  14.6050669231 
 219.703000000  14.5110657482 
 219.706000000  14.4179436219 
 219.709000000  14.3256899530 
 219.712000000  14.2342943037 
 219.715000000  14.1437463874 
 219.718000000  14.0540360656 
 219.721000000  13.9651533462 
 219.724000000  13.8770883805 
 219.727000000  13.7898314609 
 219.730000000  13.7033730189 
 219.733000000  13.6177036226 
 219.736000000  13.5328139742 
 219.739000000  13.4486949084 
 219.742000000  13.3653373897 
 219.745000000  13.2827325105 
 219.748000000  13.2008714889 
 219.751000000  13.1197456669 
 219.754000000  13.0393465082 
 219.757000000  12.9596655961 
 219.760000000  12.8806946319 
 219.763000000  12.8024254326 
 219.766000000  12.7248499296 
 219.769000000  12.6479601660 
 219.772000000  12.5717482957 
 219.775000000  12.4962065811 
 219.778000000  12.4213273916 
 219.781000000  12.3471032014 
 219.784000000  12.2735265888 
 219.787000000  12.2005902334 
 219.790000000  12.1282869154 
 219.793000000  12.0566095135 
 219.796000000  11.9855510036 
 219.799000000  11.9151044569 
 219.802000000  11.8452630391 
 219.805000000  11.7760200079 
 219.808000000  11.7073687126 
 219.811000000  11.6393025920 
 219.814000000  11.5718151730 
 219.817000000  11.5049000699 
 219.820000000  11.4385509819 
 219.823000000  11.3727616930 
 219.826000000  11.3075260698 
 219.829000000  11.2428380605 
 219.832000000  11.1786916939 
 219.835000000  11.1150810778 
 219.838000000  11.0520003977 
 219.841000000  10.9894439162 
 219.844000000  10.9274059711 
 219.847000000  10.8658809748 
 219.850000000  10.8048634127 
 219.853000000  10.7443478426 
 219.856000000  10.6843288932 
 219.859000000  10.6248012629 
 219.862000000  10.5657597194 
 219.865000000  10.5071990981 
 219.868000000  10.4491143009 
 219.871000000  10.3915002960 
 219.874000000  10.3343521160 
 219.877000000  10.2776648577 
 219.880000000  10.2214336804 
 219.883000000  10.1656538057 
 219.886000000  10.1103205161 
 219.889000000  10.0554291540 
 219.892000000  10.0009751214 
 219.895000000  9.94695387824 
 219.898000000  9.89336094227 
 219.901000000  9.84019188769 
 219.904000000  9.78744234450 
 219.907000000  9.73510799770 
 219.910000000  9.68318458644 
 219.913000000  9.63166790323 
 219.916000000  9.58055379316 
 219.919000000  9.52983815314 
 219.922000000  9.47951693114 
 219.925000000  9.42958612545 
 219.928000000  9.38004178394 
 219.931000000  9.33088000335 
 219.934000000  9.28209692858 
 219.937000000  9.23368875198 
 219.940000000  9.18565171271 
 219.943000000  9.13798209601 
 219.946000000  9.09067623259 
 219.949000000  9.04373049792 
 219.952000000  8.99714131166 
 219.955000000  8.95090513698 
 219.958000000  8.90501847996 
 219.961000000  8.85947788895 
 219.964000000  8.81427995403 
 219.967000000  8.76942130636 
 219.970000000  8.72489861764 
 219.973000000  8.68070859950 
 219.976000000  8.63684800298 
 219.979000000  8.59331361795 
 219.982000000  8.55010227257 
 219.985000000  8.50721083275 
 219.988000000  8.46463620164 
 219.991000000  8.42237531909 
 219.994000000  8.38042516117 
 219.997000000  8.33878273961 
 220.000000000  8.29744510137 
