-0.0100000000000000  0.0630838252052560  0.0913413838133396 
-0.00988000000000000  0.0626718271441049  0.0905757033749168 
-0.00975999999999999  0.0622729005604070  0.0898142626828880 
-0.00963999999999998  0.0618872982315828  0.0890571704870846 
-0.00951999999999997  0.0615152707234221  0.0883045386350268 
-0.00939999999999996  0.0611570657693734  0.0875564821495756 
-0.00927999999999995  0.0608129276259220  0.0868131193066913 
-0.00916000000000006  0.0604830964065535  0.0860745717130879 
-0.00904000000000005  0.0601678073971929  0.0853409643835245 
-0.00892000000000004  0.0598672903564182  0.0846124258174469 
-0.00880000000000003  0.0595817688041072  0.0838890880746763 
-0.00868000000000002  0.0593114593026099  0.0831710868497778 
-0.00856000000000001  0.0590565707348197  0.0824585615447583 
-0.00844000000000000  0.0588173035839028  0.0817516553396486 
-0.00831999999999999  0.0585938492196725  0.0810505152605415 
-0.00819999999999999  0.0583863891968583  0.0803552922445737 
-0.00807999999999998  0.0581950945706678  0.0796661412013117 
-0.00795999999999997  0.0580201252351581  0.0789832210699729 
-0.00783999999999996  0.0578616292899750  0.0783066948718543 
-0.00772000000000006  0.0577197424409543  0.0776367297572753 
-0.00760000000000005  0.0575945874399870  0.0769734970463178 
-0.00748000000000004  0.0574862735693233  0.0763171722626013 
-0.00736000000000003  0.0573948961752213  0.0756679351592476 
-0.00724000000000002  0.0573205362554675  0.0750259697361741 
-0.00712000000000002  0.0572632601048600  0.0743914642477722 
-0.00700000000000001  0.0572231190222267  0.0737646111999952 
-0.00688000000000000  0.0572001490819697  0.0731456073358474 
-0.00675999999999999  0.0571943709724985  0.0725346536081770 
-0.00663999999999998  0.0572057899032307  0.0719319551386690 
-0.00651999999999997  0.0572343955811357  0.0713377211618742 
-0.00639999999999996  0.0572801622570664  0.0707521649531079 
-0.00627999999999995  0.0573430488413929  0.0701755037389760 
-0.00616000000000005  0.0574229990877300  0.0696079585893103 
-0.00604000000000005  0.0575199418428523  0.0690497542892649 
-0.00592000000000004  0.0576337913602197  0.0685011191903416 
-0.00580000000000003  0.0577644476739294  0.0679622850390980 
-0.00568000000000002  0.0579117970293404  0.0674334867823587 
-0.00556000000000001  0.0580757123661301  0.0669149623477618 
-0.00544000000000000  0.0582560538491235  0.0664069523985464 
-0.00531999999999999  0.0584526694418916  0.0659097000615838 
-0.00519999999999998  0.0586653955178585  0.0654234506277199 
-0.00507999999999997  0.0588940575034787  0.0649484512236629 
-0.00495999999999996  0.0591384705479592  0.0644849504547531 
-0.00483999999999996  0.0593984402139750  0.0640331980181837 
-0.00472000000000006  0.0596737631838914  0.0635934442863802 
-0.00460000000000005  0.0599642279761333  0.0631659398604855 
-0.00448000000000004  0.0602696156665433  0.0627509350942027 
-0.00436000000000003  0.0605897006097937  0.0623486795884243 
-0.00424000000000002  0.0609242511562406  0.0619594216574668 
-0.00412000000000001  0.0612730303599030  0.0615834077680042 
-0.00400000000000000  0.0616357966736459  0.0612208819521374 
-0.00387999999999999  0.0620123046280084  0.0608720851964157 
-0.00375999999999999  0.0624023054905144  0.0605372548089720 
-0.00363999999999998  0.0628055479027027  0.0602166237673436 
-0.00351999999999997  0.0632217784925289  0.0599104200498889 
-0.00339999999999996  0.0636507424601684  0.0596188659541183 
-0.00327999999999995  0.0640921841356297  0.0593421774056262 
-0.00316000000000005  0.0645458475069676  0.0590805632616285 
-0.00304000000000004  0.0650114767182134  0.0588342246134544 
-0.00292000000000003  0.0654888165364553  0.0586033540926315 
-0.00280000000000002  0.0659776127878281  0.0583881351854219 
-0.00268000000000002  0.0664776127624047  0.0581887415608936 
-0.00256000000000001  0.0669885655882301  0.0580053364177344 
-0.00244000000000000  0.0675102225749664  0.0578380718550802 
-0.00231999999999999  0.0680423375277982  0.0576870882726548 
-0.00219999999999998  0.0685846670323969  0.0575525138054402 
-0.00207999999999997  0.0691369707118806  0.0574344637979537 
-0.00195999999999996  0.0696990114568253  0.0573330403229786 
-0.00183999999999995  0.0702705556294703  0.0572483317493082 
-0.00172000000000005  0.0708513732433082  0.0571804123626800 
-0.00160000000000005  0.0714412381193342  0.0571293420436308 
-0.00148000000000004  0.0720399280202093  0.0570951660054941 
-0.00136000000000003  0.0726472247636683  0.0570779145951955 
-0.00124000000000002  0.0732629143164640  0.0570776031588807 
-0.00112000000000001  0.0738867868701336  0.0570942319737612 
-0.00100000000000000  0.0745186368998825  0.0571277862468814 
-0.000879999999999992  0.0751582632077993  0.0571782361808216 
-0.000759999999999983  0.0758054689516642  0.0572455371056557 
-0.000639999999999974  0.0764600616604714  0.0573296296758049 
-0.000519999999999965  0.0771218532378285  0.0574304401297745 
-0.000399999999999956  0.0777906599542887  0.0575478806101406 
-0.000279999999999947  0.0784663024296598  0.0576818495405887 
-0.000160000000000049  0.0791486056062557  0.0578322320562848 
-4.00000000000400e-05  0.0798373987140044  0.0579989004834196 
 7.99999999999690e-05  0.0805325152282969  0.0581817148633830 
 0.000199999999999978  0.0812337928213710  0.0583805235167264 
 0.000319999999999987  0.0819410733080032  0.0585951636418472 
 0.000439999999999996  0.0826542025862083  0.0588254619431708 
 0.000560000000000005  0.0833730305736171  0.0590712352835518 
 0.000680000000000014  0.0840974111401120  0.0593322913556079 
 0.000800000000000023  0.0848272020373253  0.0596084293667723 
 0.000920000000000032  0.0855622648254839  0.0598994407329902 
 0.00104000000000004  0.0863024647980793  0.0602051097761751 
 0.00116000000000005  0.0870476709048206  0.0605252144207874 
 0.00127999999999995  0.0877977556732318  0.0608595268851797 
 0.00139999999999996  0.0885525951292879  0.0612078143636768 
 0.00151999999999997  0.0893120687173860  0.0615698396956951 
 0.00163999999999997  0.0900760592199702  0.0619453620185852 
 0.00175999999999998  0.0908444526770500  0.0623341374012524 
 0.00187999999999999  0.0916171383058770  0.0627359194559826 
 0.00200000000000000  0.0923940084209810  0.0631504599262886 
