-2.50000000000000 -2.50000000000000  0.148679305325745 
-2.50000000000000 -2.37500000000000  0.239984007828082 
-2.50000000000000 -2.25000000000000  0.375333822701887 
-2.50000000000000 -2.12500000000000  0.568821014562962 
-2.50000000000000 -2.00000000000000  0.835372980559696 
-2.50000000000000 -1.87500000000000  1.18895274363480 
-2.50000000000000 -1.75000000000000  1.64010964831897 
-2.50000000000000 -1.62500000000000  2.19314525161191 
-2.50000000000000 -1.50000000000000  2.84337019047440 
-2.50000000000000 -1.37500000000000  3.57507539809958 
-2.50000000000000 -1.25000000000000  4.36084874191340 
-2.50000000000000 -1.12500000000000  5.16268649833976 
-2.50000000000000 -1.00000000000000  5.93498836592740 
-2.50000000000000 -0.875000000000000  6.62906991712182 
-2.50000000000000 -0.750000000000000  7.19841999923107 
-2.50000000000000 -0.625000000000000  7.60372280537317 
-2.50000000000000 -0.500000000000000  7.81674792305025 
-2.50000000000000 -0.375000000000000  7.82257109581860 
-2.50000000000000 -0.250000000000000  7.62009061915216 
-2.50000000000000 -0.125000000000000  7.22124333745176 
-2.50000000000000  0.00000000000000  6.64951073062374 
-2.50000000000000  0.125000000000000  5.93816753986199 
-2.50000000000000  0.250000000000000  5.12836655605148 
-2.50000000000000  0.375000000000000  4.26681702283699 
-2.50000000000000  0.500000000000000  3.40275039274789 
-2.50000000000000  0.625000000000000  2.58418132781303 
-2.50000000000000  0.750000000000000  1.85407937899180 
-2.50000000000000  0.875000000000000  1.24781832817208 
-2.50000000000000  1.00000000000000  0.793969003838851 
-2.50000000000000  1.12500000000000  0.517301598149744 
-2.50000000000000  1.25000000000000  0.414852999851032 
-2.50000000000000  1.37500000000000  0.404481409263130 
-2.50000000000000  1.50000000000000  0.399259302336217 
-2.50000000000000  1.62500000000000  0.371349933797811 
-2.50000000000000  1.75000000000000  0.323424519420172 
-2.50000000000000  1.87500000000000  0.265516624656556 
-2.50000000000000  2.00000000000000  0.206900663468673 
-2.50000000000000  2.12500000000000  0.153865823233579 
-2.50000000000000  2.25000000000000  0.109638624193870 
-2.50000000000000  2.37500000000000  0.0750712788351925 
-2.50000000000000  2.50000000000000  0.0494950832616592 

-2.37500000000000 -2.50000000000000  0.186709827658427 
-2.37500000000000 -2.37500000000000  0.299882215431824 
-2.37500000000000 -2.25000000000000  0.466759858038708 
-2.37500000000000 -2.12500000000000  0.704093535242249 
-2.37500000000000 -2.00000000000000  1.02944641810162 
-2.37500000000000 -1.87500000000000  1.45903591069949 
-2.37500000000000 -1.75000000000000  2.00485465544510 
-2.37500000000000 -1.62500000000000  2.67139946829901 
-2.37500000000000 -1.50000000000000  3.45257010918076 
-2.37500000000000 -1.37500000000000  4.32944978508801 
-2.37500000000000 -1.25000000000000  5.26966027877467 
-2.37500000000000 -1.12500000000000  6.22874728216500 
-2.37500000000000 -1.00000000000000  7.15362135810631 
-2.37500000000000 -0.875000000000000  7.98757215050838 
-2.37500000000000 -0.750000000000000  8.67596555220889 
-2.37500000000000 -0.625000000000000  9.17159467243454 
-2.37500000000000 -0.500000000000000  9.43885824749855 
-2.37500000000000 -0.375000000000000  9.45640250774972 
-2.37500000000000 -0.250000000000000  9.21836495228967 
-2.37500000000000 -0.125000000000000  8.73464824265800 
-2.37500000000000  0.00000000000000  8.03058916782238 
-2.37500000000000  0.125000000000000  7.14604172543530 
-2.37500000000000  0.250000000000000  6.13352090502437 
-2.37500000000000  0.375000000000000  5.05495108944125 
-2.37500000000000  0.500000000000000  3.97689542530085 
-2.37500000000000  0.625000000000000  2.96487324781086 
-2.37500000000000  0.750000000000000  2.07836905094230 
-2.37500000000000  0.875000000000000  1.36933623547752 
-2.37500000000000  1.00000000000000  0.886342247870879 
-2.37500000000000  1.12500000000000  0.661607322439194 
-2.37500000000000  1.25000000000000  0.625938984853234 
-2.37500000000000  1.37500000000000  0.635065429323812 
-2.37500000000000  1.50000000000000  0.615881176069759 
-2.37500000000000  1.62500000000000  0.559431733397233 
-2.37500000000000  1.75000000000000  0.478074493848512 
-2.37500000000000  1.87500000000000  0.387125066886140 
-2.37500000000000  2.00000000000000  0.298802388171452 
-2.37500000000000  2.12500000000000  0.220800550420998 
-2.37500000000000  2.25000000000000  0.156701091952927 
-2.37500000000000  2.37500000000000  0.107046686916946 
-2.37500000000000  2.50000000000000  0.0704991803460090 

-2.25000000000000 -2.50000000000000  0.231907959940762 
-2.25000000000000 -2.37500000000000  0.370697311994223 
-2.25000000000000 -2.25000000000000  0.574342009627430 
-2.25000000000000 -2.12500000000000  0.862633527527845 
-2.25000000000000 -2.00000000000000  1.25618937441063 
-2.25000000000000 -1.87500000000000  1.77393300494361 
-2.25000000000000 -1.75000000000000  2.42977768865516 
-2.25000000000000 -1.62500000000000  3.22889068580131 
-2.25000000000000 -1.50000000000000  4.16415889010662 
-2.25000000000000 -1.37500000000000  5.21362590563232 
-2.25000000000000 -1.25000000000000  6.33963776453633 
-2.25000000000000 -1.12500000000000  7.49017820088991 
-2.25000000000000 -1.00000000000000  8.60243362370753 
-2.25000000000000 -0.875000000000000  9.60813112421117 
-2.25000000000000 -0.750000000000000  10.4398180349355 
-2.25000000000000 -0.625000000000000  11.0371436900900 
-2.25000000000000 -0.500000000000000  11.3523887893969 
-2.25000000000000 -0.375000000000000  11.3548403108466 
-2.25000000000000 -0.250000000000000  11.0339165250778 
-2.25000000000000 -0.125000000000000  10.4010357466631 
-2.25000000000000  0.00000000000000  9.49008120074361 
-2.25000000000000  0.125000000000000  8.35610553213278 
-2.25000000000000  0.250000000000000  7.07188317379987 
-2.25000000000000  0.375000000000000  5.72223844084160 
-2.25000000000000  0.500000000000000  4.39680051878736 
-2.25000000000000  0.625000000000000  3.18295470054407 
-2.25000000000000  0.750000000000000  2.16241736754434 
-2.25000000000000  0.875000000000000  1.41604078854015 
-2.25000000000000  1.00000000000000  1.02033960074855 
-2.25000000000000  1.12500000000000  0.940331487950472 
-2.25000000000000  1.25000000000000  0.975066824627370 
-2.25000000000000  1.37500000000000  0.981699349700996 
-2.25000000000000  1.50000000000000  0.926900790705045 
-2.25000000000000  1.62500000000000  0.822373201369517 
-2.25000000000000  1.75000000000000  0.690590225806060 
-2.25000000000000  1.87500000000000  0.552353844533123 
-2.25000000000000  2.00000000000000  0.422763308765061 
-2.25000000000000  2.12500000000000  0.310685509174679 
-2.25000000000000  2.25000000000000  0.219744102308142 
-2.25000000000000  2.37500000000000  0.149829988782305 
-2.25000000000000  2.50000000000000  0.0985940017205423 

-2.12500000000000 -2.50000000000000  0.285200307702855 
-2.12500000000000 -2.37500000000000  0.453721296065967 
-2.12500000000000 -2.25000000000000  0.699796273226247 
-2.12500000000000 -2.12500000000000  1.04658893243177 
-2.12500000000000 -2.00000000000000  1.51808763034037 
-2.12500000000000 -1.87500000000000  2.13619885794541 
-2.12500000000000 -1.75000000000000  2.91696358060873 
-2.12500000000000 -1.62500000000000  3.86630644272379 
-2.12500000000000 -1.50000000000000  4.97597569030129 
-2.12500000000000 -1.37500000000000  6.22048044839467 
-2.12500000000000 -1.25000000000000  7.55580628984819 
-2.12500000000000 -1.12500000000000  8.92045933792481 
-2.12500000000000 -1.00000000000000  10.2389961051034 
-2.12500000000000 -0.875000000000000  11.4277540021946 
-2.12500000000000 -0.750000000000000  12.4021440115829 
-2.12500000000000 -0.625000000000000  13.0846931487620 
-2.12500000000000 -0.500000000000000  13.4130200614978 
-2.12500000000000 -0.375000000000000  13.3469940548953 
-2.12500000000000 -0.250000000000000  12.8743610430324 
-2.12500000000000 -0.125000000000000  12.0141019014521 
-2.12500000000000  0.00000000000000  10.8168176749833 
-2.12500000000000  0.125000000000000  9.36166314998678 
-2.12500000000000  0.250000000000000  7.74988264116718 
-2.12500000000000  0.375000000000000  6.09587096494570 
-2.12500000000000  0.500000000000000  4.51796913832092 
-2.12500000000000  0.625000000000000  3.13340970153375 
-2.12500000000000  0.750000000000000  2.06540253057786 
-2.12500000000000  0.875000000000000  1.45416078914922 
-2.12500000000000  1.00000000000000  1.32809296931811 
-2.12500000000000  1.12500000000000  1.42233604907435 
-2.12500000000000  1.25000000000000  1.49196399237437 
-2.12500000000000  1.37500000000000  1.46467540910330 
-2.12500000000000  1.50000000000000  1.34808062317471 
-2.12500000000000  1.62500000000000  1.17276096617843 
-2.12500000000000  1.75000000000000  0.971042011572426 
-2.12500000000000  1.87500000000000  0.769142632977537 
-2.12500000000000  2.00000000000000  0.584883334238334 
-2.12500000000000  2.12500000000000  0.428056923982047 
-2.12500000000000  2.25000000000000  0.302022071568100 
-2.12500000000000  2.37500000000000  0.205671403001357 
-2.12500000000000  2.50000000000000  0.135279760118685 

-2.00000000000000 -2.50000000000000  0.347631256622147 
-2.00000000000000 -2.37500000000000  0.550427578461877 
-2.00000000000000 -2.25000000000000  0.845110404854188 
-2.00000000000000 -2.12500000000000  1.25849478592308 
-2.00000000000000 -2.00000000000000  1.81813617570356 
-2.00000000000000 -1.87500000000000  2.54897952978726 
-2.00000000000000 -1.75000000000000  3.46904446649667 
-2.00000000000000 -1.62500000000000  4.58458702535755 
-2.00000000000000 -1.50000000000000  5.88542570110726 
-2.00000000000000 -1.37500000000000  7.34127249400527 
-2.00000000000000 -1.25000000000000  8.89991029245964 
-2.00000000000000 -1.12500000000000  10.4878864681239 
-2.00000000000000 -1.00000000000000  12.0140810394694 
-2.00000000000000 -0.875000000000000  13.3761266629152 
-2.00000000000000 -0.750000000000000  14.4692785924856 
-2.00000000000000 -0.625000000000000  15.1969892368920 
-2.00000000000000 -0.500000000000000  15.4821250638294 
-2.00000000000000 -0.375000000000000  15.2774672436418 
-2.00000000000000 -0.250000000000000  14.5739220607616 
-2.00000000000000 -0.125000000000000  13.4048773061934 
-2.00000000000000  0.00000000000000  11.8455401331702 
-2.00000000000000  0.125000000000000  10.0069588113859 
-2.00000000000000  0.250000000000000  8.02573015265438 
-2.00000000000000  0.375000000000000  6.05217419397478 
-2.00000000000000  0.500000000000000  4.24288051637798 
-2.00000000000000  0.625000000000000  2.77125124162294 
-2.00000000000000  0.750000000000000  1.86996962333931 
-2.00000000000000  0.875000000000000  1.70430970230585 
-2.00000000000000  1.00000000000000  1.93173724062990 
-2.00000000000000  1.12500000000000  2.13851601363024 
-2.00000000000000  1.25000000000000  2.19380472782355 
-2.00000000000000  1.37500000000000  2.09830927751248 
-2.00000000000000  1.50000000000000  1.89188481027275 
-2.00000000000000  1.62500000000000  1.62148637606835 
-2.00000000000000  1.75000000000000  1.32873714480756 
-2.00000000000000  1.87500000000000  1.04514627192519 
-2.00000000000000  2.00000000000000  0.791181958782589 
-2.00000000000000  2.12500000000000  0.577436120390879 
-2.00000000000000  2.25000000000000  0.406784837708250 
-2.00000000000000  2.37500000000000  0.276813378146389 
-2.00000000000000  2.50000000000000  0.182047221105413 

-1.87500000000000 -2.50000000000000  0.420246852539121 
-1.87500000000000 -2.37500000000000  0.662308857172718 
-1.87500000000000 -2.25000000000000  1.01234326320864 
-1.87500000000000 -2.12500000000000  1.50107303432368 
-1.87500000000000 -2.00000000000000  2.15973746866769 
-1.87500000000000 -1.87500000000000  3.01620415370554 
-1.87500000000000 -1.75000000000000  4.09002513335905 
-1.87500000000000 -1.62500000000000  5.38692095763959 
-1.87500000000000 -1.50000000000000  6.89342485789692 
-1.87500000000000 -1.37500000000000  8.57258051304323 
-1.87500000000000 -1.25000000000000  10.3616212976776 
-1.87500000000000 -1.12500000000000  12.1724552437620 
-1.87500000000000 -1.00000000000000  13.8955492672535 
-1.87500000000000 -0.875000000000000  15.4074627567407 
-1.87500000000000 -0.750000000000000  16.5818238006777 
-1.87500000000000 -0.625000000000000  17.3029618918813 
-1.87500000000000 -0.500000000000000  17.4807344162557 
-1.87500000000000 -0.375000000000000  17.0644310564708 
-1.87500000000000 -0.250000000000000  16.0532472835895 
-1.87500000000000 -0.125000000000000  14.5009718556575 
-1.87500000000000  0.00000000000000  12.5134311764331 
-1.87500000000000  0.125000000000000  10.2388853426876 
-1.87500000000000  0.250000000000000  7.85395276694404 
-1.87500000000000  0.375000000000000  5.55165825050836 
-1.87500000000000  0.500000000000000  3.55010245210892 
-1.87500000000000  0.625000000000000  2.18056951267344 
-1.87500000000000  0.750000000000000  1.91354794487812 
-1.87500000000000  0.875000000000000  2.38796820620293 
-1.87500000000000  1.00000000000000  2.85729215257390 
-1.87500000000000  1.12500000000000  3.09418700198116 
-1.87500000000000  1.25000000000000  3.08944894240807 
-1.87500000000000  1.37500000000000  2.89301481399126 
-1.87500000000000  1.50000000000000  2.56903382946607 
-1.87500000000000  1.62500000000000  2.17873187587171 
-1.87500000000000  1.75000000000000  1.77266792037557 
-1.87500000000000  1.87500000000000  1.38778971575283 
-1.87500000000000  2.00000000000000  1.04743145359727 
-1.87500000000000  2.12500000000000  0.763080134141492 
-1.87500000000000  2.25000000000000  0.537033218642446 
-1.87500000000000  2.37500000000000  0.365292141143019 
-1.87500000000000  2.50000000000000  0.240234846579164 

-1.75000000000000 -2.50000000000000  0.503822998957743 
-1.75000000000000 -2.37500000000000  0.790446569894699 
-1.75000000000000 -2.25000000000000  1.20297344712533 
-1.75000000000000 -2.12500000000000  1.77629846865044 
-1.75000000000000 -2.00000000000000  2.54544390620234 
-1.75000000000000 -1.87500000000000  3.54101750428356 
-1.75000000000000 -1.75000000000000  4.78351670705879 
-1.75000000000000 -1.62500000000000  6.27703279152167 
-1.75000000000000 -1.50000000000000  8.00316671232775 
-1.75000000000000 -1.37500000000000  9.91613973756393 
-1.75000000000000 -1.25000000000000  11.9401426546262 
-1.75000000000000 -1.12500000000000  13.9699118294427 
-1.75000000000000 -1.00000000000000  15.8753382121581 
-1.75000000000000 -0.875000000000000  17.5105684980258 
-1.75000000000000 -0.750000000000000  18.7274852133612 
-1.75000000000000 -0.625000000000000  19.3926209492334 
-1.75000000000000 -0.500000000000000  19.4055477519860 
-1.75000000000000 -0.375000000000000  18.7158344285661 
-1.75000000000000 -0.250000000000000  17.3351765702445 
-1.75000000000000 -0.125000000000000  15.3416745042910 
-1.75000000000000  0.00000000000000  12.8746762059758 
-1.75000000000000  0.125000000000000  10.1211023251180 
-1.75000000000000  0.250000000000000  7.29809920643747 
-1.75000000000000  0.375000000000000  4.64705330897236 
-1.75000000000000  0.500000000000000  2.51286412191985 
-1.75000000000000  0.625000000000000  1.78325479190543 
-1.75000000000000  0.750000000000000  2.60674296059950 
-1.75000000000000  0.875000000000000  3.51546826098406 
-1.75000000000000  1.00000000000000  4.08465448885340 
-1.75000000000000  1.12500000000000  4.28918783782505 
-1.75000000000000  1.25000000000000  4.18720389390554 
-1.75000000000000  1.37500000000000  3.86010783779956 
-1.75000000000000  1.50000000000000  3.39130388234889 
-1.75000000000000  1.62500000000000  2.85525768405715 
-1.75000000000000  1.75000000000000  2.31179883138005 
-1.75000000000000  1.87500000000000  1.80401145629170 
-1.75000000000000  2.00000000000000  1.35868991478927 
-1.75000000000000  2.12500000000000  0.988504692274434 
-1.75000000000000  2.25000000000000  0.695125018910148 
-1.75000000000000  2.37500000000000  0.472650767064460 
-1.75000000000000  2.50000000000000  0.310837736387778 

-1.62500000000000 -2.50000000000000  0.598474879759193 
-1.62500000000000 -2.37500000000000  0.934867873288496 
-1.62500000000000 -2.25000000000000  1.41687090680463 
-1.62500000000000 -2.12500000000000  2.08380712116698 
-1.62500000000000 -2.00000000000000  2.97458154970017 
-1.62500000000000 -1.87500000000000  4.12236494656881 
-1.62500000000000 -1.75000000000000  5.54801679446463 
-1.62500000000000 -1.62500000000000  7.25290560054380 
-1.62500000000000 -1.50000000000000  9.21206525609413 
-1.62500000000000 -1.37500000000000  11.3688086865560 
-1.62500000000000 -1.25000000000000  13.6319883690687 
-1.62500000000000 -1.12500000000000  15.8770454979394 
-1.62500000000000 -1.00000000000000  17.9518015542463 
-1.62500000000000 -0.875000000000000  19.6875462505575 
-1.62500000000000 -0.750000000000000  20.9152670588091 
-1.62500000000000 -0.625000000000000  21.4858077730829 
-1.62500000000000 -0.500000000000000  21.2914639609265 
-1.62500000000000 -0.375000000000000  20.2853753689470 
-1.62500000000000 -0.250000000000000  18.4945718743799 
-1.62500000000000 -0.125000000000000  16.0231390658454 
-1.62500000000000  0.00000000000000  13.0438888071963 
-1.62500000000000  0.125000000000000  9.78009882431618 
-1.62500000000000  0.250000000000000  6.48435125679242 
-1.62500000000000  0.375000000000000  3.44499182237837 
-1.62500000000000  0.500000000000000  1.39723231471490 
-1.62500000000000  0.625000000000000  2.37157893536520 
-1.62500000000000  0.750000000000000  3.92512065184665 
-1.62500000000000  0.875000000000000  5.02049258767722 
-1.62500000000000  1.00000000000000  5.60411475775661 
-1.62500000000000  1.12500000000000  5.73412817244036 
-1.62500000000000  1.25000000000000  5.50353985589061 
-1.62500000000000  1.37500000000000  5.01631680931793 
-1.62500000000000  1.50000000000000  4.37317828297085 
-1.62500000000000  1.62500000000000  3.66234675017749 
-1.62500000000000  1.75000000000000  2.95419748123361 
-1.62500000000000  1.87500000000000  2.29916948743773 
-1.62500000000000  2.00000000000000  1.72830189127147 
-1.62500000000000  2.12500000000000  1.25570498251755 
-1.62500000000000  2.25000000000000  0.882227311723667 
-1.62500000000000  2.37500000000000  0.599582666005988 
-1.62500000000000  2.50000000000000  0.394289081661593 

-1.50000000000000 -2.50000000000000  0.703263072394932 
-1.50000000000000 -2.37500000000000  1.09389461656551 
-1.50000000000000 -2.25000000000000  1.65123812411439 
-1.50000000000000 -2.12500000000000  2.41920862254805 
-1.50000000000000 -2.00000000000000  3.44062367414760 
-1.50000000000000 -1.87500000000000  4.75101258713041 
-1.50000000000000 -1.75000000000000  6.37104724774121 
-1.50000000000000 -1.62500000000000  8.29838993098755 
-1.50000000000000 -1.50000000000000  10.5000724147509 
-1.50000000000000 -1.37500000000000  12.9067166160538 
-1.50000000000000 -1.25000000000000  15.4099611090523 
-1.50000000000000 -1.12500000000000  17.8643692042026 
-1.50000000000000 -1.00000000000000  20.0948372134736 
-1.50000000000000 -0.875000000000000  21.9100176176219 
-1.50000000000000 -0.750000000000000  23.1214181154772 
-1.50000000000000 -0.625000000000000  23.5666048742269 
-1.50000000000000 -0.500000000000000  23.1334948276534 
-1.50000000000000 -0.375000000000000  21.7814888001430 
-1.50000000000000 -0.250000000000000  19.5547541011485 
-1.50000000000000 -0.125000000000000  16.5838041514955 
-1.50000000000000  0.00000000000000  13.0737784011913 
-1.50000000000000  0.125000000000000  9.28127538878453 
-1.50000000000000  0.250000000000000  5.48726229544006 
-1.50000000000000  0.375000000000000  2.01626469658578 
-1.50000000000000  0.500000000000000  1.50589213552663 
-1.50000000000000  0.625000000000000  3.88817119921411 
-1.50000000000000  0.750000000000000  5.71834502420045 
-1.50000000000000  0.875000000000000  6.88828927052425 
-1.50000000000000  1.00000000000000  7.43855396971209 
-1.50000000000000  1.12500000000000  7.45917983031424 
-1.50000000000000  1.25000000000000  7.06592259947959 
-1.50000000000000  1.37500000000000  6.38294731255377 
-1.50000000000000  1.50000000000000  5.52923802400504 
-1.50000000000000  1.62500000000000  4.60874582744480 
-1.50000000000000  1.75000000000000  3.70427463350881 
-1.50000000000000  1.87500000000000  2.87488519577927 
-1.50000000000000  2.00000000000000  2.15637432038958 
-1.50000000000000  2.12500000000000  1.56415828307704 
-1.50000000000000  2.25000000000000  1.09770292230211 
-1.50000000000000  2.37500000000000  0.745572283107807 
-1.50000000000000  2.50000000000000  0.490257133410026 

-1.37500000000000 -2.50000000000000  0.815938321580755 
-1.37500000000000 -2.37500000000000  1.26374300860576 
-1.37500000000000 -2.25000000000000  1.89997859043305 
-1.37500000000000 -2.12500000000000  2.77308690124452 
-1.37500000000000 -2.00000000000000  3.92961387559032 
-1.37500000000000 -1.87500000000000  5.40708339747147 
-1.37500000000000 -1.75000000000000  7.22536748651712 
-1.37500000000000 -1.62500000000000  9.37750940586809 
-1.37500000000000 -1.50000000000000  11.8213288292274 
-1.37500000000000 -1.37500000000000  14.4733517847865 
-1.37500000000000 -1.25000000000000  17.2066299078375 
-1.37500000000000 -1.12500000000000  19.8538397228547 
-1.37500000000000 -1.00000000000000  22.2166675528900 
-1.37500000000000 -0.875000000000000  24.0818306837778 
-1.37500000000000 -0.750000000000000  25.2430834250551 
-1.37500000000000 -0.625000000000000  25.5272070748453 
-1.37500000000000 -0.500000000000000  24.8204829163456 
-1.37500000000000 -0.375000000000000  23.0909450341336 
-1.37500000000000 -0.250000000000000  20.4013985668442 
-1.37500000000000 -0.125000000000000  16.9092443445764 
-1.37500000000000  0.00000000000000  12.8516280647208 
-1.37500000000000  0.125000000000000  8.51785977083195 
-1.37500000000000  0.250000000000000  4.21531216322484 
-1.37500000000000  0.375000000000000  0.362699183105811 
-1.37500000000000  0.500000000000000  3.25844941487006 
-1.37500000000000  0.625000000000000  6.00392462693651 
-1.37500000000000  0.750000000000000  7.97418273257135 
-1.37500000000000  0.875000000000000  9.16495483326039 
-1.37500000000000  1.00000000000000  9.63893006215788 
-1.37500000000000  1.12500000000000  9.50581165341566 
-1.37500000000000  1.25000000000000  8.90275195398896 
-1.37500000000000  1.37500000000000  7.97609094503836 
-1.37500000000000  1.50000000000000  6.86592442200424 
-1.37500000000000  1.62500000000000  5.69444183820641 
-1.37500000000000  1.75000000000000  4.55847528126448 
-1.37500000000000  1.87500000000000  3.52627654332447 
-1.37500000000000  2.00000000000000  2.63811524147112 
-1.37500000000000  2.12500000000000  1.90988444530088 
-1.37500000000000  2.25000000000000  1.33860523512442 
-1.37500000000000  2.37500000000000  0.908632556051956 
-1.37500000000000  2.50000000000000  0.597509441178184 

-1.25000000000000 -2.50000000000000  0.932922784732717 
-1.25000000000000 -2.37500000000000  1.43855019152634 
-1.25000000000000 -2.25000000000000  2.15380647889410 
-1.25000000000000 -2.12500000000000  3.13123860652828 
-1.25000000000000 -2.00000000000000  4.42057863844502 
-1.25000000000000 -1.87500000000000  6.06067499621742 
-1.25000000000000 -1.75000000000000  8.06979528919130 
-1.25000000000000 -1.62500000000000  10.4354291747459 
-1.25000000000000 -1.50000000000000  13.1051580082945 
-1.25000000000000 -1.37500000000000  15.9803953345521 
-1.25000000000000 -1.25000000000000  18.9147815544639 
-1.25000000000000 -1.12500000000000  21.7187257815639 
-1.25000000000000 -1.00000000000000  24.1710294864182 
-1.25000000000000 -0.875000000000000  26.0376827264916 
-1.25000000000000 -0.750000000000000  27.0967703308918 
-1.25000000000000 -0.625000000000000  27.1670069353020 
-1.25000000000000 -0.500000000000000  26.1359544004256 
-1.25000000000000 -0.375000000000000  23.9829013964758 
-1.25000000000000 -0.250000000000000  20.7912633361650 
-1.25000000000000 -0.125000000000000  16.7466202323884 
-1.25000000000000  0.00000000000000  12.1191484175807 
-1.25000000000000  0.125000000000000  7.23263216881308 
-1.25000000000000  0.250000000000000  2.42547040764943 
-1.25000000000000  0.375000000000000  1.99005787145038 
-1.25000000000000  0.500000000000000  5.75901113304785 
-1.25000000000000  0.625000000000000  8.70972068834749 
-1.25000000000000  0.750000000000000  10.7600433889719 
-1.25000000000000  0.875000000000000  11.9144467785558 
-1.25000000000000  1.00000000000000  12.2503283291282 
-1.25000000000000  1.12500000000000  11.8984216869107 
-1.25000000000000  1.25000000000000  11.0208854111524 
-1.25000000000000  1.37500000000000  9.79007955722998 
-1.25000000000000  1.50000000000000  8.37023704377690 
-1.25000000000000  1.62500000000000  6.90349372272337 
-1.25000000000000  1.75000000000000  5.50106270977651 
-1.25000000000000  1.87500000000000  4.23966863456981 
-1.25000000000000  2.00000000000000  3.16269524180418 
-1.25000000000000  2.12500000000000  2.28493330457235 
-1.25000000000000  2.25000000000000  1.59947088473919 
-1.25000000000000  2.37500000000000  1.08522694164387 
-1.25000000000000  2.50000000000000  0.713879442601921 

-1.12500000000000 -2.50000000000000  1.04954246268093 
-1.12500000000000 -2.37500000000000  1.61084356352295 
-1.12500000000000 -2.25000000000000  2.40111589431159 
-1.12500000000000 -2.12500000000000  3.47617665837919 
-1.12500000000000 -2.00000000000000  4.88798302480208 
-1.12500000000000 -1.87500000000000  6.67567564877405 
-1.12500000000000 -1.75000000000000  8.85488158592753 
-1.12500000000000 -1.62500000000000  11.4065721570985 
-1.12500000000000 -1.50000000000000  14.2672828133545 
-1.12500000000000 -1.37500000000000  17.3227703579272 
-1.12500000000000 -1.25000000000000  20.4071189825153 
-1.12500000000000 -1.12500000000000  23.3088852795059 
-1.12500000000000 -1.00000000000000  25.7851143395033 
-1.12500000000000 -0.875000000000000  27.5830007301921 
-1.12500000000000 -0.750000000000000  28.4676573158195 
-1.12500000000000 -0.625000000000000  28.2529957000554 
-1.12500000000000 -0.500000000000000  26.8313506784036 
-1.12500000000000 -0.375000000000000  24.1966022588276 
-1.12500000000000 -0.250000000000000  20.4556543489513 
-1.12500000000000 -0.125000000000000  15.8245791417799 
-1.12500000000000  0.00000000000000  10.6085051835871 
-1.12500000000000  0.125000000000000  5.16807873931205 
-1.12500000000000  0.250000000000000  0.207857550077463 
-1.12500000000000  0.375000000000000  4.93580119033827 
-1.12500000000000  0.500000000000000  8.97313091330000 
-1.12500000000000  0.625000000000000  12.0609036994644 
-1.12500000000000  0.750000000000000  14.1152049190724 
-1.12500000000000  0.875000000000000  15.1501250738054 
-1.12500000000000  1.00000000000000  15.2623764858735 
-1.12500000000000  1.12500000000000  14.6089744354661 
-1.12500000000000  1.25000000000000  13.3817731308490 
-1.12500000000000  1.37500000000000  11.7824839394995 
-1.12500000000000  1.50000000000000  10.0010742543459 
-1.12500000000000  1.62500000000000  8.19954850608128 
-1.12500000000000  1.75000000000000  6.50214074562019 
-1.12500000000000  1.87500000000000  4.99195991220938 
-1.12500000000000  2.00000000000000  3.71322673717220 
-1.12500000000000  2.12500000000000  2.67756780251824 
-1.12500000000000  2.25000000000000  1.87251127792066 
-1.12500000000000  2.37500000000000  1.27039993872265 
-1.12500000000000  2.50000000000000  0.836330184185282 

-1.00000000000000 -2.50000000000000  1.16045195910896 
-1.00000000000000 -2.37500000000000  1.77232639280301 
-1.00000000000000 -2.25000000000000  2.62936391760122 
-1.00000000000000 -2.12500000000000  3.78945442931513 
-1.00000000000000 -2.00000000000000  5.30546984704852 
-1.00000000000000 -1.87500000000000  7.21553993063024 
-1.00000000000000 -1.75000000000000  9.53150008934885 
-1.00000000000000 -1.62500000000000  12.2269530508064 
-1.00000000000000 -1.50000000000000  15.2269731056616 
-1.00000000000000 -1.37500000000000  18.4017891676398 
-1.00000000000000 -1.25000000000000  21.5666847251901 
-1.00000000000000 -1.12500000000000  24.4898035909807 
-1.00000000000000 -1.00000000000000  26.9085864971132 
-1.00000000000000 -0.875000000000000  28.5542785020069 
-1.00000000000000 -0.750000000000000  29.1824703012633 
-1.00000000000000 -0.625000000000000  28.6061426062568 
-1.00000000000000 -0.500000000000000  26.7264295000292 
-1.00000000000000 -0.375000000000000  23.5556655828311 
-1.00000000000000 -0.250000000000000  19.2276361842372 
-1.00000000000000 -0.125000000000000  13.9915869753235 
-1.00000000000000  0.00000000000000  8.18946675999323 
-1.00000000000000  0.125000000000000  2.22214934922613 
-1.00000000000000  0.250000000000000  3.52509758329312 
-1.00000000000000  0.375000000000000  8.65040631570725 
-1.00000000000000  0.500000000000000  12.8756571512281 
-1.00000000000000  0.625000000000000  16.0068364672787 
-1.00000000000000  0.750000000000000  17.9648810101115 
-1.00000000000000  0.875000000000000  18.7799868491656 
-1.00000000000000  1.00000000000000  18.5743193747782 
-1.00000000000000  1.12500000000000  17.5362099234011 
-1.00000000000000  1.25000000000000  15.8905036065795 
-1.00000000000000  1.37500000000000  13.8695326176426 
-1.00000000000000  1.50000000000000  11.6883680731019 
-1.00000000000000  1.62500000000000  9.52681647789659 
-1.00000000000000  1.75000000000000  7.51927313512507 
-1.00000000000000  1.87500000000000  5.75221798432129 
-1.00000000000000  2.00000000000000  4.26803675287196 
-1.00000000000000  2.12500000000000  3.07314171815765 
-1.00000000000000  2.25000000000000  2.14814238437946 
-1.00000000000000  2.37500000000000  1.45805118819627 
-1.00000000000000  2.50000000000000  0.961066305018586 

-0.875000000000000 -2.50000000000000  1.26015774986341 
-0.875000000000000 -2.37500000000000  1.91478781530351 
-0.875000000000000 -2.25000000000000  2.82660264554726 
-0.875000000000000 -2.12500000000000  4.05415695715672 
-0.875000000000000 -2.00000000000000  5.64976809771581 
-0.875000000000000 -1.87500000000000  7.64920461724191 
-0.875000000000000 -1.75000000000000  10.0594921420732 
-0.875000000000000 -1.62500000000000  12.8463886043168 
-0.875000000000000 -1.50000000000000  15.9237404336507 
-0.875000000000000 -1.37500000000000  19.1472870459525 
-0.875000000000000 -1.25000000000000  22.3153660684662 
-0.875000000000000 -1.12500000000000  25.1783137826030 
-0.875000000000000 -1.00000000000000  27.4571983279774 
-0.875000000000000 -0.875000000000000  28.8710128332165 
-0.875000000000000 -0.750000000000000  29.1698040830400 
-0.875000000000000 -0.625000000000000  28.1696719769636 
-0.875000000000000 -0.500000000000000  25.7844341547511 
-0.875000000000000 -0.375000000000000  22.0483317605584 
-0.875000000000000 -0.250000000000000  17.1247702625142 
-0.875000000000000 -0.125000000000000  11.2979493062653 
-0.875000000000000  0.00000000000000  4.94775406002923 
-0.875000000000000  0.125000000000000  1.51249248355277 
-0.875000000000000  0.250000000000000  7.60098695268611 
-0.875000000000000  0.375000000000000  12.9581359837357 
-0.875000000000000  0.500000000000000  17.2678676199266 
-0.875000000000000  0.625000000000000  20.3362417078508 
-0.875000000000000  0.750000000000000  22.0954882496438 
-0.875000000000000  0.875000000000000  22.5979835564231 
-0.875000000000000  1.00000000000000  21.9960641844345 
-0.875000000000000  1.12500000000000  20.5121528853769 
-0.875000000000000  1.25000000000000  18.4047028040813 
-0.875000000000000  1.37500000000000  15.9353081820899 
-0.875000000000000  1.50000000000000  13.3413192867203 
-0.875000000000000  1.62500000000000  10.8167444442872 
-0.875000000000000  1.75000000000000  8.50246035763205 
-0.875000000000000  1.87500000000000  6.48511332931678 
-0.875000000000000  2.00000000000000  4.80285335865317 
-0.875000000000000  2.12500000000000  3.45537190276578 
-0.875000000000000  2.25000000000000  2.41564679701601 
-0.875000000000000  2.37500000000000  1.64122909123841 
-0.875000000000000  2.50000000000000  1.08363016633067 

-0.750000000000000 -2.50000000000000  1.34355082070547 
-0.750000000000000 -2.37500000000000  2.03096042619949 
-0.750000000000000 -2.25000000000000  2.98282995474796 
-0.750000000000000 -2.12500000000000  4.25697464538927 
-0.750000000000000 -2.00000000000000  5.90378527429098 
-0.750000000000000 -1.87500000000000  7.95555538740037 
-0.750000000000000 -1.75000000000000  10.4139039185462 
-0.750000000000000 -1.62500000000000  13.2369066441936 
-0.750000000000000 -1.50000000000000  16.3282761236300 
-0.750000000000000 -1.37500000000000  19.5313435933035 
-0.750000000000000 -1.25000000000000  22.6304890599808 
-0.750000000000000 -1.12500000000000  25.3619308051316 
-0.750000000000000 -1.00000000000000  27.4344636599169 
-0.750000000000000 -0.875000000000000  28.5590138298174 
-0.750000000000000 -0.750000000000000  28.4840465180274 
-0.750000000000000 -0.625000000000000  27.0322545931322 
-0.750000000000000 -0.500000000000000  24.1329029750701 
-0.750000000000000 -0.375000000000000  19.8440062734002 
-0.750000000000000 -0.250000000000000  14.3594323190609 
-0.750000000000000 -0.125000000000000  7.99844147869191 
-0.750000000000000  0.00000000000000  1.19951270008953 
-0.750000000000000  0.125000000000000  5.66724194613557 
-0.750000000000000  0.250000000000000  12.0244480595087 
-0.750000000000000  0.375000000000000  17.5072224239394 
-0.750000000000000  0.500000000000000  21.7989488219165 
-0.750000000000000  0.625000000000000  24.7111001705880 
-0.750000000000000  0.750000000000000  26.1926207143092 
-0.750000000000000  0.875000000000000  26.3219100398739 
-0.750000000000000  1.00000000000000  25.2832097195022 
-0.750000000000000  1.12500000000000  23.3325438369690 
-0.750000000000000  1.25000000000000  20.7595328532366 
-0.750000000000000  1.37500000000000  17.8512196213732 
-0.750000000000000  1.50000000000000  14.8627839973555 
-0.750000000000000  1.62500000000000  11.9980790391485 
-0.750000000000000  1.75000000000000  9.40077686556223 
-0.750000000000000  1.87500000000000  7.15501843497323 
-0.750000000000000  2.00000000000000  5.29315052989211 
-0.750000000000000  2.12500000000000  3.80755897910338 
-0.750000000000000  2.25000000000000  2.66373418246281 
-0.750000000000000  2.37500000000000  1.81234276252527 
-0.750000000000000  2.50000000000000  1.19895444702334 

-0.625000000000000 -2.50000000000000  1.40638655143350 
-0.625000000000000 -2.37500000000000  2.11521231083477 
-0.625000000000000 -2.25000000000000  3.09095894556034 
-0.625000000000000 -2.12500000000000  4.38951923282476 
-0.625000000000000 -2.00000000000000  6.05832952055316 
-0.625000000000000 -1.87500000000000  8.12558161178207 
-0.625000000000000 -1.75000000000000  10.5875316458758 
-0.625000000000000 -1.62500000000000  13.3955248042051 
-0.625000000000000 -1.50000000000000  16.4451402076713 
-0.625000000000000 -1.37500000000000  19.5703431004978 
-0.625000000000000 -1.25000000000000  22.5454603244720 
-0.625000000000000 -1.12500000000000  25.0970220959628 
-0.625000000000000 -1.00000000000000  26.9260642041831 
-0.625000000000000 -0.875000000000000  27.7395755470285 
-0.625000000000000 -0.750000000000000  27.2877648785318 
-0.625000000000000 -0.625000000000000  25.4021233204551 
-0.625000000000000 -0.500000000000000  22.0282641260850 
-0.625000000000000 -0.375000000000000  17.2475495987724 
-0.625000000000000 -0.250000000000000  11.2829693159291 
-0.625000000000000 -0.125000000000000  4.49214006719710 
-0.625000000000000  0.00000000000000  2.76522497599190 
-0.625000000000000  0.125000000000000  9.83782403590211 
-0.625000000000000  0.250000000000000  16.3505199130604 
-0.625000000000000  0.375000000000000  21.8610595539822 
-0.625000000000000  0.500000000000000  26.0528526937560 
-0.625000000000000  0.625000000000000  28.7475077198961 
-0.625000000000000  0.750000000000000  29.9135178469937 
-0.625000000000000  0.875000000000000  29.6557789894478 
-0.625000000000000  1.00000000000000  28.1885449183855 
-0.625000000000000  1.12500000000000  25.7975756211436 
-0.625000000000000  1.25000000000000  22.7985123606358 
-0.625000000000000  1.37500000000000  19.4982490324638 
-0.625000000000000  1.50000000000000  16.1645387652781 
-0.625000000000000  1.62500000000000  13.0067737554610 
-0.625000000000000  1.75000000000000  10.1684105050255 
-0.625000000000000  1.87500000000000  7.72943443286133 
-0.625000000000000  2.00000000000000  5.71593648793531 
-0.625000000000000  2.12500000000000  4.11343426567705 
-0.625000000000000  2.25000000000000  2.88090193841990 
-0.625000000000000  2.37500000000000  1.96330374235762 
-0.625000000000000  2.50000000000000  1.30142234466164 

-0.500000000000000 -2.50000000000000  1.44567658665774 
-0.500000000000000 -2.37500000000000  2.16402846374901 
-0.500000000000000 -2.25000000000000  3.14735099497342 
-0.500000000000000 -2.12500000000000  4.44881942600052 
-0.500000000000000 -2.00000000000000  6.11240082909161 
-0.500000000000000 -1.87500000000000  8.16218425898606 
-0.500000000000000 -1.75000000000000  10.5898160454564 
-0.500000000000000 -1.62500000000000  13.3416093697075 
-0.500000000000000 -1.50000000000000  16.3077360374677 
-0.500000000000000 -1.37500000000000  19.3164710228392 
-0.500000000000000 -1.25000000000000  22.1364535371628 
-0.500000000000000 -1.12500000000000  24.4891567510425 
-0.500000000000000 -1.00000000000000  26.0722223191226 
-0.500000000000000 -0.875000000000000  26.5922473050298 
-0.500000000000000 -0.750000000000000  25.8034278168412 
-0.500000000000000 -0.625000000000000  23.5466635926806 
-0.500000000000000 -0.500000000000000  19.7827787865343 
-0.500000000000000 -0.375000000000000  14.6138660400527 
-0.500000000000000 -0.250000000000000  8.29010547813684 
-0.500000000000000 -0.125000000000000  1.30919005415501 
-0.500000000000000  0.00000000000000  6.33533928947699 
-0.500000000000000  0.125000000000000  13.5755319158180 
-0.500000000000000  0.250000000000000  20.1441434812949 
-0.500000000000000  0.375000000000000  25.6052380213919 
-0.500000000000000  0.500000000000000  29.6467868200931 
-0.500000000000000  0.625000000000000  32.1029570262351 
-0.500000000000000  0.750000000000000  32.9614760450866 
-0.500000000000000  0.875000000000000  32.3507489920458 
-0.500000000000000  1.00000000000000  30.5098671726968 
-0.500000000000000  1.12500000000000  27.7477756292197 
-0.500000000000000  1.25000000000000  24.3991760005629 
-0.500000000000000  1.37500000000000  20.7843643849826 
-0.500000000000000  1.50000000000000  17.1784348524900 
-0.500000000000000  1.62500000000000  13.7926929484857 
-0.500000000000000  1.75000000000000  10.7684225276904 
-0.500000000000000  1.87500000000000  8.18095911278900 
-0.500000000000000  2.00000000000000  6.05073421762817 
-0.500000000000000  2.12500000000000  4.35765870366668 
-0.500000000000000  2.25000000000000  3.05573154640205 
-0.500000000000000  2.37500000000000  2.08574790432724 
-0.500000000000000  2.50000000000000  1.38505806001251 

-0.375000000000000 -2.50000000000000  1.45996841855798 
-0.375000000000000 -2.37500000000000  2.17627431275370 
-0.375000000000000 -2.25000000000000  3.15194840250880 
-0.375000000000000 -2.12500000000000  4.43711978092871 
-0.375000000000000 -2.00000000000000  6.07233332892948 
-0.375000000000000 -1.87500000000000  8.07818623831314 
-0.375000000000000 -1.75000000000000  10.4430642640171 
-0.375000000000000 -1.62500000000000  13.1104530160446 
-0.375000000000000 -1.50000000000000  15.9681883584198 
-0.375000000000000 -1.37500000000000  18.8426615544731 
-0.375000000000000 -1.25000000000000  21.5010738286056 
-0.375000000000000 -1.12500000000000  23.6640957571885 
-0.375000000000000 -1.00000000000000  25.0296977982412 
-0.375000000000000 -0.875000000000000  25.3067185031078 
-0.375000000000000 -0.750000000000000  24.2543955114922 
-0.375000000000000 -0.625000000000000  21.7221804878130 
-0.375000000000000 -0.500000000000000  17.6832655804754 
-0.375000000000000 -0.375000000000000  12.2561598684839 
-0.375000000000000 -0.250000000000000  5.71854444646157 
-0.375000000000000 -0.125000000000000  1.80996733159328 
-0.375000000000000  0.00000000000000  9.23834349676909 
-0.375000000000000  0.125000000000000  16.5318128803566 
-0.375000000000000  0.250000000000000  23.0741275195436 
-0.375000000000000  0.375000000000000  28.4340684408613 
-0.375000000000000  0.500000000000000  32.3072668775465 
-0.375000000000000  0.625000000000000  34.5404833312919 
-0.375000000000000  0.750000000000000  35.1376445685666 
-0.375000000000000  0.875000000000000  34.2450339190536 
-0.375000000000000  1.00000000000000  32.1192019949551 
-0.375000000000000  1.12500000000000  29.0842237024801 
-0.375000000000000  1.25000000000000  25.4862049408443 
-0.375000000000000  1.37500000000000  21.6524599332228 
-0.375000000000000  1.50000000000000  17.8608399045667 
-0.375000000000000  1.62500000000000  14.3219211801517 
-0.375000000000000  1.75000000000000  11.1739200527630 
-0.375000000000000  1.87500000000000  8.48796373232220 
-0.375000000000000  2.00000000000000  6.28011111643230 
-0.375000000000000  2.12500000000000  4.52634546576636 
-0.375000000000000  2.25000000000000  3.17742166927526 
-0.375000000000000  2.37500000000000  2.17154442815745 
-0.375000000000000  2.50000000000000  1.44397120626921 

-0.250000000000000 -2.50000000000000  1.44948279177074 
-0.250000000000000 -2.37500000000000  2.15323311103245 
-0.250000000000000 -2.25000000000000  3.10805519224553 
-0.250000000000000 -2.12500000000000  4.36114745838428 
-0.250000000000000 -2.00000000000000  5.95016196133245 
-0.250000000000000 -1.87500000000000  7.89326398993250 
-0.250000000000000 -1.75000000000000  10.1772565932682 
-0.250000000000000 -1.62500000000000  12.7451278327002 
-0.250000000000000 -1.50000000000000  15.4853166553352 
-0.250000000000000 -1.37500000000000  18.2257363524461 
-0.250000000000000 -1.25000000000000  20.7357671143625 
-0.250000000000000 -1.12500000000000  22.7387371540776 
-0.250000000000000 -1.00000000000000  23.9357920003631 
-0.250000000000000 -0.875000000000000  24.0397465903357 
-0.250000000000000 -0.750000000000000  22.8150366710311 
-0.250000000000000 -0.625000000000000  20.1178862141394 
-0.250000000000000 -0.500000000000000  15.9299651953465 
-0.250000000000000 -0.375000000000000  10.3804097554019 
-0.250000000000000 -0.250000000000000  3.77595442431429 
-0.250000000000000 -0.125000000000000  3.74582637237218 
-0.250000000000000  0.00000000000000  11.2608959901885 
-0.250000000000000  0.125000000000000  18.5129896314120 
-0.250000000000000  0.250000000000000  24.9650214216616 
-0.250000000000000  0.375000000000000  30.1937731425015 
-0.250000000000000  0.500000000000000  33.9040889603124 
-0.250000000000000  0.625000000000000  35.9536241632449 
-0.250000000000000  0.750000000000000  36.3578124566495 
-0.250000000000000  0.875000000000000  35.2738427448914 
-0.250000000000000  1.00000000000000  32.9675035420681 
-0.250000000000000  1.12500000000000  29.7696809060070 
-0.250000000000000  1.25000000000000  26.0305105172665 
-0.250000000000000  1.37500000000000  22.0786325303783 
-0.250000000000000  1.50000000000000  18.1909769467473 
-0.250000000000000  1.62500000000000  14.5756591796571 
-0.250000000000000  1.75000000000000  11.3676786678549 
-0.250000000000000  1.87500000000000  8.63487710331461 
-0.250000000000000  2.00000000000000  6.39042824668329 
-0.250000000000000  2.12500000000000  4.60804101405412 
-0.250000000000000  2.25000000000000  3.23679830730789 
-0.250000000000000  2.37500000000000  2.21369746731082 
-0.250000000000000  2.50000000000000  1.47308233116323 

-0.125000000000000 -2.50000000000000  1.41607090519266 
-0.125000000000000 -2.37500000000000  2.09839117442746 
-0.125000000000000 -2.25000000000000  3.02178110524522 
-0.125000000000000 -2.12500000000000  4.23095373796738 
-0.125000000000000 -2.00000000000000  5.76149259584839 
-0.125000000000000 -1.87500000000000  7.63036901223262 
-0.125000000000000 -1.75000000000000  9.82445686300794 
-0.125000000000000 -1.62500000000000  12.2882881033749 
-0.125000000000000 -1.50000000000000  14.9132783612000 
-0.125000000000000 -1.37500000000000  17.5314766738284 
-0.125000000000000 -1.25000000000000  19.9171471792960 
-0.125000000000000 -1.12500000000000  21.7988409414878 
-0.125000000000000 -1.00000000000000  22.8829766662835 
-0.125000000000000 -0.875000000000000  22.8875664843211 
-0.125000000000000 -0.750000000000000  21.5821415852376 
-0.125000000000000 -0.625000000000000  18.8278544817631 
-0.125000000000000 -0.500000000000000  14.6108964293571 
-0.125000000000000 -0.375000000000000  9.06428318201235 
-0.125000000000000 -0.250000000000000  2.51511115333068 
-0.125000000000000 -0.125000000000000  4.91702791001372 
-0.125000000000000  0.00000000000000  12.3566914976343 
-0.125000000000000  0.125000000000000  19.4862513237545 
-0.125000000000000  0.250000000000000  25.7968087474578 
-0.125000000000000  0.375000000000000  30.8761779709705 
-0.125000000000000  0.500000000000000  34.4390532239184 
-0.125000000000000  0.625000000000000  36.3515859449089 
-0.125000000000000  0.750000000000000  36.6356273554070 
-0.125000000000000  0.875000000000000  35.4522669190307 
-0.125000000000000  1.00000000000000  33.0686476558858 
-0.125000000000000  1.12500000000000  29.8147940411391 
-0.125000000000000  1.25000000000000  26.0383312714403 
-0.125000000000000  1.37500000000000  22.0644053487922 
-0.125000000000000  1.50000000000000  18.1661093948491 
-0.125000000000000  1.62500000000000  14.5479069755821 
-0.125000000000000  1.75000000000000  11.3416943064487 
-0.125000000000000  1.87500000000000  8.61294341030511 
-0.125000000000000  2.00000000000000  6.37321589066625 
-0.125000000000000  2.12500000000000  4.59527106291705 
-0.125000000000000  2.25000000000000  3.22774513846175 
-0.125000000000000  2.37500000000000  2.20751914698940 
-0.125000000000000  2.50000000000000  1.46900286378852 

 0.00000000000000 -2.50000000000000  1.36296194234292 
 0.00000000000000 -2.37500000000000  2.01694721545265 
 0.00000000000000 -2.25000000000000  2.90115092469309 
 0.00000000000000 -2.12500000000000  4.05839538366968 
 0.00000000000000 -2.00000000000000  5.52306362368897 
 0.00000000000000 -1.87500000000000  7.31203741220830 
 0.00000000000000 -1.75000000000000  9.41354805844992 
 0.00000000000000 -1.62500000000000  11.7750980642617 
 0.00000000000000 -1.50000000000000  14.2926364681669 
 0.00000000000000 -1.37500000000000  16.8040501376260 
 0.00000000000000 -1.25000000000000  19.0903349108545 
 0.00000000000000 -1.12500000000000  20.8871830749763 
 0.00000000000000 -1.00000000000000  21.9080724617958 
 0.00000000000000 -0.875000000000000  21.8775194718293 
 0.00000000000000 -0.750000000000000  20.5705260350437 
 0.00000000000000 -0.625000000000000  17.8521331068202 
 0.00000000000000 -0.500000000000000  13.7101181766941 
 0.00000000000000 -0.375000000000000  8.27549724574909 
 0.00000000000000 -0.250000000000000  1.86735590135844 
 0.00000000000000 -0.125000000000000  5.34726976507455 
 0.00000000000000  0.00000000000000  12.6062370188138 
 0.00000000000000  0.125000000000000  19.5399533998025 
 0.00000000000000  0.250000000000000  25.6622178064646 
 0.00000000000000  0.375000000000000  30.5746819047269 
 0.00000000000000  0.500000000000000  34.0024598365184 
 0.00000000000000  0.625000000000000  35.8181065969774 
 0.00000000000000  0.750000000000000  36.0454401128023 
 0.00000000000000  0.875000000000000  34.8433361144269 
 0.00000000000000  1.00000000000000  32.4734333823026 
 0.00000000000000  1.12500000000000  29.2582414650663 
 0.00000000000000  1.25000000000000  25.5372156351805 
 0.00000000000000  1.37500000000000  21.6278287489498 
 0.00000000000000  1.50000000000000  17.7967711719478 
 0.00000000000000  1.62500000000000  14.2437249929975 
 0.00000000000000  1.75000000000000  11.0974194365616 
 0.00000000000000  1.87500000000000  8.42153676321380 
 0.00000000000000  2.00000000000000  6.22689462649382 
 0.00000000000000  2.12500000000000  4.48623330742429 
 0.00000000000000  2.25000000000000  3.14863914709845 
 0.00000000000000  2.37500000000000  2.15173068353187 
 0.00000000000000  2.50000000000000  1.43081671145564 

 0.125000000000000 -2.50000000000000  1.29430780695984 
 0.125000000000000 -2.37500000000000  1.91507004780948 
 0.125000000000000 -2.25000000000000  2.75494119358515 
 0.125000000000000 -2.12500000000000  3.85539096931400 
 0.125000000000000 -2.00000000000000  5.25026130307529 
 0.125000000000000 -1.87500000000000  6.95704929171934 
 0.125000000000000 -1.75000000000000  8.96603536642482 
 0.125000000000000 -1.62500000000000  11.2283739841837 
 0.125000000000000 -1.50000000000000  13.6453053425392 
 0.125000000000000 -1.37500000000000  16.0615359382464 
 0.125000000000000 -1.25000000000000  18.2661386924962 
 0.125000000000000 -1.12500000000000  20.0036943907335 
 0.125000000000000 -1.00000000000000  20.9967482119600 
 0.125000000000000 -0.875000000000000  20.9782441752327 
 0.125000000000000 -0.750000000000000  19.7299889257477 
 0.125000000000000 -0.625000000000000  17.1211030729061 
 0.125000000000000 -0.500000000000000  13.1395267887395 
 0.125000000000000 -0.375000000000000  7.91077356147530 
 0.125000000000000 -0.250000000000000  1.72159945567174 
 0.125000000000000 -0.125000000000000  5.16905492438783 
 0.125000000000000  0.00000000000000  12.1549548042405 
 0.125000000000000  0.125000000000000  18.8213516231565 
 0.125000000000000  0.250000000000000  24.7056053521929 
 0.125000000000000  0.375000000000000  29.4263019706071 
 0.125000000000000  0.500000000000000  32.7201344628096 
 0.125000000000000  0.625000000000000  34.4649026771163 
 0.125000000000000  0.750000000000000  34.6831094313444 
 0.125000000000000  0.875000000000000  33.5265507802065 
 0.125000000000000  1.00000000000000  31.2456589666031 
 0.125000000000000  1.12500000000000  28.1496895648750 
 0.125000000000000  1.25000000000000  24.5648446137059 
 0.125000000000000  1.37500000000000  20.7969593144848 
 0.125000000000000  1.50000000000000  17.1036550730745 
 0.125000000000000  1.62500000000000  13.6783842385496 
 0.125000000000000  1.75000000000000  10.6462235211894 
 0.125000000000000  1.87500000000000  8.06922355904041 
 0.125000000000000  2.00000000000000  5.95797425072322 
 0.125000000000000  2.12500000000000  4.28587459386813 
 0.125000000000000  2.25000000000000  3.00319979030457 
 0.125000000000000  2.37500000000000  2.04907220083535 
 0.125000000000000  2.50000000000000  1.36048689310331 

 0.250000000000000 -2.50000000000000  1.21459044910818 
 0.250000000000000 -2.37500000000000  1.79901663192831 
 0.250000000000000 -2.25000000000000  2.59143257190628 
 0.250000000000000 -2.12500000000000  3.63225944842189 
 0.250000000000000 -2.00000000000000  4.95506892833345 
 0.250000000000000 -1.87500000000000  6.57814453871967 
 0.250000000000000 -1.75000000000000  8.49387985753244 
 0.250000000000000 -1.62500000000000  10.6571318681008 
 0.250000000000000 -1.50000000000000  12.9746679605796 
 0.250000000000000 -1.37500000000000  15.2986904066871 
 0.250000000000000 -1.25000000000000  17.4276803667698 
 0.250000000000000 -1.12500000000000  19.1171587474231 
 0.250000000000000 -1.00000000000000  20.1013451684781 
 0.250000000000000 -0.875000000000000  20.1243629000384 
 0.250000000000000 -0.750000000000000  18.9771292502538 
 0.250000000000000 -0.625000000000000  16.5340754534617 
 0.250000000000000 -0.500000000000000  12.7829882798002 
 0.250000000000000 -0.375000000000000  7.84206773546988 
 0.250000000000000 -0.250000000000000  1.96719942687196 
 0.250000000000000 -0.125000000000000  4.52814625318588 
 0.250000000000000  0.00000000000000  11.1534767142296 
 0.250000000000000  0.125000000000000  17.4794089042783 
 0.250000000000000  0.250000000000000  23.0700167948506 
 0.250000000000000  0.375000000000000  27.5644731097362 
 0.250000000000000  0.500000000000000  30.7129836201852 
 0.250000000000000  0.625000000000000  32.3984579863867 
 0.250000000000000  0.750000000000000  32.6399612354962 
 0.250000000000000  0.875000000000000  31.5784733874681 
 0.250000000000000  1.00000000000000  29.4484479889698 
 0.250000000000000  1.12500000000000  26.5407496117895 
 0.250000000000000  1.25000000000000  23.1634644557660 
 0.250000000000000  1.37500000000000  19.6066983156621 
 0.250000000000000  1.50000000000000  16.1159668882345 
 0.250000000000000  1.62500000000000  12.8765711689838 
 0.250000000000000  1.75000000000000  10.0090073837419 
 0.250000000000000  1.87500000000000  7.57353283569471 
 0.250000000000000  2.00000000000000  5.58086147492740 
 0.250000000000000  2.12500000000000  4.00569889633846 
 0.250000000000000  2.25000000000000  2.80029928034075 
 0.250000000000000  2.37500000000000  1.90612896092727 
 0.250000000000000  2.50000000000000  1.26270913993188 

 0.375000000000000 -2.50000000000000  1.12801543372122 
 0.375000000000000 -2.37500000000000  1.67430867118147 
 0.375000000000000 -2.25000000000000  2.41738348888760 
 0.375000000000000 -2.12500000000000  3.39658863362746 
 0.375000000000000 -2.00000000000000  4.64506163904702 
 0.375000000000000 -1.87500000000000  6.18155589044330 
 0.375000000000000 -1.75000000000000  8.00018757563150 
 0.375000000000000 -1.62500000000000  10.0592427964980 
 0.375000000000000 -1.50000000000000  12.2711390796748 
 0.375000000000000 -1.37500000000000  14.4963872239787 
 0.375000000000000 -1.25000000000000  16.5445808134726 
 0.375000000000000 -1.12500000000000  18.1847822279077 
 0.375000000000000 -1.00000000000000  19.1661308137919 
 0.375000000000000 -0.875000000000000  19.2473141787066 
 0.375000000000000 -0.750000000000000  18.2312193818530 
 0.375000000000000 -0.625000000000000  15.9992498649064 
 0.375000000000000 -0.500000000000000  12.5390253520517 
 0.375000000000000 -0.375000000000000  7.95982660906235 
 0.375000000000000 -0.250000000000000  2.49349338369730 
 0.375000000000000 -0.125000000000000  3.54021219459580 
 0.375000000000000  0.00000000000000  9.72082974916921 
 0.375000000000000  0.125000000000000  15.6324509441026 
 0.375000000000000  0.250000000000000  20.8702234996887 
 0.375000000000000  0.375000000000000  25.0978638985406 
 0.375000000000000  0.500000000000000  28.0814733931279 
 0.375000000000000  0.625000000000000  29.7096013964138 
 0.375000000000000  0.750000000000000  29.9965619425330 
 0.375000000000000  0.875000000000000  29.0695990919703 
 0.375000000000000  1.00000000000000  27.1430862494680 
 0.375000000000000  1.12500000000000  24.4847666837038 
 0.375000000000000  1.25000000000000  21.3798434650152 
 0.375000000000000  1.37500000000000  18.0984203253650 
 0.375000000000000  1.50000000000000  14.8705155353264 
 0.375000000000000  1.62500000000000  11.8709610980848 
 0.375000000000000  1.75000000000000  9.21442868872319 
 0.375000000000000  1.87500000000000  6.95905883880152 
 0.375000000000000  2.00000000000000  5.11604682660946 
 0.375000000000000  2.12500000000000  3.66218417857574 
 0.375000000000000  2.25000000000000  2.55268094780171 
 0.375000000000000  2.37500000000000  1.73235933158243 
 0.375000000000000  2.50000000000000  1.14421575104678 

 0.500000000000000 -2.50000000000000  1.03804194085832 
 0.500000000000000 -2.37500000000000  1.54519140286647 
 0.500000000000000 -2.25000000000000  2.23753387243971 
 0.500000000000000 -2.12500000000000  3.15301642968664 
 0.500000000000000 -2.00000000000000  4.32384637753826 
 0.500000000000000 -1.87500000000000  5.76864550703061 
 0.500000000000000 -1.75000000000000  7.48270623031942 
 0.500000000000000 -1.62500000000000  9.42750417111785 
 0.500000000000000 -1.50000000000000  11.5214682518926 
 0.500000000000000 -1.37500000000000  13.6346326650187 
 0.500000000000000 -1.25000000000000  15.5898862077740 
 0.500000000000000 -1.12500000000000  17.1728787763348 
 0.500000000000000 -1.00000000000000  18.1512218691668 
 0.500000000000000 -0.875000000000000  18.3016532101149 
 0.500000000000000 -0.750000000000000  17.4417681139326 
 0.500000000000000 -0.625000000000000  15.4613055061324 
 0.500000000000000 -0.500000000000000  12.3473075591084 
 0.500000000000000 -0.375000000000000  8.19801483641520 
 0.500000000000000 -0.250000000000000  3.22212980749964 
 0.500000000000000 -0.125000000000000  2.27917198928286 
 0.500000000000000  0.00000000000000  7.93791481436106 
 0.500000000000000  0.125000000000000  13.3664193248365 
 0.500000000000000  0.250000000000000  18.1954976138432 
 0.500000000000000  0.375000000000000  22.1169685924208 
 0.500000000000000  0.500000000000000  24.9150148282695 
 0.500000000000000  0.625000000000000  26.4844805203838 
 0.500000000000000  0.750000000000000  26.8340398350582 
 0.500000000000000  0.875000000000000  26.0748925792853 
 0.500000000000000  1.00000000000000  24.3978749483968 
 0.500000000000000  1.12500000000000  22.0434104265858 
 0.500000000000000  1.25000000000000  19.2693779666366 
 0.500000000000000  1.37500000000000  16.3217081636787 
 0.500000000000000  1.50000000000000  13.4114566134606 
 0.500000000000000  1.62500000000000  10.7005119875072 
 0.500000000000000  1.75000000000000  8.29633529066525 
 0.500000000000000  1.87500000000000  6.25457014886233 
 0.500000000000000  2.00000000000000  4.58730387210676 
 0.500000000000000  2.12500000000000  3.27433551657456 
 0.500000000000000  2.25000000000000  2.27498769683429 
 0.500000000000000  2.37500000000000  1.53861024304216 
 0.500000000000000  2.50000000000000  1.01272158013007 

 0.625000000000000 -2.50000000000000  0.947168319256771 
 0.625000000000000 -2.37500000000000  1.41452068367516 
 0.625000000000000 -2.25000000000000  2.05477878142085 
 0.625000000000000 -2.12500000000000  2.90398030694784 
 0.625000000000000 -2.00000000000000  3.99277861263592 
 0.625000000000000 -1.87500000000000  5.33904746376630 
 0.625000000000000 -1.75000000000000  6.93884901835421 
 0.625000000000000 -1.62500000000000  8.75690282473311 
 0.625000000000000 -1.50000000000000  10.7184036747622 
 0.625000000000000 -1.37500000000000  12.7045147309289 
 0.625000000000000 -1.25000000000000  14.5538662162294 
 0.625000000000000 -1.12500000000000  16.0717630516934 
 0.625000000000000 -1.00000000000000  17.0475499992346 
 0.625000000000000 -0.875000000000000  17.2788957974616 
 0.625000000000000 -0.750000000000000  16.6000053459389 
 0.625000000000000 -0.625000000000000  14.9094030801981 
 0.625000000000000 -0.500000000000000  12.1923543662961 
 0.625000000000000 -0.375000000000000  8.53343259909686 
 0.625000000000000 -0.250000000000000  4.11626758938229 
 0.625000000000000 -0.125000000000000  0.796993521445223 
 0.625000000000000  0.00000000000000  5.86662121516412 
 0.625000000000000  0.125000000000000  10.7569341024495 
 0.625000000000000  0.250000000000000  15.1337526802671 
 0.625000000000000  0.375000000000000  18.7191066799353 
 0.625000000000000  0.500000000000000  21.3165535796090 
 0.625000000000000  0.625000000000000  22.8275691815928 
 0.625000000000000  0.750000000000000  23.2545364534210 
 0.625000000000000  0.875000000000000  22.6909785065282 
 0.625000000000000  1.00000000000000  21.3016644290692 
 0.625000000000000  1.12500000000000  19.2964733896034 
 0.625000000000000  1.25000000000000  16.9023689266213 
 0.625000000000000  1.37500000000000  14.3375596984196 
 0.625000000000000  1.50000000000000  11.7910429754859 
 0.625000000000000  1.62500000000000  9.40944619510855 
 0.625000000000000  1.75000000000000  7.29165305029979 
 0.625000000000000  1.87500000000000  5.49039371736781 
 0.625000000000000  2.00000000000000  4.01902649578494 
 0.625000000000000  2.12500000000000  2.86127986739178 
 0.625000000000000  2.25000000000000  1.98177366551064 
 0.625000000000000  2.37500000000000  1.33558881994857 
 0.625000000000000  2.50000000000000  0.875820856070840 

 0.750000000000000 -2.50000000000000  0.857003246017406 
 0.750000000000000 -2.37500000000000  1.28405978086059 
 0.750000000000000 -2.25000000000000  1.87087158955585 
 0.750000000000000 -2.12500000000000  2.65105769707155 
 0.750000000000000 -2.00000000000000  3.65318904608095 
 0.750000000000000 -1.87500000000000  4.89399314701731 
 0.750000000000000 -1.75000000000000  6.37022515923278 
 0.750000000000000 -1.62500000000000  8.05028320780161 
 0.750000000000000 -1.50000000000000  9.86720589396033 
 0.750000000000000 -1.37500000000000  11.7150241324071 
 0.750000000000000 -1.25000000000000  13.4503719099021 
 0.750000000000000 -1.12500000000000  14.9006935547824 
 0.750000000000000 -1.00000000000000  15.8793422088641 
 0.750000000000000 -0.875000000000000  16.2065050541828 
 0.750000000000000 -0.750000000000000  15.7334904719191 
 0.750000000000000 -0.625000000000000  14.3668019854123 
 0.750000000000000 -0.500000000000000  12.0879073270029 
 0.750000000000000 -0.375000000000000  8.96490564502552 
 0.750000000000000 -0.250000000000000  5.15377291732692 
 0.750000000000000 -0.125000000000000  0.908468543544761 
 0.750000000000000  0.00000000000000  3.58338779358133 
 0.750000000000000  0.125000000000000  7.90077021061457 
 0.750000000000000  0.250000000000000  11.8016790035784 
 0.750000000000000  0.375000000000000  15.0364403404114 
 0.750000000000000  0.500000000000000  17.4277421885912 
 0.750000000000000  0.625000000000000  18.8835034171745 
 0.750000000000000  0.750000000000000  19.3994703817140 
 0.750000000000000  0.875000000000000  19.0508222731573 
 0.750000000000000  1.00000000000000  17.9751203980141 
 0.750000000000000  1.12500000000000  16.3500233047824 
 0.750000000000000  1.25000000000000  14.3694508639630 
 0.750000000000000  1.37500000000000  12.2215380701638 
 0.750000000000000  1.50000000000000  10.0709645942281 
 0.750000000000000  1.62500000000000  8.04724527063098 
 0.750000000000000  1.75000000000000  6.23947355724055 
 0.750000000000000  1.87500000000000  4.69698405249305 
 0.750000000000000  2.00000000000000  3.43459965972174 
 0.750000000000000  2.12500000000000  2.44067696780914 
 0.750000000000000  2.25000000000000  1.68610817857281 
 0.750000000000000  2.37500000000000  1.13273339184683 
 0.750000000000000  2.50000000000000  0.740136695116656 

 0.875000000000000 -2.50000000000000  0.768542998882373 
 0.875000000000000 -2.37500000000000  1.15499933975510 
 0.875000000000000 -2.25000000000000  1.68728859213398 
 0.875000000000000 -2.12500000000000  2.39625922935563 
 0.875000000000000 -2.00000000000000  3.30813011143133 
 0.875000000000000 -1.87500000000000  4.43842950709509 
 0.875000000000000 -1.75000000000000  5.78490159162358 
 0.875000000000000 -1.62500000000000  7.32035362320510 
 0.875000000000000 -1.50000000000000  8.98682891797514 
 0.875000000000000 -1.37500000000000  10.6926958131740 
 0.875000000000000 -1.25000000000000  12.3141302662296 
 0.875000000000000 -1.12500000000000  13.7019960142725 
 0.875000000000000 -1.00000000000000  14.6943297090383 
 0.875000000000000 -0.875000000000000  15.1336333120149 
 0.875000000000000 -0.750000000000000  14.8871321159149 
 0.875000000000000 -0.625000000000000  13.8672720937553 
 0.875000000000000 -0.500000000000000  12.0492049979088 
 0.875000000000000 -0.375000000000000  9.48204629009079 
 0.875000000000000 -0.250000000000000  6.29169714750797 
 0.875000000000000 -0.125000000000000  2.67992101437797 
 0.875000000000000  0.00000000000000  1.23511019464372 
 0.875000000000000  0.125000000000000  4.94011720512075 
 0.875000000000000  0.250000000000000  8.36397640403239 
 0.875000000000000  0.375000000000000  11.2510092309052 
 0.875000000000000  0.500000000000000  13.4401123180854 
 0.875000000000000  0.625000000000000  14.8449215586829 
 0.875000000000000  0.750000000000000  15.4547248653284 
 0.875000000000000  0.875000000000000  15.3269729530809 
 0.875000000000000  1.00000000000000  14.5726543177794 
 0.875000000000000  1.12500000000000  13.3375148386029 
 0.875000000000000  1.25000000000000  11.7822210076275 
 0.875000000000000  1.37500000000000  10.0641114081725 
 0.875000000000000  1.50000000000000  8.32248573304393 
 0.875000000000000  1.62500000000000  6.66861001744718 
 0.875000000000000  1.75000000000000  5.18084226768307 
 0.875000000000000  1.87500000000000  3.90455351736485 
 0.875000000000000  2.00000000000000  2.85590783538942 
 0.875000000000000  2.12500000000000  2.02816137384389 
 0.875000000000000  2.25000000000000  1.39901380172587 
 0.875000000000000  2.37500000000000  0.937701757358519 
 0.875000000000000  2.50000000000000  0.610894739297912 

 1.00000000000000 -2.50000000000000  0.682505066214712 
 1.00000000000000 -2.37500000000000  1.02844345194208 
 1.00000000000000 -2.25000000000000  1.50585606033035 
 1.00000000000000 -2.12500000000000  2.14271571654700 
 1.00000000000000 -2.00000000000000  2.96293775915234 
 1.00000000000000 -1.87500000000000  3.98113960697143 
 1.00000000000000 -1.75000000000000  5.19662470799979 
 1.00000000000000 -1.62500000000000  6.58742106618382 
 1.00000000000000 -1.50000000000000  8.10548449548444 
 1.00000000000000 -1.37500000000000  9.67428244053163 
 1.00000000000000 -1.25000000000000  11.1898526796445 
 1.00000000000000 -1.12500000000000  12.5260829487916 
 1.00000000000000 -1.00000000000000  13.5444243820174 
 1.00000000000000 -0.875000000000000  14.1075916214787 
 1.00000000000000 -0.750000000000000  14.0960732526510 
 1.00000000000000 -0.625000000000000  13.4255446051649 
 1.00000000000000 -0.500000000000000  12.0626504623905 
 1.00000000000000 -0.375000000000000  10.0363014399294 
 1.00000000000000 -0.250000000000000  7.44194381690032 
 1.00000000000000 -0.125000000000000  4.43837845696378 
 1.00000000000000  0.00000000000000  1.26856694901563 
 1.00000000000000  0.125000000000000  2.07193261623987 
 1.00000000000000  0.250000000000000  5.02927060283143 
 1.00000000000000  0.375000000000000  7.58584520380474 
 1.00000000000000  0.500000000000000  9.58290231076702 
 1.00000000000000  0.625000000000000  10.9384595281487 
 1.00000000000000  0.750000000000000  11.6362428525951 
 1.00000000000000  0.875000000000000  11.7179783183222 
 1.00000000000000  1.00000000000000  11.2705403931754 
 1.00000000000000  1.12500000000000  10.4101081140902 
 1.00000000000000  1.25000000000000  9.26590079515121 
 1.00000000000000  1.37500000000000  7.96551114149497 
 1.00000000000000  1.50000000000000  6.62316029601609 
 1.00000000000000  1.62500000000000  5.33159719000491 
 1.00000000000000  1.75000000000000  4.15787110832947 
 1.00000000000000  1.87500000000000  3.14277011339683 
 1.00000000000000  2.00000000000000  2.30331964517875 
 1.00000000000000  2.12500000000000  1.63741897916819 
 1.00000000000000  2.25000000000000  1.12953201637522 
 1.00000000000000  2.37500000000000  0.756390838910683 
 1.00000000000000  2.50000000000000  0.491900603634606 

 1.12500000000000 -2.50000000000000  0.599576521325286 
 1.12500000000000 -2.37500000000000  0.905669684640225 
 1.12500000000000 -2.25000000000000  1.32891506579837 
 1.12500000000000 -2.12500000000000  1.89454975460849 
 1.12500000000000 -2.00000000000000  2.62449823954792 
 1.12500000000000 -1.87500000000000  3.53296967300621 
 1.12500000000000 -1.75000000000000  4.62145879598038 
 1.12500000000000 -1.62500000000000  5.87381191932155 
 1.12500000000000 -1.50000000000000  7.25219814373920 
 1.12500000000000 -1.37500000000000  8.69487581164759 
 1.12500000000000 -1.25000000000000  10.1165562645195 
 1.12500000000000 -1.12500000000000  11.4119671413367 
 1.12500000000000 -1.00000000000000  12.4629334494771 
 1.12500000000000 -0.875000000000000  13.1489201217214 
 1.12500000000000 -0.750000000000000  13.3604700510378 
 1.12500000000000 -0.625000000000000  13.0142926872309 
 1.12500000000000 -0.500000000000000  12.0679730476283 
 1.12500000000000 -0.375000000000000  10.5316057703359 
 1.12500000000000 -0.250000000000000  8.47348628152093 
 1.12500000000000 -0.125000000000000  6.01774812791916 
 1.12500000000000  0.00000000000000  3.33459302039439 
 1.12500000000000  0.125000000000000  0.672493280080749 
 1.12500000000000  0.250000000000000  2.02154656014484 
 1.12500000000000  0.375000000000000  4.27116914406344 
 1.12500000000000  0.500000000000000  6.08771941233831 
 1.12500000000000  0.625000000000000  7.38980928425948 
 1.12500000000000  0.750000000000000  8.15725128882142 
 1.12500000000000  0.875000000000000  8.41914833316438 
 1.12500000000000  1.00000000000000  8.24208194862982 
 1.12500000000000  1.12500000000000  7.71658980498118 
 1.12500000000000  1.25000000000000  6.94391982474614 
 1.12500000000000  1.37500000000000  6.02454968519255 
 1.12500000000000  1.50000000000000  5.04923697781017 
 1.12500000000000  1.62500000000000  4.09286457684597 
 1.12500000000000  1.75000000000000  3.21107415285390 
 1.12500000000000  1.87500000000000  2.43950810981246 
 1.12500000000000  2.00000000000000  1.79529952823514 
 1.12500000000000  2.12500000000000  1.28024808175116 
 1.12500000000000  2.25000000000000  0.884960736086297 
 1.12500000000000  2.37500000000000  0.593194831502899 
 1.12500000000000  2.50000000000000  0.385748648790809 

 1.25000000000000 -2.50000000000000  0.520509513007157 
 1.25000000000000 -2.37500000000000  0.788119118716008 
 1.25000000000000 -2.25000000000000  1.15905795774463 
 1.25000000000000 -2.12500000000000  1.65612831739185 
 1.25000000000000 -2.00000000000000  2.29969489731870 
 1.25000000000000 -1.87500000000000  3.10406169918567 
 1.25000000000000 -1.75000000000000  4.07333669063840 
 1.25000000000000 -1.62500000000000  5.19727113830576 
 1.25000000000000 -1.50000000000000  6.44768189042619 
 1.25000000000000 -1.37500000000000  7.77611090046056 
 1.25000000000000 -1.25000000000000  9.11336014451045 
 1.25000000000000 -1.12500000000000  10.3714858197044 
 1.25000000000000 -1.00000000000000  11.4487384760292 
 1.25000000000000 -0.875000000000000  12.2377313099989 
 1.25000000000000 -0.750000000000000  12.6366996945293 
 1.25000000000000 -0.625000000000000  12.5630085233366 
 1.25000000000000 -0.500000000000000  11.9671409897196 
 1.25000000000000 -0.375000000000000  10.8445410544564 
 1.25000000000000 -0.250000000000000  9.24231116857208 
 1.25000000000000 -0.125000000000000  7.25827811165989 
 1.25000000000000  0.00000000000000  5.03145540870329 
 1.25000000000000  0.125000000000000  2.72529881342870 
 1.25000000000000  0.250000000000000  0.515932866210091 
 1.25000000000000  0.375000000000000  1.49593105194865 
 1.25000000000000  0.500000000000000  3.14059466009364 
 1.25000000000000  0.625000000000000  4.37811241238443 
 1.25000000000000  0.750000000000000  5.18660062136249 
 1.25000000000000  0.875000000000000  5.58595792960096 
 1.25000000000000  1.00000000000000  5.62666683698505 
 1.25000000000000  1.12500000000000  5.37820113538144 
 1.25000000000000  1.25000000000000  4.91825597733370 
 1.25000000000000  1.37500000000000  4.32393242098627 
 1.25000000000000  1.50000000000000  3.66522475170062 
 1.25000000000000  1.62500000000000  3.00068830636478 
 1.25000000000000  1.75000000000000  2.37503348933309 
 1.25000000000000  1.87500000000000  1.81842217758343 
 1.25000000000000  2.00000000000000  1.34725746788899 
 1.25000000000000  2.12500000000000  0.966183648040235 
 1.25000000000000  2.25000000000000  0.670888214277038 
 1.25000000000000  2.37500000000000  0.451208361001562 
 1.25000000000000  2.50000000000000  0.294055580821514 

 1.37500000000000 -2.50000000000000  0.446084196192309 
 1.37500000000000 -2.37500000000000  0.677209951481748 
 1.37500000000000 -2.25000000000000  0.998667012458300 
 1.37500000000000 -2.12500000000000  1.43115461786646 
 1.37500000000000 -2.00000000000000  1.99384326924247 
 1.37500000000000 -1.87500000000000  2.70140943186446 
 1.37500000000000 -1.75000000000000  3.56055372948369 
 1.37500000000000 -1.62500000000000  4.56633633776084 
 1.37500000000000 -1.50000000000000  5.69877658814444 
 1.37500000000000 -1.37500000000000  6.92025172392955 
 1.37500000000000 -1.25000000000000  8.17429867841115 
 1.37500000000000 -1.12500000000000  9.38646849617183 
 1.37500000000000 -1.00000000000000  10.4678642569911 
 1.37500000000000 -0.875000000000000  11.3218214997879 
 1.37500000000000 -0.750000000000000  11.8537595306998 
 1.37500000000000 -0.625000000000000  11.9834951421211 
 1.37500000000000 -0.500000000000000  11.6583673944668 
 1.37500000000000 -0.375000000000000  10.8646627853078 
 1.37500000000000 -0.250000000000000  9.63446683897818 
 1.37500000000000 -0.125000000000000  8.04555470736780 
 1.37500000000000  0.00000000000000  6.21334415906578 
 1.37500000000000  0.125000000000000  4.27593677369861 
 1.37500000000000  0.250000000000000  2.37520190683300 
 1.37500000000000  0.375000000000000  0.638031881489514 
 1.37500000000000  0.500000000000000  0.838976098070190 
 1.37500000000000  0.625000000000000  1.99603795004278 
 1.37500000000000  0.750000000000000  2.81304022189685 
 1.37500000000000  0.875000000000000  3.30293873967212 
 1.37500000000000  1.00000000000000  3.50337579988565 
 1.37500000000000  1.12500000000000  3.46686853850239 
 1.37500000000000  1.25000000000000  3.25203600148446 
 1.37500000000000  1.37500000000000  2.91683977844797 
 1.37500000000000  1.50000000000000  2.51396199312768 
 1.37500000000000  1.62500000000000  2.08795826161901 
 1.37500000000000  1.75000000000000  1.67373804961859 
 1.37500000000000  1.87500000000000  1.29606700335276 
 1.37500000000000  2.00000000000000  0.969942302071854 
 1.37500000000000  2.12500000000000  0.701737379773932 
 1.37500000000000  2.25000000000000  0.490945371949518 
 1.37500000000000  2.37500000000000  0.332249377699271 
 1.37500000000000  2.50000000000000  0.217595479726905 

 1.50000000000000 -2.50000000000000  0.377012304278636 
 1.50000000000000 -2.37500000000000  0.574126844578269 
 1.50000000000000 -2.25000000000000  0.849535244569205 
 1.50000000000000 -2.12500000000000  1.22207407021177 
 1.50000000000000 -2.00000000000000  1.70987369082428 
 1.50000000000000 -1.87500000000000  2.32789619772641 
 1.50000000000000 -1.75000000000000  3.08489772662475 
 1.50000000000000 -1.62500000000000  3.98004275911113 
 1.50000000000000 -1.50000000000000  4.99954257779723 
 1.50000000000000 -1.37500000000000  6.11383902960951 
 1.50000000000000 -1.25000000000000  7.27598351713087 
 1.50000000000000 -1.12500000000000  8.42192825101902 
 1.50000000000000 -1.00000000000000  9.47339483989206 
 1.50000000000000 -0.875000000000000  10.3437499478611 
 1.50000000000000 -0.750000000000000  10.9468495783362 
 1.50000000000000 -0.625000000000000  11.2081172919917 
 1.50000000000000 -0.500000000000000  11.0763059016641 
 1.50000000000000 -0.375000000000000  10.5336964170217 
 1.50000000000000 -0.250000000000000  9.60223868540982 
 1.50000000000000 -0.125000000000000  8.34361214771485 
 1.50000000000000  0.00000000000000  6.85242991102792 
 1.50000000000000  0.125000000000000  5.24353213371745 
 1.50000000000000  0.250000000000000  3.63594221786814 
 1.50000000000000  0.375000000000000  2.13697426288870 
 1.50000000000000  0.500000000000000  0.829822921213104 
 1.50000000000000  0.625000000000000  0.233398070209855 
 1.50000000000000  0.750000000000000  1.03164281427734 
 1.50000000000000  0.875000000000000  1.57175853487644 
 1.50000000000000  1.00000000000000  1.88022701807722 
 1.50000000000000  1.12500000000000  1.99554617130876 
 1.50000000000000  1.25000000000000  1.96108758993833 
 1.50000000000000  1.37500000000000  1.81981492287544 
 1.50000000000000  1.50000000000000  1.61089442833286 
 1.50000000000000  1.62500000000000  1.36780329696832 
 1.50000000000000  1.75000000000000  1.11742571675701 
 1.50000000000000  1.87500000000000  0.879766163107194 
 1.50000000000000  2.00000000000000  0.668119603750018 
 1.50000000000000  2.12500000000000  0.489668123263128 
 1.50000000000000  2.25000000000000  0.346475297022385 
 1.50000000000000  2.37500000000000  0.236770528385406 
 1.50000000000000  2.50000000000000  0.156336969375446 

 1.62500000000000 -2.50000000000000  0.313854998492605 
 1.62500000000000 -2.37500000000000  0.479706004811122 
 1.62500000000000 -2.25000000000000  0.712750311394969 
 1.62500000000000 -2.12500000000000  1.03004823315672 
 1.62500000000000 -2.00000000000000  1.44859012907550 
 1.62500000000000 -1.87500000000000  1.98319249440790 
 1.62500000000000 -1.75000000000000  2.64375331138338 
 1.62500000000000 -1.62500000000000  3.43204548541121 
 1.62500000000000 -1.50000000000000  4.33841748763269 
 1.62500000000000 -1.37500000000000  5.33896579603446 
 1.62500000000000 -1.25000000000000  6.39388260455437 
 1.62500000000000 -1.12500000000000  7.44769863513821 
 1.62500000000000 -1.00000000000000  8.43199073833317 
 1.62500000000000 -0.875000000000000  9.27079933076943 
 1.62500000000000 -0.750000000000000  9.88852576446367 
 1.62500000000000 -0.625000000000000  10.2195045778105 
 1.62500000000000 -0.500000000000000  10.2178588035193 
 1.62500000000000 -0.375000000000000  9.86580013762752 
 1.62500000000000 -0.250000000000000  9.17843948239649 
 1.62500000000000 -0.125000000000000  8.20361518917285 
 1.62500000000000  0.00000000000000  7.01625688193774 
 1.62500000000000  0.125000000000000  5.70815409380666 
 1.62500000000000  0.250000000000000  4.37524084762015 
 1.62500000000000  0.375000000000000  3.10516542316862 
 1.62500000000000  0.500000000000000  1.96777737496140 
 1.62500000000000  0.625000000000000  1.01079142767512 
 1.62500000000000  0.750000000000000  0.274306273029439 
 1.62500000000000  0.875000000000000  0.347653903918425 
 1.62500000000000  1.00000000000000  0.711720121878082 
 1.62500000000000  1.12500000000000  0.928392491090715 
 1.62500000000000  1.25000000000000  1.01965581580213 
 1.62500000000000  1.37500000000000  1.01565096005395 
 1.62500000000000  1.50000000000000  0.945246935563401 
 1.62500000000000  1.62500000000000  0.833815900191269 
 1.62500000000000  1.75000000000000  0.702365408068491 
 1.62500000000000  1.87500000000000  0.567257575457546 
 1.62500000000000  2.00000000000000  0.440244299636606 
 1.62500000000000  2.12500000000000  0.328750319059151 
 1.62500000000000  2.25000000000000  0.236408263025209 
 1.62500000000000  2.37500000000000  0.163821414657983 
 1.62500000000000  2.50000000000000  0.109462697383284 

 1.75000000000000 -2.50000000000000  0.256991758124086 
 1.75000000000000 -2.37500000000000  0.394449335864557 
 1.75000000000000 -2.25000000000000  0.588844718156237 
 1.75000000000000 -2.12500000000000  0.855413520258396 
 1.75000000000000 -2.00000000000000  1.20972769612554 
 1.75000000000000 -1.87500000000000  1.66584895906139 
 1.75000000000000 -1.75000000000000  2.23381168179038 
 1.75000000000000 -1.62500000000000  2.91661097675949 
 1.75000000000000 -1.50000000000000  3.70709612813908 
 1.75000000000000 -1.37500000000000  4.58537842487406 
 1.75000000000000 -1.25000000000000  5.51746792544317 
 1.75000000000000 -1.12500000000000  6.45578512752460 
 1.75000000000000 -1.00000000000000  7.34193653829959 
 1.75000000000000 -0.875000000000000  8.11174902575297 
 1.75000000000000 -0.750000000000000  8.70211452816727 
 1.75000000000000 -0.625000000000000  9.05878571235475 
 1.75000000000000 -0.500000000000000  9.14394245971604 
 1.75000000000000 -0.375000000000000  8.94217733464106 
 1.75000000000000 -0.250000000000000  8.46361516348992 
 1.75000000000000 -0.125000000000000  7.74328508636564 
 1.75000000000000  0.00000000000000  6.83661634072566 
 1.75000000000000  0.125000000000000  5.81186763454360 
 1.75000000000000  0.250000000000000  4.74109375862685 
 1.75000000000000  0.375000000000000  3.69156178573069 
 1.75000000000000  0.500000000000000  2.71922404299805 
 1.75000000000000  0.625000000000000  1.86515538815981 
 1.75000000000000  0.750000000000000  1.15537417428906 
 1.75000000000000  0.875000000000000  0.606107376355879 
 1.75000000000000  1.00000000000000  0.258129706051992 
 1.75000000000000  1.12500000000000  0.261245942597416 
 1.75000000000000  1.25000000000000  0.392784721420177 
 1.75000000000000  1.37500000000000  0.470687083337286 
 1.75000000000000  1.50000000000000  0.490016448816548 
 1.75000000000000  1.62500000000000  0.465886770805321 
 1.75000000000000  1.75000000000000  0.414204344649140 
 1.75000000000000  1.87500000000000  0.348553627385170 
 1.75000000000000  2.00000000000000  0.279455253933888 
 1.75000000000000  2.12500000000000  0.214287080675103 
 1.75000000000000  2.25000000000000  0.157522585685228 
 1.75000000000000  2.37500000000000  0.111186375222823 
 1.75000000000000  2.50000000000000  0.0754509245344211 

 1.87500000000000 -2.50000000000000  0.206633550345453 
 1.87500000000000 -2.37500000000000  0.318617972628408 
 1.87500000000000 -2.25000000000000  0.478066445301924 
 1.87500000000000 -2.12500000000000  0.698287302359551 
 1.87500000000000 -2.00000000000000  0.993122425480915 
 1.87500000000000 -1.87500000000000  1.37531224002563 
 1.87500000000000 -1.75000000000000  1.85421302156372 
 1.87500000000000 -1.62500000000000  2.43305977595170 
 1.87500000000000 -1.50000000000000  3.10620222167669 
 1.87500000000000 -1.37500000000000  3.85693358295812 
 1.87500000000000 -1.25000000000000  4.65658449692155 
 1.87500000000000 -1.12500000000000  5.46540441592477 
 1.87500000000000 -1.00000000000000  6.23541449509616 
 1.87500000000000 -0.875000000000000  6.91498471920935 
 1.87500000000000 -0.750000000000000  7.45449752599334 
 1.87500000000000 -0.625000000000000  7.81221506892078 
 1.87500000000000 -0.500000000000000  7.95940192601183 
 1.87500000000000 -0.375000000000000  7.88385066595007 
 1.87500000000000 -0.250000000000000  7.59119537781757 
 1.87500000000000 -0.125000000000000  7.10378179127602 
 1.87500000000000  0.00000000000000  6.45736809885513 
 1.87500000000000  0.125000000000000  5.69643075411195 
 1.87500000000000  0.250000000000000  4.86912232564559 
 1.87500000000000  0.375000000000000  4.02280318099068 
 1.87500000000000  0.500000000000000  3.20060610180060 
 1.87500000000000  0.625000000000000  2.43900232554329 
 1.87500000000000  0.750000000000000  1.76615745600181 
 1.87500000000000  0.875000000000000  1.20110563383549 
 1.87500000000000  1.00000000000000  0.754354627344821 
 1.87500000000000  1.12500000000000  0.431832488237819 
 1.87500000000000  1.25000000000000  0.246371300713873 
 1.87500000000000  1.37500000000000  0.206054070785347 
 1.87500000000000  1.50000000000000  0.229531968201366 
 1.87500000000000  1.62500000000000  0.243310261794560 
 1.87500000000000  1.75000000000000  0.234887260348071 
 1.87500000000000  1.87500000000000  0.209732927751903 
 1.87500000000000  2.00000000000000  0.175660142540525 
 1.87500000000000  2.12500000000000  0.139241923532577 
 1.87500000000000  2.25000000000000  0.105047628469033 
 1.87500000000000  2.37500000000000  0.0757008603142656 
 1.87500000000000  2.50000000000000  0.0522412060119169 

 2.00000000000000 -2.50000000000000  0.162849440271779 
 2.00000000000000 -2.37500000000000  0.252322392428956 
 2.00000000000000 -2.25000000000000  0.380587100131351 
 2.00000000000000 -2.12500000000000  0.558963559818543 
 2.00000000000000 -2.00000000000000  0.799358636449487 
 2.00000000000000 -1.87500000000000  1.11283947417013 
 2.00000000000000 -1.75000000000000  1.50762758085870 
 2.00000000000000 -1.62500000000000  1.98672171116869 
 2.00000000000000 -1.50000000000000  2.54557838966554 
 2.00000000000000 -1.37500000000000  3.17043749701251 
 2.00000000000000 -1.25000000000000  3.83788217512546 
 2.00000000000000 -1.12500000000000  4.51601593092080 
 2.00000000000000 -1.00000000000000  5.16725808091172 
 2.00000000000000 -0.875000000000000  5.75232205892252 
 2.00000000000000 -0.750000000000000  6.23461054494694 
 2.00000000000000 -0.625000000000000  6.58416054665795 
 2.00000000000000 -0.500000000000000  6.78042674967114 
 2.00000000000000 -0.375000000000000  6.81353135347792 
 2.00000000000000 -0.250000000000000  6.68401824546496 
 2.00000000000000 -0.125000000000000  6.40152047232278 
 2.00000000000000  0.00000000000000  5.98298165398575 
 2.00000000000000  0.125000000000000  5.45105728716824 
 2.00000000000000  0.250000000000000  4.83300452652545 
 2.00000000000000  0.375000000000000  4.15986178425395 
 2.00000000000000  0.500000000000000  3.46532718771448 
 2.00000000000000  0.625000000000000  2.78377357839785 
 2.00000000000000  0.750000000000000  2.14732642926974 
 2.00000000000000  0.875000000000000  1.58258653871374 
 2.00000000000000  1.00000000000000  1.10799723919495 
 2.00000000000000  1.12500000000000  0.732822690456619 
 2.00000000000000  1.25000000000000  0.458303771254241 
 2.00000000000000  1.37500000000000  0.280634413312239 
 2.00000000000000  1.50000000000000  0.190713493121482 
 2.00000000000000  1.62500000000000  0.160730878318734 
 2.00000000000000  1.75000000000000  0.149853089821223 
 2.00000000000000  1.87500000000000  0.136549913874359 
 2.00000000000000  2.00000000000000  0.117514872652529 
 2.00000000000000  2.12500000000000  0.0953724763427862 
 2.00000000000000  2.25000000000000  0.0733205417179374 
 2.00000000000000  2.37500000000000  0.0536292507656197 
 2.00000000000000  2.50000000000000  0.0374483778942620 

 2.12500000000000 -2.50000000000000  0.125579214601563 
 2.12500000000000 -2.37500000000000  0.195551178761965 
 2.12500000000000 -2.25000000000000  0.296542161634046 
 2.12500000000000 -2.12500000000000  0.437931376338244 
 2.12500000000000 -2.00000000000000  0.629672176499552 
 2.12500000000000 -1.87500000000000  0.881090420998827 
 2.12500000000000 -1.75000000000000  1.19919715964319 
 2.12500000000000 -1.62500000000000  1.58672198062401 
 2.12500000000000 -1.50000000000000  2.04026443059957 
 2.12500000000000 -1.37500000000000  2.54908081766222 
 2.12500000000000 -1.25000000000000  3.09498846795389 
 2.12500000000000 -1.12500000000000  3.65363945040455 
 2.12500000000000 -1.00000000000000  4.19703311719989 
 2.12500000000000 -0.875000000000000  4.69672962972541 
 2.12500000000000 -0.750000000000000  5.12696542753234 
 2.12500000000000 -0.625000000000000  5.46689092726818 
 2.12500000000000 -0.500000000000000  5.70147569992958 
 2.12500000000000 -0.375000000000000  5.82114706736879 
 2.12500000000000 -0.250000000000000  5.82073730332948 
 2.12500000000000 -0.125000000000000  5.69858684421163 
 2.12500000000000  0.00000000000000  5.45653152931274 
 2.12500000000000  0.125000000000000  5.10099137464437 
 2.12500000000000  0.250000000000000  4.64468089849520 
 2.12500000000000  0.375000000000000  4.10792966417131 
 2.12500000000000  0.500000000000000  3.51855277674484 
 2.12500000000000  0.625000000000000  2.90971487064538 
 2.12500000000000  0.750000000000000  2.31605063042470 
 2.12500000000000  0.875000000000000  1.76903733091714 
 2.12500000000000  1.00000000000000  1.29292474655671 
 2.12500000000000  1.12500000000000  0.902311692701800 
 2.12500000000000  1.25000000000000  0.601853423313263 
 2.12500000000000  1.37500000000000  0.387808102150451 
 2.12500000000000  1.50000000000000  0.250172478248666 
 2.12500000000000  1.62500000000000  0.173066222520266 
 2.12500000000000  1.75000000000000  0.134054666709082 
 2.12500000000000  1.87500000000000  0.111068893505721 
 2.12500000000000  2.00000000000000  0.0919794590575264 
 2.12500000000000  2.12500000000000  0.0735575649750509 
 2.12500000000000  2.25000000000000  0.0562221221558686 
 2.12500000000000  2.37500000000000  0.0410189244891298 
 2.12500000000000  2.50000000000000  0.0286045317657970 

 2.25000000000000 -2.50000000000000  0.0946248966355614 
 2.25000000000000 -2.37500000000000  0.148133747036434 
 2.25000000000000 -2.25000000000000  0.225916930156132 
 2.25000000000000 -2.12500000000000  0.335587257213844 
 2.25000000000000 -2.00000000000000  0.485316848751323 
 2.25000000000000 -1.87500000000000  0.682875715593849 
 2.25000000000000 -1.75000000000000  0.934281395404088 
 2.25000000000000 -1.62500000000000  1.24224284343776 
 2.25000000000000 -1.50000000000000  1.60473446945637 
 2.25000000000000 -1.37500000000000  2.01411950465072 
 2.25000000000000 -1.25000000000000  2.45718772264225 
 2.25000000000000 -1.12500000000000  2.91625425249339 
 2.25000000000000 -1.00000000000000  3.37113014171079 
 2.25000000000000 -0.875000000000000  3.80144331258945 
 2.25000000000000 -0.750000000000000  4.18861786027316 
 2.25000000000000 -0.625000000000000  4.51692827647913 
 2.25000000000000 -0.500000000000000  4.77343592018402 
 2.25000000000000 -0.375000000000000  4.94714369198451 
 2.25000000000000 -0.250000000000000  5.02812541477057 
 2.25000000000000 -0.125000000000000  5.00746675007726 
 2.25000000000000  0.00000000000000  4.87850766974524 
 2.25000000000000  0.125000000000000  4.63922890001595 
 2.25000000000000  0.250000000000000  4.29496967778403 
 2.25000000000000  0.375000000000000  3.86031964772220 
 2.25000000000000  0.500000000000000  3.35917627670022 
 2.25000000000000  0.625000000000000  2.82255550806969 
 2.25000000000000  0.750000000000000  2.28453640316319 
 2.25000000000000  0.875000000000000  1.77737542567448 
 2.25000000000000  1.00000000000000  1.32708215504085 
 2.25000000000000  1.12500000000000  0.950530512180961 
 2.25000000000000  1.25000000000000  0.654608312406655 
 2.25000000000000  1.37500000000000  0.437206480267327 
 2.25000000000000  1.50000000000000  0.289223210035301 
 2.25000000000000  1.62500000000000  0.196503129936587 
 2.25000000000000  1.75000000000000  0.141690784266308 
 2.25000000000000  1.87500000000000  0.107985848418985 
 2.25000000000000  2.00000000000000  0.0839293500294831 
 2.25000000000000  2.12500000000000  0.0643488683057295 
 2.25000000000000  2.25000000000000  0.0478093789065922 
 2.25000000000000  2.37500000000000  0.0341816692563512 
 2.25000000000000  2.50000000000000  0.0234715465964895 

 2.37500000000000 -2.50000000000000  0.0696334068336912 
 2.37500000000000 -2.37500000000000  0.109674318866315 
 2.37500000000000 -2.25000000000000  0.168371191401522 
 2.37500000000000 -2.12500000000000  0.251844269061058 
 2.37500000000000 -2.00000000000000  0.366791235589949 
 2.37500000000000 -1.87500000000000  0.519765730958795 
 2.37500000000000 -1.75000000000000  0.716148721750534 
 2.37500000000000 -1.62500000000000  0.958953181772234 
 2.37500000000000 -1.50000000000000  1.24771458250766 
 2.37500000000000 -1.37500000000000  1.57777378827665 
 2.37500000000000 -1.25000000000000  1.94020733936551 
 2.37500000000000 -1.12500000000000  2.32249129985833 
 2.37500000000000 -1.00000000000000  2.70974505747475 
 2.37500000000000 -0.875000000000000  3.08618889368396 
 2.37500000000000 -0.750000000000000  3.43637277486152 
 2.37500000000000 -0.625000000000000  3.74585182750300 
 2.37500000000000 -0.500000000000000  4.00126003857917 
 2.37500000000000 -0.375000000000000  4.19004757569372 
 2.37500000000000 -0.250000000000000  4.30035640461870 
 2.37500000000000 -0.125000000000000  4.32151518319121 
 2.37500000000000  0.00000000000000  4.24541237672814 
 2.37500000000000  0.125000000000000  4.06860798295861 
 2.37500000000000  0.250000000000000  3.79460373741986 
 2.37500000000000  0.375000000000000  3.43540817312978 
 2.37500000000000  0.500000000000000  3.01158433650545 
 2.37500000000000  0.625000000000000  2.55039172670541 
 2.37500000000000  0.750000000000000  2.08227475429075 
 2.37500000000000  0.875000000000000  1.63653112980923 
 2.37500000000000  1.00000000000000  1.23726496962620 
 2.37500000000000  1.12500000000000  0.900590935891747 
 2.37500000000000  1.25000000000000  0.633587822374939 
 2.37500000000000  1.37500000000000  0.434904087735982 
 2.37500000000000  1.50000000000000  0.296443501174979 
 2.37500000000000  1.62500000000000  0.205521444165880 
 2.37500000000000  1.75000000000000  0.147506277107689 
 2.37500000000000  1.87500000000000  0.109219136744325 
 2.37500000000000  2.00000000000000  0.0817006076902642 
 2.37500000000000  2.12500000000000  0.0603976691804663 
 2.37500000000000  2.25000000000000  0.0434959801718956 
 2.37500000000000  2.37500000000000  0.0302963857112110 
 2.37500000000000  2.50000000000000  0.0203501441506780 

 2.50000000000000 -2.50000000000000  0.0500893824650903 
 2.50000000000000 -2.37500000000000  0.0795043614985382 
 2.50000000000000 -2.25000000000000  0.123103927799691 
 2.50000000000000 -2.12500000000000  0.185832368864895 
 2.50000000000000 -2.00000000000000  0.273264150730524 
 2.50000000000000 -1.87500000000000  0.391099010134361 
 2.50000000000000 -1.75000000000000  0.544405708041263 
 2.50000000000000 -1.62500000000000  0.736699861966543 
 2.50000000000000 -1.50000000000000  0.969017794984862 
 2.50000000000000 -1.37500000000000  1.23918728333014 
 2.50000000000000 -1.25000000000000  1.54147132253254 
 2.50000000000000 -1.12500000000000  1.86667304049345 
 2.50000000000000 -1.00000000000000  2.20267257255822 
 2.50000000000000 -0.875000000000000  2.53527189181484 
 2.50000000000000 -0.750000000000000  2.84918783907234 
 2.50000000000000 -0.625000000000000  3.12905298135341 
 2.50000000000000 -0.500000000000000  3.36032468853490 
 2.50000000000000 -0.375000000000000  3.53004368435953 
 2.50000000000000 -0.250000000000000  3.62744086464540 
 2.50000000000000 -0.125000000000000  3.64448396167257 
 2.50000000000000  0.00000000000000  3.57653789202655 
 2.50000000000000  0.125000000000000  3.42327385100872 
 2.50000000000000  0.250000000000000  3.18973667902248 
 2.50000000000000  0.375000000000000  2.88716426887916 
 2.50000000000000  0.500000000000000  2.53297673252742 
 2.50000000000000  0.625000000000000  2.14949846899497 
 2.50000000000000  0.750000000000000  1.76141577680894 
 2.50000000000000  0.875000000000000  1.39248152377548 
 2.50000000000000  1.00000000000000  1.06229167221087 
 2.50000000000000  1.12500000000000  0.783931197907999 
 2.50000000000000  1.25000000000000  0.562955710277802 
 2.50000000000000  1.37500000000000  0.397724000302648 
 2.50000000000000  1.50000000000000  0.280789803929724 
 2.50000000000000  1.62500000000000  0.201105327802181 
 2.50000000000000  1.75000000000000  0.146907094597609 
 2.50000000000000  1.87500000000000  0.108553197730282 
 2.50000000000000  2.00000000000000  0.0798879395441205 
 2.50000000000000  2.12500000000000  0.0577313174176185 
 2.50000000000000  2.25000000000000  0.0405887320973169 
 2.50000000000000  2.37500000000000  0.0276256431126842 
 2.50000000000000  2.50000000000000  0.0181621021012277 

