-2.50000000000000 -2.50000000000000  0.000448256485478746 
-2.50000000000000 -2.37500000000000  0.000705568675949574 
-2.50000000000000 -2.25000000000000  0.00108317844493375 
-2.50000000000000 -2.12500000000000  0.00162295082134369 
-2.50000000000000 -2.00000000000000  0.00237438703629191 
-2.50000000000000 -1.87500000000000  0.00339258671503393 
-2.50000000000000 -1.75000000000000  0.00473422664306583 
-2.50000000000000 -1.62500000000000  0.00645144481555586 
-2.50000000000000 -1.50000000000000  0.00858407205790049 
-2.50000000000000 -1.37500000000000  0.0111512632955759 
-2.50000000000000 -1.25000000000000  0.0141439760748621 
-2.50000000000000 -1.12500000000000  0.0175196715758402 
-2.50000000000000 -1.00000000000000  0.0212000196607126 
-2.50000000000000 -0.875000000000000  0.0250715554693634 
-2.50000000000000 -0.750000000000000  0.0289887117836274 
-2.50000000000000 -0.625000000000000  0.0327789137179329 
-2.50000000000000 -0.500000000000000  0.0362503895441798 
-2.50000000000000 -0.375000000000000  0.0392041927853168 
-2.50000000000000 -0.250000000000000  0.0414515320153386 
-2.50000000000000 -0.125000000000000  0.0428354205403320 
-2.50000000000000  0.00000000000000  0.0432527488622593 
-2.50000000000000  0.125000000000000  0.0426709378645076 
-2.50000000000000  0.250000000000000  0.0411338605906792 
-2.50000000000000  0.375000000000000  0.0387548554037880 
-2.50000000000000  0.500000000000000  0.0356989607347167 
-2.50000000000000  0.625000000000000  0.0321598161982957 
-2.50000000000000  0.750000000000000  0.0283373934968940 
-2.50000000000000  0.875000000000000  0.0244207693823986 
-2.50000000000000  1.00000000000000  0.0205769860153721 
-2.50000000000000  1.12500000000000  0.0169446096464756 
-2.50000000000000  1.25000000000000  0.0136300032492585 
-2.50000000000000  1.37500000000000  0.0107052488185247 
-2.50000000000000  1.50000000000000  0.00820788956462133 
-2.50000000000000  1.62500000000000  0.00614318893472097 
-2.50000000000000  1.75000000000000  0.00448920356408390 
-2.50000000000000  1.87500000000000  0.00320409983522873 
-2.50000000000000  2.00000000000000  0.00223443065131413 
-2.50000000000000  2.12500000000000  0.00152289918189667 
-2.50000000000000  2.25000000000000  0.00101447288808208 
-2.50000000000000  2.37500000000000  0.000660331287892945 
-2.50000000000000  2.50000000000000  0.000419738127566229 

-2.37500000000000 -2.50000000000000  0.000569555907752597 
-2.37500000000000 -2.37500000000000  0.000886030244227950 
-2.37500000000000 -2.25000000000000  0.00134355764156178 
-2.37500000000000 -2.12500000000000  0.00198844058688134 
-2.37500000000000 -2.00000000000000  0.00287565394146858 
-2.37500000000000 -1.87500000000000  0.00406794393484223 
-2.37500000000000 -1.75000000000000  0.00563338848452437 
-2.37500000000000 -1.62500000000000  0.00764082807934236 
-2.37500000000000 -1.50000000000000  0.0101527694941381 
-2.37500000000000 -1.37500000000000  0.0132158176238058 
-2.37500000000000 -1.25000000000000  0.0168493133091521 
-2.37500000000000 -1.12500000000000  0.0210334646548052 
-2.37500000000000 -1.00000000000000  0.0256986937312414 
-2.37500000000000 -0.875000000000000  0.0307181402436848 
-2.37500000000000 -0.750000000000000  0.0359053392707353 
-2.37500000000000 -0.625000000000000  0.0410190508444300 
-2.37500000000000 -0.500000000000000  0.0457768833800952 
-2.37500000000000 -0.375000000000000  0.0498783439067224 
-2.37500000000000 -0.250000000000000  0.0530359952043944 
-2.37500000000000 -0.125000000000000  0.0550107561302215 
-2.37500000000000  0.00000000000000  0.0556449806846001 
-2.37500000000000  0.125000000000000  0.0548860511271450 
-2.37500000000000  0.250000000000000  0.0527946695422545 
-2.37500000000000  0.375000000000000  0.0495356473508974 
-2.37500000000000  0.500000000000000  0.0453535021378455 
-2.37500000000000  0.625000000000000  0.0405388186493829 
-2.37500000000000  0.750000000000000  0.0353927841575791 
-2.37500000000000  0.875000000000000  0.0301963249622010 
-2.37500000000000  1.00000000000000  0.0251877102393559 
-2.37500000000000  1.12500000000000  0.0205496995646007 
-2.37500000000000  1.25000000000000  0.0164053284898819 
-2.37500000000000  1.37500000000000  0.0128205341055748 
-2.37500000000000  1.50000000000000  0.00981167574745982 
-2.37500000000000  1.62500000000000  0.00735610821504551 
-2.37500000000000  1.75000000000000  0.00540405498419080 
-2.37500000000000  1.87500000000000  0.00389014525227849 
-2.37500000000000  2.00000000000000  0.00274327198706679 
-2.37500000000000  2.12500000000000  0.00189395063711159 
-2.37500000000000  2.25000000000000  0.00127899184239702 
-2.37500000000000  2.37500000000000  0.000843839974201177 
-2.37500000000000  2.50000000000000  0.000543217731979701 

-2.25000000000000 -2.50000000000000  0.000727048397461660 
-2.25000000000000 -2.37500000000000  0.00112484089315500 
-2.25000000000000 -2.25000000000000  0.00169533157544199 
-2.25000000000000 -2.12500000000000  0.00249261738721378 
-2.25000000000000 -2.00000000000000  0.00358024909452446 
-2.25000000000000 -1.87500000000000  0.00503069079177423 
-2.25000000000000 -1.75000000000000  0.00692366488618467 
-2.25000000000000 -1.62500000000000  0.00934261596882648 
-2.25000000000000 -1.50000000000000  0.0123683288514150 
-2.25000000000000 -1.37500000000000  0.0160688513863776 
-2.25000000000000 -1.25000000000000  0.0204854751220759 
-2.25000000000000 -1.12500000000000  0.0256156260771600 
-2.25000000000000 -1.00000000000000  0.0313949073588174 
-2.25000000000000 -0.875000000000000  0.0376818473110111 
-2.25000000000000 -0.750000000000000  0.0442497233366755 
-2.25000000000000 -0.625000000000000  0.0507897706113107 
-2.25000000000000 -0.500000000000000  0.0569288567780711 
-2.25000000000000 -0.375000000000000  0.0622622082597230 
-2.25000000000000 -0.250000000000000  0.0663982764342435 
-2.25000000000000 -0.125000000000000  0.0690091130780686 
-2.25000000000000  0.00000000000000  0.0698769006393625 
-2.25000000000000  0.125000000000000  0.0689267850711586 
-2.25000000000000  0.250000000000000  0.0662385097714594 
-2.25000000000000  0.375000000000000  0.0620341011664624 
-2.25000000000000  0.500000000000000  0.0566445343986586 
-2.25000000000000  0.625000000000000  0.0504630100040742 
-2.25000000000000  0.750000000000000  0.0438947244672024 
-2.25000000000000  0.875000000000000  0.0373123924001116 
-2.25000000000000  1.00000000000000  0.0310239519147883 
-2.25000000000000  1.12500000000000  0.0252551529808079 
-2.25000000000000  1.25000000000000  0.0201463341829108 
-2.25000000000000  1.37500000000000  0.0157603702609700 
-2.25000000000000  1.50000000000000  0.0120976840949062 
-2.25000000000000  1.62500000000000  0.00911417080757277 
-2.25000000000000  1.75000000000000  0.00673857644497595 
-2.25000000000000  1.87500000000000  0.00488700779990857 
-2.25000000000000  2.00000000000000  0.00347352039124674 
-2.25000000000000  2.12500000000000  0.00241683592137369 
-2.25000000000000  2.25000000000000  0.00164394752211118 
-2.25000000000000  2.37500000000000  0.00109161007689898 
-2.25000000000000  2.50000000000000  0.000706588872466862 

-2.12500000000000 -2.50000000000000  0.000917686244247587 
-2.12500000000000 -2.37500000000000  0.00141985779102176 
-2.12500000000000 -2.25000000000000  0.00214093071483839 
-2.12500000000000 -2.12500000000000  0.00315025640635457 
-2.12500000000000 -2.00000000000000  0.00452961539428514 
-2.12500000000000 -1.87500000000000  0.00637254348360084 
-2.12500000000000 -1.75000000000000  0.00878225599606176 
-2.12500000000000 -1.62500000000000  0.0118673010998626 
-2.12500000000000 -1.50000000000000  0.0157337756299406 
-2.12500000000000 -1.37500000000000  0.0204729061671257 
-2.12500000000000 -1.25000000000000  0.0261433287312997 
-2.12500000000000 -1.12500000000000  0.0327486950283909 
-2.12500000000000 -1.00000000000000  0.0402132060567221 
-2.12500000000000 -0.875000000000000  0.0483598406505632 
-2.12500000000000 -0.750000000000000  0.0568976127907886 
-2.12500000000000 -0.625000000000000  0.0654243241136971 
-2.12500000000000 -0.500000000000000  0.0734494331470214 
-2.12500000000000 -0.375000000000000  0.0804378474411091 
-2.12500000000000 -0.250000000000000  0.0858703473066713 
-2.12500000000000 -0.125000000000000  0.0893112866767509 
-2.12500000000000  0.00000000000000  0.0904708279652601 
-2.12500000000000  0.125000000000000  0.0892486620406352 
-2.12500000000000  0.250000000000000  0.0857494824653914 
-2.12500000000000  0.375000000000000  0.0802667080335852 
-2.12500000000000  0.500000000000000  0.0732382443017664 
-2.12500000000000  0.625000000000000  0.0651841761463807 
-2.12500000000000  0.750000000000000  0.0566394053145419 
-2.12500000000000  0.875000000000000  0.0480937607939759 
-2.12500000000000  1.00000000000000  0.0399486482252977 
-2.12500000000000  1.12500000000000  0.0324943214627641 
-2.12500000000000  1.25000000000000  0.0259069563565859 
-2.12500000000000  1.37500000000000  0.0202610865086440 
-2.12500000000000  1.50000000000000  0.0155511897570469 
-2.12500000000000  1.62500000000000  0.0117162555986141 
-2.12500000000000  1.75000000000000  0.00866254355713497 
-2.12500000000000  1.87500000000000  0.00628175820997056 
-2.12500000000000  2.00000000000000  0.00446381388567509 
-2.12500000000000  2.12500000000000  0.00310474559564562 
-2.12500000000000  2.25000000000000  0.00211097410037944 
-2.12500000000000  2.37500000000000  0.00140117816208166 
-2.12500000000000  2.50000000000000  0.000906738720231855 

-2.00000000000000 -2.50000000000000  0.00112826507530322 
-2.00000000000000 -2.37500000000000  0.00175066250367151 
-2.00000000000000 -2.25000000000000  0.00265092433392629 
-2.00000000000000 -2.12500000000000  0.00392247014533846 
-2.00000000000000 -2.00000000000000  0.00567820714145200 
-2.00000000000000 -1.87500000000000  0.00805007519731760 
-2.00000000000000 -1.75000000000000  0.0111859687862527 
-2.00000000000000 -1.62500000000000  0.0152427215956848 
-2.00000000000000 -1.50000000000000  0.0203737423991039 
-2.00000000000000 -1.37500000000000  0.0267101438311528 
-2.00000000000000 -1.25000000000000  0.0343350567931759 
-2.00000000000000 -1.12500000000000  0.0432524823093961 
-2.00000000000000 -1.00000000000000  0.0533544478195524 
-2.00000000000000 -0.875000000000000  0.0643928776873709 
-2.00000000000000 -0.750000000000000  0.0759644636338920 
-2.00000000000000 -0.625000000000000  0.0875168023428476 
-2.00000000000000 -0.500000000000000  0.0983814144812935 
-2.00000000000000 -0.375000000000000  0.107834058799985 
-2.00000000000000 -0.250000000000000  0.115176068096012 
-2.00000000000000 -0.125000000000000  0.119824082488971 
-2.00000000000000  0.00000000000000  0.121391594506134 
-2.00000000000000  0.125000000000000  0.119745729983551 
-2.00000000000000  0.250000000000000  0.115027116759124 
-2.00000000000000  0.375000000000000  0.107628541101506 
-2.00000000000000  0.500000000000000  0.0981371581753100 
-2.00000000000000  0.625000000000000  0.0872526702214483 
-2.00000000000000  0.750000000000000  0.0756980101282075 
-2.00000000000000  0.875000000000000  0.0641388192234073 
-2.00000000000000  1.00000000000000  0.0531239598331128 
-2.00000000000000  1.12500000000000  0.0430530660615504 
-2.00000000000000  1.25000000000000  0.0341706778660522 
-2.00000000000000  1.37500000000000  0.0265814920746923 
-2.00000000000000  1.50000000000000  0.0202786441531156 
-2.00000000000000  1.62500000000000  0.0151767968365183 
-2.00000000000000  1.75000000000000  0.0111435325405868 
-2.00000000000000  1.87500000000000  0.00802512884579599 
-2.00000000000000  2.00000000000000  0.00566528452235946 
-2.00000000000000  2.12500000000000  0.00391715663305993 
-2.00000000000000  2.25000000000000  0.00265000816268358 
-2.00000000000000  2.37500000000000  0.00175200946318874 
-2.00000000000000  2.50000000000000  0.00113056305109152 

-1.87500000000000 -2.50000000000000  0.00133750996213847 
-1.87500000000000 -2.37500000000000  0.00208204472616313 
-1.87500000000000 -2.25000000000000  0.00316949983691537 
-1.87500000000000 -2.12500000000000  0.00472451068989523 
-1.87500000000000 -2.00000000000000  0.00690274824994670 
-1.87500000000000 -1.87500000000000  0.00989155101932149 
-1.87500000000000 -1.75000000000000  0.0139058946401583 
-1.87500000000000 -1.62500000000000  0.0191775086832996 
-1.87500000000000 -1.50000000000000  0.0259352355021533 
-1.87500000000000 -1.37500000000000  0.0343755713702492 
-1.87500000000000 -1.25000000000000  0.0446238929659519 
-1.87500000000000 -1.12500000000000  0.0566892850521393 
-1.87500000000000 -1.00000000000000  0.0704189981683716 
-1.87500000000000 -0.875000000000000  0.0854616759156219 
-1.87500000000000 -0.750000000000000  0.101250358075021 
-1.87500000000000 -0.625000000000000  0.117015542782411 
-1.87500000000000 -0.500000000000000  0.131834508126316 
-1.87500000000000 -0.375000000000000  0.144715998326258 
-1.87500000000000 -0.250000000000000  0.154710833359377 
-1.87500000000000 -0.125000000000000  0.161031366877374 
-1.87500000000000  0.00000000000000  0.163158406296309 
-1.87500000000000  0.125000000000000  0.160914854240668 
-1.87500000000000  0.250000000000000  0.154491173366945 
-1.87500000000000  0.375000000000000  0.144417489584840 
-1.87500000000000  0.500000000000000  0.131488196781518 
-1.87500000000000  0.625000000000000  0.116654367582746 
-1.87500000000000  0.750000000000000  0.100904708976945 
-1.87500000000000  0.875000000000000  0.0851560993911134 
-1.87500000000000  1.00000000000000  0.0701703005093400 
-1.87500000000000  1.12500000000000  0.0565059109481115 
-1.87500000000000  1.25000000000000  0.0445063165276419 
-1.87500000000000  1.37500000000000  0.0343174824984434 
-1.87500000000000  1.50000000000000  0.0259253751723383 
-1.87500000000000  1.62500000000000  0.0192019675786432 
-1.87500000000000  1.75000000000000  0.0139505416286020 
-1.87500000000000  1.87500000000000  0.00994413070372960 
-1.87500000000000  2.00000000000000  0.00695422245577939 
-1.87500000000000  2.12500000000000  0.00476944827296135 
-1.87500000000000  2.25000000000000  0.00320563331526435 
-1.87500000000000  2.37500000000000  0.00210934516303363 
-1.87500000000000  2.50000000000000  0.00135718080195903 

-1.75000000000000 -2.50000000000000  0.00152105203475613 
-1.75000000000000 -2.37500000000000  0.00237292762706123 
-1.75000000000000 -2.25000000000000  0.00363022104232732 
-1.75000000000000 -2.12500000000000  0.00545302732692627 
-1.75000000000000 -2.00000000000000  0.00804813537789671 
-1.75000000000000 -1.87500000000000  0.0116717062123490 
-1.75000000000000 -1.75000000000000  0.0166245670502573 
-1.75000000000000 -1.62500000000000  0.0232367693542550 
-1.75000000000000 -1.50000000000000  0.0318388274499471 
-1.75000000000000 -1.37500000000000  0.0427185992829379 
-1.75000000000000 -1.25000000000000  0.0560652262465304 
-1.75000000000000 -1.12500000000000  0.0719050210039892 
-1.75000000000000 -1.00000000000000  0.0900383759777902 
-1.75000000000000 -0.875000000000000  0.109990626227787 
-1.75000000000000 -0.750000000000000  0.130991683808609 
-1.75000000000000 -0.625000000000000  0.151997527872183 
-1.75000000000000 -0.500000000000000  0.171760542941263 
-1.75000000000000 -0.375000000000000  0.188946017554101 
-1.75000000000000 -0.250000000000000  0.202281106347414 
-1.75000000000000 -0.125000000000000  0.210713282707976 
-1.75000000000000  0.00000000000000  0.213550598481192 
-1.75000000000000  0.125000000000000  0.210557577084264 
-1.75000000000000  0.250000000000000  0.201988244601307 
-1.75000000000000  0.375000000000000  0.188549906429579 
-1.75000000000000  0.500000000000000  0.171304875377510 
-1.75000000000000  0.625000000000000  0.151529151931376 
-1.75000000000000  0.750000000000000  0.130554272093910 
-1.75000000000000  0.875000000000000  0.109619650217968 
-1.75000000000000  1.00000000000000  0.0897578682544434 
-1.75000000000000  1.12500000000000  0.0717261762349254 
-1.75000000000000  1.25000000000000  0.0559866793134657 
-1.75000000000000  1.37500000000000  0.0427281762941771 
-1.75000000000000  1.50000000000000  0.0319165335192435 
-1.75000000000000  1.62500000000000  0.0233586324410301 
-1.75000000000000  1.75000000000000  0.0167667213450008 
-1.75000000000000  1.87500000000000  0.0118139284116836 
-1.75000000000000  2.00000000000000  0.00817611499013800 
-1.75000000000000  2.12500000000000  0.00555900705472274 
-1.75000000000000  2.25000000000000  0.00371215537051752 
-1.75000000000000  2.37500000000000  0.00243273614246803 
-1.75000000000000  2.50000000000000  0.00156268972076364 

-1.62500000000000 -2.50000000000000  0.00165848157659488 
-1.62500000000000 -2.37500000000000  0.00258908139926135 
-1.62500000000000 -2.25000000000000  0.00397848972714133 
-1.62500000000000 -2.12500000000000  0.00602476333517520 
-1.62500000000000 -2.00000000000000  0.00899212294580310 
-1.62500000000000 -1.87500000000000  0.0132163265823638 
-1.62500000000000 -1.75000000000000  0.0190993352661080 
-1.62500000000000 -1.62500000000000  0.0270887798825470 
-1.62500000000000 -1.50000000000000  0.0376389454963116 
-1.62500000000000 -1.37500000000000  0.0511520851550044 
-1.62500000000000 -1.25000000000000  0.0679021909794776 
-1.62500000000000 -1.12500000000000  0.0879480840748521 
-1.62500000000000 -1.00000000000000  0.111048326154253 
-1.62500000000000 -0.875000000000000  0.136595488398352 
-1.62500000000000 -0.750000000000000  0.163589499496409 
-1.62500000000000 -0.625000000000000  0.190667066173794 
-1.62500000000000 -0.500000000000000  0.216195732591442 
-1.62500000000000 -0.375000000000000  0.238428244156946 
-1.62500000000000 -0.250000000000000  0.255698600561803 
-1.62500000000000 -0.125000000000000  0.266629499032370 
-1.62500000000000  0.00000000000000  0.270315270171357 
-1.62500000000000  0.125000000000000  0.266446748589283 
-1.62500000000000  0.250000000000000  0.255354504221872 
-1.62500000000000  0.375000000000000  0.237962227006488 
-1.62500000000000  0.500000000000000  0.215659254673976 
-1.62500000000000  0.625000000000000  0.190116315931454 
-1.62500000000000  0.750000000000000  0.163078119118166 
-1.62500000000000  0.875000000000000  0.136168392843735 
-1.62500000000000  1.00000000000000  0.110737235248033 
-1.62500000000000  1.12500000000000  0.0877690181877471 
-1.62500000000000  1.25000000000000  0.0678549885954297 
-1.62500000000000  1.37500000000000  0.0512219221247579 
-1.62500000000000  1.50000000000000  0.0377997167756641 
-1.62500000000000  1.62500000000000  0.0273079395736705 
-1.62500000000000  1.75000000000000  0.0193434234363700 
-1.62500000000000  1.87500000000000  0.0134561199328352 
-1.62500000000000  2.00000000000000  0.00920633098045493 
-1.62500000000000  2.12500000000000  0.00620154798339732 
-1.62500000000000  2.25000000000000  0.00411473624601305 
-1.62500000000000  2.37500000000000  0.00268804333278764 
-1.62500000000000  2.50000000000000  0.00172683893527881 

-1.50000000000000 -2.50000000000000  0.00174081474306114 
-1.50000000000000 -2.37500000000000  0.00271696400606288 
-1.50000000000000 -2.25000000000000  0.00419649226366862 
-1.50000000000000 -2.12500000000000  0.00641980512665555 
-1.50000000000000 -2.00000000000000  0.00971690569813050 
-1.50000000000000 -1.87500000000000  0.0145151891398490 
-1.50000000000000 -1.75000000000000  0.0213328397611069 
-1.50000000000000 -1.62500000000000  0.0307526233114800 
-1.50000000000000 -1.50000000000000  0.0433720455889927 
-1.50000000000000 -1.37500000000000  0.0597280844585690 
-1.50000000000000 -1.25000000000000  0.0801988269383591 
-1.50000000000000 -1.12500000000000  0.104890592798427 
-1.50000000000000 -1.00000000000000  0.133526640732055 
-1.50000000000000 -0.875000000000000  0.165360236048222 
-1.50000000000000 -0.750000000000000  0.199137795238957 
-1.50000000000000 -0.625000000000000  0.233134367060743 
-1.50000000000000 -0.500000000000000  0.265272861007527 
-1.50000000000000 -0.375000000000000  0.293321750163751 
-1.50000000000000 -0.250000000000000  0.315147424724541 
-1.50000000000000 -0.125000000000000  0.328982097737554 
-1.50000000000000  0.00000000000000  0.333660722725487 
-1.50000000000000  0.125000000000000  0.328783241241890 
-1.50000000000000  0.250000000000000  0.314771319097083 
-1.50000000000000  0.375000000000000  0.292808659199103 
-1.50000000000000  0.500000000000000  0.264676386708318 
-1.50000000000000  0.625000000000000  0.232514725628986 
-1.50000000000000  0.750000000000000  0.198554725104159 
-1.50000000000000  0.875000000000000  0.164866408890837 
-1.50000000000000  1.00000000000000  0.133162199255654 
-1.50000000000000  1.12500000000000  0.104679264673531 
-1.50000000000000  1.25000000000000  0.0801460012452840 
-1.50000000000000  1.37500000000000  0.0598211865480040 
-1.50000000000000  1.50000000000000  0.0435833566968544 
-1.50000000000000  1.62500000000000  0.0310442909230940 
-1.50000000000000  1.75000000000000  0.0216633029507034 
-1.50000000000000  1.87500000000000  0.0148458082825179 
-1.50000000000000  2.00000000000000  0.0100174350881095 
-1.50000000000000  2.12500000000000  0.00667156656070600 
-1.50000000000000  2.25000000000000  0.00439268204799397 
-1.50000000000000  2.37500000000000  0.00286036207477692 
-1.50000000000000  2.50000000000000  0.00183999885925410 

-1.37500000000000 -2.50000000000000  0.00177509160338201 
-1.37500000000000 -2.37500000000000  0.00277297566460195 
-1.37500000000000 -2.25000000000000  0.00432070536630105 
-1.37500000000000 -2.12500000000000  0.00671198225989428 
-1.37500000000000 -2.00000000000000  0.0103572947251014 
-1.37500000000000 -1.87500000000000  0.0157924874243084 
-1.37500000000000 -1.75000000000000  0.0236699373276842 
-1.37500000000000 -1.62500000000000  0.0347265722663522 
-1.37500000000000 -1.50000000000000  0.0497231433185858 
-1.37500000000000 -1.37500000000000  0.0693514783300275 
-1.37500000000000 -1.25000000000000  0.0941117783406835 
-1.37500000000000 -1.12500000000000  0.124170180048569 
-1.37500000000000 -1.00000000000000  0.159216541566292 
-1.37500000000000 -0.875000000000000  0.198351150623865 
-1.37500000000000 -0.750000000000000  0.240033222993312 
-1.37500000000000 -0.625000000000000  0.282120270272819 
-1.37500000000000 -0.500000000000000  0.322014176957958 
-1.37500000000000 -0.375000000000000  0.356908787675755 
-1.37500000000000 -0.250000000000000  0.384109779787931 
-1.37500000000000 -0.125000000000000  0.401377186515064 
-1.37500000000000  0.00000000000000  0.407230334014276 
-1.37500000000000  0.125000000000000  0.401157855692280 
-1.37500000000000  0.250000000000000  0.383691848295052 
-1.37500000000000  0.375000000000000  0.356331459168977 
-1.37500000000000  0.500000000000000  0.321330953699973 
-1.37500000000000  0.625000000000000  0.281393412576441 
-1.37500000000000  0.750000000000000  0.239327443526797 
-1.37500000000000  0.875000000000000  0.197727092015638 
-1.37500000000000  1.00000000000000  0.158724556603443 
-1.37500000000000  1.12500000000000  0.123845007520396 
-1.37500000000000  1.25000000000000  0.0939688413618732 
-1.37500000000000  1.37500000000000  0.0693855660181140 
-1.37500000000000  1.50000000000000  0.0499100000488337 
-1.37500000000000  1.62500000000000  0.0350273720642157 
-1.37500000000000  1.75000000000000  0.0240379275670277 
-1.37500000000000  1.87500000000000  0.0161805349821502 
-1.37500000000000  2.00000000000000  0.0107248800879150 
-1.37500000000000  2.12500000000000  0.00703035208106545 
-1.37500000000000  2.25000000000000  0.00457523150866168 
-1.37500000000000  2.37500000000000  0.00296225452710986 
-1.37500000000000  2.50000000000000  0.00190720286810790 

-1.25000000000000 -2.50000000000000  0.00178137009925657 
-1.25000000000000 -2.37500000000000  0.00279871612299004 
-1.25000000000000 -2.25000000000000  0.00443341034321825 
-1.25000000000000 -2.12500000000000  0.00705103227410878 
-1.25000000000000 -2.00000000000000  0.0111625805804110 
-1.25000000000000 -1.87500000000000  0.0174325021807924 
-1.25000000000000 -1.75000000000000  0.0266684985882237 
-1.25000000000000 -1.62500000000000  0.0397847465666788 
-1.25000000000000 -1.50000000000000  0.0577297922165649 
-1.25000000000000 -1.37500000000000  0.0813740130477662 
-1.25000000000000 -1.25000000000000  0.111358690810961 
-1.25000000000000 -1.12500000000000  0.147918955567265 
-1.25000000000000 -1.00000000000000  0.190704943272925 
-1.25000000000000 -0.875000000000000  0.238636603269125 
-1.25000000000000 -0.750000000000000  0.289833410938203 
-1.25000000000000 -0.625000000000000  0.341656463481167 
-1.25000000000000 -0.500000000000000  0.390884780552807 
-1.25000000000000 -0.375000000000000  0.434021579928906 
-1.25000000000000 -0.250000000000000  0.467695476226998 
-1.25000000000000 -0.125000000000000  0.489094340749397 
-1.25000000000000  0.00000000000000  0.496354413318224 
-1.25000000000000  0.125000000000000  0.488829754954204 
-1.25000000000000  0.250000000000000  0.467187946124370 
-1.25000000000000  0.375000000000000  0.433312416410555 
-1.25000000000000  0.500000000000000  0.390031271143370 
-1.25000000000000  0.625000000000000  0.340726843761251 
-1.25000000000000  0.750000000000000  0.288900878532816 
-1.25000000000000  0.875000000000000  0.237772703959173 
-1.25000000000000  1.00000000000000  0.189972713568006 
-1.25000000000000  1.12500000000000  0.147366435009718 
-1.25000000000000  1.25000000000000  0.111013727425489 
-1.25000000000000  1.37500000000000  0.0812414434302597 
-1.25000000000000  1.50000000000000  0.0577918517789751 
-1.25000000000000  1.62500000000000  0.0400049031100180 
-1.25000000000000  1.75000000000000  0.0269980192725311 
-1.25000000000000  1.87500000000000  0.0178183594013190 
-1.25000000000000  2.00000000000000  0.0115551294274893 
-1.25000000000000  2.12500000000000  0.00741029228012676 
-1.25000000000000  2.25000000000000  0.00473332647911969 
-1.25000000000000  2.37500000000000  0.00302881674810292 
-1.25000000000000  2.50000000000000  0.00194498758222381 

-1.12500000000000 -2.50000000000000  0.00177918430637667 
-1.12500000000000 -2.37500000000000  0.00283493791374918 
-1.12500000000000 -2.25000000000000  0.00461246738962368 
-1.12500000000000 -2.12500000000000  0.00756850826048386 
-1.12500000000000 -2.00000000000000  0.0123323309699487 
-1.12500000000000 -1.87500000000000  0.0197161749593559 
-1.12500000000000 -1.75000000000000  0.0307067942027639 
-1.12500000000000 -1.62500000000000  0.0464241275067359 
-1.12500000000000 -1.50000000000000  0.0680353534200640 
-1.12500000000000 -1.37500000000000  0.0966182426249398 
-1.12500000000000 -1.25000000000000  0.132976424186344 
-1.12500000000000 -1.12500000000000  0.177421391772492 
-1.12500000000000 -1.00000000000000  0.229550702677345 
-1.12500000000000 -0.875000000000000  0.288065562095037 
-1.12500000000000 -0.750000000000000  0.350678716392173 
-1.12500000000000 -0.625000000000000  0.414159909485573 
-1.12500000000000 -0.500000000000000  0.474547835524312 
-1.12500000000000 -0.375000000000000  0.527525714052809 
-1.12500000000000 -0.250000000000000  0.568918774586939 
-1.12500000000000 -0.125000000000000  0.595236518930377 
-1.12500000000000  0.00000000000000  0.604161855762699 
-1.12500000000000  0.125000000000000  0.594891071417053 
-1.12500000000000  0.250000000000000  0.568254713362670 
-1.12500000000000  0.375000000000000  0.526593991824939 
-1.12500000000000  0.500000000000000  0.473418599044543 
-1.12500000000000  0.625000000000000  0.412916122989388 
-1.12500000000000  0.750000000000000  0.349409019283474 
-1.12500000000000  0.875000000000000  0.286856804485482 
-1.12500000000000  1.00000000000000  0.228480461871099 
-1.12500000000000  1.12500000000000  0.176550917130217 
-1.12500000000000  1.25000000000000  0.132344826420374 
-1.12500000000000  1.37500000000000  0.0962390437531511 
-1.12500000000000  1.50000000000000  0.0678964067102167 
-1.12500000000000  1.62500000000000  0.0464912633781154 
-1.12500000000000  1.75000000000000  0.0309305433058703 
-1.12500000000000  1.87500000000000  0.0200400184160608 
-1.12500000000000  2.00000000000000  0.0127006104751211 
-1.12500000000000  2.12500000000000  0.00793265604784736 
-1.12500000000000  2.25000000000000  0.00493540547630218 
-1.12500000000000  2.37500000000000  0.00309433459636306 
-1.12500000000000  2.50000000000000  0.00196909362343024 

-1.00000000000000 -2.50000000000000  0.00176987444680655 
-1.00000000000000 -2.37500000000000  0.00288642360361931 
-1.00000000000000 -2.25000000000000  0.00486557456230190 
-1.00000000000000 -2.12500000000000  0.00826602962506589 
-1.00000000000000 -2.00000000000000  0.0138456522348263 
-1.00000000000000 -1.87500000000000  0.0225807080373223 
-1.00000000000000 -1.75000000000000  0.0356608404147990 
-1.00000000000000 -1.62500000000000  0.0544414158640618 
-1.00000000000000 -1.50000000000000  0.0803403217812161 
-1.00000000000000 -1.37500000000000  0.114672552952256 
-1.00000000000000 -1.25000000000000  0.158425897277050 
-1.00000000000000 -1.12500000000000  0.211995618973465 
-1.00000000000000 -1.00000000000000  0.274913655480041 
-1.00000000000000 -0.875000000000000  0.345624493389253 
-1.00000000000000 -0.750000000000000  0.421369545696216 
-1.00000000000000 -0.625000000000000  0.498238044113763 
-1.00000000000000 -0.500000000000000  0.571420972501964 
-1.00000000000000 -0.375000000000000  0.635666268338013 
-1.00000000000000 -0.250000000000000  0.685885776144128 
-1.00000000000000 -0.125000000000000  0.717819965355851 
-1.00000000000000  0.00000000000000  0.728639502460831 
-1.00000000000000  0.125000000000000  0.717364065643274 
-1.00000000000000  0.250000000000000  0.685010928925814 
-1.00000000000000  0.375000000000000  0.634441659519386 
-1.00000000000000  0.500000000000000  0.569939755513915 
-1.00000000000000  0.625000000000000  0.496607319103782 
-1.00000000000000  0.750000000000000  0.419700236580230 
-1.00000000000000  0.875000000000000  0.344022109037440 
-1.00000000000000  1.00000000000000  0.273470242423779 
-1.00000000000000  1.12500000000000  0.210782962600346 
-1.00000000000000  1.25000000000000  0.157490286489247 
-1.00000000000000  1.37500000000000  0.114031869035167 
-1.00000000000000  1.50000000000000  0.0799843587394480 
-1.00000000000000  1.62500000000000  0.0543358802858310 
-1.00000000000000  1.75000000000000  0.0357545101262505 
-1.00000000000000  1.87500000000000  0.0228141994268239 
-1.00000000000000  2.00000000000000  0.0141596926622741 
-1.00000000000000  2.12500000000000  0.00860742763171721 
-1.00000000000000  2.25000000000000  0.00519041650914549 
-1.00000000000000  2.37500000000000  0.00316224872150267 
-1.00000000000000  2.50000000000000  0.00197938855422260 

-0.875000000000000 -2.50000000000000  0.00173110700969417 
-0.875000000000000 -2.37500000000000  0.00291255047974581 
-0.875000000000000 -2.25000000000000  0.00511914708077931 
-0.875000000000000 -2.12500000000000  0.00901119052688157 
-0.875000000000000 -2.00000000000000  0.0154776056122967 
-0.875000000000000 -1.87500000000000  0.0256688307051693 
-0.875000000000000 -1.75000000000000  0.0409942698098009 
-0.875000000000000 -1.62500000000000  0.0630664137076578 
-0.875000000000000 -1.50000000000000  0.0935781013229123 
-0.875000000000000 -1.37500000000000  0.134105049432599 
-0.875000000000000 -1.25000000000000  0.185837518593752 
-0.875000000000000 -1.12500000000000  0.249262621328316 
-0.875000000000000 -1.00000000000000  0.323839865418327 
-0.875000000000000 -0.875000000000000  0.407732242767787 
-0.875000000000000 -0.750000000000000  0.497666555648556 
-0.875000000000000 -0.625000000000000  0.588992230414660 
-0.875000000000000 -0.500000000000000  0.675982583862042 
-0.875000000000000 -0.375000000000000  0.752377128391329 
-0.875000000000000 -0.250000000000000  0.812106446061970 
-0.875000000000000 -0.125000000000000  0.850087472839367 
-0.875000000000000  0.00000000000000  0.862944046899302 
-0.875000000000000  0.125000000000000  0.849508594036336 
-0.875000000000000  0.250000000000000  0.810999415858246 
-0.875000000000000  0.375000000000000  0.750835625166383 
-0.875000000000000  0.500000000000000  0.674129878985564 
-0.875000000000000  0.625000000000000  0.586965649471485 
-0.875000000000000  0.750000000000000  0.495602944810517 
-0.875000000000000  0.875000000000000  0.405756329133825 
-0.875000000000000  1.00000000000000  0.322055876669144 
-0.875000000000000  1.12500000000000  0.247748609374955 
-0.875000000000000  1.25000000000000  0.184641832197101 
-0.875000000000000  1.37500000000000  0.133245002023220 
-0.875000000000000  1.50000000000000  0.0930414083453716 
-0.875000000000000  1.62500000000000  0.0628158819745023 
-0.875000000000000  1.75000000000000  0.0409754406236586 
-0.875000000000000  1.87500000000000  0.0258192201327454 
-0.875000000000000  2.00000000000000  0.0157354306749492 
-0.875000000000000  2.12500000000000  0.00932141480458750 
-0.875000000000000  2.25000000000000  0.00543553434019732 
-0.875000000000000  2.37500000000000  0.00319691505130696 
-0.875000000000000  2.50000000000000  0.00195559564401569 

-0.750000000000000 -2.50000000000000  0.00163133764826758 
-0.750000000000000 -2.37500000000000  0.00285799127236509 
-0.750000000000000 -2.25000000000000  0.00527925945697330 
-0.750000000000000 -2.12500000000000  0.00964556241493879 
-0.750000000000000 -2.00000000000000  0.0169708397594635 
-0.750000000000000 -1.87500000000000  0.0285798556424137 
-0.750000000000000 -1.75000000000000  0.0461057762312961 
-0.750000000000000 -1.62500000000000  0.0714252916051858 
-0.750000000000000 -1.50000000000000  0.106515849930778 
-0.750000000000000 -1.37500000000000  0.153224933449624 
-0.750000000000000 -1.25000000000000  0.212955634039941 
-0.750000000000000 -1.12500000000000  0.286294052931057 
-0.750000000000000 -1.00000000000000  0.372628957185608 
-0.750000000000000 -0.875000000000000  0.469836955121143 
-0.750000000000000 -0.750000000000000  0.574119244954386 
-0.750000000000000 -0.625000000000000  0.680070350244107 
-0.750000000000000 -0.500000000000000  0.781029602679472 
-0.750000000000000 -0.375000000000000  0.869713369064338 
-0.750000000000000 -0.250000000000000  0.939059760320746 
-0.750000000000000 -0.125000000000000  0.983155121123035 
-0.750000000000000  0.00000000000000  0.998073134038903 
-0.750000000000000  0.125000000000000  0.982458528972854 
-0.750000000000000  0.250000000000000  0.937732484987512 
-0.750000000000000  0.375000000000000  0.867875830249577 
-0.750000000000000  0.500000000000000  0.778837367016756 
-0.750000000000000  0.625000000000000  0.677692147182468 
-0.750000000000000  0.750000000000000  0.571717403069169 
-0.750000000000000  0.875000000000000  0.467553234240292 
-0.750000000000000  1.00000000000000  0.370576192390503 
-0.750000000000000  1.12500000000000  0.284552273707482 
-0.750000000000000  1.25000000000000  0.211570990741119 
-0.750000000000000  1.37500000000000  0.152210546321052 
-0.750000000000000  1.50000000000000  0.105854700774238 
-0.750000000000000  1.62500000000000  0.0710756667408985 
-0.750000000000000  1.75000000000000  0.0460092660700493 
-0.750000000000000  1.87500000000000  0.0286708833237637 
-0.750000000000000  2.00000000000000  0.0171857809105128 
-0.750000000000000  2.12500000000000  0.00992916760177269 
-0.750000000000000  2.25000000000000  0.00558627387948883 
-0.750000000000000  2.37500000000000  0.00314910283249843 
-0.750000000000000  2.50000000000000  0.00186981098586922 

-0.625000000000000 -2.50000000000000  0.00145226247244655 
-0.625000000000000 -2.37500000000000  0.00269608540629614 
-0.625000000000000 -2.25000000000000  0.00530344492102450 
-0.625000000000000 -2.12500000000000  0.0100911172581764 
-0.625000000000000 -2.00000000000000  0.0181847895188495 
-0.625000000000000 -1.87500000000000  0.0310737779844566 
-0.625000000000000 -1.75000000000000  0.0506053656961035 
-0.625000000000000 -1.62500000000000  0.0789113539844632 
-0.625000000000000 -1.50000000000000  0.118246464052779 
-0.625000000000000 -1.37500000000000  0.170725405947119 
-0.625000000000000 -1.25000000000000  0.237963113476433 
-0.625000000000000 -1.12500000000000  0.320647854839904 
-0.625000000000000 -1.00000000000000  0.418105801320521 
-0.625000000000000 -0.875000000000000  0.527941489706843 
-0.625000000000000 -0.750000000000000  0.645852464567407 
-0.625000000000000 -0.625000000000000  0.765709057059761 
-0.625000000000000 -0.500000000000000  0.879955881903727 
-0.625000000000000 -0.375000000000000  0.980331552291070 
-0.625000000000000 -0.250000000000000  1.05882825137844 
-0.625000000000000 -0.125000000000000  1.10874257603526 
-0.625000000000000  0.00000000000000  1.12562605151795 
-0.625000000000000  0.125000000000000  1.10794543858806 
-0.625000000000000  0.250000000000000  1.05731422124238 
-0.625000000000000  0.375000000000000  0.978246106077962 
-0.625000000000000  0.500000000000000  0.877484404756413 
-0.625000000000000  0.625000000000000  0.763048541050165 
-0.625000000000000  0.750000000000000  0.643187147070261 
-0.625000000000000  0.875000000000000  0.525426476230924 
-0.625000000000000  1.00000000000000  0.415859082681368 
-0.625000000000000  1.12500000000000  0.318748525174180 
-0.625000000000000  1.25000000000000  0.236452943852136 
-0.625000000000000  1.37500000000000  0.169611927008475 
-0.625000000000000  1.50000000000000  0.117507233780754 
-0.625000000000000  1.62500000000000  0.0784999878614344 
-0.625000000000000  1.75000000000000  0.0504596953840858 
-0.625000000000000  1.87500000000000  0.0311255008338097 
-0.625000000000000  2.00000000000000  0.0183689291539925 
-0.625000000000000  2.12500000000000  0.0103530884092104 
-0.625000000000000  2.25000000000000  0.00560123182215151 
-0.625000000000000  2.37500000000000  0.00299388855374081 
-0.625000000000000  2.50000000000000  0.00170623809476864 

-0.500000000000000 -2.50000000000000  0.00120384514534726 
-0.500000000000000 -2.37500000000000  0.00245449665115273 
-0.500000000000000 -2.25000000000000  0.00523026120643015 
-0.500000000000000 -2.12500000000000  0.0103815482779250 
-0.500000000000000 -2.00000000000000  0.0191315581628994 
-0.500000000000000 -1.87500000000000  0.0331176404276489 
-0.500000000000000 -1.75000000000000  0.0543801651420906 
-0.500000000000000 -1.62500000000000  0.0852824269733675 
-0.500000000000000 -1.50000000000000  0.128332816138908 
-0.500000000000000 -1.37500000000000  0.185892729228839 
-0.500000000000000 -1.25000000000000  0.259774951848161 
-0.500000000000000 -1.12500000000000  0.350766324719019 
-0.500000000000000 -1.00000000000000  0.458141208257090 
-0.500000000000000 -0.875000000000000  0.579260890880045 
-0.500000000000000 -0.750000000000000  0.709368640511191 
-0.500000000000000 -0.625000000000000  0.841680759760876 
-0.500000000000000 -0.500000000000000  0.967834871467907 
-0.500000000000000 -0.375000000000000  1.07868973846538 
-0.500000000000000 -0.250000000000000  1.16538848508292 
-0.500000000000000 -0.125000000000000  1.22052039390862 
-0.500000000000000  0.00000000000000  1.23916997490875 
-0.500000000000000  0.125000000000000  1.21964463866389 
-0.500000000000000  0.250000000000000  1.16372906820125 
-0.500000000000000  0.375000000000000  1.07641271002119 
-0.500000000000000  0.500000000000000  0.965149800348951 
-0.500000000000000  0.625000000000000  0.838807090048784 
-0.500000000000000  0.750000000000000  0.706507399433650 
-0.500000000000000  0.875000000000000  0.576576683614735 
-0.500000000000000  1.00000000000000  0.455754829819636 
-0.500000000000000  1.12500000000000  0.348754972615040 
-0.500000000000000  1.25000000000000  0.258176124254464 
-0.500000000000000  1.37500000000000  0.184709130851338 
-0.500000000000000  1.50000000000000  0.127537613558578 
-0.500000000000000  1.62500000000000  0.0848255648997752 
-0.500000000000000  1.75000000000000  0.0541964900080025 
-0.500000000000000  1.87500000000000  0.0331365718677058 
-0.500000000000000  2.00000000000000  0.0192868816814265 
-0.500000000000000  2.12500000000000  0.0106193300218211 
-0.500000000000000  2.25000000000000  0.00551269217952204 
-0.500000000000000  2.37500000000000  0.00275444858763652 
-0.500000000000000  2.50000000000000  0.00147503735411321 

-0.375000000000000 -2.50000000000000  0.000926304506427523 
-0.375000000000000 -2.37500000000000  0.00220953530752143 
-0.375000000000000 -2.25000000000000  0.00515008986317923 
-0.375000000000000 -2.12500000000000  0.0106104959685377 
-0.375000000000000 -2.00000000000000  0.0199017542323414 
-0.375000000000000 -1.87500000000000  0.0347874349636195 
-0.375000000000000 -1.75000000000000  0.0574706127191803 
-0.375000000000000 -1.62500000000000  0.0905102527669527 
-0.375000000000000 -1.50000000000000  0.136630547297500 
-0.375000000000000 -1.37500000000000  0.198404222160765 
-0.375000000000000 -1.25000000000000  0.277814927663925 
-0.375000000000000 -1.12500000000000  0.375736293159442 
-0.375000000000000 -1.00000000000000  0.491401331123980 
-0.375000000000000 -0.875000000000000  0.621966863840144 
-0.375000000000000 -0.750000000000000  0.762292563536090 
-0.375000000000000 -0.625000000000000  0.905042746846243 
-0.375000000000000 -0.500000000000000  1.04117550655196 
-0.375000000000000 -0.375000000000000  1.16081089791544 
-0.375000000000000 -0.250000000000000  1.25438127144579 
-0.375000000000000 -0.125000000000000  1.31388520544920 
-0.375000000000000  0.00000000000000  1.33401767838402 
-0.375000000000000  0.125000000000000  1.31295286547888 
-0.375000000000000  0.250000000000000  1.25261724481398 
-0.375000000000000  0.375000000000000  1.15839601017740 
-0.375000000000000  0.500000000000000  1.03833651409499 
-0.375000000000000  0.625000000000000  0.902014791105391 
-0.375000000000000  0.750000000000000  0.759288118224042 
-0.375000000000000  0.875000000000000  0.619156740958122 
-0.375000000000000  1.00000000000000  0.488907941705577 
-0.375000000000000  1.12500000000000  0.373635452314163 
-0.375000000000000  1.25000000000000  0.276141444390781 
-0.375000000000000  1.37500000000000  0.197157986440843 
-0.375000000000000  1.50000000000000  0.135782268941693 
-0.375000000000000  1.62500000000000  0.0900077487634303 
-0.375000000000000  1.75000000000000  0.0572467443315815 
-0.375000000000000  1.87500000000000  0.0347697453392549 
-0.375000000000000  2.00000000000000  0.0200225538798088 
-0.375000000000000  2.12500000000000  0.0108155815335759 
-0.375000000000000  2.25000000000000  0.00540471296624990 
-0.375000000000000  2.37500000000000  0.00249854933582116 
-0.375000000000000  2.50000000000000  0.00121434471434674 

-0.250000000000000 -2.50000000000000  0.000680123187794563 
-0.250000000000000 -2.37500000000000  0.00204198277860085 
-0.250000000000000 -2.25000000000000  0.00513185096040785 
-0.250000000000000 -2.12500000000000  0.0108376649051577 
-0.250000000000000 -2.00000000000000  0.0205459534112316 
-0.250000000000000 -1.87500000000000  0.0361176866190177 
-0.250000000000000 -1.75000000000000  0.0598800411945257 
-0.250000000000000 -1.62500000000000  0.0945417171183284 
-0.250000000000000 -1.50000000000000  0.142992864742016 
-0.250000000000000 -1.37500000000000  0.207969374183399 
-0.250000000000000 -1.25000000000000  0.291587121671538 
-0.250000000000000 -1.12500000000000  0.394786912710752 
-0.250000000000000 -1.00000000000000  0.516769682050766 
-0.250000000000000 -0.875000000000000  0.654534263941282 
-0.250000000000000 -0.750000000000000  0.802645007757970 
-0.250000000000000 -0.625000000000000  0.953343089502311 
-0.250000000000000 -0.500000000000000  1.09706811159198 
-0.250000000000000 -0.375000000000000  1.22337908575517 
-0.250000000000000 -0.250000000000000  1.32217077127387 
-0.250000000000000 -0.125000000000000  1.38499640718037 
-0.250000000000000  0.00000000000000  1.40625778953377 
-0.250000000000000  0.125000000000000  1.38402851377630 
-0.250000000000000  0.250000000000000  1.32034085129256 
-0.250000000000000  0.375000000000000  1.22087690266520 
-0.250000000000000  0.500000000000000  1.09413069374505 
-0.250000000000000  0.625000000000000  0.950214788853921 
-0.250000000000000  0.750000000000000  0.799544842294576 
-0.250000000000000  0.875000000000000  0.651636480042378 
-0.250000000000000  1.00000000000000  0.514197586984607 
-0.250000000000000  1.12500000000000  0.392615761878066 
-0.250000000000000  1.25000000000000  0.289850727843673 
-0.250000000000000  1.37500000000000  0.206666772764985 
-0.250000000000000  1.50000000000000  0.142094122783830 
-0.250000000000000  1.62500000000000  0.0939939746107980 
-0.250000000000000  1.75000000000000  0.0596151749905108 
-0.250000000000000  1.87500000000000  0.0360618676343031 
-0.250000000000000  2.00000000000000  0.0206299190350185 
-0.250000000000000  2.12500000000000  0.0110059248530685 
-0.250000000000000  2.25000000000000  0.00535004594518027 
-0.250000000000000  2.37500000000000  0.00230381387979972 
-0.250000000000000  2.50000000000000  0.000980601511495775 

-0.125000000000000 -2.50000000000000  0.000524652729864239 
-0.125000000000000 -2.37500000000000  0.00197571737232227 
-0.125000000000000 -2.25000000000000  0.00516889285235416 
-0.125000000000000 -2.12500000000000  0.0110363448229293 
-0.125000000000000 -2.00000000000000  0.0210151553059715 
-0.125000000000000 -1.87500000000000  0.0370280761703007 
-0.125000000000000 -1.75000000000000  0.0614812900921035 
-0.125000000000000 -1.62500000000000  0.0971794081639049 
-0.125000000000000 -1.50000000000000  0.147119253741767 
-0.125000000000000 -1.37500000000000  0.214141537035250 
-0.125000000000000 -1.25000000000000  0.300446471772457 
-0.125000000000000 -1.12500000000000  0.407016384666110 
-0.125000000000000 -1.00000000000000  0.533028982492268 
-0.125000000000000 -0.875000000000000  0.675378712240941 
-0.125000000000000 -0.750000000000000  0.828438358881461 
-0.125000000000000 -0.625000000000000  0.984177990771133 
-0.125000000000000 -0.500000000000000  1.13270849332444 
-0.125000000000000 -0.375000000000000  1.26323648409442 
-0.125000000000000 -0.250000000000000  1.36532172313049 
-0.125000000000000 -0.125000000000000  1.43024161291494 
-0.125000000000000  0.00000000000000  1.45221697725050 
-0.125000000000000  0.125000000000000  1.42925912864443 
-0.125000000000000  0.250000000000000  1.36346486029803 
-0.125000000000000  0.375000000000000  1.26069877493199 
-0.125000000000000  0.500000000000000  1.12973114503591 
-0.125000000000000  0.625000000000000  0.981008864024925 
-0.125000000000000  0.750000000000000  0.825298659669807 
-0.125000000000000  0.875000000000000  0.672443495978627 
-0.125000000000000  1.00000000000000  0.530421412998348 
-0.125000000000000  1.12500000000000  0.404811243176175 
-0.125000000000000  1.25000000000000  0.298677270633839 
-0.125000000000000  1.37500000000000  0.212807379499624 
-0.125000000000000  1.50000000000000  0.146190518086268 
-0.125000000000000  1.62500000000000  0.0966034857584811 
-0.125000000000000  1.75000000000000  0.0611899619794736 
-0.125000000000000  1.87500000000000  0.0369469393918514 
-0.125000000000000  2.00000000000000  0.0210739459122510 
-0.125000000000000  2.12500000000000  0.0111783101889753 
-0.125000000000000  2.25000000000000  0.00535853450263727 
-0.125000000000000  2.37500000000000  0.00220896321827018 
-0.125000000000000  2.50000000000000  0.000829725916844636 

 0.00000000000000 -2.50000000000000  0.000489495397064638 
 0.00000000000000 -2.37500000000000  0.00197656599786610 
 0.00000000000000 -2.25000000000000  0.00520724765693185 
 0.00000000000000 -2.12500000000000  0.0111341589693325 
 0.00000000000000 -2.00000000000000  0.0212118843434615 
 0.00000000000000 -1.87500000000000  0.0373857411404606 
 0.00000000000000 -1.75000000000000  0.0620917224032058 
 0.00000000000000 -1.62500000000000  0.0981712040261247 
 0.00000000000000 -1.50000000000000  0.148661952169522 
 0.00000000000000 -1.37500000000000  0.216444278374757 
 0.00000000000000 -1.25000000000000  0.303748807372577 
 0.00000000000000 -1.12500000000000  0.411570202399408 
 0.00000000000000 -1.00000000000000  0.539072490410726 
 0.00000000000000 -0.875000000000000  0.683105556213573 
 0.00000000000000 -0.750000000000000  0.837966571544060 
 0.00000000000000 -0.625000000000000  0.995524039592092 
 0.00000000000000 -0.500000000000000  1.14577103146940 
 0.00000000000000 -0.375000000000000  1.27779274702147 
 0.00000000000000 -0.250000000000000  1.38103738868698 
 0.00000000000000 -0.125000000000000  1.44669293227590 
 0.00000000000000  0.00000000000000  1.46892248213934 
 0.00000000000000  0.125000000000000  1.44571733289687 
 0.00000000000000  0.250000000000000  1.37919397838760 
 0.00000000000000  0.375000000000000  1.27527438877106 
 0.00000000000000  0.500000000000000  1.14281787280640 
 0.00000000000000  0.625000000000000  0.992382496582204 
 0.00000000000000  0.750000000000000  0.834856110211025 
 0.00000000000000  0.875000000000000  0.680199380875595 
 0.00000000000000  1.00000000000000  0.536492051224044 
 0.00000000000000  1.12500000000000  0.409388952267599 
 0.00000000000000  1.25000000000000  0.301999486239446 
 0.00000000000000  1.37500000000000  0.215125809434997 
 0.00000000000000  1.50000000000000  0.147745017291033 
 0.00000000000000  1.62500000000000  0.0976037704931233 
 0.00000000000000  1.75000000000000  0.0618061839216536 
 0.00000000000000  1.87500000000000  0.0373081621521689 
 0.00000000000000  2.00000000000000  0.0212722340813079 
 0.00000000000000  2.12500000000000  0.0112756703110428 
 0.00000000000000  2.25000000000000  0.00539417276811556 
 0.00000000000000  2.37500000000000  0.00220473249352896 
 0.00000000000000  2.50000000000000  0.000796729507246673 

 0.125000000000000 -2.50000000000000  0.000577725504702026 
 0.125000000000000 -2.37500000000000  0.00202508991169702 
 0.125000000000000 -2.25000000000000  0.00522193730946565 
 0.125000000000000 -2.12500000000000  0.0110981837756513 
 0.125000000000000 -2.00000000000000  0.0210913768471717 
 0.125000000000000 -1.87500000000000  0.0371289060407407 
 0.125000000000000 -1.75000000000000  0.0616255366233148 
 0.125000000000000 -1.62500000000000  0.0973978210723132 
 0.125000000000000 -1.50000000000000  0.147455874314970 
 0.125000000000000 -1.37500000000000  0.214651528932667 
 0.125000000000000 -1.25000000000000  0.301189689065782 
 0.125000000000000 -1.12500000000000  0.408047385689466 
 0.125000000000000 -1.00000000000000  0.534385822509198 
 0.125000000000000 -0.875000000000000  0.677073903034759 
 0.125000000000000 -0.750000000000000  0.830455222019682 
 0.125000000000000 -0.625000000000000  0.986474066931596 
 0.125000000000000 -0.500000000000000  1.13522517227784 
 0.125000000000000 -0.375000000000000  1.26591158876172 
 0.125000000000000 -0.250000000000000  1.36810051629228 
 0.125000000000000 -0.125000000000000  1.43308225955479 
 0.125000000000000  0.00000000000000  1.45508875408987 
 0.125000000000000  0.125000000000000  1.43213470812942 
 0.125000000000000  0.250000000000000  1.36631050958396 
 0.125000000000000  0.375000000000000  1.26346721016020 
 0.125000000000000  0.500000000000000  1.13236068152816 
 0.125000000000000  0.625000000000000  0.983429892136553 
 0.125000000000000  0.750000000000000  0.827445484256894 
 0.125000000000000  0.875000000000000  0.674267460160802 
 0.125000000000000  1.00000000000000  0.531900808227525 
 0.125000000000000  1.12500000000000  0.405954843449422 
 0.125000000000000  1.25000000000000  0.299520737601300 
 0.125000000000000  1.37500000000000  0.213404211624297 
 0.125000000000000  1.50000000000000  0.146600728560439 
 0.125000000000000  1.62500000000000  0.0968833630123433 
 0.125000000000000  1.75000000000000  0.0613852708380079 
 0.125000000000000  1.87500000000000  0.0370903599408280 
 0.125000000000000  2.00000000000000  0.0211861143495198 
 0.125000000000000  2.12500000000000  0.0112710130810948 
 0.125000000000000  2.25000000000000  0.00543855222982276 
 0.125000000000000  2.37500000000000  0.00228123202833664 
 0.125000000000000  2.50000000000000  0.000890533985079291 

 0.250000000000000 -2.50000000000000  0.000785652230067820 
 0.250000000000000 -2.37500000000000  0.00215443681630544 
 0.250000000000000 -2.25000000000000  0.00525176548003963 
 0.250000000000000 -2.12500000000000  0.0109738760510116 
 0.250000000000000 -2.00000000000000  0.0207086979955839 
 0.250000000000000 -1.87500000000000  0.0363255312600044 
 0.250000000000000 -1.75000000000000  0.0601673260770037 
 0.250000000000000 -1.62500000000000  0.0949649870090571 
 0.250000000000000 -1.50000000000000  0.143633570226378 
 0.250000000000000 -1.37500000000000  0.208930005789669 
 0.250000000000000 -1.25000000000000  0.292979370349183 
 0.250000000000000 -1.12500000000000  0.396713158042510 
 0.250000000000000 -1.00000000000000  0.519302137226513 
 0.250000000000000 -0.875000000000000  0.657698067513289 
 0.250000000000000 -0.750000000000000  0.806411246596700 
 0.250000000000000 -0.625000000000000  0.957634833044299 
 0.250000000000000 -0.500000000000000  1.10177792234477 
 0.250000000000000 -0.375000000000000  1.22839200290220 
 0.250000000000000 -0.250000000000000  1.32738446259830 
 0.250000000000000 -0.125000000000000  1.39033124487875 
 0.250000000000000  0.00000000000000  1.41165375312889 
 0.250000000000000  0.125000000000000  1.38943136414797 
 0.250000000000000  0.250000000000000  1.32568458249209 
 0.250000000000000  0.375000000000000  1.22607108863429 
 0.250000000000000  0.500000000000000  1.09905931972475 
 0.250000000000000  0.625000000000000  0.954748389772900 
 0.250000000000000  0.750000000000000  0.803562319461120 
 0.250000000000000  0.875000000000000  0.655049115471867 
 0.250000000000000  1.00000000000000  0.516967024605173 
 0.250000000000000  1.12500000000000  0.394760185299473 
 0.250000000000000  1.25000000000000  0.291437895924712 
 0.250000000000000  1.37500000000000  0.207797042295933 
 0.250000000000000  1.50000000000000  0.142879371367600 
 0.250000000000000  1.62500000000000  0.0945386381252291 
 0.250000000000000  1.75000000000000  0.0600037542664758 
 0.250000000000000  1.87500000000000  0.0363543485334545 
 0.250000000000000  2.00000000000000  0.0208638765735149 
 0.250000000000000  2.12500000000000  0.0112025424744592 
 0.250000000000000  2.25000000000000  0.00552101089120830 
 0.250000000000000  2.37500000000000  0.00245537109521276 
 0.250000000000000  2.50000000000000  0.00109870789903950 

 0.375000000000000 -2.50000000000000  0.00107951698721960 
 0.375000000000000 -2.37500000000000  0.00239636570591483 
 0.375000000000000 -2.25000000000000  0.00535464739028391 
 0.375000000000000 -2.12500000000000  0.0108392950303876 
 0.375000000000000 -2.00000000000000  0.0201665494141406 
 0.375000000000000 -1.87500000000000  0.0351111462450129 
 0.375000000000000 -1.75000000000000  0.0578969461376046 
 0.375000000000000 -1.62500000000000  0.0911125673404635 
 0.375000000000000 -1.50000000000000  0.137515922233442 
 0.375000000000000 -1.37500000000000  0.199708801031649 
 0.375000000000000 -1.25000000000000  0.279688565894997 
 0.375000000000000 -1.12500000000000  0.378318157031358 
 0.375000000000000 -1.00000000000000  0.494792137044819 
 0.375000000000000 -0.875000000000000  0.626206059704934 
 0.375000000000000 -0.750000000000000  0.767348358550062 
 0.375000000000000 -0.625000000000000  0.910819083708625 
 0.375000000000000 -0.500000000000000  1.04753404477149 
 0.375000000000000 -0.375000000000000  1.16760028842994 
 0.375000000000000 -0.250000000000000  1.26146306101610 
 0.375000000000000 -0.125000000000000  1.32114711146288 
 0.375000000000000  0.00000000000000  1.34137030866928 
 0.375000000000000  0.125000000000000  1.32031301616686 
 0.375000000000000  0.250000000000000  1.25988666733855 
 0.375000000000000  0.375000000000000  1.16544651691603 
 0.375000000000000  0.500000000000000  1.04500965953075 
 0.375000000000000  0.625000000000000  0.908138283606472 
 0.375000000000000  0.750000000000000  0.764704197432498 
 0.375000000000000  0.875000000000000  0.623752888419066 
 0.375000000000000  1.00000000000000  0.492639389566007 
 0.375000000000000  1.12500000000000  0.376532165813911 
 0.375000000000000  1.25000000000000  0.278298002237062 
 0.375000000000000  1.37500000000000  0.198710578925059 
 0.375000000000000  1.50000000000000  0.136880635503504 
 0.375000000000000  1.62500000000000  0.0907902259806733 
 0.375000000000000  1.75000000000000  0.0578240993545323 
 0.375000000000000  1.87500000000000  0.0352195863286368 
 0.375000000000000  2.00000000000000  0.0203925346513239 
 0.375000000000000  2.12500000000000  0.0111314953813861 
 0.375000000000000  2.25000000000000  0.00567887631539912 
 0.375000000000000  2.37500000000000  0.00273223488085683 
 0.375000000000000  2.50000000000000  0.00138358365565850 

 0.500000000000000 -2.50000000000000  0.00139861503052499 
 0.500000000000000 -2.37500000000000  0.00271428406603578 
 0.500000000000000 -2.25000000000000  0.00552967207213403 
 0.500000000000000 -2.12500000000000  0.0107183133513261 
 0.500000000000000 -2.00000000000000  0.0195137965268710 
 0.500000000000000 -1.87500000000000  0.0335670145314217 
 0.500000000000000 -1.75000000000000  0.0549418976733907 
 0.500000000000000 -1.62500000000000  0.0860356937179856 
 0.500000000000000 -1.50000000000000  0.129396205497020 
 0.500000000000000 -1.37500000000000  0.187419989455495 
 0.500000000000000 -1.25000000000000  0.261938539808524 
 0.500000000000000 -1.12500000000000  0.353730385879171 
 0.500000000000000 -1.00000000000000  0.462030195679074 
 0.500000000000000 -0.875000000000000  0.584133005048593 
 0.500000000000000 -0.750000000000000  0.715202895377262 
 0.500000000000000 -0.625000000000000  0.848382344975427 
 0.500000000000000 -0.500000000000000  0.975256961945560 
 0.500000000000000 -0.375000000000000  1.08666369128230 
 0.500000000000000 -0.250000000000000  1.17375124600314 
 0.500000000000000 -0.125000000000000  1.22912943257357 
 0.500000000000000  0.00000000000000  1.24790165306984 
 0.500000000000000  0.125000000000000  1.22837921739184 
 0.500000000000000  0.250000000000000  1.17233142965683 
 0.500000000000000  0.375000000000000  1.08471979179201 
 0.500000000000000  0.500000000000000  0.972972924250388 
 0.500000000000000  0.625000000000000  0.845951053175829 
 0.500000000000000  0.750000000000000  0.712801080757960 
 0.500000000000000  0.875000000000000  0.581904976501202 
 0.500000000000000  1.00000000000000  0.460080912613032 
 0.500000000000000  1.12500000000000  0.352125438417133 
 0.500000000000000  1.25000000000000  0.260707664781913 
 0.500000000000000  1.37500000000000  0.186561671556794 
 0.500000000000000  1.50000000000000  0.128882614390732 
 0.500000000000000  1.62500000000000  0.0858184648771882 
 0.500000000000000  1.75000000000000  0.0549594112693041 
 0.500000000000000  1.87500000000000  0.0337530101372622 
 0.500000000000000  2.00000000000000  0.0198060710307233 
 0.500000000000000  2.12500000000000  0.0110655199259907 
 0.500000000000000  2.25000000000000  0.00589369928126034 
 0.500000000000000  2.37500000000000  0.00306355153906614 
 0.500000000000000  2.50000000000000  0.00168797909910910 

 0.625000000000000 -2.50000000000000  0.00168159949899146 
 0.625000000000000 -2.37500000000000  0.00301936160532961 
 0.625000000000000 -2.25000000000000  0.00569740745751173 
 0.625000000000000 -2.12500000000000  0.0105448285672811 
 0.625000000000000 -2.00000000000000  0.0186989390019874 
 0.625000000000000 -1.87500000000000  0.0316636914984092 
 0.625000000000000 -1.75000000000000  0.0513106153960947 
 0.625000000000000 -1.62500000000000  0.0798068893496143 
 0.625000000000000 -1.50000000000000  0.119449494801704 
 0.625000000000000 -1.37500000000000  0.172392746774380 
 0.625000000000000 -1.25000000000000  0.240276035584138 
 0.625000000000000 -1.12500000000000  0.323785651186694 
 0.625000000000000 -1.00000000000000  0.422213912414932 
 0.625000000000000 -0.875000000000000  0.533103102636039 
 0.625000000000000 -0.750000000000000  0.652072290309627 
 0.625000000000000 -0.625000000000000  0.772914163628568 
 0.625000000000000 -0.500000000000000  0.888012392107052 
 0.625000000000000 -0.375000000000000  0.989070270623237 
 0.625000000000000 -0.250000000000000  1.06806941066394 
 0.625000000000000 -0.125000000000000  1.11831117880488 
 0.625000000000000  0.00000000000000  1.13535413534429 
 0.625000000000000  0.125000000000000  1.11766384675879 
 0.625000000000000  0.250000000000000  1.06684136692265 
 0.625000000000000  0.375000000000000  0.987382681293719 
 0.625000000000000  0.500000000000000  0.886020424925793 
 0.625000000000000  0.625000000000000  0.770783662105622 
 0.625000000000000  0.750000000000000  0.649959170336129 
 0.625000000000000  0.875000000000000  0.531138898607546 
 0.625000000000000  1.00000000000000  0.420498140106672 
 0.625000000000000  1.12500000000000  0.322383551647158 
 0.625000000000000  1.25000000000000  0.239219576438169 
 0.625000000000000  1.37500000000000  0.171683355072244 
 0.625000000000000  1.50000000000000  0.119062091743826 
 0.625000000000000  1.62500000000000  0.0796955131306306 
 0.625000000000000  1.75000000000000  0.0514158072559333 
 0.625000000000000  1.87500000000000  0.0319210442134786 
 0.625000000000000  2.00000000000000  0.0190473116928540 
 0.625000000000000  2.12500000000000  0.0109321926381917 
 0.625000000000000  2.25000000000000  0.00608216064874331 
 0.625000000000000  2.37500000000000  0.00336559680307928 
 0.625000000000000  2.50000000000000  0.00195387880511376 

 0.750000000000000 -2.50000000000000  0.00188582706628084 
 0.750000000000000 -2.37500000000000  0.00323188397795073 
 0.750000000000000 -2.25000000000000  0.00575992960717306 
 0.750000000000000 -2.12500000000000  0.0102195579358393 
 0.750000000000000 -2.00000000000000  0.0176322531927878 
 0.750000000000000 -1.87500000000000  0.0293360493585508 
 0.750000000000000 -1.75000000000000  0.0469870367056166 
 0.750000000000000 -1.62500000000000  0.0724963301874288 
 0.750000000000000 -1.50000000000000  0.107884078274118 
 0.750000000000000 -1.37500000000000  0.155040228845301 
 0.750000000000000 -1.25000000000000  0.215398286982208 
 0.750000000000000 -1.12500000000000  0.289551375734993 
 0.750000000000000 -1.00000000000000  0.376865328557836 
 0.750000000000000 -0.875000000000000  0.475165017512517 
 0.750000000000000 -0.750000000000000  0.580580071137712 
 0.750000000000000 -0.625000000000000  0.687627402879993 
 0.750000000000000 -0.500000000000000  0.789576451277714 
 0.750000000000000 -0.375000000000000  0.879090536971832 
 0.750000000000000 -0.250000000000000  0.949073733538209 
 0.750000000000000 -0.125000000000000  0.993593338169045 
 0.750000000000000  0.00000000000000  1.00871210982786 
 0.750000000000000  0.125000000000000  0.993066473274298 
 0.750000000000000  0.250000000000000  0.948070920469989 
 0.750000000000000  0.375000000000000  0.877705442683360 
 0.750000000000000  0.500000000000000  0.787931373008523 
 0.750000000000000  0.625000000000000  0.685856713293057 
 0.750000000000000  0.750000000000000  0.578814702722886 
 0.750000000000000  0.875000000000000  0.473520291083938 
 0.750000000000000  1.00000000000000  0.375432858803255 
 0.750000000000000  1.12500000000000  0.288394601331384 
 0.750000000000000  1.25000000000000  0.214550797505388 
 0.750000000000000  1.37500000000000  0.154506373878583 
 0.750000000000000  1.50000000000000  0.107641837213573 
 0.750000000000000  1.62500000000000  0.0725025696164568 
 0.750000000000000  1.75000000000000  0.0471848790536445 
 0.750000000000000  1.87500000000000  0.0296633267533730 
 0.750000000000000  2.00000000000000  0.0180293651346354 
 0.750000000000000  2.12500000000000  0.0106348851174953 
 0.750000000000000  2.25000000000000  0.00615155494262389 
 0.750000000000000  2.37500000000000  0.00356645403042683 
 0.750000000000000  2.50000000000000  0.00213998968203313 

 0.875000000000000 -2.50000000000000  0.00199667003802301 
 0.875000000000000 -2.37500000000000  0.00331876744170184 
 0.875000000000000 -2.25000000000000  0.00567007652055241 
 0.875000000000000 -2.12500000000000  0.00970009673449158 
 0.875000000000000 -2.00000000000000  0.0162981712203278 
 0.875000000000000 -1.87500000000000  0.0266240876779963 
 0.875000000000000 -1.75000000000000  0.0421070331121362 
 0.875000000000000 -1.62500000000000  0.0643910622423166 
 0.875000000000000 -1.50000000000000  0.0952099880713761 
 0.875000000000000 -1.37500000000000  0.136182798031398 
 0.875000000000000 -1.25000000000000  0.188534783712511 
 0.875000000000000 -1.12500000000000  0.252768990409869 
 0.875000000000000 -1.00000000000000  0.328334248256482 
 0.875000000000000 -0.875000000000000  0.413354754448694 
 0.875000000000000 -0.750000000000000  0.504495360221786 
 0.875000000000000 -0.625000000000000  0.597029930565381 
 0.875000000000000 -0.500000000000000  0.685153485428608 
 0.875000000000000 -0.375000000000000  0.762533606984666 
 0.875000000000000 -0.250000000000000  0.823040957989144 
 0.875000000000000 -0.125000000000000  0.861546886661896 
 0.875000000000000  0.00000000000000  0.874644411986721 
 0.875000000000000  0.125000000000000  0.861150192014949 
 0.875000000000000  0.250000000000000  0.822283007268246 
 0.875000000000000  0.375000000000000  0.761480721705013 
 0.875000000000000  0.500000000000000  0.683894729357804 
 0.875000000000000  0.625000000000000  0.595666954257380 
 0.875000000000000  0.750000000000000  0.503131856354229 
 0.875000000000000  0.875000000000000  0.412086765926579 
 0.875000000000000  1.00000000000000  0.327242051287111 
 0.875000000000000  1.12500000000000  0.251910923368819 
 0.875000000000000  1.25000000000000  0.187943327554555 
 0.875000000000000  1.37500000000000  0.135863305253298 
 0.875000000000000  1.50000000000000  0.0951424330177243 
 0.875000000000000  1.62500000000000  0.0645348360670664 
 0.875000000000000  1.75000000000000  0.0424081485030148 
 0.875000000000000  1.87500000000000  0.0270234496832697 
 0.875000000000000  2.00000000000000  0.0167391757280730 
 0.875000000000000  2.12500000000000  0.0101340391541298 
 0.875000000000000  2.25000000000000  0.00605887359457816 
 0.875000000000000  2.37500000000000  0.00363629146627662 
 0.875000000000000  2.50000000000000  0.00223114680898441 

 1.00000000000000 -2.50000000000000  0.00202597739022221 
 1.00000000000000 -2.37500000000000  0.00329627968035962 
 1.00000000000000 -2.25000000000000  0.00545396958458658 
 1.00000000000000 -2.12500000000000  0.00904319308780457 
 1.00000000000000 -2.00000000000000  0.0148154627069790 
 1.00000000000000 -1.87500000000000  0.0237508720626632 
 1.00000000000000 -1.75000000000000  0.0370541586731157 
 1.00000000000000 -1.62500000000000  0.0561076934367983 
 1.00000000000000 -1.50000000000000  0.0823663126734044 
 1.00000000000000 -1.37500000000000  0.117186071399283 
 1.00000000000000 -1.25000000000000  0.161590898493469 
 1.00000000000000 -1.12500000000000  0.215997349968006 
 1.00000000000000 -1.00000000000000  0.279935885411870 
 1.00000000000000 -0.875000000000000  0.351823093602806 
 1.00000000000000 -0.750000000000000  0.428847429134374 
 1.00000000000000 -0.625000000000000  0.507025639682529 
 1.00000000000000 -0.500000000000000  0.581464696476447 
 1.00000000000000 -0.375000000000000  0.646825784167432 
 1.00000000000000 -0.250000000000000  0.697939777358146 
 1.00000000000000 -0.125000000000000  0.730479751008177 
 1.00000000000000  0.00000000000000  0.741569324109345 
 1.00000000000000  0.125000000000000  0.730206722182164 
 1.00000000000000  0.250000000000000  0.697416320288050 
 1.00000000000000  0.375000000000000  0.646095265130225 
 1.00000000000000  0.500000000000000  0.580587646240775 
 1.00000000000000  0.625000000000000  0.506074537273111 
 1.00000000000000  0.750000000000000  0.427900139426381 
 1.00000000000000  0.875000000000000  0.350955402306939 
 1.00000000000000  1.00000000000000  0.279213809543668 
 1.00000000000000  1.12500000000000  0.215470151391606 
 1.00000000000000  1.25000000000000  0.161285887915366 
 1.00000000000000  1.37500000000000  0.117106223622197 
 1.00000000000000  1.50000000000000  0.0824913237026368 
 1.00000000000000  1.62500000000000  0.0563984203623486 
 1.00000000000000  1.75000000000000  0.0374595767524183 
 1.00000000000000  1.87500000000000  0.0242160534017683 
 1.00000000000000  2.00000000000000  0.0152889134049075 
 1.00000000000000  2.12500000000000  0.00948233047741679 
 1.00000000000000  2.25000000000000  0.00582847350692191 
 1.00000000000000  2.37500000000000  0.00358993855036310 
 1.00000000000000  2.50000000000000  0.00223730333190167 

 1.12500000000000 -2.50000000000000  0.00200002931814963 
 1.12500000000000 -2.37500000000000  0.00320791676199805 
 1.12500000000000 -2.25000000000000  0.00518229533402118 
 1.12500000000000 -2.12500000000000  0.00836960181698897 
 1.12500000000000 -2.00000000000000  0.0133905079494162 
 1.12500000000000 -1.87500000000000  0.0210562474371837 
 1.12500000000000 -1.75000000000000  0.0323630636574612 
 1.12500000000000 -1.62500000000000  0.0484516408995483 
 1.12500000000000 -1.50000000000000  0.0705193968989170 
 1.12500000000000 -1.37500000000000  0.0996789429427743 
 1.12500000000000 -1.25000000000000  0.136765768728932 
 1.12500000000000 -1.12500000000000  0.182111632017918 
 1.12500000000000 -1.00000000000000  0.235315292481960 
 1.12500000000000 -0.875000000000000  0.295055571438410 
 1.12500000000000 -0.750000000000000  0.358998458652116 
 1.12500000000000 -0.625000000000000  0.423845357389196 
 1.12500000000000 -0.500000000000000  0.485550764720779 
 1.12500000000000 -0.375000000000000  0.539705876533083 
 1.12500000000000 -0.250000000000000  0.582045844162375 
 1.12500000000000 -0.125000000000000  0.609002755339644 
 1.12500000000000  0.00000000000000  0.618205065433764 
 1.12500000000000  0.125000000000000  0.608825548060326 
 1.12500000000000  0.250000000000000  0.581705965990463 
 1.12500000000000  0.375000000000000  0.539231977299591 
 1.12500000000000  0.500000000000000  0.484984386259313 
 1.12500000000000  0.625000000000000  0.423238369994665 
 1.12500000000000  0.750000000000000  0.358408766768939 
 1.12500000000000  0.875000000000000  0.294541152372246 
 1.12500000000000  1.00000000000000  0.234927228169474 
 1.12500000000000  1.12500000000000  0.181887312833853 
 1.12500000000000  1.25000000000000  0.136723681461369 
 1.12500000000000  1.37500000000000  0.0998162786629986 
 1.12500000000000  1.50000000000000  0.0708131374097743 
 1.12500000000000  1.62500000000000  0.0488629578281783 
 1.12500000000000  1.75000000000000  0.0328440526713679 
 1.12500000000000  1.87500000000000  0.0215575037456178 
 1.12500000000000  2.00000000000000  0.0138680177346141 
 1.12500000000000  2.12500000000000  0.00878986738095751 
 1.12500000000000  2.25000000000000  0.00552525553751717 
 1.12500000000000  2.37500000000000  0.00346760075990450 
 1.12500000000000  2.50000000000000  0.00218278059818651 

 1.25000000000000 -2.50000000000000  0.00194211609275672 
 1.25000000000000 -2.37500000000000  0.00309099760613416 
 1.25000000000000 -2.25000000000000  0.00491356222511712 
 1.25000000000000 -2.12500000000000  0.00777533099062014 
 1.25000000000000 -2.00000000000000  0.0121838220971806 
 1.25000000000000 -1.87500000000000  0.0188021875573583 
 1.25000000000000 -1.75000000000000  0.0284434713677809 
 1.25000000000000 -1.62500000000000  0.0420356931344412 
 1.25000000000000 -1.50000000000000  0.0605486541314703 
 1.25000000000000 -1.37500000000000  0.0848774202892474 
 1.25000000000000 -1.25000000000000  0.115685213182298 
 1.25000000000000 -1.12500000000000  0.153219376182354 
 1.25000000000000 -1.00000000000000  0.197126451505744 
 1.25000000000000 -0.875000000000000  0.246303140189413 
 1.25000000000000 -0.750000000000000  0.298825002534640 
 1.25000000000000 -0.625000000000000  0.351990357206940 
 1.25000000000000 -0.500000000000000  0.402500961157434 
 1.25000000000000 -0.375000000000000  0.446775055656348 
 1.25000000000000 -0.250000000000000  0.481357469166909 
 1.25000000000000 -0.125000000000000  0.503363766293316 
 1.25000000000000  0.00000000000000  0.510879491202675 
 1.25000000000000  0.125000000000000  0.503237449529506 
 1.25000000000000  0.250000000000000  0.481116900894337 
 1.25000000000000  0.375000000000000  0.446443996999037 
 1.25000000000000  0.500000000000000  0.402113765807567 
 1.25000000000000  0.625000000000000  0.351589620002997 
 1.25000000000000  0.750000000000000  0.298457622859807 
 1.25000000000000  0.875000000000000  0.246014925263606 
 1.25000000000000  1.00000000000000  0.196955958011787 
 1.25000000000000  1.12500000000000  0.153192144070577 
 1.25000000000000  1.25000000000000  0.115809689595055 
 1.25000000000000  1.37500000000000  0.0851436175697164 
 1.25000000000000  1.50000000000000  0.0609299853718224 
 1.25000000000000  1.62500000000000  0.0424936588864952 
 1.25000000000000  1.75000000000000  0.0289341785614955 
 1.25000000000000  1.87500000000000  0.0192832920868494 
 1.25000000000000  2.00000000000000  0.0126205079309899 
 1.25000000000000  2.12500000000000  0.00814430343495585 
 1.25000000000000  2.25000000000000  0.00520453485762805 
 1.25000000000000  2.37500000000000  0.00330561327492145 
 1.25000000000000  2.50000000000000  0.00209070456946637 

 1.37500000000000 -2.50000000000000  0.00186007302319396 
 1.37500000000000 -2.37500000000000  0.00295290808602121 
 1.37500000000000 -2.25000000000000  0.00465083803593837 
 1.37500000000000 -2.12500000000000  0.00725743548915371 
 1.37500000000000 -2.00000000000000  0.0111891703840682 
 1.37500000000000 -1.87500000000000  0.0169862239518471 
 1.37500000000000 -1.75000000000000  0.0253068706020400 
 1.37500000000000 -1.62500000000000  0.0368975766725373 
 1.37500000000000 -1.50000000000000  0.0525319711528632 
 1.37500000000000 -1.37500000000000  0.0729152398872951 
 1.37500000000000 -1.25000000000000  0.0985567601747686 
 1.37500000000000 -1.12500000000000  0.129622573480408 
 1.37500000000000 -1.00000000000000  0.165789128399405 
 1.37500000000000 -0.875000000000000  0.206128006703638 
 1.37500000000000 -0.750000000000000  0.249054774433408 
 1.37500000000000 -0.625000000000000  0.292370735092330 
 1.37500000000000 -0.500000000000000  0.333412972310725 
 1.37500000000000 -0.375000000000000  0.369307194707306 
 1.37500000000000 -0.250000000000000  0.397293983677255 
 1.37500000000000 -0.125000000000000  0.415078405578458 
 1.37500000000000  0.00000000000000  0.421141821426646 
 1.37500000000000  0.125000000000000  0.414957172685744 
 1.37500000000000  0.250000000000000  0.397065456612536 
 1.37500000000000  0.375000000000000  0.368997987056226 
 1.37500000000000  0.500000000000000  0.333059810222042 
 1.37500000000000  0.625000000000000  0.292016615407315 
 1.37500000000000  0.750000000000000  0.248744043479872 
 1.37500000000000  0.875000000000000  0.205900837470990 
 1.37500000000000  1.00000000000000  0.165676154854422 
 1.37500000000000  1.12500000000000  0.129640607982747 
 1.37500000000000  1.25000000000000  0.0987064752539218 
 1.37500000000000  1.37500000000000  0.0731813990421985 
 1.37500000000000  1.50000000000000  0.0528862871682710 
 1.37500000000000  1.62500000000000  0.0373036853743033 
 1.37500000000000  1.75000000000000  0.0257264080558317 
 1.37500000000000  1.87500000000000  0.0173847465668673 
 1.37500000000000  2.00000000000000  0.0115407370462903 
 1.37500000000000  2.12500000000000  0.00754704028669425 
 1.37500000000000  2.25000000000000  0.00487442283089978 
 1.37500000000000  2.37500000000000  0.00311526923822912 
 1.37500000000000  2.50000000000000  0.00197149095453369 

 1.50000000000000 -2.50000000000000  0.00174720798898578 
 1.50000000000000 -2.37500000000000  0.00277406760074052 
 1.50000000000000 -2.25000000000000  0.00434794568177277 
 1.50000000000000 -2.12500000000000  0.00672410695916002 
 1.50000000000000 -2.00000000000000  0.0102460051650325 
 1.50000000000000 -1.87500000000000  0.0153526563393697 
 1.50000000000000 -1.75000000000000  0.0225726898999339 
 1.50000000000000 -1.62500000000000  0.0324987828916817 
 1.50000000000000 -1.50000000000000  0.0457372742177989 
 1.50000000000000 -1.37500000000000  0.0628306915451708 
 1.50000000000000 -1.25000000000000  0.0841560169490879 
 1.50000000000000 -1.12500000000000  0.109808479363195 
 1.50000000000000 -1.00000000000000  0.139488293921494 
 1.50000000000000 -0.875000000000000  0.172413939154970 
 1.50000000000000 -0.750000000000000  0.207287658287378 
 1.50000000000000 -0.625000000000000  0.242334712212319 
 1.50000000000000 -0.500000000000000  0.275426834562119 
 1.50000000000000 -0.375000000000000  0.304283903243277 
 1.50000000000000 -0.250000000000000  0.326729728901758 
 1.50000000000000 -0.125000000000000  0.340962877726714 
 1.50000000000000  0.00000000000000  0.345796008692045 
 1.50000000000000  0.125000000000000  0.340819891851089 
 1.50000000000000  0.250000000000000  0.326460993173666 
 1.50000000000000  0.375000000000000  0.303921509290067 
 1.50000000000000  0.500000000000000  0.275013354999757 
 1.50000000000000  0.625000000000000  0.241917517200649 
 1.50000000000000  0.750000000000000  0.206912768049530 
 1.50000000000000  0.875000000000000  0.172120273395591 
 1.50000000000000  1.00000000000000  0.139303084418245 
 1.50000000000000  1.12500000000000  0.109744444140076 
 1.50000000000000  1.25000000000000  0.0842106698844462 
 1.50000000000000  1.37500000000000  0.0629878749668070 
 1.50000000000000  1.50000000000000  0.0459706552431374 
 1.50000000000000  1.62500000000000  0.0327766892633289 
 1.50000000000000  1.75000000000000  0.0228633704186996 
 1.50000000000000  1.87500000000000  0.0156289446475807 
 1.50000000000000  2.00000000000000  0.0104885124694524 
 1.50000000000000  2.12500000000000  0.00692245279300373 
 1.50000000000000  2.25000000000000  0.00450005217708649 
 1.50000000000000  2.37500000000000  0.00288403479800266 
 1.50000000000000  2.50000000000000  0.00182259169020138 

 1.62500000000000 -2.50000000000000  0.00159380422130763 
 1.62500000000000 -2.37500000000000  0.00253109831133409 
 1.62500000000000 -2.25000000000000  0.00395381461964326 
 1.62500000000000 -2.12500000000000  0.00607481119578189 
 1.62500000000000 -2.00000000000000  0.00917435978932040 
 1.62500000000000 -1.87500000000000  0.0136042536568948 
 1.62500000000000 -1.75000000000000  0.0197814976620786 
 1.62500000000000 -1.62500000000000  0.0281668102206040 
 1.62500000000000 -1.50000000000000  0.0392240910306935 
 1.62500000000000 -1.37500000000000  0.0533593697545998 
 1.62500000000000 -1.25000000000000  0.0708417391998333 
 1.62500000000000 -1.12500000000000  0.0917141406937474 
 1.62500000000000 -1.00000000000000  0.115707660566008 
 1.62500000000000 -0.875000000000000  0.142177545945856 
 1.62500000000000 -0.750000000000000  0.170080444617710 
 1.62500000000000 -0.625000000000000  0.198008814729602 
 1.62500000000000 -0.500000000000000  0.224289671845764 
 1.62500000000000 -0.375000000000000  0.247142201638389 
 1.62500000000000 -0.250000000000000  0.264875169911607 
 1.62500000000000 -0.125000000000000  0.276094123642060 
 1.62500000000000  0.00000000000000  0.279883269608014 
 1.62500000000000  0.125000000000000  0.275929357358289 
 1.62500000000000  0.250000000000000  0.264564631116284 
 1.62500000000000  0.375000000000000  0.246720834671824 
 1.62500000000000  0.500000000000000  0.223802963145428 
 1.62500000000000  0.625000000000000  0.197506153259690 
 1.62500000000000  0.750000000000000  0.169608500575963 
 1.62500000000000  0.875000000000000  0.141774718637421 
 1.62500000000000  1.00000000000000  0.115400272269910 
 1.62500000000000  1.12500000000000  0.0915146637887394 
 1.62500000000000  1.25000000000000  0.0707490365873683 
 1.62500000000000  1.37500000000000  0.0533607102033385 
 1.62500000000000  1.50000000000000  0.0392985237329347 
 1.62500000000000  1.62500000000000  0.0282893134907386 
 1.62500000000000  1.75000000000000  0.0199271827262683 
 1.62500000000000  1.87500000000000  0.0137518818819869 
 1.62500000000000  2.00000000000000  0.00930858593232876 
 1.62500000000000  2.12500000000000  0.00618689085987545 
 1.62500000000000  2.25000000000000  0.00404091743848600 
 1.62500000000000  2.37500000000000  0.00259470520183040 
 1.62500000000000  2.50000000000000  0.00163781298487027 

 1.75000000000000 -2.50000000000000  0.00139838668689038 
 1.75000000000000 -2.37500000000000  0.00221789604144737 
 1.75000000000000 -2.25000000000000  0.00345111549749025 
 1.75000000000000 -2.12500000000000  0.00526967522894459 
 1.75000000000000 -2.00000000000000  0.00789489604320265 
 1.75000000000000 -1.87500000000000  0.0115995043611323 
 1.75000000000000 -1.75000000000000  0.0167016083130839 
 1.75000000000000 -1.62500000000000  0.0235475476698490 
 1.75000000000000 -1.50000000000000  0.0324808735437320 
 1.75000000000000 -1.37500000000000  0.0437964064118283 
 1.75000000000000 -1.25000000000000  0.0576812226027606 
 1.75000000000000 -1.12500000000000  0.0741483695401730 
 1.75000000000000 -1.00000000000000  0.0929734224580474 
 1.75000000000000 -0.875000000000000  0.113647425429989 
 1.75000000000000 -0.750000000000000  0.135360788066064 
 1.75000000000000 -0.625000000000000  0.157030113152888 
 1.75000000000000 -0.500000000000000  0.177373408973987 
 1.75000000000000 -0.375000000000000  0.195029674586474 
 1.75000000000000 -0.250000000000000  0.208708579299375 
 1.75000000000000 -0.125000000000000  0.217347600868064 
 1.75000000000000  0.00000000000000  0.220249983682767 
 1.75000000000000  0.125000000000000  0.217178626812294 
 1.75000000000000  0.250000000000000  0.208388410908213 
 1.75000000000000  0.375000000000000  0.194590919114054 
 1.75000000000000  0.500000000000000  0.176858327667680 
 1.75000000000000  0.625000000000000  0.156484424018253 
 1.75000000000000  0.750000000000000  0.134827708056078 
 1.75000000000000  0.875000000000000  0.113162923850131 
 1.75000000000000  1.00000000000000  0.0925631916675241 
 1.75000000000000  1.12500000000000  0.0738265872068881 
 1.75000000000000  1.25000000000000  0.0574509066239167 
 1.75000000000000  1.37500000000000  0.0436510480002410 
 1.75000000000000  1.50000000000000  0.0324069909377006 
 1.75000000000000  1.62500000000000  0.0235277516559893 
 1.75000000000000  1.75000000000000  0.0167177018852048 
 1.75000000000000  1.87500000000000  0.0116351143617863 
 1.75000000000000  2.00000000000000  0.00793722706816010 
 1.75000000000000  2.12500000000000  0.00531019884220159 
 1.75000000000000  2.25000000000000  0.00348529152879971 
 1.75000000000000  2.37500000000000  0.00224425335423602 
 1.75000000000000  2.50000000000000  0.00141737902613005 

 1.87500000000000 -2.50000000000000  0.00117170341816736 
 1.87500000000000 -2.37500000000000  0.00185185579864546 
 1.87500000000000 -2.25000000000000  0.00286598429901610 
 1.87500000000000 -2.12500000000000  0.00434543830460771 
 1.87500000000000 -2.00000000000000  0.00645640631932175 
 1.87500000000000 -1.87500000000000  0.00940035364388410 
 1.87500000000000 -1.75000000000000  0.0134091584728717 
 1.87500000000000 -1.62500000000000  0.0187326517349629 
 1.87500000000000 -1.50000000000000  0.0256165825402940 
 1.87500000000000 -1.37500000000000  0.0342700657614306 
 1.87500000000000 -1.25000000000000  0.0448235064639246 
 1.87500000000000 -1.12500000000000  0.0572807981556012 
 1.87500000000000 -1.00000000000000  0.0714728132709442 
 1.87500000000000 -0.875000000000000  0.0870219471788800 
 1.87500000000000 -0.750000000000000  0.103328587855673 
 1.87500000000000 -0.625000000000000  0.119588868668393 
 1.87500000000000 -0.500000000000000  0.134848551523499 
 1.87500000000000 -0.375000000000000  0.148090934172357 
 1.87500000000000 -0.250000000000000  0.158348747139139 
 1.87500000000000 -0.125000000000000  0.164823157171527 
 1.87500000000000  0.00000000000000  0.166989292021846 
 1.87500000000000  0.125000000000000  0.164668557275638 
 1.87500000000000  0.250000000000000  0.158053636119714 
 1.87500000000000  0.375000000000000  0.147681245847706 
 1.87500000000000  0.500000000000000  0.134358152348880 
 1.87500000000000  0.625000000000000  0.119054908548696 
 1.87500000000000  0.750000000000000  0.102787071993893 
 1.87500000000000  0.875000000000000  0.0865042232908976 
 1.87500000000000  1.00000000000000  0.0710032777544522 
 1.87500000000000  1.12500000000000  0.0568757932204686 
 1.87500000000000  1.25000000000000  0.0444912169023174 
 1.87500000000000  1.37500000000000  0.0340112149042787 
 1.87500000000000  1.50000000000000  0.0254257704412386 
 1.87500000000000  1.62500000000000  0.0186001739051792 
 1.87500000000000  1.75000000000000  0.0133230664606276 
 1.87500000000000  1.87500000000000  0.00934843164127598 
 1.87500000000000  2.00000000000000  0.00642773044651977 
 1.87500000000000  2.12500000000000  0.00433129804075457 
 1.87500000000000  2.25000000000000  0.00286013783755133 
 1.87500000000000  2.37500000000000  0.00185027191138119 
 1.87500000000000  2.50000000000000  0.00117203442921750 

 2.00000000000000 -2.50000000000000  0.000933833173180407 
 2.00000000000000 -2.37500000000000  0.00146755833624991 
 2.00000000000000 -2.25000000000000  0.00225534197852556 
 2.00000000000000 -2.12500000000000  0.00339205436113693 
 2.00000000000000 -2.00000000000000  0.00499595702080868 
 2.00000000000000 -1.87500000000000  0.00720891102982201 
 2.00000000000000 -1.75000000000000  0.0101933121921151 
 2.00000000000000 -1.62500000000000  0.0141241552157968 
 2.00000000000000 -1.50000000000000  0.0191746361342820 
 2.00000000000000 -1.37500000000000  0.0254942205902038 
 2.00000000000000 -1.25000000000000  0.0331793632609668 
 2.00000000000000 -1.12500000000000  0.0422391039404372 
 2.00000000000000 -1.00000000000000  0.0525602875788097 
 2.00000000000000 -0.875000000000000  0.0638794816138534 
 2.00000000000000 -0.750000000000000  0.0757698984783741 
 2.00000000000000 -0.625000000000000  0.0876509574320932 
 2.00000000000000 -0.500000000000000  0.0988251183663664 
 2.00000000000000 -0.375000000000000  0.108541505865352 
 2.00000000000000 -0.250000000000000  0.116079558655417 
 2.00000000000000 -0.125000000000000  0.120840057611789 
 2.00000000000000  0.00000000000000  0.122427239491305 
 2.00000000000000  0.125000000000000  0.120705788587195 
 2.00000000000000  0.250000000000000  0.115820807528855 
 2.00000000000000  0.375000000000000  0.108176505592314 
 2.00000000000000  0.500000000000000  0.0983782005471567 
 2.00000000000000  0.625000000000000  0.0871497383348826 
 2.00000000000000  0.750000000000000  0.0752425449591774 
 2.00000000000000  0.875000000000000  0.0633524331133146 
 2.00000000000000  1.00000000000000  0.0520565665423402 
 2.00000000000000  1.12500000000000  0.0417771588517178 
 2.00000000000000  1.25000000000000  0.0327723372809604 
 2.00000000000000  1.37500000000000  0.0251496104180640 
 2.00000000000000  1.50000000000000  0.0188944042354487 
 2.00000000000000  1.62500000000000  0.0139053767022892 
 2.00000000000000  1.75000000000000  0.0100293359786076 
 2.00000000000000  1.87500000000000  0.00709085041624722 
 2.00000000000000  2.00000000000000  0.00491420579592174 
 2.00000000000000  2.12500000000000  0.00333752828489348 
 2.00000000000000  2.25000000000000  0.00222026645910383 
 2.00000000000000  2.37500000000000  0.00144578749422407 
 2.00000000000000  2.50000000000000  0.000920810937930499 

 2.12500000000000 -2.50000000000000  0.000708152975469231 
 2.12500000000000 -2.37500000000000  0.00110544566782339 
 2.12500000000000 -2.25000000000000  0.00168639013531867 
 2.12500000000000 -2.12500000000000  0.00251703933709734 
 2.12500000000000 -2.00000000000000  0.00367948881357207 
 2.12500000000000 -1.87500000000000  0.00527258756335848 
 2.12500000000000 -1.75000000000000  0.00741068804770016 
 2.12500000000000 -1.62500000000000  0.0102190964911915 
 2.12500000000000 -1.50000000000000  0.0138247304607475 
 2.12500000000000 -1.37500000000000  0.0183408198091166 
 2.12500000000000 -1.25000000000000  0.0238455014113201 
 2.12500000000000 -1.12500000000000  0.0303558358850177 
 2.12500000000000 -1.00000000000000  0.0378007991914732 
 2.12500000000000 -0.875000000000000  0.0459986286529453 
 2.12500000000000 -0.750000000000000  0.0546449125975786 
 2.12500000000000 -0.625000000000000  0.0633174668884534 
 2.12500000000000 -0.500000000000000  0.0715020060169081 
 2.12500000000000 -0.375000000000000  0.0786388997006893 
 2.12500000000000 -0.250000000000000  0.0841864275960182 
 2.12500000000000 -0.125000000000000  0.0876910306169850 
 2.12500000000000  0.00000000000000  0.0888516711932766 
 2.12500000000000  0.125000000000000  0.0875650310997427 
 2.12500000000000  0.250000000000000  0.0839415624947083 
 2.12500000000000  0.375000000000000  0.0782887234007712 
 2.12500000000000  0.500000000000000  0.0710652061203699 
 2.12500000000000  0.625000000000000  0.0628162402604019 
 2.12500000000000  0.750000000000000  0.0541032627473973 
 2.12500000000000  0.875000000000000  0.0454407781711141 
 2.12500000000000  1.00000000000000  0.0372497929583917 
 2.12500000000000  1.12500000000000  0.0298323066598522 
 2.12500000000000  1.25000000000000  0.0233665468805180 
 2.12500000000000  1.37500000000000  0.0179190179854281 
 2.12500000000000  1.50000000000000  0.0134674438431477 
 2.12500000000000  1.62500000000000  0.00992828419726492 
 2.12500000000000  1.75000000000000  0.00718338221638163 
 2.12500000000000  1.87500000000000  0.00510200462558493 
 2.12500000000000  2.00000000000000  0.00355653543936231 
 2.12500000000000  2.12500000000000  0.00243185659917157 
 2.12500000000000  2.25000000000000  0.00162961428232952 
 2.12500000000000  2.37500000000000  0.00106901156291431 
 2.12500000000000  2.50000000000000  0.000685635262096637 

 2.25000000000000 -2.50000000000000  0.000515434390877101 
 2.25000000000000 -2.37500000000000  0.000801202737399596 
 2.25000000000000 -2.25000000000000  0.00121797851006522 
 2.25000000000000 -2.12500000000000  0.00181359880731877 
 2.25000000000000 -2.00000000000000  0.00264870528798336 
 2.25000000000000 -1.87500000000000  0.00379791939027725 
 2.25000000000000 -1.75000000000000  0.00534929910816625 
 2.25000000000000 -1.62500000000000  0.00740077345853372 
 2.25000000000000 -1.50000000000000  0.0100523214769646 
 2.25000000000000 -1.37500000000000  0.0133932402018482 
 2.25000000000000 -1.25000000000000  0.0174848926433686 
 2.25000000000000 -1.12500000000000  0.0223406186961190 
 2.25000000000000 -1.00000000000000  0.0279057294160687 
 2.25000000000000 -0.875000000000000  0.0340414272184396 
 2.25000000000000 -0.750000000000000  0.0405169099405736 
 2.25000000000000 -0.625000000000000  0.0470136418264019 
 2.25000000000000 -0.500000000000000  0.0531445743147926 
 2.25000000000000 -0.375000000000000  0.0584887658952927 
 2.25000000000000 -0.250000000000000  0.0626384633283439 
 2.25000000000000 -0.125000000000000  0.0652519218883134 
 2.25000000000000  0.00000000000000  0.0661023065455520 
 2.25000000000000  0.125000000000000  0.0651123236454864 
 2.25000000000000  0.250000000000000  0.0623665799669297 
 2.25000000000000  0.375000000000000  0.0580986586503362 
 2.25000000000000  0.500000000000000  0.0526559558922257 
 2.25000000000000  0.625000000000000  0.0464503431667651 
 2.25000000000000  0.750000000000000  0.0399050856759122 
 2.25000000000000  0.875000000000000  0.0334077261301636 
 2.25000000000000  1.00000000000000  0.0272756325633938 
 2.25000000000000  1.12500000000000  0.0217370526708137 
 2.25000000000000  1.25000000000000  0.0169271180037726 
 2.25000000000000  1.37500000000000  0.0128959696686298 
 2.25000000000000  1.50000000000000  0.00962506947523826 
 2.25000000000000  1.62500000000000  0.00704753694193643 
 2.25000000000000  1.75000000000000  0.00506873067432295 
 2.25000000000000  1.87500000000000  0.00358410232496627 
 2.25000000000000  2.00000000000000  0.00249247389957355 
 2.25000000000000  2.12500000000000  0.00170415138942709 
 2.25000000000000  2.25000000000000  0.00114442463284002 
 2.25000000000000  2.37500000000000  0.000753736250630168 
 2.25000000000000  2.50000000000000  0.000485989414872513 

 2.37500000000000 -2.50000000000000  0.000369430810021334 
 2.37500000000000 -2.37500000000000  0.000577573262007395 
 2.37500000000000 -2.25000000000000  0.000885497557260904 
 2.37500000000000 -2.12500000000000  0.00133303488826838 
 2.37500000000000 -2.00000000000000  0.00197172241353250 
 2.37500000000000 -1.87500000000000  0.00286520496569517 
 2.37500000000000 -1.75000000000000  0.00408740832423041 
 2.37500000000000 -1.62500000000000  0.00571764194760289 
 2.37500000000000 -1.50000000000000  0.00783228643194766 
 2.37500000000000 -1.37500000000000  0.0104934510495230 
 2.37500000000000 -1.25000000000000  0.0137357405752059 
 2.37500000000000 -1.12500000000000  0.0175528318843498 
 2.37500000000000 -1.00000000000000  0.0218858099324976 
 2.37500000000000 -0.875000000000000  0.0266152008998004 
 2.37500000000000 -0.750000000000000  0.0315585493462209 
 2.37500000000000 -0.625000000000000  0.0364753333651101 
 2.37500000000000 -0.500000000000000  0.0410808175678645 
 2.37500000000000 -0.375000000000000  0.0450696187362478 
 2.37500000000000 -0.250000000000000  0.0481478649632340 
 2.37500000000000 -0.125000000000000  0.0500700243363538 
 2.37500000000000  0.00000000000000  0.0506737681188244 
 2.37500000000000  0.125000000000000  0.0499050737415175 
 2.37500000000000  0.250000000000000  0.0478272026925128 
 2.37500000000000  0.375000000000000  0.0446110662363121 
 2.37500000000000  0.500000000000000  0.0405094118408351 
 2.37500000000000  0.625000000000000  0.0358212471780303 
 2.37500000000000  0.750000000000000  0.0308544703323171 
 2.37500000000000  0.875000000000000  0.0258935422026587 
 2.37500000000000  1.00000000000000  0.0211762155921130 
 2.37500000000000  1.12500000000000  0.0168803467231816 
 2.37500000000000  1.25000000000000  0.0131197844225369 
 2.37500000000000  1.37500000000000  0.00994750099105702 
 2.37500000000000  1.50000000000000  0.00736404482539481 
 2.37500000000000  1.62500000000000  0.00532948316169157 
 2.37500000000000  1.75000000000000  0.00377699987793244 
 2.37500000000000  1.87500000000000  0.00262630268541480 
 2.37500000000000  2.00000000000000  0.00179517743730276 
 2.37500000000000  2.12500000000000  0.00120800082370467 
 2.37500000000000  2.25000000000000  0.000800718594120886 
 2.37500000000000  2.37500000000000  0.000522542160868189 
 2.37500000000000  2.50000000000000  0.000335206083316796 

 2.50000000000000 -2.50000000000000  0.000273265016336136 
 2.50000000000000 -2.37500000000000  0.000436752832198078 
 2.50000000000000 -2.25000000000000  0.000685622763578262 
 2.50000000000000 -2.12500000000000  0.00105633306721267 
 2.50000000000000 -2.00000000000000  0.00159492190480446 
 2.50000000000000 -1.87500000000000  0.00235563167563383 
 2.50000000000000 -1.75000000000000  0.00339720774660534 
 2.50000000000000 -1.62500000000000  0.00477673842771483 
 2.50000000000000 -1.50000000000000  0.00654154225072780 
 2.50000000000000 -1.37500000000000  0.00872027142564712 
 2.50000000000000 -1.25000000000000  0.0113148069454802 
 2.50000000000000 -1.12500000000000  0.0142944071543851 
 2.50000000000000 -1.00000000000000  0.0175928851083294 
 2.50000000000000 -0.875000000000000  0.0211086521782912 
 2.50000000000000 -0.750000000000000  0.0247069140737896 
 2.50000000000000 -0.625000000000000  0.0282236962833143 
 2.50000000000000 -0.500000000000000  0.0314726050521902 
 2.50000000000000 -0.375000000000000  0.0342562946537699 
 2.50000000000000 -0.250000000000000  0.0363841797594805 
 2.50000000000000 -0.125000000000000  0.0376954909016608 
 2.50000000000000  0.00000000000000  0.0380833601230260 
 2.50000000000000  0.125000000000000  0.0375133325396499 
 2.50000000000000  0.250000000000000  0.0360302423693581 
 2.50000000000000  0.375000000000000  0.0337508898462001 
 2.50000000000000  0.500000000000000  0.0308447914273520 
 2.50000000000000  0.625000000000000  0.0275090377630683 
 2.50000000000000  0.750000000000000  0.0239441813307259 
 2.50000000000000  0.875000000000000  0.0203359531262973 
 2.50000000000000  1.00000000000000  0.0168440445671121 
 2.50000000000000  1.12500000000000  0.0135963696155323 
 2.50000000000000  1.25000000000000  0.0106864472537714 
 2.50000000000000  1.37500000000000  0.00817251719486624 
 2.50000000000000  1.50000000000000  0.00607839184502134 
 2.50000000000000  1.62500000000000  0.00439669091659246 
 2.50000000000000  1.75000000000000  0.00309473714118887 
 2.50000000000000  1.87500000000000  0.00212251080797034 
 2.50000000000000  2.00000000000000  0.00142134011344404 
 2.50000000000000  2.12500000000000  0.000931826153885752 
 2.50000000000000  2.25000000000000  0.000599852537534951 
 2.50000000000000  2.37500000000000  0.000380155496648737 
 2.50000000000000  2.50000000000000  0.000237550875722319 

