-2.50000000000000 -2.50000000000000  0.000152631992512045 
-2.50000000000000 -2.37500000000000  0.000223588469285222 
-2.50000000000000 -2.25000000000000  0.000336160542650909 
-2.50000000000000 -2.12500000000000  0.000530375752423208 
-2.50000000000000 -2.00000000000000  0.000869923560408743 
-2.50000000000000 -1.87500000000000  0.00143829319637067 
-2.50000000000000 -1.75000000000000  0.00233345909095267 
-2.50000000000000 -1.62500000000000  0.00366140386505895 
-2.50000000000000 -1.50000000000000  0.00552540566238316 
-2.50000000000000 -1.37500000000000  0.00801081278066520 
-2.50000000000000 -1.25000000000000  0.0111674520131061 
-2.50000000000000 -1.12500000000000  0.0149927496090860 
-2.50000000000000 -1.00000000000000  0.0194186485925307 
-2.50000000000000 -0.875000000000000  0.0243047567341177 
-2.50000000000000 -0.750000000000000  0.0294392468198440 
-2.50000000000000 -0.625000000000000  0.0345483157365156 
-2.50000000000000 -0.500000000000000  0.0393146167894680 
-2.50000000000000 -0.375000000000000  0.0434045733367854 
-2.50000000000000 -0.250000000000000  0.0465031691147112 
-2.50000000000000 -0.125000000000000  0.0483524674980491 
-2.50000000000000  0.00000000000000  0.0487875094085513 
-2.50000000000000  0.125000000000000  0.0477618924393549 
-2.50000000000000  0.250000000000000  0.0453565259154793 
-2.50000000000000  0.375000000000000  0.0417688570670377 
-2.50000000000000  0.500000000000000  0.0372848989501910 
-2.50000000000000  0.625000000000000  0.0322405716917282 
-2.50000000000000  0.750000000000000  0.0269805811589174 
-2.50000000000000  0.875000000000000  0.0218220292565675 
-2.50000000000000  1.00000000000000  0.0170272290282834 
-2.50000000000000  1.12500000000000  0.0127873361188990 
-2.50000000000000  1.25000000000000  0.00921645891914827 
-2.50000000000000  1.37500000000000  0.00635497933168287 
-2.50000000000000  1.50000000000000  0.00418037331577609 
-2.50000000000000  1.62500000000000  0.00262331887474482 
-2.50000000000000  1.75000000000000  0.00158598601714872 
-2.50000000000000  1.87500000000000  0.000957460186342779 
-2.50000000000000  2.00000000000000  0.000619143047560460 
-2.50000000000000  2.12500000000000  0.000447434899974452 
-2.50000000000000  2.25000000000000  0.000344019682311776 
-2.50000000000000  2.37500000000000  0.000262730726912739 
-2.50000000000000  2.50000000000000  0.000192782229076209 

-2.37500000000000 -2.50000000000000  0.000125733702457061 
-2.37500000000000 -2.37500000000000  0.000149933976553449 
-2.37500000000000 -2.25000000000000  0.000185046602399116 
-2.37500000000000 -2.12500000000000  0.000307754278958388 
-2.37500000000000 -2.00000000000000  0.000627234189121542 
-2.37500000000000 -1.87500000000000  0.00123879311006239 
-2.37500000000000 -1.75000000000000  0.00225644638801743 
-2.37500000000000 -1.62500000000000  0.00381499745067610 
-2.37500000000000 -1.50000000000000  0.00605354197937157 
-2.37500000000000 -1.37500000000000  0.00909352882597515 
-2.37500000000000 -1.25000000000000  0.0130135598684760 
-2.37500000000000 -1.12500000000000  0.0178242541320795 
-2.37500000000000 -1.00000000000000  0.0234476097188192 
-2.37500000000000 -0.875000000000000  0.0297052246108642 
-2.37500000000000 -0.750000000000000  0.0363186742557391 
-2.37500000000000 -0.625000000000000  0.0429237141359319 
-2.37500000000000 -0.500000000000000  0.0490981742720832 
-2.37500000000000 -0.375000000000000  0.0544015781734070 
-2.37500000000000 -0.250000000000000  0.0584225683255913 
-2.37500000000000 -0.125000000000000  0.0608281840015382 
-2.37500000000000  0.00000000000000  0.0614073969501704 
-2.37500000000000  0.125000000000000  0.0601009521152881 
-2.37500000000000  0.250000000000000  0.0570112445184728 
-2.37500000000000  0.375000000000000  0.0523896776042147 
-2.37500000000000  0.500000000000000  0.0466036793041719 
-2.37500000000000  0.625000000000000  0.0400897187683970 
-2.37500000000000  0.750000000000000  0.0333009434190691 
-2.37500000000000  0.875000000000000  0.0266580150176964 
-2.37500000000000  1.00000000000000  0.0205098836404848 
-2.37500000000000  1.12500000000000  0.0151085704935789 
-2.37500000000000  1.25000000000000  0.0105993541963676 
-2.37500000000000  1.37500000000000  0.00702546334448734 
-2.37500000000000  1.50000000000000  0.00434458379422730 
-2.37500000000000  1.62500000000000  0.00245338849442423 
-2.37500000000000  1.75000000000000  0.00121680278293228 
-2.37500000000000  1.87500000000000  0.000506338346549988 
-2.37500000000000  2.00000000000000  0.000267602344323214 
-2.37500000000000  2.12500000000000  0.000300815848931430 
-2.37500000000000  2.25000000000000  0.000310467521892538 
-2.37500000000000  2.37500000000000  0.000272979125423078 
-2.37500000000000  2.50000000000000  0.000215068353420469 

-2.25000000000000 -2.50000000000000  0.000111944383752315 
-2.25000000000000 -2.37500000000000  0.000101756803575670 
-2.25000000000000 -2.25000000000000  8.48497535422348e-05 
-2.25000000000000 -2.12500000000000  0.000256171497362029 
-2.25000000000000 -2.00000000000000  0.000683024178546146 
-2.25000000000000 -1.87500000000000  0.00145284581469954 
-2.25000000000000 -1.75000000000000  0.00271160572233114 
-2.25000000000000 -1.62500000000000  0.00463080201919476 
-2.25000000000000 -1.50000000000000  0.00738784118788003 
-2.25000000000000 -1.37500000000000  0.0111401531999655 
-2.25000000000000 -1.25000000000000  0.0159935993908151 
-2.25000000000000 -1.12500000000000  0.0219695433197130 
-2.25000000000000 -1.00000000000000  0.0289767039360155 
-2.25000000000000 -0.875000000000000  0.0367942197757120 
-2.25000000000000 -0.750000000000000  0.0450711504761654 
-2.25000000000000 -0.625000000000000  0.0533451902633887 
-2.25000000000000 -0.500000000000000  0.0610802205509120 
-2.25000000000000 -0.375000000000000  0.0677190928594202 
-2.25000000000000 -0.250000000000000  0.0727451951677516 
-2.25000000000000 -0.125000000000000  0.0757442883968068 
-2.25000000000000  0.00000000000000  0.0764571858495602 
-2.25000000000000  0.125000000000000  0.0748144987304052 
-2.25000000000000  0.250000000000000  0.0709471297476584 
-2.25000000000000  0.375000000000000  0.0651702360014589 
-2.25000000000000  0.500000000000000  0.0579431688578622 
-2.25000000000000  0.625000000000000  0.0498122224793810 
-2.25000000000000  0.750000000000000  0.0413457862508434 
-2.25000000000000  0.875000000000000  0.0330721485234331 
-2.25000000000000  1.00000000000000  0.0254288529237709 
-2.25000000000000  1.12500000000000  0.0187297349995323 
-2.25000000000000  1.25000000000000  0.0131522847819523 
-2.25000000000000  1.37500000000000  0.00874446419323904 
-2.25000000000000  1.50000000000000  0.00544716789881718 
-2.25000000000000  1.62500000000000  0.00312678976706385 
-2.25000000000000  1.75000000000000  0.00161287915013764 
-2.25000000000000  1.87500000000000  0.000741815792668654 
-2.25000000000000  2.00000000000000  0.000402233880290165 
-2.25000000000000  2.12500000000000  0.000378172755340999 
-2.25000000000000  2.25000000000000  0.000371679811097628 
-2.25000000000000  2.37500000000000  0.000323922949131484 
-2.25000000000000  2.50000000000000  0.000255521200411542 

-2.12500000000000 -2.50000000000000  0.000178044508979117 
-2.12500000000000 -2.37500000000000  0.000272587344414033 
-2.12500000000000 -2.25000000000000  0.000467171738439256 
-2.12500000000000 -2.12500000000000  0.000849713147835796 
-2.12500000000000 -2.00000000000000  0.00153601088827511 
-2.12500000000000 -1.87500000000000  0.00267584256392565 
-2.12500000000000 -1.75000000000000  0.00445453049435102 
-2.12500000000000 -1.62500000000000  0.00708410069316765 
-2.12500000000000 -1.50000000000000  0.0107832354845619 
-2.12500000000000 -1.37500000000000  0.0157464406586320 
-2.12500000000000 -1.25000000000000  0.0221050238996006 
-2.12500000000000 -1.12500000000000  0.0298852865356505 
-2.12500000000000 -1.00000000000000  0.0389716494263702 
-2.12500000000000 -0.875000000000000  0.0490833204353743 
-2.12500000000000 -0.750000000000000  0.0597720087974676 
-2.12500000000000 -0.625000000000000  0.0704451125919315 
-2.12500000000000 -0.500000000000000  0.0804143382919788 
-2.12500000000000 -0.375000000000000  0.0889648265956289 
-2.12500000000000 -0.250000000000000  0.0954356110569350 
-2.12500000000000 -0.125000000000000  0.0992995057490692 
-2.12500000000000  0.00000000000000  0.100229869469014 
-2.12500000000000  0.125000000000000  0.0981433231431603 
-2.12500000000000  0.250000000000000  0.0932112036013825 
-2.12500000000000  0.375000000000000  0.0858377036500705 
-2.12500000000000  0.500000000000000  0.0766082949284557 
-2.12500000000000  0.625000000000000  0.0662170028637104 
-2.12500000000000  0.750000000000000  0.0553843739948390 
-2.12500000000000  0.875000000000000  0.0447789236960967 
-2.12500000000000  1.00000000000000  0.0349534010924250 
-2.12500000000000  1.12500000000000  0.0263037911418769 
-2.12500000000000  1.25000000000000  0.0190543853143696 
-2.12500000000000  1.37500000000000  0.0132674625847796 
-2.12500000000000  1.50000000000000  0.00887208698243722 
-2.12500000000000  1.62500000000000  0.00570397260019839 
-2.12500000000000  1.75000000000000  0.00354755424975505 
-2.12500000000000  1.87500000000000  0.00217201788354883 
-2.12500000000000  2.00000000000000  0.00135511505895658 
-2.12500000000000  2.12500000000000  0.000896042227538658 
-2.12500000000000  2.25000000000000  0.000632058948704431 
-2.12500000000000  2.37500000000000  0.000459755258177966 
-2.12500000000000  2.50000000000000  0.000332043250860058 

-2.00000000000000 -2.50000000000000  0.000310231667730056 
-2.00000000000000 -2.37500000000000  0.000538821272187531 
-2.00000000000000 -2.25000000000000  0.000950499511705499 
-2.00000000000000 -2.12500000000000  0.00165715567209658 
-2.00000000000000 -2.00000000000000  0.00281157136757655 
-2.00000000000000 -1.87500000000000  0.00461164822146520 
-2.00000000000000 -1.75000000000000  0.00729801276693628 
-2.00000000000000 -1.62500000000000  0.0111416272124320 
-2.00000000000000 -1.50000000000000  0.0164189108484491 
-2.00000000000000 -1.37500000000000  0.0233737780398524 
-2.00000000000000 -1.25000000000000  0.0321690254423503 
-2.00000000000000 -1.12500000000000  0.0428331356295096 
-2.00000000000000 -1.00000000000000  0.0552118460850631 
-2.00000000000000 -0.875000000000000  0.0689356255002904 
-2.00000000000000 -0.750000000000000  0.0834135698782340 
-2.00000000000000 -0.625000000000000  0.0978608200505987 
-2.00000000000000 -0.500000000000000  0.111360837210183 
-2.00000000000000 -0.375000000000000  0.122956919979314 
-2.00000000000000 -0.250000000000000  0.131760811990221 
-2.00000000000000 -0.125000000000000  0.137061739824578 
-2.00000000000000  0.00000000000000  0.138417910682351 
-2.00000000000000  0.125000000000000  0.135714823211117 
-2.00000000000000  0.250000000000000  0.129180294293731 
-2.00000000000000  0.375000000000000  0.119353724318566 
-2.00000000000000  0.500000000000000  0.107015190463661 
-2.00000000000000  0.625000000000000  0.0930867712258297 
-2.00000000000000  0.750000000000000  0.0785226925869995 
-2.00000000000000  0.875000000000000  0.0642057100313771 
-2.00000000000000  1.00000000000000  0.0508646345604690 
-2.00000000000000  1.12500000000000  0.0390228196185444 
-2.00000000000000  1.25000000000000  0.0289809926668920 
-2.00000000000000  1.37500000000000  0.0208314786043794 
-2.00000000000000  1.50000000000000  0.0144959255208962 
-2.00000000000000  1.62500000000000  0.00977597902268472 
-2.00000000000000  1.75000000000000  0.00640621422585865 
-2.00000000000000  1.87500000000000  0.00410065200041893 
-2.00000000000000  2.00000000000000  0.00258756096288575 
-2.00000000000000  2.12500000000000  0.00163109542115609 
-2.00000000000000  2.25000000000000  0.00104177960006931 
-2.00000000000000  2.37500000000000  0.000679474147180520 
-2.00000000000000  2.50000000000000  0.000450723362097808 

-1.87500000000000 -2.50000000000000  0.000476349445724057 
-1.87500000000000 -2.37500000000000  0.000850257506576970 
-1.87500000000000 -2.25000000000000  0.00150322313573561 
-1.87500000000000 -2.12500000000000  0.00259099283441574 
-1.87500000000000 -2.00000000000000  0.00432317592585651 
-1.87500000000000 -1.87500000000000  0.00696701031368142 
-1.87500000000000 -1.75000000000000  0.0108427662477118 
-1.87500000000000 -1.62500000000000  0.0163069789564407 
-1.87500000000000 -1.50000000000000  0.0237204529811129 
-1.87500000000000 -1.37500000000000  0.0334000368315086 
-1.87500000000000 -1.25000000000000  0.0455566214756565 
-1.87500000000000 -1.12500000000000  0.0602262391990823 
-1.87500000000000 -1.00000000000000  0.0772055422533212 
-1.87500000000000 -0.875000000000000  0.0960059406428615 
-1.87500000000000 -0.750000000000000  0.115840882895239 
-1.87500000000000 -0.625000000000000  0.135657279215090 
-1.87500000000000 -0.500000000000000  0.154214947272341 
-1.87500000000000 -0.375000000000000  0.170208403151697 
-1.87500000000000 -0.250000000000000  0.182415479777732 
-1.87500000000000 -0.125000000000000  0.189849701873595 
-1.87500000000000  0.00000000000000  0.191890305304026 
-1.87500000000000  0.125000000000000  0.188366419839870 
-1.87500000000000  0.250000000000000  0.179579906629305 
-1.87500000000000  0.375000000000000  0.166262864930748 
-1.87500000000000  0.500000000000000  0.149478146927327 
-1.87500000000000  0.625000000000000  0.130481433132938 
-1.87500000000000  0.750000000000000  0.110569272918925 
-1.87500000000000  0.875000000000000  0.0909379667204847 
-1.87500000000000  1.00000000000000  0.0725736348941890 
-1.87500000000000  1.12500000000000  0.0561858072958848 
-1.87500000000000  1.25000000000000  0.0421875286368247 
-1.87500000000000  1.37500000000000  0.0307164788927315 
-1.87500000000000  1.50000000000000  0.0216856232365971 
-1.87500000000000  1.62500000000000  0.0148492683068285 
-1.87500000000000  1.75000000000000  0.00987103551088766 
-1.87500000000000  1.87500000000000  0.00638334302805073 
-1.87500000000000  2.00000000000000  0.00403228847275234 
-1.87500000000000  2.12500000000000  0.00250613256396319 
-1.87500000000000  2.25000000000000  0.00154905199956613 
-1.87500000000000  2.37500000000000  0.000964026255304651 
-1.87500000000000  2.50000000000000  0.000609222877097243 

-1.75000000000000 -2.50000000000000  0.000664700940719154 
-1.75000000000000 -2.37500000000000  0.00118934409738692 
-1.75000000000000 -2.25000000000000  0.00209572667003876 
-1.75000000000000 -2.12500000000000  0.00359178053796496 
-1.75000000000000 -2.00000000000000  0.00595586734213710 
-1.75000000000000 -1.87500000000000  0.00954103279630776 
-1.75000000000000 -1.75000000000000  0.0147686262552775 
-1.75000000000000 -1.62500000000000  0.0221065937619377 
-1.75000000000000 -1.50000000000000  0.0320285860911045 
-1.75000000000000 -1.37500000000000  0.0449523789345470 
-1.75000000000000 -1.25000000000000  0.0611601808571976 
-1.75000000000000 -1.12500000000000  0.0807088610809647 
-1.75000000000000 -1.00000000000000  0.103343928876871 
-1.75000000000000 -0.875000000000000  0.128435578909482 
-1.75000000000000 -0.750000000000000  0.154956366961081 
-1.75000000000000 -0.625000000000000  0.181516565720931 
-1.75000000000000 -0.500000000000000  0.206464534179784 
-1.75000000000000 -0.375000000000000  0.228046672210124 
-1.75000000000000 -0.250000000000000  0.244607475467612 
-1.75000000000000 -0.125000000000000  0.254798587057154 
-1.75000000000000  0.00000000000000  0.257760161781721 
-1.75000000000000  0.125000000000000  0.253240537109765 
-1.75000000000000  0.250000000000000  0.241631084767585 
-1.75000000000000  0.375000000000000  0.223909709356723 
-1.75000000000000  0.500000000000000  0.201504554819429 
-1.75000000000000  0.625000000000000  0.176104470663863 
-1.75000000000000  0.750000000000000  0.149451117015549 
-1.75000000000000  0.875000000000000  0.123147745965824 
-1.75000000000000  1.00000000000000  0.0985124896459726 
-1.75000000000000  1.12500000000000  0.0764920183643369 
-1.75000000000000  1.25000000000000  0.0576381310817534 
-1.75000000000000  1.37500000000000  0.0421383944807543 
-1.75000000000000  1.50000000000000  0.0298845128371234 
-1.75000000000000  1.62500000000000  0.0205594590893103 
-1.75000000000000  1.75000000000000  0.0137260034526786 
-1.75000000000000  1.87500000000000  0.00890374001554251 
-1.75000000000000  2.00000000000000  0.00562732560080097 
-1.75000000000000  2.12500000000000  0.00348392177740284 
-1.75000000000000  2.25000000000000  0.00213185648350331 
-1.75000000000000  2.37500000000000  0.00130501217914140 
-1.75000000000000  2.50000000000000  0.000808347002334441 

-1.62500000000000 -2.50000000000000  0.000877669470615324 
-1.62500000000000 -2.37500000000000  0.00155563787564318 
-1.62500000000000 -2.25000000000000  0.00271896239477517 
-1.62500000000000 -2.12500000000000  0.00463152390408450 
-1.62500000000000 -2.00000000000000  0.00764704525953351 
-1.62500000000000 -1.87500000000000  0.0122149602815907 
-1.62500000000000 -1.75000000000000  0.0188730992834796 
-1.62500000000000 -1.62500000000000  0.0282211529362749 
-1.62500000000000 -1.50000000000000  0.0408698226058351 
-1.62500000000000 -1.37500000000000  0.0573633757035886 
-1.62500000000000 -1.25000000000000  0.0780783253710480 
-1.62500000000000 -1.12500000000000  0.103107831327654 
-1.62500000000000 -1.00000000000000  0.132148991349151 
-1.62500000000000 -0.875000000000000  0.164416412934183 
-1.62500000000000 -0.750000000000000  0.198607800149852 
-1.62500000000000 -0.625000000000000  0.232943553462152 
-1.62500000000000 -0.500000000000000  0.265291648707413 
-1.62500000000000 -0.375000000000000  0.293372512120832 
-1.62500000000000 -0.250000000000000  0.315019686984647 
-1.62500000000000 -0.125000000000000  0.328455815604841 
-1.62500000000000  0.00000000000000  0.332534953184668 
-1.62500000000000  0.125000000000000  0.326904894128949 
-1.62500000000000  0.250000000000000  0.312057311723381 
-1.62500000000000  0.375000000000000  0.289255874006392 
-1.62500000000000  0.500000000000000  0.260357290388391 
-1.62500000000000  0.625000000000000  0.227560940280232 
-1.62500000000000  0.750000000000000  0.193134221177308 
-1.62500000000000  0.875000000000000  0.159160854683410 
-1.62500000000000  1.00000000000000  0.127349276389544 
-1.62500000000000  1.12500000000000  0.0989216796983728 
-1.62500000000000  1.25000000000000  0.0745861796398806 
-1.62500000000000  1.37500000000000  0.0545793534226078 
-1.62500000000000  1.50000000000000  0.0387569478214013 
-1.62500000000000  1.62500000000000  0.0267076341203354 
-1.62500000000000  1.75000000000000  0.0178673655104280 
-1.62500000000000  1.87500000000000  0.0116180848327797 
-1.62500000000000  2.00000000000000  0.00736192158010300 
-1.62500000000000  2.12500000000000  0.00456872272795851 
-1.62500000000000  2.25000000000000  0.00279971663260773 
-1.62500000000000  2.37500000000000  0.00171304783015491 
-1.62500000000000  2.50000000000000  0.00105788204061457 

-1.50000000000000 -2.50000000000000  0.00112899227707409 
-1.50000000000000 -2.37500000000000  0.00196882451009733 
-1.50000000000000 -2.25000000000000  0.00339752657112663 
-1.50000000000000 -2.12500000000000  0.00573693297322874 
-1.50000000000000 -2.00000000000000  0.00942062833153449 
-1.50000000000000 -1.87500000000000  0.0150025113650187 
-1.50000000000000 -1.75000000000000  0.0231494827750014 
-1.50000000000000 -1.62500000000000  0.0346103568626033 
-1.50000000000000 -1.50000000000000  0.0501541681965554 
-1.50000000000000 -1.37500000000000  0.0704744979587411 
-1.50000000000000 -1.25000000000000  0.0960627355419343 
-1.50000000000000 -1.12500000000000  0.127061955183316 
-1.50000000000000 -1.00000000000000  0.163122841164081 
-1.50000000000000 -0.875000000000000  0.203291239078635 
-1.50000000000000 -0.750000000000000  0.245960221182947 
-1.50000000000000 -0.625000000000000  0.288915172887426 
-1.50000000000000 -0.500000000000000  0.329487085738682 
-1.50000000000000 -0.375000000000000  0.364808362736817 
-1.50000000000000 -0.250000000000000  0.392141290212088 
-1.50000000000000 -0.125000000000000  0.409228267635693 
-1.50000000000000  0.00000000000000  0.414601498936047 
-1.50000000000000  0.125000000000000  0.407792645352480 
-1.50000000000000  0.250000000000000  0.389400494276524 
-1.50000000000000  0.375000000000000  0.361003076169713 
-1.50000000000000  0.500000000000000  0.324932494239845 
-1.50000000000000  0.625000000000000  0.283957594213025 
-1.50000000000000  0.750000000000000  0.240934763165585 
-1.50000000000000  0.875000000000000  0.198487615717079 
-1.50000000000000  1.00000000000000  0.158763467190753 
-1.50000000000000  1.12500000000000  0.123293130141319 
-1.50000000000000  1.25000000000000  0.0929570921405365 
-1.50000000000000  1.37500000000000  0.0680414055019395 
-1.50000000000000  1.50000000000000  0.0483544295092518 
-1.50000000000000  1.62500000000000  0.0333719889607399 
-1.50000000000000  1.75000000000000  0.0223822252042592 
-1.50000000000000  1.87500000000000  0.0146096400848486 
-1.50000000000000  2.00000000000000  0.00930748354310359 
-1.50000000000000  2.12500000000000  0.00581625136708282 
-1.50000000000000  2.25000000000000  0.00359227510699482 
-1.50000000000000  2.37500000000000  0.00221384278485000 
-1.50000000000000  2.50000000000000  0.00137305496393652 

-1.37500000000000 -2.50000000000000  0.00143331783573503 
-1.37500000000000 -2.37500000000000  0.00245673174576148 
-1.37500000000000 -2.25000000000000  0.00417760603647228 
-1.37500000000000 -2.12500000000000  0.00697855394686716 
-1.37500000000000 -2.00000000000000  0.0113788112682428 
-1.37500000000000 -1.87500000000000  0.0180464989915738 
-1.37500000000000 -1.75000000000000  0.0277920637121874 
-1.37500000000000 -1.62500000000000  0.0415326236701101 
-1.37500000000000 -1.50000000000000  0.0602181351852421 
-1.37500000000000 -1.37500000000000  0.0847146241899918 
-1.37500000000000 -1.25000000000000  0.115647744571444 
-1.37500000000000 -1.12500000000000  0.153221100924691 
-1.37500000000000 -1.00000000000000  0.197036135369137 
-1.37500000000000 -0.875000000000000  0.245950580767780 
-1.37500000000000 -0.750000000000000  0.298016495426039 
-1.37500000000000 -0.625000000000000  0.350533264679228 
-1.37500000000000 -0.500000000000000  0.400234308312849 
-1.37500000000000 -0.375000000000000  0.443600435660010 
-1.37500000000000 -0.250000000000000  0.477263171775601 
-1.37500000000000 -0.125000000000000  0.498435663523322 
-1.37500000000000  0.00000000000000  0.505294863957263 
-1.37500000000000  0.125000000000000  0.497241964962706 
-1.37500000000000  0.250000000000000  0.474989202723317 
-1.37500000000000  0.375000000000000  0.440455553526575 
-1.37500000000000  0.500000000000000  0.396492704539043 
-1.37500000000000  0.625000000000000  0.346495886908048 
-1.37500000000000  0.750000000000000  0.293973415219987 
-1.37500000000000  0.875000000000000  0.242150155456910 
-1.37500000000000  1.00000000000000  0.193664944115528 
-1.37500000000000  1.12500000000000  0.150395842151706 
-1.37500000000000  1.25000000000000  0.113417835283164 
-1.37500000000000  1.37500000000000  0.0830726122705105 
-1.37500000000000  1.50000000000000  0.0591143665932564 
-1.37500000000000  1.62500000000000  0.0408907921935858 
-1.37500000000000  1.75000000000000  0.0275230602423515 
-1.37500000000000  1.87500000000000  0.0180590609001333 
-1.37500000000000  2.00000000000000  0.0115865634216498 
-1.37500000000000  2.12500000000000  0.00730394196360120 
-1.37500000000000  2.25000000000000  0.00455388418270140 
-1.37500000000000  2.37500000000000  0.00282950996681421 
-1.37500000000000  2.50000000000000  0.00176281767109872 

-1.25000000000000 -2.50000000000000  0.00179018467381949 
-1.25000000000000 -2.37500000000000  0.00302839295334242 
-1.25000000000000 -2.25000000000000  0.00508562035347833 
-1.25000000000000 -2.12500000000000  0.00841064298685952 
-1.25000000000000 -2.00000000000000  0.0136173693928373 
-1.25000000000000 -1.87500000000000  0.0215018845262580 
-1.25000000000000 -1.75000000000000  0.0330371847866032 
-1.25000000000000 -1.62500000000000  0.0493325242614104 
-1.25000000000000 -1.50000000000000  0.0715455694607635 
-1.25000000000000 -1.37500000000000  0.100740990186292 
-1.25000000000000 -1.25000000000000  0.137699293865262 
-1.25000000000000 -1.12500000000000  0.182693835113692 
-1.25000000000000 -1.00000000000000  0.235269361293825 
-1.25000000000000 -0.875000000000000  0.294067897153499 
-1.25000000000000 -0.750000000000000  0.356752254511009 
-1.25000000000000 -0.625000000000000  0.420069943870551 
-1.25000000000000 -0.500000000000000  0.480079456060925 
-1.25000000000000 -0.375000000000000  0.532529423813352 
-1.25000000000000 -0.250000000000000  0.573345704760507 
-1.25000000000000 -0.125000000000000  0.599151128793448 
-1.25000000000000  0.00000000000000  0.607726609039350 
-1.25000000000000  0.125000000000000  0.598326515435715 
-1.25000000000000  0.250000000000000  0.571786265824391 
-1.25000000000000  0.375000000000000  0.530400609935206 
-1.25000000000000  0.500000000000000  0.477597050895213 
-1.25000000000000  0.625000000000000  0.417468609116200 
-1.25000000000000  0.750000000000000  0.354253927126961 
-1.25000000000000  0.875000000000000  0.291855539770734 
-1.25000000000000  1.00000000000000  0.233469964718811 
-1.25000000000000  1.12500000000000  0.181372319421532 
-1.25000000000000  1.25000000000000  0.136862609878123 
-1.25000000000000  1.37500000000000  0.100349811785250 
-1.25000000000000  1.50000000000000  0.0715298870617503 
-1.25000000000000  1.62500000000000  0.0496073805862907 
-1.25000000000000  1.75000000000000  0.0335156379350500 
-1.25000000000000  1.87500000000000  0.0221036893955981 
-1.25000000000000  2.00000000000000  0.0142733631045919 
-1.25000000000000  2.12500000000000  0.00906398870755456 
-1.25000000000000  2.25000000000000  0.00569166278778730 
-1.25000000000000  2.37500000000000  0.00355477156277291 
-1.25000000000000  2.50000000000000  0.00221788850608687 

-1.12500000000000 -2.50000000000000  0.00217482310961309 
-1.12500000000000 -2.37500000000000  0.00365297932479922 
-1.12500000000000 -2.25000000000000  0.00608735067028014 
-1.12500000000000 -2.12500000000000  0.0100002894718061 
-1.12500000000000 -2.00000000000000  0.0161115620289764 
-1.12500000000000 -1.87500000000000  0.0253613079316886 
-1.12500000000000 -1.75000000000000  0.0389065602814400 
-1.12500000000000 -1.62500000000000  0.0580750455348975 
-1.12500000000000 -1.50000000000000  0.0842613705700325 
-1.12500000000000 -1.37500000000000  0.118757393730700 
-1.12500000000000 -1.25000000000000  0.162521246608216 
-1.12500000000000 -1.12500000000000  0.215907001555738 
-1.12500000000000 -1.00000000000000  0.278395948352575 
-1.12500000000000 -0.875000000000000  0.348385447053320 
-1.12500000000000 -0.750000000000000  0.423096274903285 
-1.12500000000000 -0.625000000000000  0.498649579834924 
-1.12500000000000 -0.500000000000000  0.570338815013418 
-1.12500000000000 -0.375000000000000  0.633084014645562 
-1.12500000000000 -0.250000000000000  0.682013718772655 
-1.12500000000000 -0.125000000000000  0.713084617045856 
-1.12500000000000  0.00000000000000  0.723630876425659 
-1.12500000000000  0.125000000000000  0.712740630155190 
-1.12500000000000  0.250000000000000  0.681386586739960 
-1.12500000000000  0.375000000000000  0.632284913305957 
-1.12500000000000  0.500000000000000  0.569510169899000 
-1.12500000000000  0.625000000000000  0.497940956402172 
-1.12500000000000  0.750000000000000  0.422639801041232 
-1.12500000000000  0.875000000000000  0.348275455946543 
-1.12500000000000  1.00000000000000  0.278676643832695 
-1.12500000000000  1.12500000000000  0.216570134441371 
-1.12500000000000  1.25000000000000  0.163513438162439 
-1.12500000000000  1.37500000000000  0.119994492055555 
-1.12500000000000  1.50000000000000  0.0856457691452584 
-1.12500000000000  1.62500000000000  0.0595116887847430 
-1.12500000000000  1.75000000000000  0.0403144178060422 
-1.12500000000000  1.87500000000000  0.0266789614878430 
-1.12500000000000  2.00000000000000  0.0172975066325740 
-1.12500000000000  2.12500000000000  0.0110299466783817 
-1.12500000000000  2.25000000000000  0.00694925223674153 
-1.12500000000000  2.37500000000000  0.00434603295883532 
-1.12500000000000  2.50000000000000  0.00270720254879243 

-1.00000000000000 -2.50000000000000  0.00254240710700157 
-1.00000000000000 -2.37500000000000  0.00426232059760550 
-1.00000000000000 -2.25000000000000  0.00708373782423640 
-1.00000000000000 -2.12500000000000  0.0116087348403922 
-1.00000000000000 -2.00000000000000  0.0186721868992808 
-1.00000000000000 -1.87500000000000  0.0293715667215111 
-1.00000000000000 -1.75000000000000  0.0450657511940667 
-1.00000000000000 -1.62500000000000  0.0673230486960300 
-1.00000000000000 -1.50000000000000  0.0978001897471065 
-1.00000000000000 -1.37500000000000  0.138042017449663 
-1.00000000000000 -1.25000000000000  0.189206905681271 
-1.00000000000000 -1.12500000000000  0.251744135942182 
-1.00000000000000 -1.00000000000000  0.325072380898430 
-1.00000000000000 -0.875000000000000  0.407326461975349 
-1.00000000000000 -0.750000000000000  0.495245286918405 
-1.00000000000000 -0.625000000000000  0.584261757261347 
-1.00000000000000 -0.500000000000000  0.668824305194818 
-1.00000000000000 -0.375000000000000  0.742934290171907 
-1.00000000000000 -0.250000000000000  0.800833821866157 
-1.00000000000000 -0.125000000000000  0.837737522211575 
-1.00000000000000  0.00000000000000  0.850481127105166 
-1.00000000000000  0.125000000000000  0.837966778623838 
-1.00000000000000  0.250000000000000  0.801319426942628 
-1.00000000000000  0.375000000000000  0.743723655587652 
-1.00000000000000  0.500000000000000  0.669972653057884 
-1.00000000000000  0.625000000000000  0.585816039070657 
-1.00000000000000  0.750000000000000  0.497227775641059 
-1.00000000000000  0.875000000000000  0.409721884741214 
-1.00000000000000  1.00000000000000  0.327822132617076 
-1.00000000000000  1.12500000000000  0.254749604703123 
-1.00000000000000  1.25000000000000  0.192341532476091 
-1.00000000000000  1.37500000000000  0.141169189838573 
-1.00000000000000  1.50000000000000  0.100792393717526 
-1.00000000000000  1.62500000000000  0.0700775488186742 
-1.00000000000000  1.75000000000000  0.0475134796778231 
-1.00000000000000  1.87500000000000  0.0314782719758148 
-1.00000000000000  2.00000000000000  0.0204332751056887 
-1.00000000000000  2.12500000000000  0.0130407853459502 
-1.00000000000000  2.25000000000000  0.00821595360320153 
-1.00000000000000  2.37500000000000  0.00513024061389925 
-1.00000000000000  2.50000000000000  0.00318450436597659 

-0.875000000000000 -2.50000000000000  0.00284190040551923 
-0.875000000000000 -2.37500000000000  0.00477358800856372 
-0.875000000000000 -2.25000000000000  0.00794515662411450 
-0.875000000000000 -2.12500000000000  0.0130395521133130 
-0.875000000000000 -2.00000000000000  0.0210094727602194 
-0.875000000000000 -1.87500000000000  0.0331145481813289 
-0.875000000000000 -1.75000000000000  0.0509229027486458 
-0.875000000000000 -1.62500000000000  0.0762537313945039 
-0.875000000000000 -1.50000000000000  0.111039158853266 
-0.875000000000000 -1.37500000000000  0.157092845458325 
-0.875000000000000 -1.25000000000000  0.215790604742005 
-0.875000000000000 -1.12500000000000  0.287693182963932 
-0.875000000000000 -1.00000000000000  0.372168447323366 
-0.875000000000000 -0.875000000000000  0.467091729699336 
-0.875000000000000 -0.750000000000000  0.568710166748606 
-0.875000000000000 -0.625000000000000  0.671742870757547 
-0.875000000000000 -0.500000000000000  0.769752249609536 
-0.875000000000000 -0.375000000000000  0.855768402619719 
-0.875000000000000 -0.250000000000000  0.923090229883299 
-0.875000000000000 -0.125000000000000  0.966138861204200 
-0.875000000000000  0.00000000000000  0.981215018895434 
-0.875000000000000  0.125000000000000  0.967020102542600 
-0.875000000000000  0.250000000000000  0.924841017469939 
-0.875000000000000  0.375000000000000  0.858362562585863 
-0.875000000000000  0.500000000000000  0.773143798939741 
-0.875000000000000  0.625000000000000  0.675859031401571 
-0.875000000000000  0.750000000000000  0.573444683227820 
-0.875000000000000  0.875000000000000  0.472301397221096 
-0.875000000000000  1.00000000000000  0.377675822184294 
-0.875000000000000  1.12500000000000  0.293297160471671 
-0.875000000000000  1.25000000000000  0.221284139088794 
-0.875000000000000  1.37500000000000  0.162284465573291 
-0.875000000000000  1.50000000000000  0.115773267940073 
-0.875000000000000  1.62500000000000  0.0804247636549371 
-0.875000000000000  1.75000000000000  0.0544802571422777 
-0.875000000000000  1.87500000000000  0.0360580539368071 
-0.875000000000000  2.00000000000000  0.0233778236174656 
-0.875000000000000  2.12500000000000  0.0148957128876702 
-0.875000000000000  2.25000000000000  0.00936278277208438 
-0.875000000000000  2.37500000000000  0.00582719250874147 
-0.875000000000000  2.50000000000000  0.00360147597345865 

-0.750000000000000 -2.50000000000000  0.00303278546347340 
-0.750000000000000 -2.37500000000000  0.00511869185094129 
-0.750000000000000 -2.25000000000000  0.00856073639718611 
-0.750000000000000 -2.12500000000000  0.0141174735264713 
-0.750000000000000 -2.00000000000000  0.0228535799409628 
-0.750000000000000 -1.87500000000000  0.0361844874328069 
-0.750000000000000 -1.75000000000000  0.0558810393106978 
-0.750000000000000 -1.62500000000000  0.0840074250799330 
-0.750000000000000 -1.50000000000000  0.122767324322883 
-0.750000000000000 -1.37500000000000  0.174243342444291 
-0.750000000000000 -1.25000000000000  0.240034797864539 
-0.750000000000000 -1.12500000000000  0.320827205170003 
-0.750000000000000 -1.00000000000000  0.415958030426994 
-0.750000000000000 -0.875000000000000  0.523068588537605 
-0.750000000000000 -0.750000000000000  0.637941035652262 
-0.750000000000000 -0.625000000000000  0.754604245965820 
-0.750000000000000 -0.500000000000000  0.865750958613046 
-0.750000000000000 -0.375000000000000  0.963447197306391 
-0.750000000000000 -0.250000000000000  1.04004741316750 
-0.750000000000000 -0.125000000000000  1.08917275693227 
-0.750000000000000  0.00000000000000  1.10658152194481 
-0.750000000000000  0.125000000000000  1.09076971089234 
-0.750000000000000  0.250000000000000  1.04318585374965 
-0.750000000000000  0.375000000000000  0.968017830816312 
-0.750000000000000  0.500000000000000  0.871593423471347 
-0.750000000000000  0.625000000000000  0.761510618964500 
-0.750000000000000  0.750000000000000  0.645660658307877 
-0.750000000000000  0.875000000000000  0.531315905239427 
-0.750000000000000  1.00000000000000  0.424425473746861 
-0.750000000000000  1.12500000000000  0.329204101454808 
-0.750000000000000  1.25000000000000  0.248030989747239 
-0.750000000000000  1.37500000000000  0.181613734937868 
-0.750000000000000  1.50000000000000  0.129332135246577 
-0.750000000000000  1.62500000000000  0.0896633917588738 
-0.750000000000000  1.75000000000000  0.0606011246019101 
-0.750000000000000  1.87500000000000  0.0400068089903816 
-0.750000000000000  2.00000000000000  0.0258630836630879 
-0.750000000000000  2.12500000000000  0.0164252928873574 
-0.750000000000000  2.25000000000000  0.0102858925675868 
-0.750000000000000  2.37500000000000  0.00637512120120295 
-0.750000000000000  2.50000000000000  0.00392237327017097 

-0.625000000000000 -2.50000000000000  0.00309907805547711 
-0.625000000000000 -2.37500000000000  0.00526877075627281 
-0.625000000000000 -2.25000000000000  0.00887978868935214 
-0.625000000000000 -2.12500000000000  0.0147559682035308 
-0.625000000000000 -2.00000000000000  0.0240608299882663 
-0.625000000000000 -1.87500000000000  0.0383492098247705 
-0.625000000000000 -1.75000000000000  0.0595750730894389 
-0.625000000000000 -1.62500000000000  0.0900258487427234 
-0.625000000000000 -1.50000000000000  0.132155244265484 
-0.625000000000000 -1.37500000000000  0.188297318307962 
-0.625000000000000 -1.25000000000000  0.260266259346065 
-0.625000000000000 -1.12500000000000  0.348877477728495 
-0.625000000000000 -1.00000000000000  0.453460633981477 
-0.625000000000000 -0.875000000000000  0.571464347119162 
-0.625000000000000 -0.750000000000000  0.698263899141881 
-0.625000000000000 -0.625000000000000  0.827267773136430 
-0.625000000000000 -0.500000000000000  0.950373447191549 
-0.625000000000000 -0.375000000000000  1.05875404040230 
-0.625000000000000 -0.250000000000000  1.14388058133763 
-0.625000000000000 -0.125000000000000  1.19862007460256 
-0.625000000000000  0.00000000000000  1.21821603312475 
-0.625000000000000  0.125000000000000  1.20096719355539 
-0.625000000000000  0.250000000000000  1.14847210213811 
-0.625000000000000  0.375000000000000  1.06539102357550 
-0.625000000000000  0.500000000000000  0.958772432482614 
-0.625000000000000  0.625000000000000  0.837076003694671 
-0.625000000000000  0.750000000000000  0.709077097958034 
-0.625000000000000  0.875000000000000  0.582847254970652 
-0.625000000000000  1.00000000000000  0.464971088791048 
-0.625000000000000  1.12500000000000  0.360094034004611 
-0.625000000000000  1.25000000000000  0.270817367478068 
-0.625000000000000  1.37500000000000  0.197887937918870 
-0.625000000000000  1.50000000000000  0.140585762077645 
-0.625000000000000  1.62500000000000  0.0971991069939064 
-0.625000000000000  1.75000000000000  0.0654899998007968 
-0.625000000000000  1.87500000000000  0.0430829155526593 
-0.625000000000000  2.00000000000000  0.0277437568146130 
-0.625000000000000  2.12500000000000  0.0175457976889955 
-0.625000000000000  2.25000000000000  0.0109391362533596 
-0.625000000000000  2.37500000000000  0.00674968345908092 
-0.625000000000000  2.50000000000000  0.00413483559998734 

-0.500000000000000 -2.50000000000000  0.00305583260647061 
-0.500000000000000 -2.37500000000000  0.00524492359760491 
-0.500000000000000 -2.25000000000000  0.00892912413341157 
-0.500000000000000 -2.12500000000000  0.0149846654625877 
-0.500000000000000 -2.00000000000000  0.0246563790645399 
-0.500000000000000 -1.87500000000000  0.0396153878001438 
-0.500000000000000 -1.75000000000000  0.0619698090159611 
-0.500000000000000 -1.62500000000000  0.0941964764962094 
-0.500000000000000 -1.50000000000000  0.138963222013351 
-0.500000000000000 -1.37500000000000  0.198822469288562 
-0.500000000000000 -1.25000000000000  0.275779743908531 
-0.500000000000000 -1.12500000000000  0.370774064146170 
-0.500000000000000 -1.00000000000000  0.483145360423329 
-0.500000000000000 -0.875000000000000  0.610196720865539 
-0.500000000000000 -0.750000000000000  0.746973535584123 
-0.500000000000000 -0.625000000000000  0.886366557909665 
-0.500000000000000 -0.500000000000000  1.01959753917576 
-0.500000000000000 -0.375000000000000  1.13707087349886 
-0.500000000000000 -0.250000000000000  1.22948928880018 
-0.500000000000000 -0.125000000000000  1.28905865349706 
-0.500000000000000  0.00000000000000  1.31056802753739 
-0.500000000000000  0.125000000000000  1.29213973162864 
-0.500000000000000  0.250000000000000  1.23550140452969 
-0.500000000000000  0.375000000000000  1.14572543073597 
-0.500000000000000  0.500000000000000  1.03048830817381 
-0.500000000000000  0.625000000000000  0.898997011429012 
-0.500000000000000  0.750000000000000  0.760787999351309 
-0.500000000000000  0.875000000000000  0.624613913402790 
-0.500000000000000  1.00000000000000  0.497593677064107 
-0.500000000000000  1.12500000000000  0.384727518950569 
-0.500000000000000  1.25000000000000  0.288791927392549 
-0.500000000000000  1.37500000000000  0.210554221861423 
-0.500000000000000  1.50000000000000  0.149199240142422 
-0.500000000000000  1.62500000000000  0.102847478854048 
-0.500000000000000  1.75000000000000  0.0690598862531000 
-0.500000000000000  1.87500000000000  0.0452575840683484 
-0.500000000000000  2.00000000000000  0.0290220548217872 
-0.500000000000000  2.12500000000000  0.0182729144800253 
-0.500000000000000  2.25000000000000  0.0113414139402071 
-0.500000000000000  2.37500000000000  0.00696779932623329 
-0.500000000000000  2.50000000000000  0.00425185665598850 

-0.375000000000000 -2.50000000000000  0.00294426137035932 
-0.375000000000000 -2.37500000000000  0.00510894013524733 
-0.375000000000000 -2.25000000000000  0.00879669473196673 
-0.375000000000000 -2.12500000000000  0.0149224904596289 
-0.375000000000000 -2.00000000000000  0.0247929250327678 
-0.375000000000000 -1.87500000000000  0.0401687440357534 
-0.375000000000000 -1.75000000000000  0.0632778979821710 
-0.375000000000000 -1.62500000000000  0.0967454421341641 
-0.375000000000000 -1.50000000000000  0.143408040989030 
-0.375000000000000 -1.37500000000000  0.205992262024671 
-0.375000000000000 -1.25000000000000  0.286659414290336 
-0.375000000000000 -1.12500000000000  0.386454548443393 
-0.375000000000000 -1.00000000000000  0.504737799263301 
-0.375000000000000 -0.875000000000000  0.638711826586092 
-0.375000000000000 -0.750000000000000  0.783175942857723 
-0.375000000000000 -0.625000000000000  0.930623361755529 
-0.375000000000000 -0.500000000000000  1.07174775374977 
-0.375000000000000 -0.375000000000000  1.19634507334594 
-0.375000000000000 -0.250000000000000  1.29450400059487 
-0.375000000000000 -0.125000000000000  1.35789794997208 
-0.375000000000000  0.00000000000000  1.38094754476248 
-0.375000000000000  0.125000000000000  1.36163033936818 
-0.375000000000000  0.250000000000000  1.30177607337282 
-0.375000000000000  0.375000000000000  1.20678751302583 
-0.375000000000000  0.500000000000000  1.08484407803923 
-0.375000000000000  0.625000000000000  0.945748448430081 
-0.375000000000000  0.750000000000000  0.799639493065631 
-0.375000000000000  0.875000000000000  0.655803764935235 
-0.375000000000000  1.00000000000000  0.521773582828663 
-0.375000000000000  1.12500000000000  0.402818271108172 
-0.375000000000000  1.25000000000000  0.301841500541708 
-0.375000000000000  1.37500000000000  0.219617410676466 
-0.375000000000000  1.50000000000000  0.155249117833931 
-0.375000000000000  1.62500000000000  0.106720854327279 
-0.375000000000000  1.75000000000000  0.0714332004941727 
-0.375000000000000  1.87500000000000  0.0466466097553752 
-0.375000000000000  2.00000000000000  0.0297978293585029 
-0.375000000000000  2.12500000000000  0.0186867730723723 
-0.375000000000000  2.25000000000000  0.0115531548020219 
-0.375000000000000  2.37500000000000  0.00707250109943670 
-0.375000000000000  2.50000000000000  0.00430244584669349 

-0.250000000000000 -2.50000000000000  0.00281458665566607 
-0.250000000000000 -2.37500000000000  0.00493428770677024 
-0.250000000000000 -2.25000000000000  0.00858503457444953 
-0.250000000000000 -2.12500000000000  0.0147064873683825 
-0.250000000000000 -2.00000000000000  0.0246464242348502 
-0.250000000000000 -1.87500000000000  0.0402267350130700 
-0.250000000000000 -1.75000000000000  0.0637581784146413 
-0.250000000000000 -1.62500000000000  0.0979690974930617 
-0.250000000000000 -1.50000000000000  0.145814723291763 
-0.250000000000000 -1.37500000000000  0.210145222865313 
-0.250000000000000 -1.25000000000000  0.293234585218394 
-0.250000000000000 -1.12500000000000  0.396208162279287 
-0.250000000000000 -1.00000000000000  0.518448788305953 
-0.250000000000000 -0.875000000000000  0.657099079546397 
-0.250000000000000 -0.750000000000000  0.806796417441826 
-0.250000000000000 -0.625000000000000  0.959764008320049 
-0.250000000000000 -0.500000000000000  1.10633019021251 
-0.250000000000000 -0.375000000000000  1.23586450665764 
-0.250000000000000 -0.250000000000000  1.33802108780099 
-0.250000000000000 -0.125000000000000  1.40409371034893 
-0.250000000000000  0.00000000000000  1.42823866396443 
-0.250000000000000  0.125000000000000  1.40832856682655 
-0.250000000000000  0.250000000000000  1.34626490756764 
-0.250000000000000  0.375000000000000  1.24768525212550 
-0.250000000000000  0.500000000000000  1.12112587378444 
-0.250000000000000  0.625000000000000  0.976810066390061 
-0.250000000000000  0.750000000000000  0.825298873879468 
-0.250000000000000  0.875000000000000  0.676249219181570 
-0.250000000000000  1.00000000000000  0.537476192983425 
-0.250000000000000  1.12500000000000  0.414429181211022 
-0.250000000000000  1.25000000000000  0.310092620396273 
-0.250000000000000  1.37500000000000  0.225238523244526 
-0.250000000000000  1.50000000000000  0.158907846754161 
-0.250000000000000  1.62500000000000  0.108986357475091 
-0.250000000000000  1.75000000000000  0.0727607519951332 
-0.250000000000000  1.87500000000000  0.0473784162181921 
-0.250000000000000  2.00000000000000  0.0301749711306966 
-0.250000000000000  2.12500000000000  0.0188674818727317 
-0.250000000000000  2.25000000000000  0.0116333370357289 
-0.250000000000000  2.37500000000000  0.00710529134477620 
-0.250000000000000  2.50000000000000  0.00431454780867781 

-0.125000000000000 -2.50000000000000  0.00270318552988704 
-0.125000000000000 -2.37500000000000  0.00477093613197130 
-0.125000000000000 -2.25000000000000  0.00835975359435107 
-0.125000000000000 -2.12500000000000  0.0144192943590688 
-0.125000000000000 -2.00000000000000  0.0243169093852969 
-0.125000000000000 -1.87500000000000  0.0399057524219699 
-0.125000000000000 -1.75000000000000  0.0635406139617997 
-0.125000000000000 -1.62500000000000  0.0980061194376578 
-0.125000000000000 -1.50000000000000  0.146323371559880 
-0.125000000000000 -1.37500000000000  0.211412687913439 
-0.125000000000000 -1.25000000000000  0.295614139026647 
-0.125000000000000 -1.12500000000000  0.400103650764762 
-0.125000000000000 -1.00000000000000  0.524285276643224 
-0.125000000000000 -0.875000000000000  0.665279095669181 
-0.125000000000000 -0.750000000000000  0.817644421015627 
-0.125000000000000 -0.625000000000000  0.973465778314260 
-0.125000000000000 -0.500000000000000  1.12287763425147 
-0.125000000000000 -0.375000000000000  1.25501840015059 
-0.125000000000000 -0.250000000000000  1.35930310518797 
-0.125000000000000 -0.125000000000000  1.42681435809370 
-0.125000000000000  0.00000000000000  1.45156020718213 
-0.125000000000000  0.125000000000000  1.43135378183680 
-0.125000000000000  0.250000000000000  1.36813603448841 
-0.125000000000000  0.375000000000000  1.26767497401717 
-0.125000000000000  0.500000000000000  1.13870435163521 
-0.125000000000000  0.625000000000000  0.991678244724495 
-0.125000000000000  0.750000000000000  0.837386379957841 
-0.125000000000000  0.875000000000000  0.685682680984297 
-0.125000000000000  1.00000000000000  0.544528658731316 
-0.125000000000000  1.12500000000000  0.419462663032907 
-0.125000000000000  1.25000000000000  0.313504030110039 
-0.125000000000000  1.37500000000000  0.227415731136948 
-0.125000000000000  1.50000000000000  0.160198784934651 
-0.125000000000000  1.62500000000000  0.109681099469778 
-0.125000000000000  1.75000000000000  0.0730847295799346 
-0.125000000000000  1.87500000000000  0.0474942083893928 
-0.125000000000000  2.00000000000000  0.0301900047037728 
-0.125000000000000  2.12500000000000  0.0188451659662819 
-0.125000000000000  2.25000000000000  0.0116054340961258 
-0.125000000000000  2.37500000000000  0.00708365126669480 
-0.125000000000000  2.50000000000000  0.00430072406958445 

 0.00000000000000 -2.50000000000000  0.00261932555465508 
 0.00000000000000 -2.37500000000000  0.00462872927406502 
 0.00000000000000 -2.25000000000000  0.00813017104833764 
 0.00000000000000 -2.12500000000000  0.0140679151102266 
 0.00000000000000 -2.00000000000000  0.0238062403275274 
 0.00000000000000 -1.87500000000000  0.0391982917949425 
 0.00000000000000 -1.75000000000000  0.0626024700527661 
 0.00000000000000 -1.62500000000000  0.0968109493280945 
 0.00000000000000 -1.50000000000000  0.144856362446352 
 0.00000000000000 -1.37500000000000  0.209674257593831 
 0.00000000000000 -1.25000000000000  0.293622911727554 
 0.00000000000000 -1.12500000000000  0.397898037138056 
 0.00000000000000 -1.00000000000000  0.521922748772477 
 0.00000000000000 -0.875000000000000  0.662832226456839 
 0.00000000000000 -0.750000000000000  0.815193194981815 
 0.00000000000000 -0.625000000000000  0.971086653897914 
 0.00000000000000 -0.500000000000000  1.12063112288036 
 0.00000000000000 -0.375000000000000  1.25293802462781 
 0.00000000000000 -0.250000000000000  1.35738893471238 
 0.00000000000000 -0.125000000000000  1.42503353420405 
 0.00000000000000  0.00000000000000  1.44985506802248 
 0.00000000000000  0.125000000000000  1.42965593251456 
 0.00000000000000  0.250000000000000  1.36638283454342 
 0.00000000000000  0.375000000000000  1.26582415575931 
 0.00000000000000  0.500000000000000  1.13674314583961 
 0.00000000000000  0.625000000000000  0.989625197631473 
 0.00000000000000  0.750000000000000  0.835286276335420 
 0.00000000000000  0.875000000000000  0.683596806623903 
 0.00000000000000  1.00000000000000  0.542523458152995 
 0.00000000000000  1.12500000000000  0.417599563109859 
 0.00000000000000  1.25000000000000  0.311832150851091 
 0.00000000000000  1.37500000000000  0.225967962855137 
 0.00000000000000  1.50000000000000  0.158990779683747 
 0.00000000000000  1.62500000000000  0.108712328802150 
 0.00000000000000  1.75000000000000  0.0723408198330462 
 0.00000000000000  1.87500000000000  0.0469500286018630 
 0.00000000000000  2.00000000000000  0.0298132160410466 
 0.00000000000000  2.12500000000000  0.0186000347713880 
 0.00000000000000  2.25000000000000  0.0114566616646301 
 0.00000000000000  2.37500000000000  0.00699981925607290 
 0.00000000000000  2.50000000000000  0.00425678206903765 

 0.125000000000000 -2.50000000000000  0.00255200455801618 
 0.125000000000000 -2.37500000000000  0.00449105013001694 
 0.125000000000000 -2.25000000000000  0.00787301208587101 
 0.125000000000000 -2.12500000000000  0.0136212213411945 
 0.125000000000000 -2.00000000000000  0.0230737220981849 
 0.125000000000000 -1.87500000000000  0.0380514291548657 
 0.125000000000000 -1.75000000000000  0.0608745948645894 
 0.125000000000000 -1.62500000000000  0.0942926376652928 
 0.125000000000000 -1.50000000000000  0.141293808870585 
 0.125000000000000 -1.37500000000000  0.204772668120311 
 0.125000000000000 -1.25000000000000  0.287057044053709 
 0.125000000000000 -1.12500000000000  0.389331575776469 
 0.125000000000000 -1.00000000000000  0.511037038446810 
 0.125000000000000 -0.875000000000000  0.649363011342382 
 0.125000000000000 -0.750000000000000  0.798971722986241 
 0.125000000000000 -0.625000000000000  0.952079368074678 
 0.125000000000000 -0.500000000000000  1.09897085999837 
 0.125000000000000 -0.375000000000000  1.22893975200974 
 0.125000000000000 -0.250000000000000  1.33154483212624 
 0.125000000000000 -0.125000000000000  1.39798546342282 
 0.125000000000000  0.00000000000000  1.42234652385961 
 0.125000000000000  0.125000000000000  1.40246950991749 
 0.125000000000000  0.250000000000000  1.34027212320515 
 0.125000000000000  0.375000000000000  1.24145007393557 
 0.125000000000000  0.500000000000000  1.11462377891177 
 0.125000000000000  0.625000000000000  0.970105463698009 
 0.125000000000000  0.750000000000000  0.818529895604983 
 0.125000000000000  0.875000000000000  0.669599042481617 
 0.125000000000000  1.00000000000000  0.531139839834292 
 0.125000000000000  1.12500000000000  0.408583932010124 
 0.125000000000000  1.25000000000000  0.304877105864661 
 0.125000000000000  1.37500000000000  0.220741890201170 
 0.125000000000000  1.50000000000000  0.155167608373382 
 0.125000000000000  1.62500000000000  0.105992324891548 
 0.125000000000000  1.75000000000000  0.0704625963858461 
 0.125000000000000  1.87500000000000  0.0456952095518758 
 0.125000000000000  2.00000000000000  0.0290058020766954 
 0.125000000000000  2.12500000000000  0.0181025935983306 
 0.125000000000000  2.25000000000000  0.0111651561254509 
 0.125000000000000  2.37500000000000  0.00683829821185419 
 0.125000000000000  2.50000000000000  0.00417241323406209 

 0.250000000000000 -2.50000000000000  0.00248666417586594 
 0.250000000000000 -2.37500000000000  0.00433941113697325 
 0.250000000000000 -2.25000000000000  0.00756663140924412 
 0.250000000000000 -2.12500000000000  0.0130557384122114 
 0.250000000000000 -2.00000000000000  0.0220956839227717 
 0.250000000000000 -1.87500000000000  0.0364428591792724 
 0.250000000000000 -1.75000000000000  0.0583371110632644 
 0.250000000000000 -1.62500000000000  0.0904339277854892 
 0.250000000000000 -1.50000000000000  0.135620218183009 
 0.250000000000000 -1.37500000000000  0.196692418115307 
 0.250000000000000 -1.25000000000000  0.275898827732287 
 0.250000000000000 -1.12500000000000  0.374382492302898 
 0.250000000000000 -1.00000000000000  0.491601607128378 
 0.250000000000000 -0.875000000000000  0.624841202322744 
 0.250000000000000 -0.750000000000000  0.768948962286047 
 0.250000000000000 -0.625000000000000  0.916416372848156 
 0.250000000000000 -0.500000000000000  1.05787747906379 
 0.250000000000000 -0.375000000000000  1.18301630154299 
 0.250000000000000 -0.250000000000000  1.28177772418056 
 0.250000000000000 -0.125000000000000  1.34569112935874 
 0.250000000000000  0.00000000000000  1.36906736722081 
 0.250000000000000  0.125000000000000  1.34983552871639 
 0.250000000000000  0.250000000000000  1.28984926978177 
 0.250000000000000  0.375000000000000  1.19459928768754 
 0.250000000000000  0.500000000000000  1.07239212504030 
 0.250000000000000  0.625000000000000  0.933163686594782 
 0.250000000000000  0.750000000000000  0.787160987390694 
 0.250000000000000  0.875000000000000  0.643732762848146 
 0.250000000000000  1.00000000000000  0.510420851982013 
 0.250000000000000  1.12500000000000  0.392457714180255 
 0.250000000000000  1.25000000000000  0.292678172315447 
 0.250000000000000  1.37500000000000  0.211772154680617 
 0.250000000000000  1.50000000000000  0.148757448974352 
 0.250000000000000  1.62500000000000  0.101541616829670 
 0.250000000000000  1.75000000000000  0.0674626969766997 
 0.250000000000000  1.87500000000000  0.0437352318875333 
 0.250000000000000  2.00000000000000  0.0277675909347701 
 0.250000000000000  2.12500000000000  0.0173489305434200 
 0.250000000000000  2.25000000000000  0.0107251758045889 
 0.250000000000000  2.37500000000000  0.00659307698807516 
 0.250000000000000  2.50000000000000  0.00404235167886131 

 0.375000000000000 -2.50000000000000  0.00241319450915676 
 0.375000000000000 -2.37500000000000  0.00416238901627134 
 0.375000000000000 -2.25000000000000  0.00719951889161715 
 0.375000000000000 -2.12500000000000  0.0123618421387158 
 0.375000000000000 -2.00000000000000  0.0208671558244955 
 0.375000000000000 -1.87500000000000  0.0343757982452648 
 0.375000000000000 -1.75000000000000  0.0550056394520858 
 0.375000000000000 -1.62500000000000  0.0852677022502148 
 0.375000000000000 -1.50000000000000  0.127891327424096 
 0.375000000000000 -1.37500000000000  0.185518759396867 
 0.375000000000000 -1.25000000000000  0.260271313445122 
 0.375000000000000 -1.12500000000000  0.353222132189829 
 0.375000000000000 -1.00000000000000  0.463849047825010 
 0.375000000000000 -0.875000000000000  0.589575500879423 
 0.375000000000000 -0.750000000000000  0.725524823740239 
 0.375000000000000 -0.625000000000000  0.864601355138801 
 0.375000000000000 -0.500000000000000  0.997965069063952 
 0.375000000000000 -0.375000000000000  1.11588968370605 
 0.375000000000000 -0.250000000000000  1.20890404845811 
 0.375000000000000 -0.125000000000000  1.26903703835970 
 0.375000000000000  0.00000000000000  1.29094140752530 
 0.375000000000000  0.125000000000000  1.27267824664728 
 0.375000000000000  0.250000000000000  1.21600319023004 
 0.375000000000000  0.375000000000000  1.12609536477207 
 0.375000000000000  0.500000000000000  1.01078537788972 
 0.375000000000000  0.625000000000000  0.879439753252511 
 0.375000000000000  0.750000000000000  0.741720412324568 
 0.375000000000000  0.875000000000000  0.606445047024694 
 0.375000000000000  1.00000000000000  0.480729249896097 
 0.375000000000000  1.12500000000000  0.369510532165832 
 0.375000000000000  1.25000000000000  0.275463022435496 
 0.375000000000000  1.37500000000000  0.199234733441799 
 0.375000000000000  1.50000000000000  0.139893628948656 
 0.375000000000000  1.62500000000000  0.0954587764487203 
 0.375000000000000  1.75000000000000  0.0634118313970553 
 0.375000000000000  1.87500000000000  0.0411189503421321 
 0.375000000000000  2.00000000000000  0.0261307591528903 
 0.375000000000000  2.12500000000000  0.0163589219728238 
 0.375000000000000  2.25000000000000  0.0101479128483638 
 0.375000000000000  2.37500000000000  0.00626956676184185 
 0.375000000000000  2.50000000000000  0.00386847173490440 

 0.500000000000000 -2.50000000000000  0.00232182677144826 
 0.500000000000000 -2.37500000000000  0.00394685288079343 
 0.500000000000000 -2.25000000000000  0.00675419212686021 
 0.500000000000000 -2.12500000000000  0.0115170888927286 
 0.500000000000000 -2.00000000000000  0.0193611003496737 
 0.500000000000000 -1.87500000000000  0.0318206254932512 
 0.500000000000000 -1.75000000000000  0.0508523797958263 
 0.500000000000000 -1.62500000000000  0.0787756444184890 
 0.500000000000000 -1.50000000000000  0.118110200273659 
 0.500000000000000 -1.37500000000000  0.171293259241590 
 0.500000000000000 -1.25000000000000  0.240277691806026 
 0.500000000000000 -1.12500000000000  0.326044548884370 
 0.500000000000000 -1.00000000000000  0.428098562201700 
 0.500000000000000 -0.875000000000000  0.544046818288997 
 0.500000000000000 -0.750000000000000  0.669376120969309 
 0.500000000000000 -0.625000000000000  0.797532730024128 
 0.500000000000000 -0.500000000000000  0.920364312042044 
 0.500000000000000 -0.375000000000000  1.02891309678457 
 0.500000000000000 -0.250000000000000  1.11446678022405 
 0.500000000000000 -0.125000000000000  1.16970162418487 
 0.500000000000000  0.00000000000000  1.18971223880278 
 0.500000000000000  0.125000000000000  1.17272898898061 
 0.500000000000000  0.250000000000000  1.12037860450774 
 0.500000000000000  0.375000000000000  1.03743452027008 
 0.500000000000000  0.500000000000000  0.931108309414165 
 0.500000000000000  0.625000000000000  0.810025648455392 
 0.500000000000000  0.750000000000000  0.683086383772246 
 0.500000000000000  0.875000000000000  0.558415569095950 
 0.500000000000000  1.00000000000000  0.442572016850167 
 0.500000000000000  1.12500000000000  0.340107518350955 
 0.500000000000000  1.25000000000000  0.253486142217252 
 0.500000000000000  1.37500000000000  0.183301868712948 
 0.500000000000000  1.50000000000000  0.128690019406626 
 0.500000000000000  1.62500000000000  0.0878180537587571 
 0.500000000000000  1.75000000000000  0.0583584247107683 
 0.500000000000000  1.87500000000000  0.0378784254734209 
 0.500000000000000  2.00000000000000  0.0241169841071030 
 0.500000000000000  2.12500000000000  0.0151473238560855 
 0.500000000000000  2.25000000000000  0.00944309638579379 
 0.500000000000000  2.37500000000000  0.00587361488275377 
 0.500000000000000  2.50000000000000  0.00365367759863092 

 0.625000000000000 -2.50000000000000  0.00219836494256703 
 0.625000000000000 -2.37500000000000  0.00367051801071990 
 0.625000000000000 -2.25000000000000  0.00619651772324809 
 0.625000000000000 -2.12500000000000  0.0104720895086705 
 0.625000000000000 -2.00000000000000  0.0175112467258185 
 0.625000000000000 -1.87500000000000  0.0286959860276712 
 0.625000000000000 -1.75000000000000  0.0457879838900376 
 0.625000000000000 -1.62500000000000  0.0708748528103560 
 0.625000000000000 -1.50000000000000  0.106224195352730 
 0.625000000000000 -1.37500000000000  0.154028309386349 
 0.625000000000000 -1.25000000000000  0.216041690818676 
 0.625000000000000 -1.12500000000000  0.293141506811751 
 0.625000000000000 -1.00000000000000  0.384873564652003 
 0.625000000000000 -0.875000000000000  0.489074554068298 
 0.625000000000000 -0.750000000000000  0.601674615988982 
 0.625000000000000 -0.625000000000000  0.716772884727640 
 0.625000000000000 -0.500000000000000  0.827038528451922 
 0.625000000000000 -0.375000000000000  0.924425893737013 
 0.625000000000000 -0.250000000000000  1.00111868617465 
 0.625000000000000 -0.125000000000000  1.05055431939859 
 0.625000000000000  0.00000000000000  1.06834476661165 
 0.625000000000000  0.125000000000000  1.05291674742036 
 0.625000000000000  0.250000000000000  1.00574309790886 
 0.625000000000000  0.375000000000000  0.931118061668758 
 0.625000000000000  0.500000000000000  0.835522285268568 
 0.625000000000000  0.625000000000000  0.726705152401123 
 0.625000000000000  0.750000000000000  0.612662349599913 
 0.625000000000000  0.875000000000000  0.500693684946898 
 0.625000000000000  1.00000000000000  0.396690897306883 
 0.625000000000000  1.12500000000000  0.304740041742882 
 0.625000000000000  1.25000000000000  0.227048006629150 
 0.625000000000000  1.37500000000000  0.164138374002456 
 0.625000000000000  1.50000000000000  0.115222631599257 
 0.625000000000000  1.62500000000000  0.0786432249852920 
 0.625000000000000  1.75000000000000  0.0523001303345775 
 0.625000000000000  1.87500000000000  0.0340019007395720 
 0.625000000000000  2.00000000000000  0.0217141940060765 
 0.625000000000000  2.12500000000000  0.0137053427299484 
 0.625000000000000  2.25000000000000  0.00860545895363114 
 0.625000000000000  2.37500000000000  0.00540229290455744 
 0.625000000000000  2.50000000000000  0.00339611437098051 

 0.750000000000000 -2.50000000000000  0.00202810954173762 
 0.750000000000000 -2.37500000000000  0.00331003826308795 
 0.750000000000000 -2.25000000000000  0.00549095841588510 
 0.750000000000000 -2.12500000000000  0.00917723943359738 
 0.750000000000000 -2.00000000000000  0.0152562752520016 
 0.750000000000000 -1.87500000000000  0.0249381269189163 
 0.750000000000000 -1.75000000000000  0.0397653462269389 
 0.750000000000000 -1.62500000000000  0.0615666869110425 
 0.750000000000000 -1.50000000000000  0.0923302201981446 
 0.750000000000000 -1.37500000000000  0.133980068549107 
 0.750000000000000 -1.25000000000000  0.188058334299612 
 0.750000000000000 -1.12500000000000  0.255338814031059 
 0.750000000000000 -1.00000000000000  0.335427830820348 
 0.750000000000000 -0.875000000000000  0.426432449641253 
 0.750000000000000 -0.750000000000000  0.524787801981465 
 0.750000000000000 -0.625000000000000  0.625324758014661 
 0.750000000000000 -0.500000000000000  0.721623430936653 
 0.750000000000000 -0.375000000000000  0.806641599907569 
 0.750000000000000 -0.250000000000000  0.873542630868667 
 0.750000000000000 -0.125000000000000  0.916592064874972 
 0.750000000000000  0.00000000000000  0.931962250712759 
 0.750000000000000  0.125000000000000  0.918290630660780 
 0.750000000000000  0.250000000000000  0.876880328570968 
 0.750000000000000  0.375000000000000  0.811502177799018 
 0.750000000000000  0.500000000000000  0.727838225891784 
 0.750000000000000  0.625000000000000  0.632677980668266 
 0.750000000000000  0.750000000000000  0.533022634196999 
 0.750000000000000  0.875000000000000  0.435259129546042 
 0.750000000000000  1.00000000000000  0.344535590810245 
 0.750000000000000  1.12500000000000  0.264412931924483 
 0.750000000000000  1.25000000000000  0.196801643844337 
 0.750000000000000  1.37500000000000  0.142135865994992 
 0.750000000000000  1.50000000000000  0.0997018296397585 
 0.750000000000000  1.62500000000000  0.0680289846324379 
 0.750000000000000  1.75000000000000  0.0452654872486102 
 0.750000000000000  1.87500000000000  0.0294859075826091 
 0.750000000000000  2.00000000000000  0.0189078596234634 
 0.750000000000000  2.12500000000000  0.0120181263910205 
 0.750000000000000  2.25000000000000  0.00762368468206602 
 0.750000000000000  2.37500000000000  0.00484798975397547 
 0.750000000000000  2.50000000000000  0.00309080488637195 

 0.875000000000000 -2.50000000000000  0.00180587193652917 
 0.875000000000000 -2.37500000000000  0.00285908686534065 
 0.875000000000000 -2.25000000000000  0.00463100649112616 
 0.875000000000000 -2.12500000000000  0.00763130019361581 
 0.875000000000000 -2.00000000000000  0.0126142533157769 
 0.875000000000000 -1.87500000000000  0.0206105554449401 
 0.875000000000000 -1.75000000000000  0.0329347537638546 
 0.875000000000000 -1.62500000000000  0.0511476038906700 
 0.875000000000000 -1.50000000000000  0.0769502657520639 
 0.875000000000000 -1.37500000000000  0.111995321218224 
 0.875000000000000 -1.25000000000000  0.157615221664505 
 0.875000000000000 -1.12500000000000  0.214490731139321 
 0.875000000000000 -1.00000000000000  0.282307038026445 
 0.875000000000000 -0.875000000000000  0.359466972183122 
 0.875000000000000 -0.750000000000000  0.442940744243431 
 0.875000000000000 -0.625000000000000  0.528322469116295 
 0.875000000000000 -0.500000000000000  0.610132676823733 
 0.875000000000000 -0.375000000000000  0.682357210237484 
 0.875000000000000 -0.250000000000000  0.739157320150401 
 0.875000000000000 -0.125000000000000  0.775638260287501 
 0.875000000000000  0.00000000000000  0.788538385497927 
 0.875000000000000  0.125000000000000  0.776706433919832 
 0.875000000000000  0.250000000000000  0.741271819770115 
 0.875000000000000  0.375000000000000  0.685473251007351 
 0.875000000000000  0.500000000000000  0.614180238768662 
 0.875000000000000  0.625000000000000  0.533202996537146 
 0.875000000000000  0.750000000000000  0.448523895226558 
 0.875000000000000  0.875000000000000  0.365589431196616 
 0.875000000000000  1.00000000000000  0.288775791274262 
 0.875000000000000  1.12500000000000  0.221092481083540 
 0.875000000000000  1.25000000000000  0.164131785847720 
 0.875000000000000  1.37500000000000  0.118222561794837 
 0.875000000000000  1.50000000000000  0.0827163394809965 
 0.875000000000000  1.62500000000000  0.0563259892082392 
 0.875000000000000  1.75000000000000  0.0374489250544125 
 0.875000000000000  1.87500000000000  0.0244299918035214 
 0.875000000000000  2.00000000000000  0.0157448663825473 
 0.875000000000000  2.12500000000000  0.0101060235738689 
 0.875000000000000  2.25000000000000  0.00650576726925396 
 0.875000000000000  2.37500000000000  0.00421312910533734 
 0.875000000000000  2.50000000000000  0.00273771405112550 

 1.00000000000000 -2.50000000000000  0.00154325188853340 
 1.00000000000000 -2.37500000000000  0.00234114871870349 
 1.00000000000000 -2.25000000000000  0.00365947900875704 
 1.00000000000000 -2.12500000000000  0.00591167749925309 
 1.00000000000000 -2.00000000000000  0.00972682430487880 
 1.00000000000000 -1.87500000000000  0.0159666275969586 
 1.00000000000000 -1.75000000000000  0.0257279277333357 
 1.00000000000000 -1.62500000000000  0.0403145895454597 
 1.00000000000000 -1.50000000000000  0.0611538881921631 
 1.00000000000000 -1.37500000000000  0.0896416720896789 
 1.00000000000000 -1.25000000000000  0.126915917498505 
 1.00000000000000 -1.12500000000000  0.173577464578662 
 1.00000000000000 -1.00000000000000  0.229398264134729 
 1.00000000000000 -0.875000000000000  0.293076236384975 
 1.00000000000000 -0.750000000000000  0.362104585799866 
 1.00000000000000 -0.625000000000000  0.432815762750671 
 1.00000000000000 -0.500000000000000  0.500633836794900 
 1.00000000000000 -0.375000000000000  0.560527448378836 
 1.00000000000000 -0.250000000000000  0.607608148521152 
 1.00000000000000 -0.125000000000000  0.637778532763982 
 1.00000000000000  0.00000000000000  0.648313154873250 
 1.00000000000000  0.125000000000000  0.638260175004155 
 1.00000000000000  0.250000000000000  0.608583378750586 
 1.00000000000000  0.375000000000000  0.562015589358290 
 1.00000000000000  0.500000000000000  0.502653148543446 
 1.00000000000000  0.625000000000000  0.435372586894582 
 1.00000000000000  0.750000000000000  0.365182273153607 
 1.00000000000000  0.875000000000000  0.296626538600272 
 1.00000000000000  1.00000000000000  0.233337755920753 
 1.00000000000000  1.12500000000000  0.177790628197517 
 1.00000000000000  1.25000000000000  0.131264844725763 
 1.00000000000000  1.37500000000000  0.0939803700325882 
 1.00000000000000  1.50000000000000  0.0653436061963721 
 1.00000000000000  1.62500000000000  0.0442360784929826 
 1.00000000000000  1.75000000000000  0.0292874994314769 
 1.00000000000000  1.87500000000000  0.0190954201548372 
 1.00000000000000  2.00000000000000  0.0123766807587372 
 1.00000000000000  2.12500000000000  0.00805508859478086 
 1.00000000000000  2.25000000000000  0.00529941377313735 
 1.00000000000000  2.37500000000000  0.00352289925278887 
 1.00000000000000  2.50000000000000  0.00234918144014262 

 1.12500000000000 -2.50000000000000  0.00126784820341652 
 1.12500000000000 -2.37500000000000  0.00180858443947814 
 1.12500000000000 -2.25000000000000  0.00266539413484654 
 1.12500000000000 -2.12500000000000  0.00416520418830624 
 1.12500000000000 -2.00000000000000  0.00684172842252211 
 1.12500000000000 -1.87500000000000  0.0114207562388542 
 1.12500000000000 -1.75000000000000  0.0188084097973517 
 1.12500000000000 -1.62500000000000  0.0300767523174996 
 1.12500000000000 -1.50000000000000  0.0464050673328770 
 1.12500000000000 -1.37500000000000  0.0689570392973508 
 1.12500000000000 -1.25000000000000  0.0986947034322222 
 1.12500000000000 -1.12500000000000  0.136145915573243 
 1.12500000000000 -1.00000000000000  0.181159424440681 
 1.12500000000000 -0.875000000000000  0.232697305725366 
 1.12500000000000 -0.750000000000000  0.288722041825692 
 1.12500000000000 -0.625000000000000  0.346229260424888 
 1.12500000000000 -0.500000000000000  0.401454980404351 
 1.12500000000000 -0.375000000000000  0.450251183627095 
 1.12500000000000 -0.250000000000000  0.488583601856767 
 1.12500000000000 -0.125000000000000  0.513071543471024 
 1.12500000000000  0.00000000000000  0.521471569105948 
 1.12500000000000  0.125000000000000  0.513011113615327 
 1.12500000000000  0.250000000000000  0.488504960622773 
 1.12500000000000  0.375000000000000  0.450230784634868 
 1.12500000000000  0.500000000000000  0.401589193786661 
 1.12500000000000  0.625000000000000  0.346616621920858 
 1.12500000000000  0.750000000000000  0.289445566377063 
 1.12500000000000  0.875000000000000  0.233810208504950 
 1.12500000000000  1.00000000000000  0.182676763303090 
 1.12500000000000  1.12500000000000  0.138043339718224 
 1.12500000000000  1.25000000000000  0.100913901775285 
 1.12500000000000  1.37500000000000  0.0714159145603717 
 1.12500000000000  1.50000000000000  0.0490094244860346 
 1.12500000000000  1.62500000000000  0.0327296658549889 
 1.12500000000000  1.75000000000000  0.0214137679626688 
 1.12500000000000  1.87500000000000  0.0138797517709920 
 1.12500000000000  2.00000000000000  0.00904773755005651 
 1.12500000000000  2.12500000000000  0.00601370004538089 
 1.12500000000000  2.25000000000000  0.00409223285305908 
 1.12500000000000  2.37500000000000  0.00282625214151441 
 1.12500000000000  2.50000000000000  0.00195086395494801 

 1.25000000000000 -2.50000000000000  0.00101481004836302 
 1.25000000000000 -2.37500000000000  0.00133001612033200 
 1.25000000000000 -2.25000000000000  0.00176319964017552 
 1.25000000000000 -2.12500000000000  0.00256679512521436 
 1.25000000000000 -2.00000000000000  0.00424554809543841 
 1.25000000000000 -1.87500000000000  0.00744775080089523 
 1.25000000000000 -1.75000000000000  0.0129097823822562 
 1.25000000000000 -1.62500000000000  0.0214899572658055 
 1.25000000000000 -1.50000000000000  0.0341444965581978 
 1.25000000000000 -1.37500000000000  0.0518291291684957 
 1.25000000000000 -1.25000000000000  0.0753443877126136 
 1.25000000000000 -1.12500000000000  0.105142288214385 
 1.25000000000000 -1.00000000000000  0.141122596772503 
 1.25000000000000 -0.875000000000000  0.182459648977191 
 1.25000000000000 -0.750000000000000  0.227507145987248 
 1.25000000000000 -0.625000000000000  0.273823278229127 
 1.25000000000000 -0.500000000000000  0.318340167953059 
 1.25000000000000 -0.375000000000000  0.357672539748402 
 1.25000000000000 -0.250000000000000  0.388527380538526 
 1.25000000000000 -0.125000000000000  0.408148113176444 
 1.25000000000000  0.00000000000000  0.414711970104983 
 1.25000000000000  0.125000000000000  0.407603011454708 
 1.25000000000000  0.250000000000000  0.387505702045440 
 1.25000000000000  0.375000000000000  0.356300015887751 
 1.25000000000000  0.500000000000000  0.316779752121071 
 1.25000000000000  0.625000000000000  0.272250954162327 
 1.25000000000000  0.750000000000000  0.226088465533832 
 1.25000000000000  0.875000000000000  0.181331128113151 
 1.25000000000000  1.00000000000000  0.140380463791970 
 1.25000000000000  1.12500000000000  0.104839213077291 
 1.25000000000000  1.25000000000000  0.0754931938021404 
 1.25000000000000  1.37500000000000  0.0524112942942501 
 1.25000000000000  1.50000000000000  0.0351203815318769 
 1.25000000000000  1.62500000000000  0.0228067094461246 
 1.25000000000000  1.75000000000000  0.0145009970550098 
 1.25000000000000  1.87500000000000  0.00921692119063386 
 1.25000000000000  2.00000000000000  0.00603445662148402 
 1.25000000000000  2.12500000000000  0.00415830748623512 
 1.25000000000000  2.25000000000000  0.00299246630111939 
 1.25000000000000  2.37500000000000  0.00218468113794761 
 1.25000000000000  2.50000000000000  0.00157554262342604 

 1.37500000000000 -2.50000000000000  0.000813845106998154 
 1.37500000000000 -2.37500000000000  0.000971063613621336 
 1.37500000000000 -2.25000000000000  0.00107272206216876 
 1.37500000000000 -2.12500000000000  0.00127031006304800 
 1.37500000000000 -2.00000000000000  0.00218339761617000 
 1.37500000000000 -1.87500000000000  0.00446114866487088 
 1.37500000000000 -1.75000000000000  0.00860309250973958 
 1.37500000000000 -1.62500000000000  0.0152537809077638 
 1.37500000000000 -1.50000000000000  0.0251764490584529 
 1.37500000000000 -1.37500000000000  0.0391459981232855 
 1.37500000000000 -1.25000000000000  0.0578148315094799 
 1.37500000000000 -1.12500000000000  0.0815533870417040 
 1.37500000000000 -1.00000000000000  0.110284107319891 
 1.37500000000000 -0.875000000000000  0.143341133998177 
 1.37500000000000 -0.750000000000000  0.179393923482146 
 1.37500000000000 -0.625000000000000  0.216468862539792 
 1.37500000000000 -0.500000000000000  0.252087939185272 
 1.37500000000000 -0.375000000000000  0.283519867576079 
 1.37500000000000 -0.250000000000000  0.308112239240794 
 1.37500000000000 -0.125000000000000  0.323650559112188 
 1.37500000000000  0.00000000000000  0.328678278151846 
 1.37500000000000  0.125000000000000  0.322715309788387 
 1.37500000000000  0.250000000000000  0.306331015125280 
 1.37500000000000  0.375000000000000  0.281056983960028 
 1.37500000000000  0.500000000000000  0.249157797368979 
 1.37500000000000  0.625000000000000  0.213306096975155 
 1.37500000000000  0.750000000000000  0.176224914838696 
 1.37500000000000  0.875000000000000  0.140361840191736 
 1.37500000000000  1.00000000000000  0.107646844387030 
 1.37500000000000  1.12500000000000  0.0793628170459097 
 1.37500000000000  1.25000000000000  0.0561317197321801 
 1.37500000000000  1.37500000000000  0.0379965754779263 
 1.37500000000000  1.50000000000000  0.0245652858350526 
 1.37500000000000  1.62500000000000  0.0151781586148523 
 1.37500000000000  1.75000000000000  0.00906391271837383 
 1.37500000000000  1.87500000000000  0.00544775512453551 
 1.37500000000000  2.00000000000000  0.00356629202570128 
 1.37500000000000  2.12500000000000  0.00264981307502587 
 1.37500000000000  2.25000000000000  0.00210150896151193 
 1.37500000000000  2.37500000000000  0.00165454250658820 
 1.37500000000000  2.50000000000000  0.00125313623252400 

 1.50000000000000 -2.50000000000000  0.000676516492500132 
 1.50000000000000 -2.37500000000000  0.000765995048351547 
 1.50000000000000 -2.25000000000000  0.000709864396496274 
 1.50000000000000 -2.12500000000000  0.000418033340213000 
 1.50000000000000 -2.00000000000000  0.000832151977490352 
 1.50000000000000 -1.87500000000000  0.00268548558168467 
 1.50000000000000 -1.75000000000000  0.00598266094945827 
 1.50000000000000 -1.62500000000000  0.0112549360185642 
 1.50000000000000 -1.50000000000000  0.0191263051201972 
 1.50000000000000 -1.37500000000000  0.0302193764556624 
 1.50000000000000 -1.25000000000000  0.0450516653285294 
 1.50000000000000 -1.12500000000000  0.0639104102833492 
 1.50000000000000 -1.00000000000000  0.0867223037112563 
 1.50000000000000 -0.875000000000000  0.112944498162743 
 1.50000000000000 -0.750000000000000  0.141507151465500 
 1.50000000000000 -0.625000000000000  0.170833976528231 
 1.50000000000000 -0.500000000000000  0.198955084821848 
 1.50000000000000 -0.375000000000000  0.223707693696865 
 1.50000000000000 -0.250000000000000  0.242999308704833 
 1.50000000000000 -0.125000000000000  0.255090456490848 
 1.50000000000000  0.00000000000000  0.258845216701711 
 1.50000000000000  0.125000000000000  0.253900836201412 
 1.50000000000000  0.250000000000000  0.240722502179238 
 1.50000000000000  0.375000000000000  0.220532458159401 
 1.50000000000000  0.500000000000000  0.195128275952735 
 1.50000000000000  0.625000000000000  0.166626827009489 
 1.50000000000000  0.750000000000000  0.137183141481189 
 1.50000000000000  0.875000000000000  0.108734352931998 
 1.50000000000000  1.00000000000000  0.0828089381246368 
 1.50000000000000  1.12500000000000  0.0604238992278349 
 1.50000000000000  1.25000000000000  0.0420724594950505 
 1.50000000000000  1.37500000000000  0.0277874429872854 
 1.50000000000000  1.50000000000000  0.0172547740818666 
 1.50000000000000  1.62500000000000  0.00994971878879376 
 1.50000000000000  1.75000000000000  0.00527699774133362 
 1.50000000000000  1.87500000000000  0.00270830500446817 
 1.50000000000000  2.00000000000000  0.00177116171642635 
 1.50000000000000  2.12500000000000  0.00160857672746050 
 1.50000000000000  2.25000000000000  0.00148818302801420 
 1.50000000000000  2.37500000000000  0.00126945811728983 
 1.50000000000000  2.50000000000000  0.00100155251764570 

 1.62500000000000 -2.50000000000000  0.000593397259646488 
 1.62500000000000 -2.37500000000000  0.000688302169664815 
 1.62500000000000 -2.25000000000000  0.000674435135922596 
 1.62500000000000 -2.12500000000000  0.000467594681509353 
 1.62500000000000 -2.00000000000000  0.000569212920282187 
 1.62500000000000 -1.87500000000000  0.00193688664881761 
 1.62500000000000 -1.75000000000000  0.00448376002553006 
 1.62500000000000 -1.62500000000000  0.00858841375025175 
 1.62500000000000 -1.50000000000000  0.0147326199879334 
 1.62500000000000 -1.37500000000000  0.0233967479151080 
 1.62500000000000 -1.25000000000000  0.0349754751446077 
 1.62500000000000 -1.12500000000000  0.0496800343352583 
 1.62500000000000 -1.00000000000000  0.0674382366351388 
 1.62500000000000 -0.875000000000000  0.0878124262515524 
 1.62500000000000 -0.750000000000000  0.109958295534795 
 1.62500000000000 -0.625000000000000  0.132644213275607 
 1.62500000000000 -0.500000000000000  0.154341172321788 
 1.62500000000000 -0.375000000000000  0.173379166686654 
 1.62500000000000 -0.250000000000000  0.188150035863501 
 1.62500000000000 -0.125000000000000  0.197323785954492 
 1.62500000000000  0.00000000000000  0.200039020638584 
 1.62500000000000  0.125000000000000  0.196030702278033 
 1.62500000000000  0.250000000000000  0.185669888748531 
 1.62500000000000  0.375000000000000  0.169907710356432 
 1.62500000000000  0.500000000000000  0.150135246134570 
 1.62500000000000  0.625000000000000  0.127987267634732 
 1.62500000000000  0.750000000000000  0.105127174852497 
 1.62500000000000  0.875000000000000  0.0830510384521130 
 1.62500000000000  1.00000000000000  0.0629410736847318 
 1.62500000000000  1.12500000000000  0.0455857124054739 
 1.62500000000000  1.25000000000000  0.0313684311587640 
 1.62500000000000  1.37500000000000  0.0203143726815725 
 1.62500000000000  1.50000000000000  0.0121753870232369 
 1.62500000000000  1.62500000000000  0.00653200563933871 
 1.62500000000000  1.75000000000000  0.00289790509850437 
 1.62500000000000  1.87500000000000  0.000880858822758652 
 1.62500000000000  2.00000000000000  0.000758419513620878 
 1.62500000000000  2.12500000000000  0.00111161428664785 
 1.62500000000000  2.25000000000000  0.00116245857313565 
 1.62500000000000  2.37500000000000  0.00102899102755483 
 1.62500000000000  2.50000000000000  0.000822706776864250 

 1.75000000000000 -2.50000000000000  0.000546826618547521 
 1.75000000000000 -2.37500000000000  0.000677833224864598 
 1.75000000000000 -2.25000000000000  0.000768967045013465 
 1.75000000000000 -2.12500000000000  0.000804379909479670 
 1.75000000000000 -2.00000000000000  0.000951257938814943 
 1.75000000000000 -1.87500000000000  0.00172258372902841 
 1.75000000000000 -1.75000000000000  0.00348688527344689 
 1.75000000000000 -1.62500000000000  0.00649844643054148 
 1.75000000000000 -1.50000000000000  0.0110906790858928 
 1.75000000000000 -1.37500000000000  0.0176162959538037 
 1.75000000000000 -1.25000000000000  0.0263687577706479 
 1.75000000000000 -1.12500000000000  0.0375026250873972 
 1.75000000000000 -1.00000000000000  0.0509561482082115 
 1.75000000000000 -0.875000000000000  0.0663892989488949 
 1.75000000000000 -0.750000000000000  0.0831537282913364 
 1.75000000000000 -0.625000000000000  0.100308884352525 
 1.75000000000000 -0.500000000000000  0.116691413942977 
 1.75000000000000 -0.375000000000000  0.131034355525057 
 1.75000000000000 -0.250000000000000  0.142120943277014 
 1.75000000000000 -0.125000000000000  0.148948158375516 
 1.75000000000000  0.00000000000000  0.150870376845774 
 1.75000000000000  0.125000000000000  0.147695363653145 
 1.75000000000000  0.250000000000000  0.139713458243529 
 1.75000000000000  0.375000000000000  0.127654158071443 
 1.75000000000000  0.500000000000000  0.112579068330134 
 1.75000000000000  0.625000000000000  0.0957325763489226 
 1.75000000000000  0.750000000000000  0.0783786301851233 
 1.75000000000000  0.875000000000000  0.0616523006401687 
 1.75000000000000  1.00000000000000  0.0464489329689261 
 1.75000000000000  1.12500000000000  0.0333637226002617 
 1.75000000000000  1.25000000000000  0.0226833074997407 
 1.75000000000000  1.37500000000000  0.0144212091042128 
 1.75000000000000  1.50000000000000  0.00838274651419013 
 1.75000000000000  1.62500000000000  0.00424393695271668 
 1.75000000000000  1.75000000000000  0.00164016761109629 
 1.75000000000000  1.87500000000000  0.000477697413871019 
 1.75000000000000  2.00000000000000  0.000858587768343003 
 1.75000000000000  2.12500000000000  0.00108369040125176 
 1.75000000000000  2.25000000000000  0.00105749221603290 
 1.75000000000000  2.37500000000000  0.000902704925649523 
 1.75000000000000  2.50000000000000  0.000705871766623175 

 1.87500000000000 -2.50000000000000  0.000523999367718594 
 1.87500000000000 -2.37500000000000  0.000697401266686725 
 1.87500000000000 -2.25000000000000  0.000885386143725709 
 1.87500000000000 -2.12500000000000  0.00108865848698743 
 1.87500000000000 -2.00000000000000  0.00136819706620132 
 1.87500000000000 -1.87500000000000  0.00192616616608542 
 1.87500000000000 -1.75000000000000  0.00309084240578686 
 1.87500000000000 -1.62500000000000  0.00518485416557329 
 1.87500000000000 -1.50000000000000  0.00849722635504449 
 1.87500000000000 -1.37500000000000  0.0133007974149600 
 1.87500000000000 -1.25000000000000  0.0198218739415919 
 1.87500000000000 -1.12500000000000  0.0281832196353621 
 1.87500000000000 -1.00000000000000  0.0383434631526238 
 1.87500000000000 -0.875000000000000  0.0500476954413859 
 1.87500000000000 -0.750000000000000  0.0628026018540959 
 1.87500000000000 -0.625000000000000  0.0758872395081342 
 1.87500000000000 -0.500000000000000  0.0884052484754617 
 1.87500000000000 -0.375000000000000  0.0993762810893168 
 1.87500000000000 -0.250000000000000  0.107855372473965 
 1.87500000000000 -0.125000000000000  0.113061144302720 
 1.87500000000000  0.00000000000000  0.114489478599403 
 1.87500000000000  0.125000000000000  0.111990283618481 
 1.87500000000000  0.250000000000000  0.105791502347271 
 1.87500000000000  0.375000000000000  0.0964652149958983 
 1.87500000000000  0.500000000000000  0.0848428076866836 
 1.87500000000000  0.625000000000000  0.0718964602154157 
 1.87500000000000  0.750000000000000  0.0586099943208805 
 1.87500000000000  0.875000000000000  0.0458622443803198 
 1.87500000000000  1.00000000000000  0.0343411214488969 
 1.87500000000000  1.12500000000000  0.0244983428802204 
 1.87500000000000  1.25000000000000  0.0165459030789505 
 1.87500000000000  1.37500000000000  0.0104882098442950 
 1.87500000000000  1.50000000000000  0.00618056390479501 
 1.87500000000000  1.62500000000000  0.00340659806355626 
 1.87500000000000  1.75000000000000  0.00195198728690689 
 1.87500000000000  1.87500000000000  0.00148566420624759 
 1.87500000000000  2.00000000000000  0.00138436795421595 
 1.87500000000000  2.12500000000000  0.00126414378887243 
 1.87500000000000  2.25000000000000  0.00107309471962024 
 1.87500000000000  2.37500000000000  0.000850214944322099 
 1.87500000000000  2.50000000000000  0.000634927280872347 

 2.00000000000000 -2.50000000000000  0.000515927073396356 
 2.00000000000000 -2.37500000000000  0.000730879250773736 
 2.00000000000000 -2.25000000000000  0.00100509430967101 
 2.00000000000000 -2.12500000000000  0.00135440964525834 
 2.00000000000000 -2.00000000000000  0.00182030190980363 
 2.00000000000000 -1.87500000000000  0.00249981948367594 
 2.00000000000000 -1.75000000000000  0.00357042797433904 
 2.00000000000000 -1.62500000000000  0.00528001420206891 
 2.00000000000000 -1.50000000000000  0.00790454067291817 
 2.00000000000000 -1.37500000000000  0.0117054037408881 
 2.00000000000000 -1.25000000000000  0.0168932454924315 
 2.00000000000000 -1.12500000000000  0.0235873413276486 
 2.00000000000000 -1.00000000000000  0.0317704446559336 
 2.00000000000000 -0.875000000000000  0.0412490100337636 
 2.00000000000000 -0.750000000000000  0.0516311095197105 
 2.00000000000000 -0.625000000000000  0.0623325966915768 
 2.00000000000000 -0.500000000000000  0.0726175898672595 
 2.00000000000000 -0.375000000000000  0.0816726498466933 
 2.00000000000000 -0.250000000000000  0.0887061792982503 
 2.00000000000000 -0.125000000000000  0.0930573727790362 
 2.00000000000000  0.00000000000000  0.0942946371823430 
 2.00000000000000  0.125000000000000  0.0922835393545138 
 2.00000000000000  0.250000000000000  0.0872096160469096 
 2.00000000000000  0.375000000000000  0.0795507667547292 
 2.00000000000000  0.500000000000000  0.0700049439853131 
 2.00000000000000  0.625000000000000  0.0593883255768439 
 2.00000000000000  0.750000000000000  0.0485244837568241 
 2.00000000000000  0.875000000000000  0.0381450845177421 
 2.00000000000000  1.00000000000000  0.0288179135265191 
 2.00000000000000  1.12500000000000  0.0209103733744346 
 2.00000000000000  1.25000000000000  0.0145882617778559 
 2.00000000000000  1.37500000000000  0.00984221923973795 
 2.00000000000000  1.50000000000000  0.00652788907041041 
 2.00000000000000  1.62500000000000  0.00440106893340255 
 2.00000000000000  1.75000000000000  0.00313993527826021 
 2.00000000000000  1.87500000000000  0.00239428986508646 
 2.00000000000000  2.00000000000000  0.00188932309743048 
 2.00000000000000  2.12500000000000  0.00148397453322890 
 2.00000000000000  2.25000000000000  0.00113421389452561 
 2.00000000000000  2.37500000000000  0.000836003793106244 
 2.00000000000000  2.50000000000000  0.000592860727413399 

 2.12500000000000 -2.50000000000000  0.000511686067901163 
 2.12500000000000 -2.37500000000000  0.000761011515684774 
 2.12500000000000 -2.25000000000000  0.00110551139277834 
 2.12500000000000 -2.12500000000000  0.00157696562862266 
 2.12500000000000 -2.00000000000000  0.00222484005104104 
 2.12500000000000 -1.87500000000000  0.00312930250384287 
 2.12500000000000 -1.75000000000000  0.00441455223286895 
 2.12500000000000 -1.62500000000000  0.00625362165481910 
 2.12500000000000 -1.50000000000000  0.00885678856563085 
 2.12500000000000 -1.37500000000000  0.0124432858462723 
 2.12500000000000 -1.25000000000000  0.0172020232065327 
 2.12500000000000 -1.12500000000000  0.0232473756192204 
 2.12500000000000 -1.00000000000000  0.0305754335128700 
 2.12500000000000 -0.875000000000000  0.0390275493237737 
 2.12500000000000 -0.750000000000000  0.0482698067803618 
 2.12500000000000 -0.625000000000000  0.0577969109024752 
 2.12500000000000 -0.500000000000000  0.0669660960956756 
 2.12500000000000 -0.375000000000000  0.0750612108116487 
 2.12500000000000 -0.250000000000000  0.0813801790878837 
 2.12500000000000 -0.125000000000000  0.0853322770263749 
 2.12500000000000  0.00000000000000  0.0865271992602601 
 2.12500000000000  0.125000000000000  0.0848375531295590 
 2.12500000000000  0.250000000000000  0.0804209513939612 
 2.12500000000000  0.375000000000000  0.0736964180107839 
 2.12500000000000  0.500000000000000  0.0652800322553053 
 2.12500000000000  0.625000000000000  0.0558935953434006 
 2.12500000000000  0.750000000000000  0.0462650647208794 
 2.12500000000000  0.875000000000000  0.0370394258492840 
 2.12500000000000  1.00000000000000  0.0287141175442455 
 2.12500000000000  1.12500000000000  0.0216059304408378 
 2.12500000000000  1.25000000000000  0.0158487703686514 
 2.12500000000000  1.37500000000000  0.0114159189152193 
 2.12500000000000  1.50000000000000  0.00815804496384550 
 2.12500000000000  1.62500000000000  0.00584989141047519 
 2.12500000000000  1.75000000000000  0.00424167952005613 
 2.12500000000000  1.87500000000000  0.00310867054926469 
 2.12500000000000  2.00000000000000  0.00228408054242624 
 2.12500000000000  2.12500000000000  0.00166383728145746 
 2.12500000000000  2.25000000000000  0.00119007609623657 
 2.12500000000000  2.37500000000000  0.000830330982578094 
 2.12500000000000  2.50000000000000  0.000562974919964886 

 2.25000000000000 -2.50000000000000  0.000499318683298370 
 2.25000000000000 -2.37500000000000  0.000768300704940104 
 2.25000000000000 -2.25000000000000  0.00115582952685480 
 2.25000000000000 -2.12500000000000  0.00170516136925488 
 2.25000000000000 -2.00000000000000  0.00247533821821226 
 2.25000000000000 -1.87500000000000  0.00354758452535453 
 2.25000000000000 -1.75000000000000  0.00503131473238523 
 2.25000000000000 -1.62500000000000  0.00706595862003068 
 2.25000000000000 -1.50000000000000  0.00981417594553408 
 2.25000000000000 -1.37500000000000  0.0134436651656911 
 2.25000000000000 -1.25000000000000  0.0180979792000663 
 2.25000000000000 -1.12500000000000  0.0238599269758578 
 2.25000000000000 -1.00000000000000  0.0307134274509093 
 2.25000000000000 -0.875000000000000  0.0385111656568002 
 2.25000000000000 -0.750000000000000  0.0469560590405824 
 2.25000000000000 -0.625000000000000  0.0556038887862033 
 2.25000000000000 -0.500000000000000  0.0638919224870123 
 2.25000000000000 -0.375000000000000  0.0711938163558915 
 2.25000000000000 -0.250000000000000  0.0768951395692924 
 2.25000000000000 -0.125000000000000  0.0804779041311244 
 2.25000000000000  0.00000000000000  0.0815983991389901 
 2.25000000000000  0.125000000000000  0.0801421425110322 
 2.25000000000000  0.250000000000000  0.0762436397781050 
 2.25000000000000  0.375000000000000  0.0702661581236196 
 2.25000000000000  0.500000000000000  0.0627457774140405 
 2.25000000000000  0.625000000000000  0.0543118301613917 
 2.25000000000000  0.750000000000000  0.0456001949439677 
 2.25000000000000  0.875000000000000  0.0371757794686285 
 2.25000000000000  1.00000000000000  0.0294764997085443 
 2.25000000000000  1.12500000000000  0.0227848539388549 
 2.25000000000000  1.25000000000000  0.0172268708123821 
 2.25000000000000  1.37500000000000  0.0127934071752330 
 2.25000000000000  1.50000000000000  0.00937617950468216 
 2.25000000000000  1.62500000000000  0.00681017381103163 
 2.25000000000000  1.75000000000000  0.00491423607880844 
 2.25000000000000  1.87500000000000  0.00352239168020838 
 2.25000000000000  2.00000000000000  0.00250094910705505 
 2.25000000000000  2.12500000000000  0.00175141548100719 
 2.25000000000000  2.25000000000000  0.00120422476325761 
 2.25000000000000  2.37500000000000  0.000809753701206690 
 2.25000000000000  2.50000000000000  0.000530942245702643 

 2.37500000000000 -2.50000000000000  0.000470659957650152 
 2.37500000000000 -2.37500000000000  0.000740071849471936 
 2.37500000000000 -2.25000000000000  0.00113660549133126 
 2.37500000000000 -2.12500000000000  0.00170798280127358 
 2.37500000000000 -2.00000000000000  0.00251594972495075 
 2.37500000000000 -1.87500000000000  0.00363911224586643 
 2.37500000000000 -1.75000000000000  0.00517468809052285 
 2.37500000000000 -1.62500000000000  0.00723718352031960 
 2.37500000000000 -1.50000000000000  0.00995162814085886 
 2.37500000000000 -1.37500000000000  0.0134395727276540 
 2.37500000000000 -1.25000000000000  0.0177976344325269 
 2.37500000000000 -1.12500000000000  0.0230705210107114 
 2.37500000000000 -1.00000000000000  0.0292225700619976 
 2.37500000000000 -0.875000000000000  0.0361134261987499 
 2.37500000000000 -0.750000000000000  0.0434842199679729 
 2.37500000000000 -0.625000000000000  0.0509601870801904 
 2.37500000000000 -0.500000000000000  0.0580737510279210 
 2.37500000000000 -0.375000000000000  0.0643085624904905 
 2.37500000000000 -0.250000000000000  0.0691602275307480 
 2.37500000000000 -0.125000000000000  0.0722045313695715 
 2.37500000000000  0.00000000000000  0.0731604574547998 
 2.37500000000000  0.125000000000000  0.0719347393642436 
 2.37500000000000  0.250000000000000  0.0686377955457800 
 2.37500000000000  0.375000000000000  0.0635671115500808 
 2.37500000000000  0.500000000000000  0.0571616480519393 
 2.37500000000000  0.625000000000000  0.0499373120809372 
 2.37500000000000  0.750000000000000  0.0424169957531359 
 2.37500000000000  0.875000000000000  0.0350683967643229 
 2.37500000000000  1.00000000000000  0.0282593757911544 
 2.37500000000000  1.12500000000000  0.0222354866897878 
 2.37500000000000  1.25000000000000  0.0171192189091109 
 2.37500000000000  1.37500000000000  0.0129266261590295 
 2.37500000000000  1.50000000000000  0.00959485057370381 
 2.37500000000000  1.62500000000000  0.00701347489315914 
 2.37500000000000  1.75000000000000  0.00505334318783450 
 2.37500000000000  1.87500000000000  0.00358827634236593 
 2.37500000000000  2.00000000000000  0.00250773282590755 
 2.37500000000000  2.12500000000000  0.00172125955252954 
 2.37500000000000  2.25000000000000  0.00115748842537383 
 2.37500000000000  2.37500000000000  0.000760786780970319 
 2.37500000000000  2.50000000000000  0.000487762139090611 

 2.50000000000000 -2.50000000000000  0.000423915473436654 
 2.50000000000000 -2.37500000000000  0.000674926911339744 
 2.50000000000000 -2.25000000000000  0.00104786197314266 
 2.50000000000000 -2.12500000000000  0.00158821568198164 
 2.50000000000000 -2.00000000000000  0.00235273513913004 
 2.50000000000000 -1.87500000000000  0.00340999004782900 
 2.50000000000000 -1.75000000000000  0.00483960522696334 
 2.50000000000000 -1.62500000000000  0.00672915623711380 
 2.50000000000000 -1.50000000000000  0.00916764302222901 
 2.50000000000000 -1.37500000000000  0.0122347750785655 
 2.50000000000000 -1.25000000000000  0.0159860854756913 
 2.50000000000000 -1.12500000000000  0.0204350141691246 
 2.50000000000000 -1.00000000000000  0.0255343250546194 
 2.50000000000000 -0.875000000000000  0.0311603039421821 
 2.50000000000000 -0.750000000000000  0.0371038987522128 
 2.50000000000000 -0.625000000000000  0.0430730209918034 
 2.50000000000000 -0.500000000000000  0.0487092529648026 
 2.50000000000000 -0.375000000000000  0.0536198986042171 
 2.50000000000000 -0.250000000000000  0.0574227852324282 
 2.50000000000000 -0.125000000000000  0.0597972469151167 
 2.50000000000000  0.00000000000000  0.0605316560546407 
 2.50000000000000  0.125000000000000  0.0595571326986413 
 2.50000000000000  0.250000000000000  0.0569593930349091 
 2.50000000000000  0.375000000000000  0.0529656659708023 
 2.50000000000000  0.500000000000000  0.0479096562204373 
 2.50000000000000  0.625000000000000  0.0421826271380299 
 2.50000000000000  0.750000000000000  0.0361811892410485 
 2.50000000000000  0.875000000000000  0.0302617684867749 
 2.50000000000000  1.00000000000000  0.0247086493197209 
 2.50000000000000  1.12500000000000  0.0197183402650770 
 2.50000000000000  1.25000000000000  0.0153992138052531 
 2.50000000000000  1.37500000000000  0.0117828063997286 
 2.50000000000000  1.50000000000000  0.00884202755539974 
 2.50000000000000  1.62500000000000  0.00651157078138688 
 2.50000000000000  1.75000000000000  0.00470668056885623 
 2.50000000000000  1.87500000000000  0.00333779413541404 
 2.50000000000000  2.00000000000000  0.00232013383585180 
 2.50000000000000  2.12500000000000  0.00157869665021679 
 2.50000000000000  2.25000000000000  0.00104991514978509 
 2.50000000000000  2.37500000000000  0.000681420949251485 
 2.50000000000000  2.50000000000000  0.000431004788258594 

