 0.100000000000000  0.00710006045755467 
 0.190000000000000  0.00705821560311416 
 0.280000000000000  0.00699143608967133 
 0.370000000000000  0.00690113768535829 
 0.460000000000000  0.00678917088041466 
 0.550000000000000  0.00665772991357030 
 0.640000000000000  0.00650925196983893 
 0.730000000000000  0.00634631455894278 
 0.820000000000000  0.00617153819870452 
 0.910000000000000  0.00598749998540027 
 1.00000000000000  0.00579666176259911 
