-2.50000000000000 -2.50000000000000  0.0189948554282246 
-2.50000000000000 -2.37500000000000  0.0259084119853969 
-2.50000000000000 -2.25000000000000  0.0335019449613422 
-2.50000000000000 -2.12500000000000  0.0408230945375430 
-2.50000000000000 -2.00000000000000  0.0464591725394221 
-2.50000000000000 -1.87500000000000  0.0487496728206914 
-2.50000000000000 -1.75000000000000  0.0465310857288656 
-2.50000000000000 -1.62500000000000  0.0415800903364713 
-2.50000000000000 -1.50000000000000  0.0446941494659151 
-2.50000000000000 -1.37500000000000  0.0694544636773387 
-2.50000000000000 -1.25000000000000  0.112646246599969 
-2.50000000000000 -1.12500000000000  0.166502982706886 
-2.50000000000000 -1.00000000000000  0.224185478041157 
-2.50000000000000 -0.875000000000000  0.278664391104027 
-2.50000000000000 -0.750000000000000  0.322984690885365 
-2.50000000000000 -0.625000000000000  0.351354692401629 
-2.50000000000000 -0.500000000000000  0.360410631140370 
-2.50000000000000 -0.375000000000000  0.350208787625681 
-2.50000000000000 -0.250000000000000  0.324598563607507 
-2.50000000000000 -0.125000000000000  0.290714789985906 
-2.50000000000000  0.00000000000000  0.257303470565514 
-2.50000000000000  0.125000000000000  0.231595943153324 
-2.50000000000000  0.250000000000000  0.215662515622773 
-2.50000000000000  0.375000000000000  0.205671392698462 
-2.50000000000000  0.500000000000000  0.195564804275286 
-2.50000000000000  0.625000000000000  0.181097016071501 
-2.50000000000000  0.750000000000000  0.161151867510854 
-2.50000000000000  0.875000000000000  0.137175346926063 
-2.50000000000000  1.00000000000000  0.112134243933717 
-2.50000000000000  1.12500000000000  0.0895180003451010 
-2.50000000000000  1.25000000000000  0.0722661178454662 
-2.50000000000000  1.37500000000000  0.0613832943180092 
-2.50000000000000  1.50000000000000  0.0551441184325016 
-2.50000000000000  1.62500000000000  0.0505264568218896 
-2.50000000000000  1.75000000000000  0.0454070173766012 
-2.50000000000000  1.87500000000000  0.0391662542036871 
-2.50000000000000  2.00000000000000  0.0321587904161303 
-2.50000000000000  2.12500000000000  0.0250870862469745 
-2.50000000000000  2.25000000000000  0.0186033375380808 
-2.50000000000000  2.37500000000000  0.0131309784761165 
-2.50000000000000  2.50000000000000  0.00883537809173308 

-2.37500000000000 -2.50000000000000  0.0250304308271246 
-2.37500000000000 -2.37500000000000  0.0343585766315450 
-2.37500000000000 -2.25000000000000  0.0448814290568729 
-2.37500000000000 -2.12500000000000  0.0555951506181505 
-2.37500000000000 -2.00000000000000  0.0650353062598984 
-2.37500000000000 -1.87500000000000  0.0716075260723774 
-2.37500000000000 -1.75000000000000  0.0745159838012313 
-2.37500000000000 -1.62500000000000  0.0758696239355866 
-2.37500000000000 -1.50000000000000  0.0836452610265705 
-2.37500000000000 -1.37500000000000  0.108797822907821 
-2.37500000000000 -1.25000000000000  0.154138221298238 
-2.37500000000000 -1.12500000000000  0.214017050271352 
-2.37500000000000 -1.00000000000000  0.280242538561288 
-2.37500000000000 -0.875000000000000  0.344006938063833 
-2.37500000000000 -0.750000000000000  0.396723184044359 
-2.37500000000000 -0.625000000000000  0.431280286078610 
-2.37500000000000 -0.500000000000000  0.443481489092171 
-2.37500000000000 -0.375000000000000  0.433172222745226 
-2.37500000000000 -0.250000000000000  0.404621116541934 
-2.37500000000000 -0.125000000000000  0.365828228278415 
-2.37500000000000  0.00000000000000  0.326490333613208 
-2.37500000000000  0.125000000000000  0.294535535831118 
-2.37500000000000  0.250000000000000  0.272419829351120 
-2.37500000000000  0.375000000000000  0.256407701406308 
-2.37500000000000  0.500000000000000  0.240140111627872 
-2.37500000000000  0.625000000000000  0.218839459192520 
-2.37500000000000  0.750000000000000  0.191013539205446 
-2.37500000000000  0.875000000000000  0.158125680851067 
-2.37500000000000  1.00000000000000  0.123626312399042 
-2.37500000000000  1.12500000000000  0.0920597844211045 
-2.37500000000000  1.25000000000000  0.0682589563741397 
-2.37500000000000  1.37500000000000  0.0554502667449499 
-2.37500000000000  1.50000000000000  0.0515772913612582 
-2.37500000000000  1.62500000000000  0.0505145681846208 
-2.37500000000000  1.75000000000000  0.0480369768418001 
-2.37500000000000  1.87500000000000  0.0431033111672404 
-2.37500000000000  2.00000000000000  0.0363395354926526 
-2.37500000000000  2.12500000000000  0.0288571664811440 
-2.37500000000000  2.25000000000000  0.0216621202338606 
-2.37500000000000  2.37500000000000  0.0154235844277938 
-2.37500000000000  2.50000000000000  0.0104467870177065 

-2.25000000000000 -2.50000000000000  0.0319044135581649 
-2.25000000000000 -2.37500000000000  0.0440096131894489 
-2.25000000000000 -2.25000000000000  0.0579489872002021 
-2.25000000000000 -2.12500000000000  0.0727109707777487 
-2.25000000000000 -2.00000000000000  0.0868371072597996 
-2.25000000000000 -1.87500000000000  0.0988402610318106 
-2.25000000000000 -1.75000000000000  0.108196167273944 
-2.25000000000000 -1.62500000000000  0.117102713210017 
-2.25000000000000 -1.50000000000000  0.132171056158870 
-2.25000000000000 -1.37500000000000  0.162385119820746 
-2.25000000000000 -1.25000000000000  0.212157831476739 
-2.25000000000000 -1.12500000000000  0.278218117715309 
-2.25000000000000 -1.00000000000000  0.352514538395456 
-2.25000000000000 -0.875000000000000  0.425116806173368 
-2.25000000000000 -0.750000000000000  0.486034079645552 
-2.25000000000000 -0.625000000000000  0.526924256713448 
-2.25000000000000 -0.500000000000000  0.542798167981272 
-2.25000000000000 -0.375000000000000  0.533304504173797 
-2.25000000000000 -0.250000000000000  0.503111092260070 
-2.25000000000000 -0.125000000000000  0.460998209474960 
-2.25000000000000  0.00000000000000  0.417416776874959 
-2.25000000000000  0.125000000000000  0.380666729339091 
-2.25000000000000  0.250000000000000  0.353235484976017 
-2.25000000000000  0.375000000000000  0.331309100354748 
-2.25000000000000  0.500000000000000  0.308288916324226 
-2.25000000000000  0.625000000000000  0.278974539509795 
-2.25000000000000  0.750000000000000  0.241522078837561 
-2.25000000000000  0.875000000000000  0.197355002140379 
-2.25000000000000  1.00000000000000  0.150236545824185 
-2.25000000000000  1.12500000000000  0.105311797198391 
-2.25000000000000  1.25000000000000  0.0686775433727379 
-2.25000000000000  1.37500000000000  0.0474426573853799 
-2.25000000000000  1.50000000000000  0.0439206828934039 
-2.25000000000000  1.62500000000000  0.0474055155481512 
-2.25000000000000  1.75000000000000  0.0487223007754685 
-2.25000000000000  1.87500000000000  0.0459002639813857 
-2.25000000000000  2.00000000000000  0.0398971072509938 
-2.25000000000000  2.12500000000000  0.0323244354533455 
-2.25000000000000  2.25000000000000  0.0246091990456842 
-2.25000000000000  2.37500000000000  0.0177126739755910 
-2.25000000000000  2.50000000000000  0.0121108053204088 

-2.12500000000000 -2.50000000000000  0.0393106469701188 
-2.12500000000000 -2.37500000000000  0.0544083827645214 
-2.12500000000000 -2.25000000000000  0.0720563292801550 
-2.12500000000000 -2.12500000000000  0.0912698720146764 
-2.12500000000000 -2.00000000000000  0.110640330340096 
-2.12500000000000 -1.87500000000000  0.128812899269566 
-2.12500000000000 -1.75000000000000  0.145479722684423 
-2.12500000000000 -1.62500000000000  0.162854175389149 
-2.12500000000000 -1.50000000000000  0.186708533832908 
-2.12500000000000 -1.37500000000000  0.224663359920004 
-2.12500000000000 -1.25000000000000  0.281234353431830 
-2.12500000000000 -1.12500000000000  0.354450129663757 
-2.12500000000000 -1.00000000000000  0.436827420148430 
-2.12500000000000 -0.875000000000000  0.517961890902907 
-2.12500000000000 -0.750000000000000  0.586899317062686 
-2.12500000000000 -0.625000000000000  0.634330687693447 
-2.12500000000000 -0.500000000000000  0.654620541743091 
-2.12500000000000 -0.375000000000000  0.647274976453315 
-2.12500000000000 -0.250000000000000  0.617326628468222 
-2.12500000000000 -0.125000000000000  0.574201577610150 
-2.12500000000000  0.00000000000000  0.528861123253237 
-2.12500000000000  0.125000000000000  0.489647141338921 
-2.12500000000000  0.250000000000000  0.458724662421103 
-2.12500000000000  0.375000000000000  0.431926490711747 
-2.12500000000000  0.500000000000000  0.402320535108603 
-2.12500000000000  0.625000000000000  0.364350802206081 
-2.12500000000000  0.750000000000000  0.315968846927402 
-2.12500000000000  0.875000000000000  0.258750937128321 
-2.12500000000000  1.00000000000000  0.196975479263578 
-2.12500000000000  1.12500000000000  0.136401774608861 
-2.12500000000000  1.25000000000000  0.0833573124085140 
-2.12500000000000  1.37500000000000  0.0455453361864387 
-2.12500000000000  1.50000000000000  0.0343606038346959 
-2.12500000000000  1.62500000000000  0.0418600159767527 
-2.12500000000000  1.75000000000000  0.0477827110460138 
-2.12500000000000  1.87500000000000  0.0477212159647432 
-2.12500000000000  2.00000000000000  0.0429347455873854 
-2.12500000000000  2.12500000000000  0.0355825998044468 
-2.12500000000000  2.25000000000000  0.0275495349229451 
-2.12500000000000  2.37500000000000  0.0201163208974929 
-2.12500000000000  2.50000000000000  0.0139508518000655 

-2.00000000000000 -2.50000000000000  0.0468056712684048 
-2.00000000000000 -2.37500000000000  0.0649010742774923 
-2.00000000000000 -2.25000000000000  0.0862698358830218 
-2.00000000000000 -2.12500000000000  0.109977281432727 
-2.00000000000000 -2.00000000000000  0.134696761148826 
-2.00000000000000 -1.87500000000000  0.159226544207794 
-2.00000000000000 -1.75000000000000  0.183452620722141 
-2.00000000000000 -1.62500000000000  0.209589249397631 
-2.00000000000000 -1.50000000000000  0.242819472509587 
-2.00000000000000 -1.37500000000000  0.289748520786808 
-2.00000000000000 -1.25000000000000  0.354525124059204 
-2.00000000000000 -1.12500000000000  0.435721663247469 
-2.00000000000000 -1.00000000000000  0.526353873354171 
-2.00000000000000 -0.875000000000000  0.615921498811096 
-2.00000000000000 -0.750000000000000  0.692923101862161 
-2.00000000000000 -0.625000000000000  0.747391257133976 
-2.00000000000000 -0.500000000000000  0.773219916502153 
-2.00000000000000 -0.375000000000000  0.769815633169246 
-2.00000000000000 -0.250000000000000  0.742485253981640 
-2.00000000000000 -0.125000000000000  0.701075642150248 
-2.00000000000000  0.00000000000000  0.656725685706502 
-2.00000000000000  0.125000000000000  0.617457666462861 
-2.00000000000000  0.250000000000000  0.584805620161584 
-2.00000000000000  0.375000000000000  0.554036155505928 
-2.00000000000000  0.500000000000000  0.517818653927045 
-2.00000000000000  0.625000000000000  0.470345710665889 
-2.00000000000000  0.750000000000000  0.409594346329854 
-2.00000000000000  0.875000000000000  0.337598965071390 
-2.00000000000000  1.00000000000000  0.259509865188603 
-2.00000000000000  1.12500000000000  0.182120874410663 
-2.00000000000000  1.25000000000000  0.112425583146114 
-2.00000000000000  1.37500000000000  0.0571917355251056 
-2.00000000000000  1.50000000000000  0.0283523251881522 
-2.00000000000000  1.62500000000000  0.0356021625491257 
-2.00000000000000  1.75000000000000  0.0462662691551747 
-2.00000000000000  1.87500000000000  0.0492976558244933 
-2.00000000000000  2.00000000000000  0.0460124712684963 
-2.00000000000000  2.12500000000000  0.0390958772828248 
-2.00000000000000  2.25000000000000  0.0308861412195413 
-2.00000000000000  2.37500000000000  0.0229866480690652 
-2.00000000000000  2.50000000000000  0.0162666001275728 

-1.87500000000000 -2.50000000000000  0.0538511198123399 
-1.87500000000000 -2.37500000000000  0.0746997547411192 
-1.87500000000000 -2.25000000000000  0.0994711409441198 
-1.87500000000000 -2.12500000000000  0.127290925781421 
-1.87500000000000 -2.00000000000000  0.156936790333247 
-1.87500000000000 -1.87500000000000  0.187380630738123 
-1.87500000000000 -1.75000000000000  0.218705257557577 
-1.87500000000000 -1.62500000000000  0.253148698414839 
-1.87500000000000 -1.50000000000000  0.295473102469900 
-1.87500000000000 -1.37500000000000  0.351513173231542 
-1.87500000000000 -1.25000000000000  0.424951906924850 
-1.87500000000000 -1.12500000000000  0.514535263951839 
-1.87500000000000 -1.00000000000000  0.613646102722184 
-1.87500000000000 -0.875000000000000  0.711871192376559 
-1.87500000000000 -0.750000000000000  0.797449033470586 
-1.87500000000000 -0.625000000000000  0.859988861958683 
-1.87500000000000 -0.500000000000000  0.893032133258544 
-1.87500000000000 -0.375000000000000  0.895863268686801 
-1.87500000000000 -0.250000000000000  0.873887067543622 
-1.87500000000000 -0.125000000000000  0.837043634011826 
-1.87500000000000  0.00000000000000  0.796228969694871 
-1.87500000000000  0.125000000000000  0.758764086955383 
-1.87500000000000  0.250000000000000  0.725321663487539 
-1.87500000000000  0.375000000000000  0.690541248276469 
-1.87500000000000  0.500000000000000  0.646795601072020 
-1.87500000000000  0.625000000000000  0.588274072498380 
-1.87500000000000  0.750000000000000  0.513310774532826 
-1.87500000000000  0.875000000000000  0.424734565070187 
-1.87500000000000  1.00000000000000  0.328858661551520 
-1.87500000000000  1.12500000000000  0.233772620437520 
-1.87500000000000  1.25000000000000  0.147539210279302 
-1.87500000000000  1.37500000000000  0.0770731491711327 
-1.87500000000000  1.50000000000000  0.0310829061924635 
-1.87500000000000  1.62500000000000  0.0311879702470568 
-1.87500000000000  1.75000000000000  0.0459039756129803 
-1.87500000000000  1.87500000000000  0.0519518758011664 
-1.87500000000000  2.00000000000000  0.0501869479989847 
-1.87500000000000  2.12500000000000  0.0437305652894250 
-1.87500000000000  2.25000000000000  0.0353317530591547 
-1.87500000000000  2.37500000000000  0.0268982963313457 
-1.87500000000000  2.50000000000000  0.0195024176179274 

-1.75000000000000 -2.50000000000000  0.0598904945445823 
-1.75000000000000 -2.37500000000000  0.0830002837230952 
-1.75000000000000 -2.25000000000000  0.110532185583586 
-1.75000000000000 -2.12500000000000  0.141672002110708 
-1.75000000000000 -2.00000000000000  0.175317143944734 
-1.75000000000000 -1.87500000000000  0.210636898880895 
-1.75000000000000 -1.75000000000000  0.247937825547188 
-1.75000000000000 -1.62500000000000  0.289542529176068 
-1.75000000000000 -1.50000000000000  0.339960003899634 
-1.75000000000000 -1.37500000000000  0.404494590548720 
-1.75000000000000 -1.25000000000000  0.486450928880327 
-1.75000000000000 -1.12500000000000  0.584637089713534 
-1.75000000000000 -1.00000000000000  0.692721015253759 
-1.75000000000000 -0.875000000000000  0.800433177341181 
-1.75000000000000 -0.750000000000000  0.895872713165022 
-1.75000000000000 -0.625000000000000  0.968315257538009 
-1.75000000000000 -0.500000000000000  1.01095485989748 
-1.75000000000000 -0.375000000000000  1.02284234072742 
-1.75000000000000 -0.250000000000000  1.00922319974534 
-1.75000000000000 -0.125000000000000  0.979722900759621 
-1.75000000000000  0.00000000000000  0.944515107944454 
-1.75000000000000  0.125000000000000  0.909839615627609 
-1.75000000000000  0.250000000000000  0.875366693869313 
-1.75000000000000  0.375000000000000  0.835221536531600 
-1.75000000000000  0.500000000000000  0.781798138519841 
-1.75000000000000  0.625000000000000  0.709729394233017 
-1.75000000000000  0.750000000000000  0.618170387349281 
-1.75000000000000  0.875000000000000  0.511114646800547 
-1.75000000000000  1.00000000000000  0.396250585079766 
-1.75000000000000  1.12500000000000  0.283023419983312 
-1.75000000000000  1.25000000000000  0.180576781355069 
-1.75000000000000  1.37500000000000  0.0963499189353153 
-1.75000000000000  1.50000000000000  0.0379162911654655 
-1.75000000000000  1.62500000000000  0.0303820508156648 
-1.75000000000000  1.75000000000000  0.0484532689375452 
-1.75000000000000  1.87500000000000  0.0571655519480626 
-1.75000000000000  2.00000000000000  0.0566815719396119 
-1.75000000000000  2.12500000000000  0.0504807287076447 
-1.75000000000000  2.25000000000000  0.0416700630207766 
-1.75000000000000  2.37500000000000  0.0324400942526330 
-1.75000000000000  2.50000000000000  0.0240731629514089 

-1.62500000000000 -2.50000000000000  0.0644529202081593 
-1.62500000000000 -2.37500000000000  0.0891392034970331 
-1.62500000000000 -2.25000000000000  0.118544957597999 
-1.62500000000000 -2.12500000000000  0.151910977455740 
-1.62500000000000 -2.00000000000000  0.188268113351497 
-1.62500000000000 -1.87500000000000  0.227013779720898 
-1.62500000000000 -1.75000000000000  0.268729042649509 
-1.62500000000000 -1.62500000000000  0.315921401605641 
-1.62500000000000 -1.50000000000000  0.373047437098387 
-1.62500000000000 -1.37500000000000  0.445159642968821 
-1.62500000000000 -1.25000000000000  0.535389636964620 
-1.62500000000000 -1.12500000000000  0.642646597311056 
-1.62500000000000 -1.00000000000000  0.760831066979082 
-1.62500000000000 -0.875000000000000  0.879757193513782 
-1.62500000000000 -0.750000000000000  0.987327135039947 
-1.62500000000000 -0.625000000000000  1.07241173044109 
-1.62500000000000 -0.500000000000000  1.12775572419060 
-1.62500000000000 -0.375000000000000  1.15200919267037 
-1.62500000000000 -0.250000000000000  1.14997055738990 
-1.62500000000000 -0.125000000000000  1.13051513946757 
-1.62500000000000  0.00000000000000  1.10259308652470 
-1.62500000000000  0.125000000000000  1.07098576140393 
-1.62500000000000  0.250000000000000  1.03426631032376 
-1.62500000000000  0.375000000000000  0.986265252737165 
-1.62500000000000  0.500000000000000  0.919874148445378 
-1.62500000000000  0.625000000000000  0.830783239319090 
-1.62500000000000  0.750000000000000  0.719558460450686 
-1.62500000000000  0.875000000000000  0.591779397584923 
-1.62500000000000  1.00000000000000  0.456687273868157 
-1.62500000000000  1.12500000000000  0.325026414652032 
-1.62500000000000  1.25000000000000  0.206817447140297 
-1.62500000000000  1.37500000000000  0.109873906989789 
-1.62500000000000  1.50000000000000  0.0416540727144867 
-1.62500000000000  1.62500000000000  0.0323040658382297 
-1.62500000000000  1.75000000000000  0.0545613283822028 
-1.62500000000000  1.87500000000000  0.0657115401457670 
-1.62500000000000  2.00000000000000  0.0661986536546148 
-1.62500000000000  2.12500000000000  0.0599202036352378 
-1.62500000000000  2.25000000000000  0.0503277225245550 
-1.62500000000000  2.37500000000000  0.0398972758821590 
-1.62500000000000  2.50000000000000  0.0301470806219342 

-1.50000000000000 -2.50000000000000  0.0672661100435020 
-1.50000000000000 -2.37500000000000  0.0927612858770318 
-1.50000000000000 -2.25000000000000  0.123062407033181 
-1.50000000000000 -2.12500000000000  0.157463382191817 
-1.50000000000000 -2.00000000000000  0.195146841050438 
-1.50000000000000 -1.87500000000000  0.235778279387976 
-1.50000000000000 -1.75000000000000  0.280283413804698 
-1.50000000000000 -1.62500000000000  0.331485254188539 
-1.50000000000000 -1.50000000000000  0.394019244531550 
-1.50000000000000 -1.37500000000000  0.472995780739997 
-1.50000000000000 -1.25000000000000  0.571633677786409 
-1.50000000000000 -1.12500000000000  0.689033168171658 
-1.50000000000000 -1.00000000000000  0.819246148604485 
-1.50000000000000 -0.875000000000000  0.951990998760917 
-1.50000000000000 -0.750000000000000  1.07477034962935 
-1.50000000000000 -0.625000000000000  1.17587819131476 
-1.50000000000000 -0.500000000000000  1.24748046094714 
-1.50000000000000 -0.375000000000000  1.28768980166852 
-1.50000000000000 -0.250000000000000  1.30061998104245 
-1.50000000000000 -0.125000000000000  1.29400032532352 
-1.50000000000000  0.00000000000000  1.27507575527813 
-1.50000000000000  0.125000000000000  1.24678624416074 
-1.50000000000000  0.250000000000000  1.20648236506009 
-1.50000000000000  0.375000000000000  1.14788757854493 
-1.50000000000000  0.500000000000000  1.06486128787491 
-1.50000000000000  0.625000000000000  0.954790191955193 
-1.50000000000000  0.750000000000000  0.820284039818945 
-1.50000000000000  0.875000000000000  0.668971185107951 
-1.50000000000000  1.00000000000000  0.511847009996204 
-1.50000000000000  1.12500000000000  0.360893799086938 
-1.50000000000000  1.25000000000000  0.226752105107564 
-1.50000000000000  1.37500000000000  0.117240837057147 
-1.50000000000000  1.50000000000000  0.0394556894816210 
-1.50000000000000  1.62500000000000  0.0350450247519064 
-1.50000000000000  1.75000000000000  0.0633976733687048 
-1.50000000000000  1.87500000000000  0.0771161638268995 
-1.50000000000000  2.00000000000000  0.0784300741201192 
-1.50000000000000  2.12500000000000  0.0718104954548102 
-1.50000000000000  2.25000000000000  0.0610911009134710 
-1.50000000000000  2.37500000000000  0.0490703936095041 
-1.50000000000000  2.50000000000000  0.0375461845714174 

-1.37500000000000 -2.50000000000000  0.0683499914612849 
-1.37500000000000 -2.37500000000000  0.0939529448240456 
-1.37500000000000 -2.25000000000000  0.124282583260450 
-1.37500000000000 -2.12500000000000  0.158695683102055 
-1.37500000000000 -2.00000000000000  0.196553869219450 
-1.37500000000000 -1.87500000000000  0.237836347491153 
-1.37500000000000 -1.75000000000000  0.283887087474300 
-1.37500000000000 -1.62500000000000  0.337975115425638 
-1.37500000000000 -1.50000000000000  0.405134989290264 
-1.37500000000000 -1.37500000000000  0.490819637365428 
-1.37500000000000 -1.25000000000000  0.598565131590538 
-1.37500000000000 -1.12500000000000  0.727713789225826 
-1.37500000000000 -1.00000000000000  0.872324173716648 
-1.37500000000000 -0.875000000000000  1.02176659990681 
-1.37500000000000 -0.750000000000000  1.16290346148329 
-1.37500000000000 -0.625000000000000  1.28330744374497 
-1.37500000000000 -0.500000000000000  1.37452425243042 
-1.37500000000000 -0.375000000000000  1.43410804112287 
-1.37500000000000 -0.250000000000000  1.46535953893263 
-1.37500000000000 -0.125000000000000  1.47455540983911 
-1.37500000000000  0.00000000000000  1.46681813343043 
-1.37500000000000  0.125000000000000  1.44287667937519 
-1.37500000000000  0.250000000000000  1.39866049976412 
-1.37500000000000  0.375000000000000  1.32781378041615 
-1.37500000000000  0.500000000000000  1.22542880342988 
-1.37500000000000  0.625000000000000  1.09103714016526 
-1.37500000000000  0.750000000000000  0.929801739002121 
-1.37500000000000  0.875000000000000  0.751832152954658 
-1.37500000000000  1.00000000000000  0.570138115249068 
-1.37500000000000  1.12500000000000  0.397999364215127 
-1.37500000000000  1.25000000000000  0.246558001337198 
-1.37500000000000  1.37500000000000  0.123326596600486 
-1.37500000000000  1.50000000000000  0.0335456345706909 
-1.37500000000000  1.62500000000000  0.0378536330858280 
-1.37500000000000  1.75000000000000  0.0733441556152737 
-1.37500000000000  1.87500000000000  0.0899392587752048 
-1.37500000000000  2.00000000000000  0.0921719449445831 
-1.37500000000000  2.12500000000000  0.0851513591204306 
-1.37500000000000  2.25000000000000  0.0731392143250069 
-1.37500000000000  2.37500000000000  0.0593058064837619 
-1.37500000000000  2.50000000000000  0.0457734240489181 

-1.25000000000000 -2.50000000000000  0.0680522194147231 
-1.25000000000000 -2.37500000000000  0.0932811611015362 
-1.25000000000000 -2.25000000000000  0.123084871959246 
-1.25000000000000 -2.12500000000000  0.156907662580298 
-1.25000000000000 -2.00000000000000  0.194322863082284 
-1.25000000000000 -1.87500000000000  0.235659748015418 
-1.25000000000000 -1.75000000000000  0.282725107068033 
-1.25000000000000 -1.62500000000000  0.339310726276562 
-1.25000000000000 -1.50000000000000  0.410988138845365 
-1.25000000000000 -1.37500000000000  0.503732108276130 
-1.25000000000000 -1.25000000000000  0.621521234848913 
-1.25000000000000 -1.12500000000000  0.763916683379689 
-1.25000000000000 -1.00000000000000  0.924817522868840 
-1.25000000000000 -0.875000000000000  1.09303846397804 
-1.25000000000000 -0.750000000000000  1.25467024083580 
-1.25000000000000 -0.625000000000000  1.39656942187462 
-1.25000000000000 -0.500000000000000  1.50977187428494 
-1.25000000000000 -0.375000000000000  1.59137618163478 
-1.25000000000000 -0.250000000000000  1.64383742560602 
-1.25000000000000 -0.125000000000000  1.67176709698473 
-1.25000000000000  0.00000000000000  1.67785135862835 
-1.25000000000000  0.125000000000000  1.66030620092168 
-1.25000000000000  0.250000000000000  1.61340076937563 
-1.25000000000000  0.375000000000000  1.53054118519627 
-1.25000000000000  0.500000000000000  1.40801207414524 
-1.25000000000000  0.625000000000000  1.24759744125946 
-1.25000000000000  0.750000000000000  1.05725048185409 
-1.25000000000000  0.875000000000000  0.849868364299171 
-1.25000000000000  1.00000000000000  0.640780979406637 
-1.25000000000000  1.12500000000000  0.444818189036007 
-1.25000000000000  1.25000000000000  0.273804276881273 
-1.25000000000000  1.37500000000000  0.135076586101378 
-1.25000000000000  1.50000000000000  0.0314784716681426 
-1.25000000000000  1.62500000000000  0.0405829258098714 
-1.25000000000000  1.75000000000000  0.0827227335256133 
-1.25000000000000  1.87500000000000  0.102430433593232 
-1.25000000000000  2.00000000000000  0.105792852546927 
-1.25000000000000  2.12500000000000  0.0984951893022715 
-1.25000000000000  2.25000000000000  0.0852487153054124 
-1.25000000000000  2.37500000000000  0.0696243291079980 
-1.25000000000000  2.50000000000000  0.0540884316584493 

-1.12500000000000 -2.50000000000000  0.0669812077695319 
-1.12500000000000 -2.37500000000000  0.0916703956694044 
-1.12500000000000 -2.25000000000000  0.120818618737098 
-1.12500000000000 -2.12500000000000  0.153988774293037 
-1.12500000000000 -2.00000000000000  0.190987812910937 
-1.12500000000000 -1.87500000000000  0.232495515362808 
-1.12500000000000 -1.75000000000000  0.280758188924323 
-1.12500000000000 -1.62500000000000  0.340063964660370 
-1.12500000000000 -1.50000000000000  0.416525385946574 
-1.12500000000000 -1.37500000000000  0.516675372293331 
-1.12500000000000 -1.25000000000000  0.644951458202625 
-1.12500000000000 -1.12500000000000  0.801083212341499 
-1.12500000000000 -1.00000000000000  0.978719813029366 
-1.12500000000000 -0.875000000000000  1.16607297847131 
-1.12500000000000 -0.750000000000000  1.34852554540954 
-1.12500000000000 -0.625000000000000  1.51239486957793 
-1.12500000000000 -0.500000000000000  1.64842410476683 
-1.12500000000000 -0.375000000000000  1.75339994697065 
-1.12500000000000 -0.250000000000000  1.82892066656802 
-1.12500000000000 -0.125000000000000  1.87778541489481 
-1.12500000000000  0.00000000000000  1.90005506557316 
-1.12500000000000  0.125000000000000  1.89125362677385 
-1.12500000000000  0.250000000000000  1.84378254152379 
-1.12500000000000  0.375000000000000  1.75053999619015 
-1.12500000000000  0.500000000000000  1.60872084319718 
-1.12500000000000  0.625000000000000  1.42216900614785 
-1.12500000000000  0.750000000000000  1.20160658005324 
-1.12500000000000  0.875000000000000  0.962890027162160 
-1.12500000000000  1.00000000000000  0.723994480110499 
-1.12500000000000  1.12500000000000  0.501699564962376 
-1.12500000000000  1.25000000000000  0.308909038482723 
-1.12500000000000  1.37500000000000  0.153204048250117 
-1.12500000000000  1.50000000000000  0.0367513710527006 
-1.12500000000000  1.62500000000000  0.0427418929844204 
-1.12500000000000  1.75000000000000  0.0905134763098225 
-1.12500000000000  1.87500000000000  0.113235518369201 
-1.12500000000000  2.00000000000000  0.117760772845850 
-1.12500000000000  2.12500000000000  0.110307832013322 
-1.12500000000000  2.25000000000000  0.0960297059020919 
-1.12500000000000  2.37500000000000  0.0788695372147555 
-1.12500000000000  2.50000000000000  0.0615975236523740 

-1.00000000000000 -2.50000000000000  0.0658087929212459 
-1.00000000000000 -2.37500000000000  0.0900826257737941 
-1.00000000000000 -2.25000000000000  0.118805113821560 
-1.00000000000000 -2.12500000000000  0.151673647761902 
-1.00000000000000 -2.00000000000000  0.188716241546312 
-1.00000000000000 -1.87500000000000  0.230908051364432 
-1.00000000000000 -1.75000000000000  0.280836951354093 
-1.00000000000000 -1.62500000000000  0.343170714028322 
-1.00000000000000 -1.50000000000000  0.424465138645863 
-1.00000000000000 -1.37500000000000  0.531750051297087 
-1.00000000000000 -1.25000000000000  0.669883542924017 
-1.00000000000000 -1.12500000000000  0.838743400437176 
-1.00000000000000 -1.00000000000000  1.03176141855122 
-1.00000000000000 -0.875000000000000  1.23667509249993 
-1.00000000000000 -0.750000000000000  1.43838720165390 
-1.00000000000000 -0.625000000000000  1.62294547952418 
-1.00000000000000 -0.500000000000000  1.78101492041728 
-1.00000000000000 -0.375000000000000  1.90914732773525 
-1.00000000000000 -0.250000000000000  2.00802067950677 
-1.00000000000000 -0.125000000000000  2.07851068791248 
-1.00000000000000  0.00000000000000  2.11799248512713 
-1.00000000000000  0.125000000000000  2.11927156231030 
-1.00000000000000  0.250000000000000  2.07277518059405 
-1.00000000000000  0.375000000000000  1.97063965241879 
-1.00000000000000  0.500000000000000  1.81063001581357 
-1.00000000000000  0.625000000000000  1.59836706280676 
-1.00000000000000  0.750000000000000  1.34724679094179 
-1.00000000000000  0.875000000000000  1.07623207513233 
-1.00000000000000  1.00000000000000  0.806291487705760 
-1.00000000000000  1.12500000000000  0.556588848280125 
-1.00000000000000  1.25000000000000  0.341487727459818 
-1.00000000000000  1.37500000000000  0.169043831007438 
-1.00000000000000  1.50000000000000  0.0411646486638643 
-1.00000000000000  1.62500000000000  0.0459506611412770 
-1.00000000000000  1.75000000000000  0.0976770319828762 
-1.00000000000000  1.87500000000000  0.122222059991055 
-1.00000000000000  2.00000000000000  0.127181356641613 
-1.00000000000000  2.12500000000000  0.119325290244118 
-1.00000000000000  2.25000000000000  0.104163659805821 
-1.00000000000000  2.37500000000000  0.0858666567450746 
-1.00000000000000  2.50000000000000  0.0673595317895084 

-0.875000000000000 -2.50000000000000  0.0649854488176774 
-0.875000000000000 -2.37500000000000  0.0890890902607817 
-0.875000000000000 -2.25000000000000  0.117720514548516 
-0.875000000000000 -2.12500000000000  0.150693357569873 
-0.875000000000000 -2.00000000000000  0.188202761826810 
-0.875000000000000 -1.87500000000000  0.231427107647668 
-0.875000000000000 -1.75000000000000  0.283177694367005 
-0.875000000000000 -1.62500000000000  0.348380395382258 
-0.875000000000000 -1.50000000000000  0.433925555585976 
-0.875000000000000 -1.37500000000000  0.547246260967300 
-0.875000000000000 -1.25000000000000  0.693552689607309 
-0.875000000000000 -1.12500000000000  0.872867604563958 
-0.875000000000000 -1.00000000000000  1.07851587928402 
-0.875000000000000 -0.875000000000000  1.29799417994183 
-0.875000000000000 -0.750000000000000  1.51602627624538 
-0.875000000000000 -0.625000000000000  1.71865475711256 
-0.875000000000000 -0.500000000000000  1.89659082244486 
-0.875000000000000 -0.375000000000000  2.04610048324303 
-0.875000000000000 -0.250000000000000  2.16679446625819 
-0.875000000000000 -0.125000000000000  2.25753425096074 
-0.875000000000000  0.00000000000000  2.31306319366740 
-0.875000000000000  0.125000000000000  2.32359645927288 
-0.875000000000000  0.250000000000000  2.27763803261598 
-0.875000000000000  0.375000000000000  2.16646331067731 
-0.875000000000000  0.500000000000000  1.98822426295790 
-0.875000000000000  0.625000000000000  1.75018958003132 
-0.875000000000000  0.750000000000000  1.46846800990976 
-0.875000000000000  0.875000000000000  1.16536395948681 
-0.875000000000000  1.00000000000000  0.865206545526004 
-0.875000000000000  1.12500000000000  0.589920703160082 
-0.875000000000000  1.25000000000000  0.355608450682946 
-0.875000000000000  1.37500000000000  0.171082886719784 
-0.875000000000000  1.50000000000000  0.0416153096627815 
-0.875000000000000  1.62500000000000  0.0595084448388015 
-0.875000000000000  1.75000000000000  0.108799089557182 
-0.875000000000000  1.87500000000000  0.131301014189493 
-0.875000000000000  2.00000000000000  0.134302671711460 
-0.875000000000000  2.12500000000000  0.124893134114513 
-0.875000000000000  2.25000000000000  0.108640928495190 
-0.875000000000000  2.37500000000000  0.0895920682708381 
-0.875000000000000  2.50000000000000  0.0705073944260703 

-0.750000000000000 -2.50000000000000  0.0645216030568477 
-0.750000000000000 -2.37500000000000  0.0885895968803159 
-0.750000000000000 -2.25000000000000  0.117265751265939 
-0.750000000000000 -2.12500000000000  0.150433598947140 
-0.750000000000000 -2.00000000000000  0.188386442247572 
-0.750000000000000 -1.87500000000000  0.232427892152028 
-0.750000000000000 -1.75000000000000  0.285524985395892 
-0.750000000000000 -1.62500000000000  0.352807298266139 
-0.750000000000000 -1.50000000000000  0.441430575195988 
-0.750000000000000 -1.37500000000000  0.559120202370611 
-0.750000000000000 -1.25000000000000  0.711319039942419 
-0.750000000000000 -1.12500000000000  0.898158591457929 
-0.750000000000000 -1.00000000000000  1.11297468242153 
-0.750000000000000 -0.875000000000000  1.34328081843840 
-0.750000000000000 -0.750000000000000  1.57392051923714 
-0.750000000000000 -0.625000000000000  1.79113612151861 
-0.750000000000000 -0.500000000000000  1.98569710192009 
-0.750000000000000 -0.375000000000000  2.15341254198366 
-0.750000000000000 -0.250000000000000  2.29261089973730 
-0.750000000000000 -0.125000000000000  2.40006385778733 
-0.750000000000000  0.00000000000000  2.46802296077542 
-0.750000000000000  0.125000000000000  2.48437922781117 
-0.750000000000000  0.250000000000000  2.43595945850857 
-0.750000000000000  0.375000000000000  2.31333963626835 
-0.750000000000000  0.500000000000000  2.11517885060560 
-0.750000000000000  0.625000000000000  1.85055419734266 
-0.750000000000000  0.750000000000000  1.53853430839424 
-0.750000000000000  0.875000000000000  1.20508284868397 
-0.750000000000000  1.00000000000000  0.878220596747955 
-0.750000000000000  1.12500000000000  0.582943272128118 
-0.750000000000000  1.25000000000000  0.337544996617279 
-0.750000000000000  1.37500000000000  0.153660594333243 
-0.750000000000000  1.50000000000000  0.0591162174928646 
-0.750000000000000  1.62500000000000  0.0944793937081031 
-0.750000000000000  1.75000000000000  0.131169459536988 
-0.750000000000000  1.87500000000000  0.144397868608501 
-0.750000000000000  2.00000000000000  0.140742917091374 
-0.750000000000000  2.12500000000000  0.127225570011746 
-0.750000000000000  2.25000000000000  0.108978620504440 
-0.750000000000000  2.37500000000000  0.0893413816709299 
-0.750000000000000  2.50000000000000  0.0703749624343440 

-0.625000000000000 -2.50000000000000  0.0640009906992158 
-0.625000000000000 -2.37500000000000  0.0879058382182875 
-0.625000000000000 -2.25000000000000  0.116406352843284 
-0.625000000000000 -2.12500000000000  0.149410466016188 
-0.625000000000000 -2.00000000000000  0.187263400694209 
-0.625000000000000 -1.87500000000000  0.231365765386378 
-0.625000000000000 -1.75000000000000  0.284841452661716 
-0.625000000000000 -1.62500000000000  0.353029946304525 
-0.625000000000000 -1.50000000000000  0.443300543876918 
-0.625000000000000 -1.37500000000000  0.563521547104420 
-0.625000000000000 -1.25000000000000  0.719182119312551 
-0.625000000000000 -1.12500000000000  0.910430043625633 
-0.625000000000000 -1.00000000000000  1.13069763929904 
-0.625000000000000 -0.875000000000000  1.36774898929520 
-0.625000000000000 -0.750000000000000  1.60680856036707 
-0.625000000000000 -0.625000000000000  1.83446291424463 
-0.625000000000000 -0.500000000000000  2.04148092051360 
-0.625000000000000 -0.375000000000000  2.22299062988580 
-0.625000000000000 -0.250000000000000  2.37581180113147 
-0.625000000000000 -0.125000000000000  2.49458178243710 
-0.625000000000000  0.00000000000000  2.56926748038122 
-0.625000000000000  0.125000000000000  2.58582241787996 
-0.625000000000000  0.250000000000000  2.52984664172650 
-0.625000000000000  0.375000000000000  2.39166441976392 
-0.625000000000000  0.500000000000000  2.17087146553652 
-0.625000000000000  0.625000000000000  1.87875421053824 
-0.625000000000000  0.750000000000000  1.53768448827602 
-0.625000000000000  0.875000000000000  1.17754532598920 
-0.625000000000000  1.00000000000000  0.830269055774761 
-0.625000000000000  1.12500000000000  0.524381416437791 
-0.625000000000000  1.25000000000000  0.282385359932582 
-0.625000000000000  1.37500000000000  0.130060433292574 
-0.625000000000000  1.50000000000000  0.113462169851950 
-0.625000000000000  1.62500000000000  0.151231565963988 
-0.625000000000000  1.75000000000000  0.169045510513464 
-0.625000000000000  1.87500000000000  0.165367909971217 
-0.625000000000000  2.00000000000000  0.148988770133824 
-0.625000000000000  2.12500000000000  0.127462917086899 
-0.625000000000000  2.25000000000000  0.105391894069871 
-0.625000000000000  2.37500000000000  0.0848808200349116 
-0.625000000000000  2.50000000000000  0.0666132962208830 

-0.500000000000000 -2.50000000000000  0.0628161913496976 
-0.500000000000000 -2.37500000000000  0.0861697149170044 
-0.500000000000000 -2.25000000000000  0.113972480153040 
-0.500000000000000 -2.12500000000000  0.146139970071985 
-0.500000000000000 -2.00000000000000  0.183065479488263 
-0.500000000000000 -1.87500000000000  0.226264979167554 
-0.500000000000000 -1.75000000000000  0.279053405554231 
-0.500000000000000 -1.62500000000000  0.346986141897982 
-0.500000000000000 -1.50000000000000  0.437553305949441 
-0.500000000000000 -1.37500000000000  0.558552002648052 
-0.500000000000000 -1.25000000000000  0.715270957533334 
-0.500000000000000 -1.12500000000000  0.907736757650146 
-0.500000000000000 -1.00000000000000  1.12952490232590 
-0.500000000000000 -0.875000000000000  1.36884225495502 
-0.500000000000000 -0.750000000000000  1.61151478843019 
-0.500000000000000 -0.625000000000000  1.84459250133991 
-0.500000000000000 -0.500000000000000  2.05879274697567 
-0.500000000000000 -0.375000000000000  2.24838865677693 
-0.500000000000000 -0.250000000000000  2.40854600556926 
-0.500000000000000 -0.125000000000000  2.53181211319992 
-0.500000000000000  0.00000000000000  2.60616961433509 
-0.500000000000000  0.125000000000000  2.61614860552059 
-0.500000000000000  0.250000000000000  2.54676013262121 
-0.500000000000000  0.375000000000000  2.38874477550617 
-0.500000000000000  0.500000000000000  2.14323531888544 
-0.500000000000000  0.625000000000000  1.82415682193046 
-0.500000000000000  0.750000000000000  1.45736807640226 
-0.500000000000000  0.875000000000000  1.07664031819306 
-0.500000000000000  1.00000000000000  0.717873938152092 
-0.500000000000000  1.12500000000000  0.414576785591848 
-0.500000000000000  1.25000000000000  0.203541646085518 
-0.500000000000000  1.37500000000000  0.149836922197059 
-0.500000000000000  1.50000000000000  0.195731449256613 
-0.500000000000000  1.62500000000000  0.223765986018094 
-0.500000000000000  1.75000000000000  0.219900222460096 
-0.500000000000000  1.87500000000000  0.194852084733825 
-0.500000000000000  2.00000000000000  0.160966292834030 
-0.500000000000000  2.12500000000000  0.127375974638724 
-0.500000000000000  2.25000000000000  0.0988968642335904 
-0.500000000000000  2.37500000000000  0.0765794177296645 
-0.500000000000000  2.50000000000000  0.0592832841298545 

-0.375000000000000 -2.50000000000000  0.0604473156586700 
-0.375000000000000 -2.37500000000000  0.0827135954302462 
-0.375000000000000 -2.25000000000000  0.109173736111968 
-0.375000000000000 -2.12500000000000  0.139774486096350 
-0.375000000000000 -2.00000000000000  0.174993340713952 
-0.375000000000000 -1.87500000000000  0.216500252138098 
-0.375000000000000 -1.75000000000000  0.267814740397065 
-0.375000000000000 -1.62500000000000  0.334644448766867 
-0.375000000000000 -1.50000000000000  0.424411108286515 
-0.375000000000000 -1.37500000000000  0.544548275468115 
-0.375000000000000 -1.25000000000000  0.699860524310028 
-0.375000000000000 -1.12500000000000  0.890097313493112 
-0.375000000000000 -1.00000000000000  1.10899370469006 
-0.375000000000000 -0.875000000000000  1.34534911733980 
-0.375000000000000 -0.750000000000000  1.58578343545722 
-0.375000000000000 -0.625000000000000  1.81794818201450 
-0.375000000000000 -0.500000000000000  2.03254546273136 
-0.375000000000000 -0.375000000000000  2.22297136358959 
-0.375000000000000 -0.250000000000000  2.38277786966661 
-0.375000000000000 -0.125000000000000  2.50264889128983 
-0.375000000000000  0.00000000000000  2.56905022368188 
-0.375000000000000  0.125000000000000  2.56576626312811 
-0.375000000000000  0.250000000000000  2.47801312746586 
-0.375000000000000  0.375000000000000  2.29771510713554 
-0.375000000000000  0.500000000000000  2.02810550377789 
-0.375000000000000  0.625000000000000  1.68594074079647 
-0.375000000000000  0.750000000000000  1.30031188448360 
-0.375000000000000  0.875000000000000  0.908320837524370 
-0.375000000000000  1.00000000000000  0.549840254877608 
-0.375000000000000  1.12500000000000  0.269731111530387 
-0.375000000000000  1.25000000000000  0.164369493378002 
-0.375000000000000  1.37500000000000  0.235369719816466 
-0.375000000000000  1.50000000000000  0.293474653643224 
-0.375000000000000  1.62500000000000  0.303652466379546 
-0.375000000000000  1.75000000000000  0.276759242430216 
-0.375000000000000  1.87500000000000  0.229449481594804 
-0.375000000000000  2.00000000000000  0.176571670836936 
-0.375000000000000  2.12500000000000  0.128656393393952 
-0.375000000000000  2.25000000000000  0.0913069664241444 
-0.375000000000000  2.37500000000000  0.0655492906039529 
-0.375000000000000  2.50000000000000  0.0489237715746607 

-0.250000000000000 -2.50000000000000  0.0566327152609862 
-0.250000000000000 -2.37500000000000  0.0772688479543569 
-0.250000000000000 -2.25000000000000  0.101802825662960 
-0.250000000000000 -2.12500000000000  0.130272504213362 
-0.250000000000000 -2.00000000000000  0.163299207551396 
-0.250000000000000 -1.87500000000000  0.202733499495530 
-0.250000000000000 -1.75000000000000  0.252245634216543 
-0.250000000000000 -1.62500000000000  0.317515331613110 
-0.250000000000000 -1.50000000000000  0.405590043737538 
-0.250000000000000 -1.37500000000000  0.523188694269617 
-0.250000000000000 -1.25000000000000  0.674348462825948 
-0.250000000000000 -1.12500000000000  0.858393974622605 
-0.250000000000000 -1.00000000000000  1.06921726759549 
-0.250000000000000 -0.875000000000000  1.29632586269269 
-0.250000000000000 -0.750000000000000  1.52731479470420 
-0.250000000000000 -0.625000000000000  1.75062514925412 
-0.250000000000000 -0.500000000000000  1.95711161914337 
-0.250000000000000 -0.375000000000000  2.13947744661343 
-0.250000000000000 -0.250000000000000  2.28995012710904 
-0.250000000000000 -0.125000000000000  2.39783017166856 
-0.250000000000000  0.00000000000000  2.44876527619799 
-0.250000000000000  0.125000000000000  2.42666084609314 
-0.250000000000000  0.250000000000000  2.31784281327597 
-0.250000000000000  0.375000000000000  2.11616377677677 
-0.250000000000000  0.500000000000000  1.82731531994518 
-0.250000000000000  0.625000000000000  1.47067633634485 
-0.250000000000000  0.750000000000000  1.07776052435965 
-0.250000000000000  0.875000000000000  0.687923379299132 
-0.250000000000000  1.00000000000000  0.346380363576009 
-0.250000000000000  1.12500000000000  0.151845077343877 
-0.250000000000000  1.25000000000000  0.244217844945286 
-0.250000000000000  1.37500000000000  0.350675388397437 
-0.250000000000000  1.50000000000000  0.393711383319971 
-0.250000000000000  1.62500000000000  0.381109858668987 
-0.250000000000000  1.75000000000000  0.331371594003895 
-0.250000000000000  1.87500000000000  0.263592442286913 
-0.250000000000000  2.00000000000000  0.193546135012624 
-0.250000000000000  2.12500000000000  0.132065787375773 
-0.250000000000000  2.25000000000000  0.0849743136482680 
-0.250000000000000  2.37500000000000  0.0538542390688008 
-0.250000000000000  2.50000000000000  0.0366326553014607 

-0.125000000000000 -2.50000000000000  0.0514034736894318 
-0.125000000000000 -2.37500000000000  0.0699675355206896 
-0.125000000000000 -2.25000000000000  0.0921692483452709 
-0.125000000000000 -2.12500000000000  0.118216071598404 
-0.125000000000000 -2.00000000000000  0.148930497969102 
-0.125000000000000 -1.87500000000000  0.186327262473065 
-0.125000000000000 -1.75000000000000  0.234080528501087 
-0.125000000000000 -1.62500000000000  0.297546283096029 
-0.125000000000000 -1.50000000000000  0.383016234928962 
-0.125000000000000 -1.37500000000000  0.496145076861294 
-0.125000000000000 -1.25000000000000  0.639963467289343 
-0.125000000000000 -1.12500000000000  0.813253681171921 
-0.125000000000000 -1.00000000000000  1.01006092527530 
-0.125000000000000 -0.875000000000000  1.22070443206894 
-0.125000000000000 -0.750000000000000  1.43394561488315 
-0.125000000000000 -0.625000000000000  1.63926247528022 
-0.125000000000000 -0.500000000000000  1.82795225556359 
-0.125000000000000 -0.375000000000000  1.99238960841596 
-0.125000000000000 -0.250000000000000  2.12398372157909 
-0.125000000000000 -0.125000000000000  2.21135664745207 
-0.125000000000000  0.00000000000000  2.24023794204569 
-0.125000000000000  0.125000000000000  2.19565882179550 
-0.125000000000000  0.250000000000000  2.06598744903006 
-0.125000000000000  0.375000000000000  1.84762929301133 
-0.125000000000000  0.500000000000000  1.54882384357291 
-0.125000000000000  0.625000000000000  1.19100326259701 
-0.125000000000000  0.750000000000000  0.806994536385440 
-0.125000000000000  0.875000000000000  0.437913043242935 
-0.125000000000000  1.00000000000000  0.154906046853543 
-0.125000000000000  1.12500000000000  0.220675433560123 
-0.125000000000000  1.25000000000000  0.378900253185844 
-0.125000000000000  1.37500000000000  0.466472625496144 
-0.125000000000000  1.50000000000000  0.483483631671095 
-0.125000000000000  1.62500000000000  0.446521699711428 
-0.125000000000000  1.75000000000000  0.376126817706273 
-0.125000000000000  1.87500000000000  0.291711845913361 
-0.125000000000000  2.00000000000000  0.208640771285409 
-0.125000000000000  2.12500000000000  0.137031419738358 
-0.125000000000000  2.25000000000000  0.0819643675089984 
-0.125000000000000  2.37500000000000  0.0446989501328073 
-0.125000000000000  2.50000000000000  0.0243589132814891 

 0.00000000000000 -2.50000000000000  0.0450252288753015 
 0.00000000000000 -2.37500000000000  0.0612284986312720 
 0.00000000000000 -2.25000000000000  0.0808990620950081 
 0.00000000000000 -2.12500000000000  0.104484901668583 
 0.00000000000000 -2.00000000000000  0.133033439516045 
 0.00000000000000 -1.87500000000000  0.168640736254501 
 0.00000000000000 -1.75000000000000  0.214754643398445 
 0.00000000000000 -1.62500000000000  0.276058650016919 
 0.00000000000000 -1.50000000000000  0.357727604844591 
 0.00000000000000 -1.37500000000000  0.464080679091585 
 0.00000000000000 -1.25000000000000  0.596985363165452 
 0.00000000000000 -1.12500000000000  0.754621712173058 
 0.00000000000000 -1.00000000000000  0.931222553839162 
 0.00000000000000 -0.875000000000000  1.11805567654417 
 0.00000000000000 -0.750000000000000  1.30527875749353 
 0.00000000000000 -0.625000000000000  1.48370385638850 
 0.00000000000000 -0.500000000000000  1.64542274009326 
 0.00000000000000 -0.375000000000000  1.78291650615381 
 0.00000000000000 -0.250000000000000  1.88735513060625 
 0.00000000000000 -0.125000000000000  1.94745203857366 
 0.00000000000000  0.00000000000000  1.94995687608177 
 0.00000000000000  0.125000000000000  1.88201383312673 
 0.00000000000000  0.250000000000000  1.73486540962527 
 0.00000000000000  0.375000000000000  1.50791680967990 
 0.00000000000000  0.500000000000000  1.21186467263485 
 0.00000000000000  0.625000000000000  0.869668881688653 
 0.00000000000000  0.750000000000000  0.515583981436457 
 0.00000000000000  0.875000000000000  0.205463285929592 
 0.00000000000000  1.00000000000000  0.193214877737183 
 0.00000000000000  1.12500000000000  0.381800242994235 
 0.00000000000000  1.25000000000000  0.510995442639236 
 0.00000000000000  1.37500000000000  0.564276939873102 
 0.00000000000000  1.50000000000000  0.551907861468229 
 0.00000000000000  1.62500000000000  0.492161391409659 
 0.00000000000000  1.75000000000000  0.405289094718776 
 0.00000000000000  1.87500000000000  0.309547444556240 
 0.00000000000000  2.00000000000000  0.218853546073786 
 0.00000000000000  2.12500000000000  0.141947592896339 
 0.00000000000000  2.25000000000000  0.0827379002762666 
 0.00000000000000  2.37500000000000  0.0414171455569691 
 0.00000000000000  2.50000000000000  0.0161622653930887 

 0.125000000000000 -2.50000000000000  0.0379003234804498 
 0.125000000000000 -2.37500000000000  0.0516095780724848 
 0.125000000000000 -2.25000000000000  0.0687225510589162 
 0.125000000000000 -2.12500000000000  0.0899634151080607 
 0.125000000000000 -2.00000000000000  0.116567209390090 
 0.125000000000000 -1.87500000000000  0.150559619383998 
 0.125000000000000 -1.75000000000000  0.194900781145283 
 0.125000000000000 -1.62500000000000  0.253302617396922 
 0.125000000000000 -1.50000000000000  0.329582982445259 
 0.125000000000000 -1.37500000000000  0.426591855539683 
 0.125000000000000 -1.25000000000000  0.544997595925803 
 0.125000000000000 -1.12500000000000  0.682427933056471 
 0.125000000000000 -1.00000000000000  0.833446009523614 
 0.125000000000000 -0.875000000000000  0.990504826133427 
 0.125000000000000 -0.750000000000000  1.14546307104551 
 0.125000000000000 -0.625000000000000  1.29079683522898 
 0.125000000000000 -0.500000000000000  1.41972227556792 
 0.125000000000000 -0.375000000000000  1.52518081977177 
 0.125000000000000 -0.250000000000000  1.59854977527726 
 0.125000000000000 -0.125000000000000  1.62923470153732 
 0.125000000000000  0.00000000000000  1.60575248226152 
 0.125000000000000  0.125000000000000  1.51815193950885 
 0.125000000000000  0.250000000000000  1.36122884552499 
 0.125000000000000  0.375000000000000  1.13786429640518 
 0.125000000000000  0.500000000000000  0.861766361323574 
 0.125000000000000  0.625000000000000  0.559938200554014 
 0.125000000000000  0.750000000000000  0.286178654175344 
 0.125000000000000  0.875000000000000  0.221709502404490 
 0.125000000000000  1.00000000000000  0.386146937944129 
 0.125000000000000  1.12500000000000  0.534970401111750 
 0.125000000000000  1.25000000000000  0.617662677786246 
 0.125000000000000  1.37500000000000  0.632579258571037 
 0.125000000000000  1.50000000000000  0.591890772837507 
 0.125000000000000  1.62500000000000  0.513404667873404 
 0.125000000000000  1.75000000000000  0.415658315940981 
 0.125000000000000  1.87500000000000  0.314637594897635 
 0.125000000000000  2.00000000000000  0.222026721337396 
 0.125000000000000  2.12500000000000  0.144770983426466 
 0.125000000000000  2.25000000000000  0.0855723472586416 
 0.125000000000000  2.37500000000000  0.0439106616245185 
 0.125000000000000  2.50000000000000  0.0172496554002599 

 0.250000000000000 -2.50000000000000  0.0304688500898571 
 0.250000000000000 -2.37500000000000  0.0416808341945905 
 0.250000000000000 -2.25000000000000  0.0563266916413167 
 0.250000000000000 -2.12500000000000  0.0753870147971431 
 0.250000000000000 -2.00000000000000  0.100175481164129 
 0.250000000000000 -1.87500000000000  0.132456376314455 
 0.250000000000000 -1.75000000000000  0.174487604836335 
 0.250000000000000 -1.62500000000000  0.228848507791582 
 0.250000000000000 -1.50000000000000  0.297938640593936 
 0.250000000000000 -1.37500000000000  0.383181385894370 
 0.250000000000000 -1.25000000000000  0.484185462488124 
 0.250000000000000 -1.12500000000000  0.598265535186724 
 0.250000000000000 -1.00000000000000  0.720653516193975 
 0.250000000000000 -0.875000000000000  0.845397771161832 
 0.250000000000000 -0.750000000000000  0.966478703224377 
 0.250000000000000 -0.625000000000000  1.07839239439003 
 0.250000000000000 -0.500000000000000  1.17572488782380 
 0.250000000000000 -0.375000000000000  1.25204129402230 
 0.250000000000000 -0.250000000000000  1.29910813025167 
 0.250000000000000 -0.125000000000000  1.30733530238925 
 0.250000000000000  0.00000000000000  1.26751443545668 
 0.250000000000000  0.125000000000000  1.17334028141374 
 0.250000000000000  0.250000000000000  1.02429845221951 
 0.250000000000000  0.375000000000000  0.829007979148661 
 0.250000000000000  0.500000000000000  0.610377880941910 
 0.250000000000000  0.625000000000000  0.419230905674143 
 0.250000000000000  0.750000000000000  0.354807622829874 
 0.250000000000000  0.875000000000000  0.443995813279246 
 0.250000000000000  1.00000000000000  0.568471742288605 
 0.250000000000000  1.12500000000000  0.656599611651078 
 0.250000000000000  1.25000000000000  0.688442353936931 
 0.250000000000000  1.37500000000000  0.665789555600538 
 0.250000000000000  1.50000000000000  0.600640602881263 
 0.250000000000000  1.62500000000000  0.508975001969941 
 0.250000000000000  1.75000000000000  0.406524129517158 
 0.250000000000000  1.87500000000000  0.306178019171033 
 0.250000000000000  2.00000000000000  0.216854568355012 
 0.250000000000000  2.12500000000000  0.143461955394255 
 0.250000000000000  2.25000000000000  0.0875194501126330 
 0.250000000000000  2.37500000000000  0.0480871385325944 
 0.250000000000000  2.50000000000000  0.0228118300700074 

 0.375000000000000 -2.50000000000000  0.0231305716976768 
 0.375000000000000 -2.37500000000000  0.0319468354896918 
 0.375000000000000 -2.25000000000000  0.0443056167650168 
 0.375000000000000 -2.12500000000000  0.0613578441519497 
 0.375000000000000 -2.00000000000000  0.0843266586712924 
 0.375000000000000 -1.87500000000000  0.114540062755381 
 0.375000000000000 -1.75000000000000  0.153455042731779 
 0.375000000000000 -1.62500000000000  0.202535906417696 
 0.375000000000000 -1.50000000000000  0.262901666116461 
 0.375000000000000 -1.37500000000000  0.334806033945562 
 0.375000000000000 -1.25000000000000  0.417180732702579 
 0.375000000000000 -1.12500000000000  0.507534890979391 
 0.375000000000000 -1.00000000000000  0.602371242019557 
 0.375000000000000 -0.875000000000000  0.697957812278937 
 0.375000000000000 -0.750000000000000  0.790933520335910 
 0.375000000000000 -0.625000000000000  0.878151037075060 
 0.375000000000000 -0.500000000000000  0.955661146788582 
 0.375000000000000 -0.375000000000000  1.01760027259765 
 0.375000000000000 -0.250000000000000  1.05611829161747 
 0.375000000000000 -0.125000000000000  1.06284709623138 
 0.375000000000000  0.00000000000000  1.03141813474938 
 0.375000000000000  0.125000000000000  0.960258865883809 
 0.375000000000000  0.250000000000000  0.855478252187305 
 0.375000000000000  0.375000000000000  0.734261494692561 
 0.375000000000000  0.500000000000000  0.628030562399142 
 0.375000000000000  0.625000000000000  0.576427966384261 
 0.375000000000000  0.750000000000000  0.595707359150988 
 0.375000000000000  0.875000000000000  0.655769054889700 
 0.375000000000000  1.00000000000000  0.712178385647114 
 0.375000000000000  1.12500000000000  0.736470226744656 
 0.375000000000000  1.25000000000000  0.718897960697715 
 0.375000000000000  1.37500000000000  0.662822411547374 
 0.375000000000000  1.50000000000000  0.578898611412387 
 0.375000000000000  1.62500000000000  0.480247304866515 
 0.375000000000000  1.75000000000000  0.379018148479188 
 0.375000000000000  1.87500000000000  0.284514292158864 
 0.375000000000000  2.00000000000000  0.202651134484118 
 0.375000000000000  2.12500000000000  0.136260566774066 
 0.375000000000000  2.25000000000000  0.0857631555043993 
 0.375000000000000  2.37500000000000  0.0499154628933942 
 0.375000000000000  2.50000000000000  0.0265301064581756 

 0.500000000000000 -2.50000000000000  0.0161977931133284 
 0.500000000000000 -2.37500000000000  0.0228333723550839 
 0.500000000000000 -2.25000000000000  0.0332228868599294 
 0.500000000000000 -2.12500000000000  0.0485117554942084 
 0.500000000000000 -2.00000000000000  0.0696310390796422 
 0.500000000000000 -1.87500000000000  0.0973815505229188 
 0.500000000000000 -1.75000000000000  0.132479410026664 
 0.500000000000000 -1.62500000000000  0.175479000452182 
 0.500000000000000 -1.50000000000000  0.226568991812688 
 0.500000000000000 -1.37500000000000  0.285340990229489 
 0.500000000000000 -1.25000000000000  0.350713862524511 
 0.500000000000000 -1.12500000000000  0.421168283813700 
 0.500000000000000 -1.00000000000000  0.495262709383445 
 0.500000000000000 -0.875000000000000  0.572109206794347 
 0.500000000000000 -0.750000000000000  0.651274271719964 
 0.500000000000000 -0.625000000000000  0.731773111036293 
 0.500000000000000 -0.500000000000000  0.810587903905796 
 0.500000000000000 -0.375000000000000  0.881876175276311 
 0.500000000000000 -0.250000000000000  0.937818775446713 
 0.500000000000000 -0.125000000000000  0.970946027848435 
 0.500000000000000  0.00000000000000  0.976888858152456 
 0.500000000000000  0.125000000000000  0.956516760721492 
 0.500000000000000  0.250000000000000  0.916919119283549 
 0.500000000000000  0.375000000000000  0.870757274373792 
 0.500000000000000  0.500000000000000  0.832864996647900 
 0.500000000000000  0.625000000000000  0.813357775199523 
 0.500000000000000  0.750000000000000  0.810766841853863 
 0.500000000000000  0.875000000000000  0.812299177737145 
 0.500000000000000  1.00000000000000  0.801792084978594 
 0.500000000000000  1.12500000000000  0.767916367140006 
 0.500000000000000  1.25000000000000  0.707626953655989 
 0.500000000000000  1.37500000000000  0.625274446740217 
 0.500000000000000  1.50000000000000  0.529553345753229 
 0.500000000000000  1.62500000000000  0.430157250828455 
 0.500000000000000  1.75000000000000  0.335320628937572 
 0.500000000000000  1.87500000000000  0.250681712491262 
 0.500000000000000  2.00000000000000  0.179258396375022 
 0.500000000000000  2.12500000000000  0.122000601727685 
 0.500000000000000  2.25000000000000  0.0784335905675614 
 0.500000000000000  2.37500000000000  0.0471705955618324 
 0.500000000000000  2.50000000000000  0.0263034478019106 

 0.625000000000000 -2.50000000000000  0.00988567416560846 
 0.625000000000000 -2.37500000000000  0.0147856386239943 
 0.625000000000000 -2.25000000000000  0.0238380106492955 
 0.625000000000000 -2.12500000000000  0.0378198392959679 
 0.625000000000000 -2.00000000000000  0.0572198799292626 
 0.625000000000000 -1.87500000000000  0.0823948002072466 
 0.625000000000000 -1.75000000000000  0.113560398094979 
 0.625000000000000 -1.62500000000000  0.150748943393410 
 0.625000000000000 -1.50000000000000  0.193776110424945 
 0.625000000000000 -1.37500000000000  0.242295310571281 
 0.625000000000000 -1.25000000000000  0.296021497321197 
 0.625000000000000 -1.12500000000000  0.355103203306514 
 0.625000000000000 -1.00000000000000  0.420430204773375 
 0.625000000000000 -0.875000000000000  0.493500867110482 
 0.625000000000000 -0.750000000000000  0.575547110108262 
 0.625000000000000 -0.625000000000000  0.666085046504283 
 0.625000000000000 -0.500000000000000  0.761678070550118 
 0.625000000000000 -0.375000000000000  0.855827792948333 
 0.625000000000000 -0.250000000000000  0.940294299567143 
 0.625000000000000 -0.125000000000000  1.00731040549387 
 0.625000000000000  0.00000000000000  1.05171664008683 
 0.625000000000000  0.125000000000000  1.07217043140854 
 0.625000000000000  0.250000000000000  1.07106627485653 
 0.625000000000000  0.375000000000000  1.05329486521530 
 0.625000000000000  0.500000000000000  1.02424457633347 
 0.625000000000000  0.625000000000000  0.987634728687714 
 0.625000000000000  0.750000000000000  0.944069880545722 
 0.625000000000000  0.875000000000000  0.891253780641419 
 0.625000000000000  1.00000000000000  0.825973778703827 
 0.625000000000000  1.12500000000000  0.746693353907211 
 0.625000000000000  1.25000000000000  0.655172671148331 
 0.625000000000000  1.37500000000000  0.556333486611807 
 0.625000000000000  1.50000000000000  0.456722172536149 
 0.625000000000000  1.62500000000000  0.362564637699185 
 0.625000000000000  1.75000000000000  0.278358952454738 
 0.625000000000000  1.87500000000000  0.206443017484425 
 0.625000000000000  2.00000000000000  0.147373729834066 
 0.625000000000000  2.12500000000000  0.100610291471905 
 0.625000000000000  2.25000000000000  0.0650575051969399 
 0.625000000000000  2.37500000000000  0.0393339037930048 
 0.625000000000000  2.50000000000000  0.0218813964899716 

 0.750000000000000 -2.50000000000000  0.00438342745442120 
 0.750000000000000 -2.37500000000000  0.00876276764968945 
 0.750000000000000 -2.25000000000000  0.0176021247028866 
 0.750000000000000 -2.12500000000000  0.0308986261541011 
 0.750000000000000 -2.00000000000000  0.0489487296562589 
 0.750000000000000 -1.87500000000000  0.0719764024090468 
 0.750000000000000 -1.75000000000000  0.100067973913129 
 0.750000000000000 -1.62500000000000  0.133229720324317 
 0.750000000000000 -1.50000000000000  0.171526420771701 
 0.750000000000000 -1.37500000000000  0.215291860376129 
 0.750000000000000 -1.25000000000000  0.265343666449120 
 0.750000000000000 -1.12500000000000  0.323052219630880 
 0.750000000000000 -1.00000000000000  0.390121707577925 
 0.750000000000000 -0.875000000000000  0.468073630116268 
 0.750000000000000 -0.750000000000000  0.557542408177031 
 0.750000000000000 -0.625000000000000  0.657504160977877 
 0.750000000000000 -0.500000000000000  0.764606019931701 
 0.750000000000000 -0.375000000000000  0.872935742998212 
 0.750000000000000 -0.250000000000000  0.974613578786626 
 0.750000000000000 -0.125000000000000  1.06124213316732 
 0.750000000000000  0.00000000000000  1.12570681818629 
 0.750000000000000  0.125000000000000  1.16354814169837 
 0.750000000000000  0.250000000000000  1.17337268382454 
 0.750000000000000  0.375000000000000  1.15633651460327 
 0.750000000000000  0.500000000000000  1.11518369458136 
 0.750000000000000  0.625000000000000  1.05336556345345 
 0.750000000000000  0.750000000000000  0.974509061309174 
 0.750000000000000  0.875000000000000  0.882257447266146 
 0.750000000000000  1.00000000000000  0.780401325754943 
 0.750000000000000  1.12500000000000  0.673134430715840 
 0.750000000000000  1.25000000000000  0.565159907176706 
 0.750000000000000  1.37500000000000  0.461392950705358 
 0.750000000000000  1.50000000000000  0.366254055823946 
 0.750000000000000  1.62500000000000  0.282867972165919 
 0.750000000000000  1.75000000000000  0.212610102285586 
 0.750000000000000  1.87500000000000  0.155251911022154 
 0.750000000000000  2.00000000000000  0.109575365392555 
 0.750000000000000  2.12500000000000  0.0740513368003463 
 0.750000000000000  2.25000000000000  0.0472345960155461 
 0.750000000000000  2.37500000000000  0.0278248100592199 
 0.750000000000000  2.50000000000000  0.0145733341799376 

 0.875000000000000 -2.50000000000000  0.00173748774160316 
 0.875000000000000 -2.37500000000000  0.00746427520444659 
 0.875000000000000 -2.25000000000000  0.0164704130287464 
 0.875000000000000 -2.12500000000000  0.0293598601997875 
 0.875000000000000 -2.00000000000000  0.0465911717301277 
 0.875000000000000 -1.87500000000000  0.0684782644838681 
 0.875000000000000 -1.75000000000000  0.0952769022483184 
 0.875000000000000 -1.62500000000000  0.127333693636640 
 0.875000000000000 -1.50000000000000  0.165241322114690 
 0.875000000000000 -1.37500000000000  0.209887111732742 
 0.875000000000000 -1.25000000000000  0.262273199883682 
 0.875000000000000 -1.12500000000000  0.323132941215996 
 0.875000000000000 -1.00000000000000  0.392624136695061 
 0.875000000000000 -0.875000000000000  0.470431093765993 
 0.875000000000000 -0.750000000000000  0.556210098833781 
 0.875000000000000 -0.625000000000000  0.649747022522358 
 0.875000000000000 -0.500000000000000  0.750162084999474 
 0.875000000000000 -0.375000000000000  0.854368356320649 
 0.875000000000000 -0.250000000000000  0.956030485942235 
 0.875000000000000 -0.125000000000000  1.04617839407237 
 0.875000000000000  0.00000000000000  1.11535083991246 
 0.875000000000000  0.125000000000000  1.15603677062025 
 0.875000000000000  0.250000000000000  1.16418905558022 
 0.875000000000000  0.375000000000000  1.13941311047048 
 0.875000000000000  0.500000000000000  1.08427326201612 
 0.875000000000000  0.625000000000000  1.00343120191826 
 0.875000000000000  0.750000000000000  0.903004320842034 
 0.875000000000000  0.875000000000000  0.790059962274005 
 0.875000000000000  1.00000000000000  0.672006148003842 
 0.875000000000000  1.12500000000000  0.555831551686876 
 0.875000000000000  1.25000000000000  0.447373660631729 
 0.875000000000000  1.37500000000000  0.350816388601848 
 0.875000000000000  1.50000000000000  0.268488006955108 
 0.875000000000000  1.62500000000000  0.200930679033175 
 0.875000000000000  1.75000000000000  0.147213203372894 
 0.875000000000000  1.87500000000000  0.105462951239066 
 0.875000000000000  2.00000000000000  0.0735042862455317 
 0.875000000000000  2.12500000000000  0.0493808264584958 
 0.875000000000000  2.25000000000000  0.0315802672254173 
 0.875000000000000  2.37500000000000  0.0189796895649566 
 0.875000000000000  2.50000000000000  0.0106870235494601 

 1.00000000000000 -2.50000000000000  0.00520502780177374 
 1.00000000000000 -2.37500000000000  0.0107385208327406 
 1.00000000000000 -2.25000000000000  0.0196899441562170 
 1.00000000000000 -2.12500000000000  0.0325304253009443 
 1.00000000000000 -2.00000000000000  0.0497456234756115 
 1.00000000000000 -1.87500000000000  0.0718077721015095 
 1.00000000000000 -1.75000000000000  0.0992615275882698 
 1.00000000000000 -1.62500000000000  0.132816593618698 
 1.00000000000000 -1.50000000000000  0.173305651354993 
 1.00000000000000 -1.37500000000000  0.221368512689643 
 1.00000000000000 -1.25000000000000  0.276878161533212 
 1.00000000000000 -1.12500000000000  0.338427183813262 
 1.00000000000000 -1.00000000000000  0.403419158065260 
 1.00000000000000 -0.875000000000000  0.469161151963797 
 1.00000000000000 -0.750000000000000  0.534704475902752 
 1.00000000000000 -0.625000000000000  0.602195105464941 
 1.00000000000000 -0.500000000000000  0.675909924082210 
 1.00000000000000 -0.375000000000000  0.758419768951545 
 1.00000000000000 -0.250000000000000  0.846481337528141 
 1.00000000000000 -0.125000000000000  0.930428631231215 
 1.00000000000000  0.00000000000000  0.997569622222758 
 1.00000000000000  0.125000000000000  1.03676628579693 
 1.00000000000000  0.250000000000000  1.04151373747079 
 1.00000000000000  0.375000000000000  1.01070511885535 
 1.00000000000000  0.500000000000000  0.947721542008779 
 1.00000000000000  0.625000000000000  0.858966408269895 
 1.00000000000000  0.750000000000000  0.752616017557577 
 1.00000000000000  0.875000000000000  0.637679390710488 
 1.00000000000000  1.00000000000000  0.523066079817641 
 1.00000000000000  1.12500000000000  0.416495937869896 
 1.00000000000000  1.25000000000000  0.323464456717238 
 1.00000000000000  1.37500000000000  0.246670887801557 
 1.00000000000000  1.50000000000000  0.186160024670571 
 1.00000000000000  1.62500000000000  0.140075315080521 
 1.00000000000000  1.75000000000000  0.105646362354776 
 1.00000000000000  1.87500000000000  0.0800227159337354 
 1.00000000000000  2.00000000000000  0.0607729580745867 
 1.00000000000000  2.12500000000000  0.0460740829832380 
 1.00000000000000  2.25000000000000  0.0346879574912498 
 1.00000000000000  2.37500000000000  0.0258188862523200 
 1.00000000000000  2.50000000000000  0.0189412873284813 

 1.12500000000000 -2.50000000000000  0.00848413394874134 
 1.12500000000000 -2.37500000000000  0.0147232431931502 
 1.12500000000000 -2.25000000000000  0.0242411803342450 
 1.12500000000000 -2.12500000000000  0.0376744738870452 
 1.12500000000000 -2.00000000000000  0.0556620440019695 
 1.12500000000000 -1.87500000000000  0.0788937449016570 
 1.12500000000000 -1.75000000000000  0.108168828969895 
 1.12500000000000 -1.62500000000000  0.144351068016471 
 1.12500000000000 -1.50000000000000  0.188069704026251 
 1.12500000000000 -1.37500000000000  0.239096946928658 
 1.12500000000000 -1.25000000000000  0.295567307196088 
 1.12500000000000 -1.12500000000000  0.353491982490638 
 1.12500000000000 -1.00000000000000  0.407174108902339 
 1.12500000000000 -0.875000000000000  0.451006455548127 
 1.12500000000000 -0.750000000000000  0.482649534104672 
 1.12500000000000 -0.625000000000000  0.506536268295204 
 1.12500000000000 -0.500000000000000  0.534679171990100 
 1.12500000000000 -0.375000000000000  0.580483660153971 
 1.12500000000000 -0.250000000000000  0.647344306438251 
 1.12500000000000 -0.125000000000000  0.724074034157340 
 1.12500000000000  0.00000000000000  0.792002319078181 
 1.12500000000000  0.125000000000000  0.834469570719330 
 1.12500000000000  0.250000000000000  0.841960376820450 
 1.12500000000000  0.375000000000000  0.812910942915080 
 1.12500000000000  0.500000000000000  0.752050551709589 
 1.12500000000000  0.625000000000000  0.667946670405798 
 1.12500000000000  0.750000000000000  0.570861090893180 
 1.12500000000000  0.875000000000000  0.471246839975926 
 1.12500000000000  1.00000000000000  0.378582423834443 
 1.12500000000000  1.12500000000000  0.300111398873175 
 1.12500000000000  1.25000000000000  0.239436793329717 
 1.12500000000000  1.37500000000000  0.195675660597413 
 1.12500000000000  1.50000000000000  0.164423248113821 
 1.12500000000000  1.62500000000000  0.140495428984561 
 1.12500000000000  1.75000000000000  0.120225195941826 
 1.12500000000000  1.87500000000000  0.101850579492262 
 1.12500000000000  2.00000000000000  0.0848048340520846 
 1.12500000000000  2.12500000000000  0.0690433064722344 
 1.12500000000000  2.25000000000000  0.0547192265419661 
 1.12500000000000  2.37500000000000  0.0420543783895233 
 1.12500000000000  2.50000000000000  0.0312506711140246 

 1.25000000000000 -2.50000000000000  0.0109873101764281 
 1.25000000000000 -2.37500000000000  0.0179887477115800 
 1.25000000000000 -2.25000000000000  0.0282388382437784 
 1.25000000000000 -2.12500000000000  0.0424686742854577 
 1.25000000000000 -2.00000000000000  0.0614553540135146 
 1.25000000000000 -1.87500000000000  0.0860623015654964 
 1.25000000000000 -1.75000000000000  0.117227605993758 
 1.25000000000000 -1.62500000000000  0.155771511692432 
 1.25000000000000 -1.50000000000000  0.201901716863028 
 1.25000000000000 -1.37500000000000  0.254423445743705 
 1.25000000000000 -1.25000000000000  0.309887608681259 
 1.25000000000000 -1.12500000000000  0.362126274630857 
 1.25000000000000 -1.00000000000000  0.402712825332993 
 1.25000000000000 -0.875000000000000  0.422794562341094 
 1.25000000000000 -0.750000000000000  0.416545132970438 
 1.25000000000000 -0.625000000000000  0.386388884237462 
 1.25000000000000 -0.500000000000000  0.349858050085889 
 1.25000000000000 -0.375000000000000  0.341648254300065 
 1.25000000000000 -0.250000000000000  0.387323095696747 
 1.25000000000000 -0.125000000000000  0.470046803288560 
 1.25000000000000  0.00000000000000  0.554175945811731 
 1.25000000000000  0.125000000000000  0.613683389595454 
 1.25000000000000  0.250000000000000  0.636356485431021 
 1.25000000000000  0.375000000000000  0.621241609143526 
 1.25000000000000  0.500000000000000  0.575269091958542 
 1.25000000000000  0.625000000000000  0.509777880932979 
 1.25000000000000  0.750000000000000  0.437469753196905 
 1.25000000000000  0.875000000000000  0.369967838855398 
 1.25000000000000  1.00000000000000  0.315545389262344 
 1.25000000000000  1.12500000000000  0.276907507074421 
 1.25000000000000  1.25000000000000  0.250725625852087 
 1.25000000000000  1.37500000000000  0.230628761506231 
 1.25000000000000  1.50000000000000  0.211318173653284 
 1.25000000000000  1.62500000000000  0.190343928935493 
 1.25000000000000  1.75000000000000  0.167529948176246 
 1.25000000000000  1.87500000000000  0.143751621236896 
 1.25000000000000  2.00000000000000  0.120085154010335 
 1.25000000000000  2.12500000000000  0.0974758641688449 
 1.25000000000000  2.25000000000000  0.0766934205971020 
 1.25000000000000  2.37500000000000  0.0583380372338491 
 1.25000000000000  2.50000000000000  0.0428082397149458 

 1.37500000000000 -2.50000000000000  0.0126273996177963 
 1.37500000000000 -2.37500000000000  0.0201205985317111 
 1.37500000000000 -2.25000000000000  0.0308478962358064 
 1.37500000000000 -2.12500000000000  0.0455890210759004 
 1.37500000000000 -2.00000000000000  0.0652090442252596 
 1.37500000000000 -1.87500000000000  0.0906719868451863 
 1.37500000000000 -1.75000000000000  0.122958927102144 
 1.37500000000000 -1.62500000000000  0.162771517062906 
 1.37500000000000 -1.50000000000000  0.209944404093014 
 1.37500000000000 -1.37500000000000  0.262627184732650 
 1.37500000000000 -1.25000000000000  0.316480593991235 
 1.37500000000000 -1.12500000000000  0.364276362293678 
 1.37500000000000 -1.00000000000000  0.396315612652554 
 1.37500000000000 -0.875000000000000  0.401931317815452 
 1.37500000000000 -0.750000000000000  0.372016514158237 
 1.37500000000000 -0.625000000000000  0.302170845680718 
 1.37500000000000 -0.500000000000000  0.196449647318234 
 1.37500000000000 -0.375000000000000  0.0843357781906548 
 1.37500000000000 -0.250000000000000  0.134915435245500 
 1.37500000000000 -0.125000000000000  0.272431712201107 
 1.37500000000000  0.00000000000000  0.394696207208208 
 1.37500000000000  0.125000000000000  0.482104546423432 
 1.37500000000000  0.250000000000000  0.528286855898927 
 1.37500000000000  0.375000000000000  0.535944266406645 
 1.37500000000000  0.500000000000000  0.514491316784674 
 1.37500000000000  0.625000000000000  0.476714793350600 
 1.37500000000000  0.750000000000000  0.435007272899083 
 1.37500000000000  0.875000000000000  0.397995594745770 
 1.37500000000000  1.00000000000000  0.368663603425369 
 1.37500000000000  1.12500000000000  0.345065936322064 
 1.37500000000000  1.25000000000000  0.323178611824397 
 1.37500000000000  1.37500000000000  0.299695231376845 
 1.37500000000000  1.50000000000000  0.273199863173215 
 1.37500000000000  1.62500000000000  0.243903001629406 
 1.37500000000000  1.75000000000000  0.212853540119612 
 1.37500000000000  1.87500000000000  0.181298400025431 
 1.37500000000000  2.00000000000000  0.150398745866801 
 1.37500000000000  2.12500000000000  0.121188970556799 
 1.37500000000000  2.25000000000000  0.0945806122784027 
 1.37500000000000  2.37500000000000  0.0713071984193369 
 1.37500000000000  2.50000000000000  0.0518291856976414 

 1.50000000000000 -2.50000000000000  0.0133786204395172 
 1.50000000000000 -2.37500000000000  0.0209797237942173 
 1.50000000000000 -2.25000000000000  0.0317262061739180 
 1.50000000000000 -2.12500000000000  0.0464093500233716 
 1.50000000000000 -2.00000000000000  0.0659318533768083 
 1.50000000000000 -1.87500000000000  0.0912975389894363 
 1.50000000000000 -1.75000000000000  0.123483507347948 
 1.50000000000000 -1.62500000000000  0.163101765715548 
 1.50000000000000 -1.50000000000000  0.209820236212139 
 1.50000000000000 -1.37500000000000  0.261637794607886 
 1.50000000000000 -1.25000000000000  0.314245851800246 
 1.50000000000000 -1.12500000000000  0.360806852347894 
 1.50000000000000 -1.00000000000000  0.392494825756145 
 1.50000000000000 -0.875000000000000  0.400043216850608 
 1.50000000000000 -0.750000000000000  0.376369880813994 
 1.50000000000000 -0.625000000000000  0.320414540291342 
 1.50000000000000 -0.500000000000000  0.244047174784951 
 1.50000000000000 -0.375000000000000  0.190253753836484 
 1.50000000000000 -0.250000000000000  0.227342744590997 
 1.50000000000000 -0.125000000000000  0.329729164222022 
 1.50000000000000  0.00000000000000  0.436894007051944 
 1.50000000000000  0.125000000000000  0.520857867521295 
 1.50000000000000  0.250000000000000  0.571635240352557 
 1.50000000000000  0.375000000000000  0.589645085344942 
 1.50000000000000  0.500000000000000  0.581838970819556 
 1.50000000000000  0.625000000000000  0.557876635752498 
 1.50000000000000  0.750000000000000  0.526513849377325 
 1.50000000000000  0.875000000000000  0.493260541866104 
 1.50000000000000  1.00000000000000  0.460045357864677 
 1.50000000000000  1.12500000000000  0.426539853050607 
 1.50000000000000  1.25000000000000  0.391887588413851 
 1.50000000000000  1.37500000000000  0.355746429610513 
 1.50000000000000  1.50000000000000  0.318427135720930 
 1.50000000000000  1.62500000000000  0.280556788256610 
 1.50000000000000  1.75000000000000  0.242772448339581 
 1.50000000000000  1.87500000000000  0.205671194606854 
 1.50000000000000  2.00000000000000  0.169929667356600 
 1.50000000000000  2.12500000000000  0.136384919638775 
 1.50000000000000  2.25000000000000  0.105959491030638 
 1.50000000000000  2.37500000000000  0.0794682986343385 
 1.50000000000000  2.50000000000000  0.0574231514994962 

 1.62500000000000 -2.50000000000000  0.0132781425862073 
 1.62500000000000 -2.37500000000000  0.0205854836958227 
 1.62500000000000 -2.25000000000000  0.0308361291410936 
 1.62500000000000 -2.12500000000000  0.0447969675161224 
 1.62500000000000 -2.00000000000000  0.0633633426780992 
 1.62500000000000 -1.87500000000000  0.0875342804903684 
 1.62500000000000 -1.75000000000000  0.118267170463743 
 1.62500000000000 -1.62500000000000  0.156152268282194 
 1.62500000000000 -1.50000000000000  0.200918674964997 
 1.62500000000000 -1.37500000000000  0.250884225279052 
 1.62500000000000 -1.25000000000000  0.302552669148788 
 1.62500000000000 -1.12500000000000  0.350621864886974 
 1.62500000000000 -1.00000000000000  0.388683676991142 
 1.62500000000000 -0.875000000000000  0.410849270639992 
 1.62500000000000 -0.750000000000000  0.414408215578221 
 1.62500000000000 -0.625000000000000  0.403351083091553 
 1.62500000000000 -0.500000000000000  0.391454658223803 
 1.62500000000000 -0.375000000000000  0.399716871081618 
 1.62500000000000 -0.250000000000000  0.441515012863069 
 1.62500000000000 -0.125000000000000  0.509218351881710 
 1.62500000000000  0.00000000000000  0.582590777360318 
 1.62500000000000  0.125000000000000  0.643389150388661 
 1.62500000000000  0.250000000000000  0.681227258119277 
 1.62500000000000  0.375000000000000  0.693575134569909 
 1.62500000000000  0.500000000000000  0.683536765223178 
 1.62500000000000  0.625000000000000  0.656892519940334 
 1.62500000000000  0.750000000000000  0.619460394600881 
 1.62500000000000  0.875000000000000  0.575616340499763 
 1.62500000000000  1.00000000000000  0.528172911310106 
 1.62500000000000  1.12500000000000  0.479050035646473 
 1.62500000000000  1.25000000000000  0.429889205436723 
 1.62500000000000  1.37500000000000  0.382135403850581 
 1.62500000000000  1.50000000000000  0.336722300242614 
 1.62500000000000  1.62500000000000  0.293836561995008 
 1.62500000000000  1.75000000000000  0.253101894373150 
 1.62500000000000  1.87500000000000  0.214096131260970 
 1.62500000000000  2.00000000000000  0.176821697262912 
 1.62500000000000  2.12500000000000  0.141836972240138 
 1.62500000000000  2.25000000000000  0.110046963989059 
 1.62500000000000  2.37500000000000  0.0823469958886579 
 1.62500000000000  2.50000000000000  0.0593206668597596 

 1.75000000000000 -2.50000000000000  0.0124339002829553 
 1.75000000000000 -2.37500000000000  0.0190917663931414 
 1.75000000000000 -2.25000000000000  0.0283789509179497 
 1.75000000000000 -2.12500000000000  0.0410071858826334 
 1.75000000000000 -2.00000000000000  0.0578286137282350 
 1.75000000000000 -1.87500000000000  0.0798047799347461 
 1.75000000000000 -1.75000000000000  0.107864040939615 
 1.75000000000000 -1.62500000000000  0.142622603208450 
 1.75000000000000 -1.50000000000000  0.184015339476592 
 1.75000000000000 -1.37500000000000  0.230950610443917 
 1.75000000000000 -1.25000000000000  0.281140077353054 
 1.75000000000000 -1.12500000000000  0.331262546132288 
 1.75000000000000 -1.00000000000000  0.377602008648180 
 1.75000000000000 -0.875000000000000  0.417218833551946 
 1.75000000000000 -0.750000000000000  0.449489082989774 
 1.75000000000000 -0.625000000000000  0.477381579082701 
 1.75000000000000 -0.500000000000000  0.507210368148149 
 1.75000000000000 -0.375000000000000  0.545656598263749 
 1.75000000000000 -0.250000000000000  0.595098588246500 
 1.75000000000000 -0.125000000000000  0.651162013757010 
 1.75000000000000  0.00000000000000  0.704767520628075 
 1.75000000000000  0.125000000000000  0.746410753688298 
 1.75000000000000  0.250000000000000  0.769492163710048 
 1.75000000000000  0.375000000000000  0.771536160605353 
 1.75000000000000  0.500000000000000  0.753646006416646 
 1.75000000000000  0.625000000000000  0.719066149454690 
 1.75000000000000  0.750000000000000  0.671769128852722 
 1.75000000000000  0.875000000000000  0.615673502105764 
 1.75000000000000  1.00000000000000  0.554536800430828 
 1.75000000000000  1.12500000000000  0.492083274977371 
 1.75000000000000  1.25000000000000  0.431845753065945 
 1.75000000000000  1.37500000000000  0.376550934617198 
 1.75000000000000  1.50000000000000  0.327394955404667 
 1.75000000000000  1.62500000000000  0.283840998034335 
 1.75000000000000  1.75000000000000  0.244270057682287 
 1.75000000000000  1.87500000000000  0.207094309401212 
 1.75000000000000  2.00000000000000  0.171580421695466 
 1.75000000000000  2.12500000000000  0.137993889959280 
 1.75000000000000  2.25000000000000  0.107223328821868 
 1.75000000000000  2.37500000000000  0.0802542654062670 
 1.75000000000000  2.50000000000000  0.0577664588722013 

 1.87500000000000 -2.50000000000000  0.0110168517296565 
 1.87500000000000 -2.37500000000000  0.0167612393770872 
 1.87500000000000 -2.25000000000000  0.0247399066034891 
 1.87500000000000 -2.12500000000000  0.0355906652913262 
 1.87500000000000 -2.00000000000000  0.0501008494973282 
 1.87500000000000 -1.87500000000000  0.0691723330119215 
 1.87500000000000 -1.75000000000000  0.0936875910458111 
 1.87500000000000 -1.62500000000000  0.124286047181439 
 1.87500000000000 -1.50000000000000  0.161124588926382 
 1.87500000000000 -1.37500000000000  0.203725517220636 
 1.87500000000000 -1.25000000000000  0.250991239014817 
 1.87500000000000 -1.12500000000000  0.301409831509652 
 1.87500000000000 -1.00000000000000  0.353417726034406 
 1.87500000000000 -0.875000000000000  0.405831968013222 
 1.87500000000000 -0.750000000000000  0.458200837979615 
 1.87500000000000 -0.625000000000000  0.510854278242197 
 1.87500000000000 -0.500000000000000  0.564451378509300 
 1.87500000000000 -0.375000000000000  0.619055926177388 
 1.87500000000000 -0.250000000000000  0.673179992246206 
 1.87500000000000 -0.125000000000000  0.723443340820469 
 1.87500000000000  0.00000000000000  0.765172410013922 
 1.87500000000000  0.125000000000000  0.793645051436350 
 1.87500000000000  0.250000000000000  0.805328096059619 
 1.87500000000000  0.375000000000000  0.798572116648328 
 1.87500000000000  0.500000000000000  0.773627275463641 
 1.87500000000000  0.625000000000000  0.732229217325135 
 1.87500000000000  0.750000000000000  0.677158449683257 
 1.87500000000000  0.875000000000000  0.612032256641555 
 1.87500000000000  1.00000000000000  0.541267299149267 
 1.87500000000000  1.12500000000000  0.469897624075777 
 1.87500000000000  1.25000000000000  0.402930730588682 
 1.87500000000000  1.37500000000000  0.344203375384260 
 1.87500000000000  1.50000000000000  0.295191184677689 
 1.87500000000000  1.62500000000000  0.254652463231381 
 1.87500000000000  1.75000000000000  0.219662484517848 
 1.87500000000000  1.87500000000000  0.187392796174189 
 1.87500000000000  2.00000000000000  0.156345156360241 
 1.87500000000000  2.12500000000000  0.126492415826904 
 1.87500000000000  2.25000000000000  0.0987099027980713 
 1.87500000000000  2.37500000000000  0.0740775900665121 
 1.87500000000000  2.50000000000000  0.0533869258446263 

 2.00000000000000 -2.50000000000000  0.00923860537247744 
 2.00000000000000 -2.37500000000000  0.0139248222895392 
 2.00000000000000 -2.25000000000000  0.0204195528315986 
 2.00000000000000 -2.12500000000000  0.0292869689627108 
 2.00000000000000 -2.00000000000000  0.0412488903948142 
 2.00000000000000 -1.87500000000000  0.0571397871076399 
 2.00000000000000 -1.75000000000000  0.0777725947655202 
 2.00000000000000 -1.62500000000000  0.103758362671585 
 2.00000000000000 -1.50000000000000  0.135376864770979 
 2.00000000000000 -1.37500000000000  0.172585391457878 
 2.00000000000000 -1.25000000000000  0.215172487755319 
 2.00000000000000 -1.12500000000000  0.262951111315778 
 2.00000000000000 -1.00000000000000  0.315815661656555 
 2.00000000000000 -0.875000000000000  0.373543716819982 
 2.00000000000000 -0.750000000000000  0.435412100912006 
 2.00000000000000 -0.625000000000000  0.499872715420053 
 2.00000000000000 -0.500000000000000  0.564513803111982 
 2.00000000000000 -0.375000000000000  0.626324897514104 
 2.00000000000000 -0.250000000000000  0.682092923301415 
 2.00000000000000 -0.125000000000000  0.728740392581643 
 2.00000000000000  0.00000000000000  0.763537267492793 
 2.00000000000000  0.125000000000000  0.784231859089864 
 2.00000000000000  0.250000000000000  0.789163915813814 
 2.00000000000000  0.375000000000000  0.777377966433629 
 2.00000000000000  0.500000000000000  0.748734015488721 
 2.00000000000000  0.625000000000000  0.704040149389914 
 2.00000000000000  0.750000000000000  0.645241712969857 
 2.00000000000000  0.875000000000000  0.575630752817916 
 2.00000000000000  1.00000000000000  0.499918411697378 
 2.00000000000000  1.12500000000000  0.423940813005849 
 2.00000000000000  1.25000000000000  0.353806265773937 
 2.00000000000000  1.37500000000000  0.294447657882839 
 2.00000000000000  1.50000000000000  0.247936004267950 
 2.00000000000000  1.62500000000000  0.212635476415651 
 2.00000000000000  1.75000000000000  0.184374911739250 
 2.00000000000000  1.87500000000000  0.159006147028289 
 2.00000000000000  2.00000000000000  0.134214347139273 
 2.00000000000000  2.12500000000000  0.109667794369264 
 2.00000000000000  2.25000000000000  0.0862213890714099 
 2.00000000000000  2.37500000000000  0.0650408116908597 
 2.00000000000000  2.50000000000000  0.0470292035766712 

 2.12500000000000 -2.50000000000000  0.00732164668744857 
 2.12500000000000 -2.37500000000000  0.0109335449731979 
 2.12500000000000 -2.25000000000000  0.0159589118452150 
 2.12500000000000 -2.12500000000000  0.0229139369622813 
 2.12500000000000 -2.00000000000000  0.0324811426182610 
 2.12500000000000 -1.87500000000000  0.0454394437832795 
 2.12500000000000 -1.75000000000000  0.0625112805689676 
 2.12500000000000 -1.62500000000000  0.0842041504538279 
 2.12500000000000 -1.50000000000000  0.110759750939580 
 2.12500000000000 -1.37500000000000  0.142283285845615 
 2.12500000000000 -1.25000000000000  0.179010882504669 
 2.12500000000000 -1.12500000000000  0.221518658242502 
 2.12500000000000 -1.00000000000000  0.270596418303586 
 2.12500000000000 -0.875000000000000  0.326668546624497 
 2.12500000000000 -0.750000000000000  0.389026810908257 
 2.12500000000000 -0.625000000000000  0.455389641613450 
 2.12500000000000 -0.500000000000000  0.522115743736789 
 2.12500000000000 -0.375000000000000  0.584960827177788 
 2.12500000000000 -0.250000000000000  0.639970708397120 
 2.12500000000000 -0.125000000000000  0.684103425288800 
 2.12500000000000  0.00000000000000  0.715380524399115 
 2.12500000000000  0.125000000000000  0.732635245727478 
 2.12500000000000  0.250000000000000  0.735115793872055 
 2.12500000000000  0.375000000000000  0.722231070883064 
 2.12500000000000  0.500000000000000  0.693607974356470 
 2.12500000000000  0.625000000000000  0.649455561733544 
 2.12500000000000  0.750000000000000  0.591089504595152 
 2.12500000000000  0.875000000000000  0.521394553818075 
 2.12500000000000  1.00000000000000  0.444997296384397 
 2.12500000000000  1.12500000000000  0.367982206177600 
 2.12500000000000  1.25000000000000  0.297070557655540 
 2.12500000000000  1.37500000000000  0.238210966108573 
 2.12500000000000  1.50000000000000  0.194596871862595 
 2.12500000000000  1.62500000000000  0.164924256317857 
 2.12500000000000  1.75000000000000  0.144039833988616 
 2.12500000000000  1.87500000000000  0.126344273244214 
 2.12500000000000  2.00000000000000  0.108579078232834 
 2.12500000000000  2.12500000000000  0.0900656560570414 
 2.12500000000000  2.25000000000000  0.0716173285370986 
 2.12500000000000  2.37500000000000  0.0544625395943901 
 2.12500000000000  2.50000000000000  0.0395990352554849 

 2.25000000000000 -2.50000000000000  0.00547093897006667 
 2.25000000000000 -2.37500000000000  0.00811517866598852 
 2.25000000000000 -2.25000000000000  0.0118749205438686 
 2.25000000000000 -2.12500000000000  0.0172710122831496 
 2.25000000000000 -2.00000000000000  0.0249942982327019 
 2.25000000000000 -1.87500000000000  0.0357907348660174 
 2.25000000000000 -1.75000000000000  0.0502805773121888 
 2.25000000000000 -1.62500000000000  0.0688117671845696 
 2.25000000000000 -1.50000000000000  0.0914518664559902 
 2.25000000000000 -1.37500000000000  0.118179935258869 
 2.25000000000000 -1.25000000000000  0.149234770878661 
 2.25000000000000 -1.12500000000000  0.185402082986716 
 2.25000000000000 -1.00000000000000  0.227897588938920 
 2.25000000000000 -0.875000000000000  0.277668574389300 
 2.25000000000000 -0.750000000000000  0.334428873387314 
 2.25000000000000 -0.625000000000000  0.396081296414727 
 2.25000000000000 -0.500000000000000  0.458930541954779 
 2.25000000000000 -0.375000000000000  0.518541662632852 
 2.25000000000000 -0.250000000000000  0.570776002219398 
 2.25000000000000 -0.125000000000000  0.612545582631023 
 2.25000000000000  0.00000000000000  0.642029449743222 
 2.25000000000000  0.125000000000000  0.658371505702454 
 2.25000000000000  0.250000000000000  0.661126157352509 
 2.25000000000000  0.375000000000000  0.649824504518818 
 2.25000000000000  0.500000000000000  0.623939960399994 
 2.25000000000000  0.625000000000000  0.583294505890122 
 2.25000000000000  0.750000000000000  0.528708451695248 
 2.25000000000000  0.875000000000000  0.462580212758120 
 2.25000000000000  1.00000000000000  0.389119696380544 
 2.25000000000000  1.12500000000000  0.314104471819401 
 2.25000000000000  1.25000000000000  0.244193109451667 
 2.25000000000000  1.37500000000000  0.185866372746784 
 2.25000000000000  1.50000000000000  0.143776971747401 
 2.25000000000000  1.62500000000000  0.118206016050031 
 2.25000000000000  1.75000000000000  0.103837786217111 
 2.25000000000000  1.87500000000000  0.0934501902699124 
 2.25000000000000  2.00000000000000  0.0825533155108976 
 2.25000000000000  2.12500000000000  0.0700259625237434 
 2.25000000000000  2.25000000000000  0.0566063208190280 
 2.25000000000000  2.37500000000000  0.0435522267819755 
 2.25000000000000  2.50000000000000  0.0319247438393119 

 2.37500000000000 -2.50000000000000  0.00385447459297641 
 2.37500000000000 -2.37500000000000  0.00574633321157471 
 2.37500000000000 -2.25000000000000  0.00861442146547571 
 2.37500000000000 -2.12500000000000  0.0130407017586885 
 2.37500000000000 -2.00000000000000  0.0197483388837936 
 2.37500000000000 -1.87500000000000  0.0294477454226603 
 2.37500000000000 -1.75000000000000  0.0426622030361937 
 2.37500000000000 -1.62500000000000  0.0596016279682155 
 2.37500000000000 -1.50000000000000  0.0801535239869806 
 2.37500000000000 -1.37500000000000  0.104055798376069 
 2.37500000000000 -1.25000000000000  0.131247172768325 
 2.37500000000000 -1.12500000000000  0.162232656741887 
 2.37500000000000 -1.00000000000000  0.198132718080254 
 2.37500000000000 -0.875000000000000  0.240138059660108 
 2.37500000000000 -0.750000000000000  0.288535212101237 
 2.37500000000000 -0.625000000000000  0.341944210833613 
 2.37500000000000 -0.500000000000000  0.397311137597338 
 2.37500000000000 -0.375000000000000  0.450629901802194 
 2.37500000000000 -0.250000000000000  0.497953644610923 
 2.37500000000000 -0.125000000000000  0.536218210862208 
 2.37500000000000  0.00000000000000  0.563576184208154 
 2.37500000000000  0.125000000000000  0.579191227262468 
 2.37500000000000  0.250000000000000  0.582696795636201 
 2.37500000000000  0.375000000000000  0.573686831686373 
 2.37500000000000  0.500000000000000  0.551578409553415 
 2.37500000000000  0.625000000000000  0.515959760263218 
 2.37500000000000  0.750000000000000  0.467247138015787 
 2.37500000000000  0.875000000000000  0.407303561551718 
 2.37500000000000  1.00000000000000  0.339704202708167 
 2.37500000000000  1.12500000000000  0.269516190938703 
 2.37500000000000  1.25000000000000  0.202686835768646 
 2.37500000000000  1.37500000000000  0.145291805873758 
 2.37500000000000  1.50000000000000  0.102751455464415 
 2.37500000000000  1.62500000000000  0.0780429958416789 
 2.37500000000000  1.75000000000000  0.0678452368150581 
 2.37500000000000  1.87500000000000  0.0634738425501481 
 2.37500000000000  2.00000000000000  0.0585804719044798 
 2.37500000000000  2.12500000000000  0.0513964656820933 
 2.37500000000000  2.25000000000000  0.0425430449274086 
 2.37500000000000  2.37500000000000  0.0332709565935384 
 2.37500000000000  2.50000000000000  0.0246649968454859 

 2.50000000000000 -2.50000000000000  0.00259703197087291 
 2.50000000000000 -2.37500000000000  0.00403749609998396 
 2.50000000000000 -2.25000000000000  0.00648624193681351 
 2.50000000000000 -2.12500000000000  0.0105698591754626 
 2.50000000000000 -2.00000000000000  0.0169917686141698 
 2.50000000000000 -1.87500000000000  0.0264110876293598 
 2.50000000000000 -1.75000000000000  0.0393087902313898 
 2.50000000000000 -1.62500000000000  0.0558659775476905 
 2.50000000000000 -1.50000000000000  0.0759178907005281 
 2.50000000000000 -1.37500000000000  0.0990550001892836 
 2.50000000000000 -1.25000000000000  0.124894585439565 
 2.50000000000000 -1.12500000000000  0.153431659275479 
 2.50000000000000 -1.00000000000000  0.185231211420037 
 2.50000000000000 -0.875000000000000  0.221182384166220 
 2.50000000000000 -0.750000000000000  0.261779876451214 
 2.50000000000000 -0.625000000000000  0.306338219575756 
 2.50000000000000 -0.500000000000000  0.352703247423085 
 2.50000000000000 -0.375000000000000  0.397666106272054 
 2.50000000000000 -0.250000000000000  0.437809961780751 
 2.50000000000000 -0.125000000000000  0.470336074020192 
 2.50000000000000  0.00000000000000  0.493510843206406 
 2.50000000000000  0.125000000000000  0.506594290246696 
 2.50000000000000  0.250000000000000  0.509365985364606 
 2.50000000000000  0.375000000000000  0.501577171120350 
 2.50000000000000  0.500000000000000  0.482707122718596 
 2.50000000000000  0.625000000000000  0.452215904250076 
 2.50000000000000  0.750000000000000  0.410166207951401 
 2.50000000000000  0.875000000000000  0.357859669115792 
 2.50000000000000  1.00000000000000  0.298138965357312 
 2.50000000000000  1.12500000000000  0.235199553672750 
 2.50000000000000  1.25000000000000  0.173997085952929 
 2.50000000000000  1.37500000000000  0.119531423660595 
 2.50000000000000  1.50000000000000  0.0764182058244375 
 2.50000000000000  1.62500000000000  0.0489613339464216 
 2.50000000000000  1.75000000000000  0.0388543633713782 
 2.50000000000000  1.87500000000000  0.0384274575340382 
 2.50000000000000  2.00000000000000  0.0382486297674204 
 2.50000000000000  2.12500000000000  0.0353978377022039 
 2.50000000000000  2.25000000000000  0.0303324364293709 
 2.50000000000000  2.37500000000000  0.0242659148421749 
 2.50000000000000  2.50000000000000  0.0182657660146701 

