-2.50000000000000 -2.50000000000000  0.0164190765956221 
-2.50000000000000 -2.37500000000000  0.0267719316410430 
-2.50000000000000 -2.25000000000000  0.0425712477539665 
-2.50000000000000 -2.12500000000000  0.0659767062731505 
-2.50000000000000 -2.00000000000000  0.0996105474379919 
-2.50000000000000 -1.87500000000000  0.146472775787272 
-2.50000000000000 -1.75000000000000  0.209768406084762 
-2.50000000000000 -1.62500000000000  0.292642969452023 
-2.50000000000000 -1.50000000000000  0.397834881866130 
-2.50000000000000 -1.37500000000000  0.527264454122630 
-2.50000000000000 -1.25000000000000  0.681588190075018 
-2.50000000000000 -1.12500000000000  0.859755290514305 
-2.50000000000000 -1.00000000000000  1.05861457716462 
-2.50000000000000 -0.875000000000000  1.27263658676465 
-2.50000000000000 -0.750000000000000  1.49383389457283 
-2.50000000000000 -0.625000000000000  1.71197156884320 
-2.50000000000000 -0.500000000000000  1.91514307998808 
-2.50000000000000 -0.375000000000000  2.09073291314153 
-2.50000000000000 -0.250000000000000  2.22669769184564 
-2.50000000000000 -0.125000000000000  2.31299463704182 
-2.50000000000000  0.00000000000000  2.34290643643665 
-2.50000000000000  0.125000000000000  2.31399193280066 
-2.50000000000000  0.250000000000000  2.22845104676889 
-2.50000000000000  0.375000000000000  2.09281861238947 
-2.50000000000000  0.500000000000000  1.91705609173710 
-2.50000000000000  0.625000000000000  1.71324144538516 
-2.50000000000000  0.750000000000000  1.49412491805563 
-2.50000000000000  0.875000000000000  1.27180797063120 
-2.50000000000000  1.00000000000000  1.05672960685728 
-2.50000000000000  1.12500000000000  0.857043522010306 
-2.50000000000000  1.25000000000000  0.678377092592233 
-2.50000000000000  1.37500000000000  0.523902505688653 
-2.50000000000000  1.50000000000000  0.394626225853031 
-2.50000000000000  1.62500000000000  0.289806288113268 
-2.50000000000000  1.75000000000000  0.207423262605478 
-2.50000000000000  1.87500000000000  0.144648800767148 
-2.50000000000000  2.00000000000000  0.0982705382796505 
-2.50000000000000  2.12500000000000  0.0650441947787141 
-2.50000000000000  2.25000000000000  0.0419552697132446 
-2.50000000000000  2.37500000000000  0.0263850191393177 
-2.50000000000000  2.50000000000000  0.0161875479517966 

-2.37500000000000 -2.50000000000000  0.0217689231181246 
-2.37500000000000 -2.37500000000000  0.0352126917956365 
-2.37500000000000 -2.25000000000000  0.0555924879708985 
-2.37500000000000 -2.12500000000000  0.0856212733636348 
-2.37500000000000 -2.00000000000000  0.128595212806464 
-2.37500000000000 -1.87500000000000  0.188296109661592 
-2.37500000000000 -1.75000000000000  0.268787178647660 
-2.37500000000000 -1.62500000000000  0.374095541065669 
-2.37500000000000 -1.50000000000000  0.507787947991153 
-2.37500000000000 -1.37500000000000  0.672457801926051 
-2.37500000000000 -1.25000000000000  0.869151570375387 
-2.37500000000000 -1.12500000000000  1.09677504191134 
-2.37500000000000 -1.00000000000000  1.35154017170797 
-2.37500000000000 -0.875000000000000  1.62654343789813 
-2.37500000000000 -0.750000000000000  1.91159906679843 
-2.37500000000000 -0.625000000000000  2.19346637483624 
-2.37500000000000 -0.500000000000000  2.45658605230302 
-2.37500000000000 -0.375000000000000  2.68435993655595 
-2.37500000000000 -0.250000000000000  2.86087907198973 
-2.37500000000000 -0.125000000000000  2.97285930660258 
-2.37500000000000  0.00000000000000  3.01143455104373 
-2.37500000000000  0.125000000000000  2.97343472866787 
-2.37500000000000  0.250000000000000  2.86186126164093 
-2.37500000000000  0.375000000000000  2.68544951782254 
-2.37500000000000  0.500000000000000  2.45742002978322 
-2.37500000000000  0.625000000000000  2.19369876848747 
-2.37500000000000  0.750000000000000  1.91097612478496 
-2.37500000000000  0.875000000000000  1.62495579922067 
-2.37500000000000  1.00000000000000  1.34904037464021 
-2.37500000000000  1.12500000000000  1.09355812342929 
-2.37500000000000  1.25000000000000  0.865506446934276 
-2.37500000000000  1.37500000000000  0.668704397209065 
-2.37500000000000  1.50000000000000  0.504217210471474 
-2.37500000000000  1.62500000000000  0.370926167169330 
-2.37500000000000  1.75000000000000  0.266145829301075 
-2.37500000000000  1.87500000000000  0.186220207687755 
-2.37500000000000  2.00000000000000  0.127051775316737 
-2.37500000000000  2.12500000000000  0.0845330035341763 
-2.37500000000000  2.25000000000000  0.0548632634038767 
-2.37500000000000  2.37500000000000  0.0347473611377412 
-2.37500000000000  2.50000000000000  0.0214854836094793 

-2.25000000000000 -2.50000000000000  0.0283836499847981 
-2.25000000000000 -2.37500000000000  0.0455168533338275 
-2.25000000000000 -2.25000000000000  0.0712728610153417 
-2.25000000000000 -2.12500000000000  0.108948666734169 
-2.25000000000000 -2.00000000000000  0.162541087019904 
-2.25000000000000 -1.87500000000000  0.236635791237258 
-2.25000000000000 -1.75000000000000  0.336171930267063 
-2.25000000000000 -1.62500000000000  0.466072155556821 
-2.25000000000000 -1.50000000000000  0.630740871246686 
-2.25000000000000 -1.37500000000000  0.833445191416257 
-2.25000000000000 -1.25000000000000  1.07560511360027 
-2.25000000000000 -1.12500000000000  1.35603817173937 
-2.25000000000000 -1.00000000000000  1.67023608686145 
-2.25000000000000 -0.875000000000000  2.00979649495085 
-2.25000000000000 -0.750000000000000  2.36217805360877 
-2.25000000000000 -0.625000000000000  2.71096545322229 
-2.25000000000000 -0.500000000000000  3.03679263259784 
-2.25000000000000 -0.375000000000000  3.31896233098617 
-2.25000000000000 -0.250000000000000  3.53763120049861 
-2.25000000000000 -0.125000000000000  3.67624733944745 
-2.25000000000000  0.00000000000000  3.72379593372751 
-2.25000000000000  0.125000000000000  3.67638711014807 
-2.25000000000000  0.250000000000000  3.53783269648641 
-2.25000000000000  0.375000000000000  3.31908058523362 
-2.25000000000000  0.500000000000000  3.03663879276981 
-2.25000000000000  0.625000000000000  2.71034139454622 
-2.25000000000000  0.750000000000000  2.36091864136185 
-2.25000000000000  0.875000000000000  2.00781093130369 
-2.25000000000000  1.00000000000000  1.66753689196933 
-2.25000000000000  1.12500000000000  1.35274776161040 
-2.25000000000000  1.25000000000000  1.07193613627094 
-2.25000000000000  1.37500000000000  0.829659486471225 
-2.25000000000000  1.50000000000000  0.627099150374571 
-2.25000000000000  1.62500000000000  0.462788901503230 
-2.25000000000000  1.75000000000000  0.333386783043217 
-2.25000000000000  1.87500000000000  0.234405854971796 
-2.25000000000000  2.00000000000000  0.160851522233384 
-2.25000000000000  2.12500000000000  0.107734393518260 
-2.25000000000000  2.25000000000000  0.0704431781341600 
-2.25000000000000  2.37500000000000  0.0449765716197561 
-2.25000000000000  2.50000000000000  0.0280474110638580 

-2.12500000000000 -2.50000000000000  0.0365064724775468 
-2.12500000000000 -2.37500000000000  0.0580674986037808 
-2.12500000000000 -2.25000000000000  0.0901940133720030 
-2.12500000000000 -2.12500000000000  0.136810650702697 
-2.12500000000000 -2.00000000000000  0.202652673848503 
-2.12500000000000 -1.87500000000000  0.293139050754680 
-2.12500000000000 -1.75000000000000  0.414103598605146 
-2.12500000000000 -1.62500000000000  0.571369211605772 
-2.12500000000000 -1.50000000000000  0.770162800095071 
-2.12500000000000 -1.37500000000000  1.01438101337873 
-2.12500000000000 -1.25000000000000  1.30573318178954 
-2.12500000000000 -1.12500000000000  1.64281639371761 
-2.12500000000000 -1.00000000000000  2.02022430085926 
-2.12500000000000 -0.875000000000000  2.42785122061877 
-2.12500000000000 -0.750000000000000  2.85060531539091 
-2.12500000000000 -0.625000000000000  3.26875615554548 
-2.12500000000000 -0.500000000000000  3.65908224351202 
-2.12500000000000 -0.375000000000000  3.99684278100656 
-2.12500000000000 -0.250000000000000  4.25839744820470 
-2.12500000000000 -0.125000000000000  4.42409269965985 
-2.12500000000000  0.00000000000000  4.48089386064628 
-2.12500000000000  0.125000000000000  4.42422940824710 
-2.12500000000000  0.250000000000000  4.25864959037830 
-2.12500000000000  0.375000000000000  3.99715573810296 
-2.12500000000000  0.500000000000000  3.65935393910227 
-2.12500000000000  0.625000000000000  3.26883514256496 
-2.12500000000000  0.750000000000000  2.85031100599187 
-2.12500000000000  0.875000000000000  2.42701527047168 
-2.12500000000000  1.00000000000000  2.01874030539749 
-2.12500000000000  1.12500000000000  1.64067877650368 
-2.12500000000000  1.25000000000000  1.30304910107930 
-2.12500000000000  1.37500000000000  1.01134989963258 
-2.12500000000000  1.50000000000000  0.767031148980539 
-2.12500000000000  1.62500000000000  0.568377020928446 
-2.12500000000000  1.75000000000000  0.411439747082507 
-2.12500000000000  1.87500000000000  0.290916839161681 
-2.12500000000000  2.00000000000000  0.200907742478162 
-2.12500000000000  2.12500000000000  0.135515971638593 
-2.12500000000000  2.25000000000000  0.0892831398224071 
-2.12500000000000  2.37500000000000  0.0574577653315844 
-2.12500000000000  2.50000000000000  0.0361167916680805 

-2.00000000000000 -2.50000000000000  0.0463447823180959 
-2.00000000000000 -2.37500000000000  0.0732213875901160 
-2.00000000000000 -2.25000000000000  0.112950049647160 
-2.00000000000000 -2.12500000000000  0.170164377599629 
-2.00000000000000 -2.00000000000000  0.250422435416527 
-2.00000000000000 -1.87500000000000  0.360060272441133 
-2.00000000000000 -1.75000000000000  0.505884185332331 
-2.00000000000000 -1.62500000000000  0.694679843224145 
-2.00000000000000 -1.50000000000000  0.932528684997696 
-2.00000000000000 -1.37500000000000  1.22393721516894 
-2.00000000000000 -1.25000000000000  1.57080947571085 
-2.00000000000000 -1.12500000000000  1.97133582557029 
-2.00000000000000 -1.00000000000000  2.41893475719729 
-2.00000000000000 -0.875000000000000  2.90145619245522 
-2.00000000000000 -0.750000000000000  3.40090510223873 
-2.00000000000000 -0.625000000000000  3.89393699336894 
-2.00000000000000 -0.500000000000000  4.35328602405741 
-2.00000000000000 -0.375000000000000  4.75011316957745 
-2.00000000000000 -0.250000000000000  5.05703993310044 
-2.00000000000000 -0.125000000000000  5.25142302101217 
-2.00000000000000  0.00000000000000  5.31829616058977 
-2.00000000000000  0.125000000000000  5.25241004335049 
-2.00000000000000  0.250000000000000  5.05895511430722 
-2.00000000000000  0.375000000000000  4.75282046153527 
-2.00000000000000  0.500000000000000  4.35655073358942 
-2.00000000000000  0.625000000000000  3.89742298628699 
-2.00000000000000  0.750000000000000  3.40420649617658 
-2.00000000000000  0.875000000000000  2.90416346277825 
-2.00000000000000  1.00000000000000  2.42071745181758 
-2.00000000000000  1.12500000000000  1.97201379097054 
-2.00000000000000  1.25000000000000  1.57038709250994 
-2.00000000000000  1.37500000000000  1.22258931583757 
-2.00000000000000  1.50000000000000  0.930545349553624 
-2.00000000000000  1.62500000000000  0.692391206422019 
-2.00000000000000  1.75000000000000  0.503590058251023 
-2.00000000000000  1.87500000000000  0.357982936669731 
-2.00000000000000  2.00000000000000  0.248689270577155 
-2.00000000000000  2.12500000000000  0.168816077388531 
-2.00000000000000  2.25000000000000  0.111964034684180 
-2.00000000000000  2.37500000000000  0.0725393342220045 
-2.00000000000000  2.50000000000000  0.0458962291749791 

-1.87500000000000 -2.50000000000000  0.0579966420301646 
-1.87500000000000 -2.37500000000000  0.0911760132355846 
-1.87500000000000 -2.25000000000000  0.139915833648026 
-1.87500000000000 -2.12500000000000  0.209683305454378 
-1.87500000000000 -2.00000000000000  0.307000290156683 
-1.87500000000000 -1.87500000000000  0.439272788266049 
-1.87500000000000 -1.75000000000000  0.614435442895183 
-1.87500000000000 -1.62500000000000  0.840379766814193 
-1.87500000000000 -1.50000000000000  1.12414744578891 
-1.87500000000000 -1.37500000000000  1.47089086056429 
-1.87500000000000 -1.25000000000000  1.88264050904530 
-1.87500000000000 -1.12500000000000  2.35698085557336 
-1.87500000000000 -1.00000000000000  2.88581845989190 
-1.87500000000000 -0.875000000000000  3.45450633495722 
-1.87500000000000 -0.750000000000000  4.04162843175239 
-1.87500000000000 -0.625000000000000  4.61971093951772 
-1.87500000000000 -0.500000000000000  5.15699666744719 
-1.87500000000000 -0.375000000000000  5.62021208962189 
-1.87500000000000 -0.250000000000000  5.97802137248408 
-1.87500000000000 -0.125000000000000  6.20466191220990 
-1.87500000000000  0.00000000000000  6.28315218712761 
-1.87500000000000  0.125000000000000  6.20749323592851 
-1.87500000000000  0.250000000000000  5.98345220979937 
-1.87500000000000  0.375000000000000  5.62778355487791 
-1.87500000000000  0.500000000000000  5.16604414769248 
-1.87500000000000  0.625000000000000  4.62941742673063 
-1.87500000000000  0.750000000000000  4.05111678480310 
-1.87500000000000  0.875000000000000  3.46296053324225 
-1.87500000000000  1.00000000000000  2.89260722957821 
-1.87500000000000  1.12500000000000  2.36174976507387 
-1.87500000000000  1.25000000000000  1.88534546094242 
-1.87500000000000  1.37500000000000  1.47176446620602 
-1.87500000000000  1.50000000000000  1.12361177451025 
-1.87500000000000  1.62500000000000  0.838934669643246 
-1.87500000000000  1.75000000000000  0.612554983172690 
-1.87500000000000  1.87500000000000  0.437333636850229 
-1.87500000000000  2.00000000000000  0.305250977713248 
-1.87500000000000  2.12500000000000  0.208249190618943 
-1.87500000000000  2.25000000000000  0.138826464697632 
-1.87500000000000  2.37500000000000  0.0904002691104407 
-1.87500000000000  2.50000000000000  0.0574746295298622 

-1.75000000000000 -2.50000000000000  0.0714010499416788 
-1.75000000000000 -2.37500000000000  0.111868324292603 
-1.75000000000000 -2.25000000000000  0.171050030800390 
-1.75000000000000 -2.12500000000000  0.255391395974065 
-1.75000000000000 -2.00000000000000  0.372544053251872 
-1.75000000000000 -1.87500000000000  0.531164095365523 
-1.75000000000000 -1.75000000000000  0.740495485863384 
-1.75000000000000 -1.62500000000000  1.00969684987817 
-1.75000000000000 -1.50000000000000  1.34688422668217 
-1.75000000000000 -1.37500000000000  1.75789147215394 
-1.75000000000000 -1.25000000000000  2.24480346869352 
-1.75000000000000 -1.12500000000000  2.80439984520299 
-1.75000000000000 -1.00000000000000  3.42674695893783 
-1.75000000000000 -0.875000000000000  4.09426055376973 
-1.75000000000000 -0.750000000000000  4.78158574254382 
-1.75000000000000 -0.625000000000000  5.45656915136755 
-1.75000000000000 -0.500000000000000  6.08242553714078 
-1.75000000000000 -0.375000000000000  6.62096177000513 
-1.75000000000000 -0.250000000000000  7.03647615613272 
-1.75000000000000 -0.125000000000000  7.29976727694115 
-1.75000000000000  0.00000000000000  7.39161373819589 
-1.75000000000000  0.125000000000000  7.30514458680368 
-1.75000000000000  0.250000000000000  7.04669773143782 
-1.75000000000000  0.375000000000000  6.63502236088336 
-1.75000000000000  0.500000000000000  6.09896708299727 
-1.75000000000000  0.625000000000000  5.47405024926888 
-1.75000000000000  0.750000000000000  4.79848189808120 
-1.75000000000000  0.875000000000000  4.10926413454111 
-1.75000000000000  1.00000000000000  3.43892923054318 
-1.75000000000000  1.12500000000000  2.81330148696486 
-1.75000000000000  1.25000000000000  2.25043564043949 
-1.75000000000000  1.37500000000000  1.76065247068400 
-1.75000000000000  1.50000000000000  1.34741877197105 
-1.75000000000000  1.62500000000000  1.00873770981665 
-1.75000000000000  1.75000000000000  0.738726128189592 
-1.75000000000000  1.87500000000000  0.529128084430023 
-1.75000000000000  2.00000000000000  0.370608551309652 
-1.75000000000000  2.12500000000000  0.253756026760062 
-1.75000000000000  2.25000000000000  0.169783512763235 
-1.75000000000000  2.37500000000000  0.110954473551146 
-1.75000000000000  2.50000000000000  0.0707805044837665 

-1.62500000000000 -2.50000000000000  0.0863403200094809 
-1.62500000000000 -2.37500000000000  0.134963801965058 
-1.62500000000000 -2.25000000000000  0.205850478229408 
-1.62500000000000 -2.12500000000000  0.306546505580621 
-1.62500000000000 -2.00000000000000  0.445965319958754 
-1.62500000000000 -1.87500000000000  0.634140445350296 
-1.62500000000000 -1.75000000000000  0.881728650386077 
-1.62500000000000 -1.62500000000000  1.19921310944753 
-1.62500000000000 -1.50000000000000  1.59577502767182 
-1.62500000000000 -1.37500000000000  2.07784120302263 
-1.62500000000000 -1.25000000000000  2.64738371609900 
-1.62500000000000 -1.12500000000000  3.30014737143003 
-1.62500000000000 -1.00000000000000  4.02409238476838 
-1.62500000000000 -0.875000000000000  4.79842404181726 
-1.62500000000000 -0.750000000000000  5.59358873274528 
-1.62500000000000 -0.625000000000000  6.37251379519555 
-1.62500000000000 -0.500000000000000  7.09316152754913 
-1.62500000000000 -0.375000000000000  7.71220202040092 
-1.62500000000000 -0.250000000000000  8.18935654576310 
-1.62500000000000 -0.125000000000000  8.49179145182746 
-1.62500000000000  0.00000000000000  8.59789332540525 
-1.62500000000000  0.125000000000000  8.49983567493812 
-1.62500000000000  0.250000000000000  8.20453272807184 
-1.62500000000000  0.375000000000000  7.73282874725246 
-1.62500000000000  0.500000000000000  7.11704834630122 
-1.62500000000000  0.625000000000000  6.39729079834931 
-1.62500000000000  0.750000000000000  5.61704556232397 
-1.62500000000000  0.875000000000000  4.81879758616412 
-1.62500000000000  1.00000000000000  4.04025437407961 
-1.62500000000000  1.12500000000000  3.31166555443391 
-1.62500000000000  1.25000000000000  2.65445837007183 
-1.62500000000000  1.37500000000000  2.08114543824665 
-1.62500000000000  1.50000000000000  1.59624552666812 
-1.62500000000000  1.62500000000000  1.19784262766255 
-1.62500000000000  1.75000000000000  0.879402192173759 
-1.62500000000000  1.87500000000000  0.631537838320166 
-1.62500000000000  2.00000000000000  0.443531415127892 
-1.62500000000000  2.12500000000000  0.304513675425581 
-1.62500000000000  2.25000000000000  0.204290469474471 
-1.62500000000000  2.37500000000000  0.133847103816034 
-1.62500000000000  2.50000000000000  0.0855878083082532 

-1.50000000000000 -2.50000000000000  0.102498295353758 
-1.50000000000000 -2.37500000000000  0.159947367909288 
-1.50000000000000 -2.25000000000000  0.243492415969816 
-1.50000000000000 -2.12500000000000  0.361845520787702 
-1.50000000000000 -2.00000000000000  0.525227611929847 
-1.50000000000000 -1.87500000000000  0.745053026740849 
-1.50000000000000 -1.75000000000000  1.03332684189771 
-1.50000000000000 -1.62500000000000  1.40170359177581 
-1.50000000000000 -1.50000000000000  1.86018184014738 
-1.50000000000000 -1.37500000000000  2.41545770151057 
-1.50000000000000 -1.25000000000000  3.06903907291167 
-1.50000000000000 -1.12500000000000  3.81532850591425 
-1.50000000000000 -1.00000000000000  4.63999473758297 
-1.50000000000000 -0.875000000000000  5.51902945148908 
-1.50000000000000 -0.750000000000000  6.41887921329210 
-1.50000000000000 -0.625000000000000  7.29792302831060 
-1.50000000000000 -0.500000000000000  8.10934251941802 
-1.50000000000000 -0.375000000000000  8.80515481424300 
-1.50000000000000 -0.250000000000000  9.34092167711900 
-1.50000000000000 -0.125000000000000  9.68048007545771 
-1.50000000000000  0.00000000000000  9.79999732588543 
-1.50000000000000  0.125000000000000  9.69073974386395 
-1.50000000000000  0.250000000000000  9.36013192206564 
-1.50000000000000  0.375000000000000  8.83093768281745 
-1.50000000000000  0.500000000000000  8.13867531330764 
-1.50000000000000  0.625000000000000  7.32764974139640 
-1.50000000000000  0.750000000000000  6.44619916084709 
-1.50000000000000  0.875000000000000  5.54186776142747 
-1.50000000000000  1.00000000000000  4.65719580695753 
-1.50000000000000  1.12500000000000  3.82665963522882 
-1.50000000000000  1.25000000000000  3.07503441351024 
-1.50000000000000  1.37500000000000  2.41716223298793 
-1.50000000000000  1.50000000000000  1.85886598117743 
-1.50000000000000  1.62500000000000  1.39861131457919 
-1.50000000000000  1.75000000000000  1.02949874652709 
-1.50000000000000  1.87500000000000  0.741238815504238 
-1.50000000000000  2.00000000000000  0.521878294452152 
-1.50000000000000  2.12500000000000  0.359160548027530 
-1.50000000000000  2.25000000000000  0.241492691461802 
-1.50000000000000  2.37500000000000  0.158549653066133 
-1.50000000000000  2.50000000000000  0.101575659730400 

-1.37500000000000 -2.50000000000000  0.119551041974861 
-1.37500000000000 -2.37500000000000  0.186275817956654 
-1.37500000000000 -2.25000000000000  0.283081561117836 
-1.37500000000000 -2.12500000000000  0.419839312663944 
-1.37500000000000 -2.00000000000000  0.608017341134330 
-1.37500000000000 -1.87500000000000  0.860265176603407 
-1.37500000000000 -1.75000000000000  1.18967395894948 
-1.37500000000000 -1.62500000000000  1.60867285715496 
-1.37500000000000 -1.50000000000000  2.12755717709797 
-1.37500000000000 -1.37500000000000  2.75269990882272 
-1.37500000000000 -1.25000000000000  3.48457784275078 
-1.37500000000000 -1.12500000000000  4.31584081335908 
-1.37500000000000 -1.00000000000000  5.22974812706689 
-1.37500000000000 -0.875000000000000  6.19935471380826 
-1.37500000000000 -0.750000000000000  7.18781155684427 
-1.37500000000000 -0.625000000000000  8.15002585831063 
-1.37500000000000 -0.500000000000000  9.03571353302659 
-1.37500000000000 -0.375000000000000  9.79361296636353 
-1.37500000000000 -0.250000000000000  10.3763794288846 
-1.37500000000000 -0.125000000000000  10.7455071219565 
-1.37500000000000  0.00000000000000  10.8755708101020 
-1.37500000000000  0.125000000000000  10.7571507837012 
-1.37500000000000  0.250000000000000  10.3979869394895 
-1.37500000000000  0.375000000000000  9.82216793042608 
-1.37500000000000  0.500000000000000  9.06745930201580 
-1.37500000000000  0.625000000000000  8.18116375355120 
-1.37500000000000  0.750000000000000  7.21513555287144 
-1.37500000000000  0.875000000000000  6.22069024133463 
-1.37500000000000  1.00000000000000  5.24412774589508 
-1.37500000000000  1.12500000000000  4.32342300956845 
-1.37500000000000  1.25000000000000  3.48637469339143 
-1.37500000000000  1.37500000000000  2.75021073707275 
-1.37500000000000  1.50000000000000  2.12240559771219 
-1.37500000000000  1.62500000000000  1.60232042687070 
-1.37500000000000  1.75000000000000  1.18324717069481 
-1.37500000000000  1.87500000000000  0.854496620291018 
-1.37500000000000  2.00000000000000  0.603276011577801 
-1.37500000000000  2.12500000000000  0.416213342546095 
-1.37500000000000  2.25000000000000  0.280477856807064 
-1.37500000000000  2.37500000000000  0.184510540951738 
-1.37500000000000  2.50000000000000  0.118417113472721 

-1.25000000000000 -2.50000000000000  0.137247559765399 
-1.25000000000000 -2.37500000000000  0.213518187272765 
-1.25000000000000 -2.25000000000000  0.323895648376781 
-1.25000000000000 -2.12500000000000  0.479343078655427 
-1.25000000000000 -2.00000000000000  0.692429441299536 
-1.25000000000000 -1.87500000000000  0.976774227010582 
-1.25000000000000 -1.75000000000000  1.34613596138546 
-1.25000000000000 -1.62500000000000  1.81313084440400 
-1.25000000000000 -1.50000000000000  2.38761672470319 
-1.25000000000000 -1.37500000000000  3.07483815093307 
-1.25000000000000 -1.25000000000000  3.87349703057783 
-1.25000000000000 -1.12500000000000  4.77398360029636 
-1.25000000000000 -1.00000000000000  5.75706082225361 
-1.25000000000000 -0.875000000000000  6.79332184394199 
-1.25000000000000 -0.750000000000000  7.84371199084185 
-1.25000000000000 -0.625000000000000  8.86130763339356 
-1.25000000000000 -0.500000000000000  9.79437457904992 
-1.25000000000000 -0.375000000000000  10.5905108342593 
-1.25000000000000 -0.250000000000000  11.2014543896764 
-1.25000000000000 -0.125000000000000  11.5879571235996 
-1.25000000000000  0.00000000000000  11.7240380449484 
-1.25000000000000  0.125000000000000  11.5999635807691 
-1.25000000000000  0.250000000000000  11.2234648616699 
-1.25000000000000  0.375000000000000  10.6189684044204 
-1.25000000000000  0.500000000000000  9.82493749952367 
-1.25000000000000  0.625000000000000  8.88973096199375 
-1.25000000000000  0.750000000000000  7.86661696073713 
-1.25000000000000  0.875000000000000  6.80868248905181 
-1.25000000000000  1.00000000000000  5.76433487695090 
-1.25000000000000  1.12500000000000  4.77391892420165 
-1.25000000000000  1.25000000000000  3.86772194998750 
-1.25000000000000  1.37500000000000  3.06537542312595 
-1.25000000000000  1.50000000000000  2.37644661478491 
-1.25000000000000  1.62500000000000  1.80188418584647 
-1.25000000000000  1.75000000000000  1.33594415294326 
-1.25000000000000  1.87500000000000  0.968258122465706 
-1.25000000000000  2.00000000000000  0.685783010840659 
-1.25000000000000  2.12500000000000  0.474461567396253 
-1.25000000000000  2.25000000000000  0.320506423954525 
-1.25000000000000  2.37500000000000  0.211287888496300 
-1.25000000000000  2.50000000000000  0.135854796294047 

-1.12500000000000 -2.50000000000000  0.155435217006210 
-1.12500000000000 -2.37500000000000  0.241407623496443 
-1.12500000000000 -2.25000000000000  0.365486619822997 
-1.12500000000000 -2.12500000000000  0.539630585944784 
-1.12500000000000 -2.00000000000000  0.777322761439102 
-1.12500000000000 -1.87500000000000  1.09283606574687 
-1.12500000000000 -1.75000000000000  1.50011381668739 
-1.12500000000000 -1.62500000000000  2.01129532870296 
-1.12500000000000 -1.50000000000000  2.63498040240808 
-1.12500000000000 -1.37500000000000  3.37438881969015 
-1.12500000000000 -1.25000000000000  4.22561825779193 
-1.12500000000000 -1.12500000000000  5.17622852891320 
-1.12500000000000 -1.00000000000000  6.20437971928500 
-1.12500000000000 -0.875000000000000  7.27872944610609 
-1.12500000000000 -0.750000000000000  8.35925315905888 
-1.12500000000000 -0.625000000000000  9.39908899526724 
-1.12500000000000 -0.500000000000000  10.3474157514699 
-1.12500000000000 -0.375000000000000  11.1532385460888 
-1.12500000000000 -0.250000000000000  11.7697838760908 
-1.12500000000000 -0.125000000000000  12.1590225132475 
-1.12500000000000  0.00000000000000  12.2957010089196 
-1.12500000000000  0.125000000000000  12.1702353559398 
-1.12500000000000  0.250000000000000  11.7899450448376 
-1.12500000000000  0.375000000000000  11.1783727252406 
-1.12500000000000  0.500000000000000  10.3727788915103 
-1.12500000000000  0.625000000000000  9.42022606367460 
-1.12500000000000  0.750000000000000  8.37288486887403 
-1.12500000000000  0.875000000000000  7.28325931116640 
-1.12500000000000  1.00000000000000  6.19994751523309 
-1.12500000000000  1.12500000000000  5.16437458644594 
-1.12500000000000  1.25000000000000  4.20871757446336 
-1.12500000000000  1.37500000000000  3.35504137922640 
-1.12500000000000  1.50000000000000  2.61551011670308 
-1.12500000000000  1.62500000000000  1.99344102140480 
-1.12500000000000  1.75000000000000  1.48492315550189 
-1.12500000000000  1.87500000000000  1.08072058527380 
-1.12500000000000  2.00000000000000  0.768208201780421 
-1.12500000000000  2.12500000000000  0.533138338923695 
-1.12500000000000  2.25000000000000  0.361099115923078 
-1.12500000000000  2.37500000000000  0.238592321120746 
-1.12500000000000  2.50000000000000  0.153720810858940 

-1.00000000000000 -2.50000000000000  0.174005070366221 
-1.00000000000000 -2.37500000000000  0.269763747726726 
-1.00000000000000 -2.25000000000000  0.407575983847722 
-1.00000000000000 -2.12500000000000  0.600302024271164 
-1.00000000000000 -2.00000000000000  0.862167102275967 
-1.00000000000000 -1.87500000000000  1.20781004805607 
-1.00000000000000 -1.75000000000000  1.65092256250603 
-1.00000000000000 -1.62500000000000  2.20256462164665 
-1.00000000000000 -1.50000000000000  2.86932594966850 
-1.00000000000000 -1.37500000000000  3.65156574132419 
-1.00000000000000 -1.25000000000000  4.54198064788244 
-1.00000000000000 -1.12500000000000  5.52471511259073 
-1.00000000000000 -1.00000000000000  6.57514984343832 
-1.00000000000000 -0.875000000000000  7.66041474906950 
-1.00000000000000 -0.750000000000000  8.74060928100628 
-1.00000000000000 -0.625000000000000  9.77069569958132 
-1.00000000000000 -0.500000000000000  10.7030421685574 
-1.00000000000000 -0.375000000000000  11.4905809915162 
-1.00000000000000 -0.250000000000000  12.0904589395514 
-1.00000000000000 -0.125000000000000  12.4678827078499 
-1.00000000000000  0.00000000000000  12.5996650616653 
-1.00000000000000  0.125000000000000  12.4768654771585 
-1.00000000000000  0.250000000000000  12.1059849738691 
-1.00000000000000  0.375000000000000  11.5084301810047 
-1.00000000000000  0.500000000000000  10.7183227505267 
-1.00000000000000  0.625000000000000  9.77906161085525 
-1.00000000000000  0.750000000000000  8.73923355231681 
-1.00000000000000  0.875000000000000  7.64847533658579 
-1.00000000000000  1.00000000000000  6.55376274974543 
-1.00000000000000  1.12500000000000  5.49642439888008 
-1.00000000000000  1.25000000000000  4.51002322191326 
-1.00000000000000  1.37500000000000  3.61914483787169 
-1.00000000000000  1.50000000000000  2.83906669162755 
-1.00000000000000  1.62500000000000  2.17622882051834 
-1.00000000000000  1.75000000000000  1.62937016603248 
-1.00000000000000  1.87500000000000  1.19113764234234 
-1.00000000000000  2.00000000000000  0.849935484374035 
-1.00000000000000  2.12500000000000  0.591776077425592 
-1.00000000000000  2.25000000000000  0.401926180748264 
-1.00000000000000  2.37500000000000  0.266206493261258 
-1.00000000000000  2.50000000000000  0.171880821278291 

-0.875000000000000 -2.50000000000000  0.192773098920930 
-0.875000000000000 -2.37500000000000  0.298311066918360 
-0.875000000000000 -2.25000000000000  0.449782491550228 
-0.875000000000000 -2.12500000000000  0.660882980708097 
-0.875000000000000 -2.00000000000000  0.946463059183438 
-0.875000000000000 -1.87500000000000  1.32133467280893 
-0.875000000000000 -1.75000000000000  1.79864206863553 
-0.875000000000000 -1.62500000000000  2.38794793537910 
-0.875000000000000 -1.50000000000000  3.09329279604132 
-0.875000000000000 -1.37500000000000  3.91154860331182 
-0.875000000000000 -1.25000000000000  4.83137259592083 
-0.875000000000000 -1.12500000000000  5.83296332947709 
-0.875000000000000 -1.00000000000000  6.88865206559675 
-0.875000000000000 -0.875000000000000  7.96419025074810 
-0.875000000000000 -0.750000000000000  9.02049344849218 
-0.875000000000000 -0.625000000000000  10.0156239765687 
-0.875000000000000 -0.500000000000000  10.9069222013715 
-0.875000000000000 -0.375000000000000  11.6533379891691 
-0.875000000000000 -0.250000000000000  12.2180483273344 
-0.875000000000000 -0.125000000000000  12.5713103857232 
-0.875000000000000  0.00000000000000  12.6932469932695 
-0.875000000000000  0.125000000000000  12.5760495832193 
-0.875000000000000  0.250000000000000  12.2250669403436 
-0.875000000000000  0.375000000000000  11.6584705693434 
-0.875000000000000  0.500000000000000  10.9055486817700 
-0.875000000000000  0.625000000000000  10.0040022888036 
-0.875000000000000  0.750000000000000  8.99675775890184 
-0.875000000000000  0.875000000000000  7.92874814022701 
-0.875000000000000  1.00000000000000  6.84394213012804 
-0.875000000000000  1.12500000000000  5.78274292103883 
-0.875000000000000  1.25000000000000  4.77981686071635 
-0.875000000000000  1.37500000000000  3.86243491895610 
-0.875000000000000  1.50000000000000  3.04945122997824 
-0.875000000000000  1.62500000000000  2.35103576204794 
-0.875000000000000  1.75000000000000  1.76919890746373 
-0.875000000000000  1.87500000000000  1.29901959145418 
-0.875000000000000  2.00000000000000  0.930365904663035 
-0.875000000000000  2.12500000000000  0.649824121407546 
-0.875000000000000  2.25000000000000  0.442549575773150 
-0.875000000000000  2.37500000000000  0.293814087015852 
-0.875000000000000  2.50000000000000  0.190122560177409 

-0.750000000000000 -2.50000000000000  0.211353516784139 
-0.750000000000000 -2.37500000000000  0.326482131910211 
-0.750000000000000 -2.25000000000000  0.491318999848333 
-0.750000000000000 -2.12500000000000  0.720360974047494 
-0.750000000000000 -2.00000000000000  1.02903907143488 
-0.750000000000000 -1.87500000000000  1.43227291742398 
-0.750000000000000 -1.75000000000000  1.94255838780142 
-0.750000000000000 -1.62500000000000  2.56780713448047 
-0.750000000000000 -1.50000000000000  3.30928891708972 
-0.750000000000000 -1.37500000000000  4.16009353925923 
-0.750000000000000 -1.25000000000000  5.10448324974483 
-0.750000000000000 -1.12500000000000  6.11833477337235 
-0.750000000000000 -1.00000000000000  7.17060885089671 
-0.750000000000000 -0.875000000000000  8.22552160627565 
-0.750000000000000 -0.750000000000000  9.24493853107285 
-0.750000000000000 -0.625000000000000  10.1905527393288 
-0.750000000000000 -0.500000000000000  11.0256407674794 
-0.750000000000000 -0.375000000000000  11.7164934983611 
-0.750000000000000 -0.250000000000000  12.2338118909560 
-0.750000000000000 -0.125000000000000  12.5543024299702 
-0.750000000000000  0.00000000000000  12.6624311311498 
-0.750000000000000  0.125000000000000  12.5519855352569 
-0.750000000000000  0.250000000000000  12.2269724046381 
-0.750000000000000  0.375000000000000  11.7015344784254 
-0.750000000000000  0.500000000000000  10.9988969972252 
-0.750000000000000  0.625000000000000  10.1496386663850 
-0.750000000000000  0.750000000000000  9.18965900984121 
-0.750000000000000  0.875000000000000  8.15808273641575 
-0.750000000000000  1.00000000000000  7.09514236537775 
-0.750000000000000  1.12500000000000  6.03997669556184 
-0.750000000000000  1.25000000000000  5.02834310318303 
-0.750000000000000  1.37500000000000  4.09040758838607 
-0.750000000000000  1.50000000000000  3.24892336444380 
-0.750000000000000  1.62500000000000  2.51813596081259 
-0.750000000000000  1.75000000000000  1.90363738456421 
-0.750000000000000  1.87500000000000  1.40318532123290 
-0.750000000000000  2.00000000000000  1.00829129315294 
-0.750000000000000  2.12500000000000  0.706238962923322 
-0.750000000000000  2.25000000000000  0.482156451013754 
-0.750000000000000  2.37500000000000  0.320827186333661 
-0.750000000000000  2.50000000000000  0.208044636496154 

-0.625000000000000 -2.50000000000000  0.229090542766386 
-0.625000000000000 -2.37500000000000  0.353308530249177 
-0.625000000000000 -2.25000000000000  0.530815702758109 
-0.625000000000000 -2.12500000000000  0.776895012319274 
-0.625000000000000 -2.00000000000000  1.10757212401989 
-0.625000000000000 -1.87500000000000  1.53792720801381 
-0.625000000000000 -1.75000000000000  2.07990190748991 
-0.625000000000000 -1.62500000000000  2.73988369089593 
-0.625000000000000 -1.50000000000000  3.51650821332763 
-0.625000000000000 -1.37500000000000  4.39919177398363 
-0.625000000000000 -1.25000000000000  5.36783402498101 
-0.625000000000000 -1.12500000000000  6.39389955796444 
-0.625000000000000 -1.00000000000000  7.44274167111882 
-0.625000000000000 -0.875000000000000  8.47668076552918 
-0.625000000000000 -0.750000000000000  9.45813427814038 
-0.625000000000000 -0.625000000000000  10.3521290329541 
-0.625000000000000 -0.500000000000000  11.1278273653891 
-0.625000000000000 -0.375000000000000  11.7591429288147 
-0.625000000000000 -0.250000000000000  12.2248842740794 
-0.625000000000000 -0.125000000000000  12.5089406972200 
-0.625000000000000  0.00000000000000  12.6007845130236 
-0.625000000000000  0.125000000000000  12.4961910956899 
-0.625000000000000  0.250000000000000  12.1978419089623 
-0.625000000000000  0.375000000000000  11.7155205402212 
-0.625000000000000  0.500000000000000  11.0658506014606 
-0.625000000000000  0.625000000000000  10.2717292663139 
-0.625000000000000  0.750000000000000  9.36161141884461 
-0.625000000000000  0.875000000000000  8.36861898448559 
-0.625000000000000  1.00000000000000  7.32926601567499 
-0.625000000000000  1.12500000000000  6.28157944764581 
-0.625000000000000  1.25000000000000  5.26259755097445 
-0.625000000000000  1.37500000000000  4.30553065048640 
-0.625000000000000  1.50000000000000  3.43710044624858 
-0.625000000000000  1.62500000000000  2.67561553000703 
-0.625000000000000  1.75000000000000  2.03017769899276 
-0.625000000000000  1.87500000000000  1.50112455990168 
-0.625000000000000  2.00000000000000  1.08151556429480 
-0.625000000000000  2.12500000000000  0.759261089136736 
-0.625000000000000  2.25000000000000  0.519426333721978 
-0.625000000000000  2.37500000000000  0.346305252242142 
-0.625000000000000  2.50000000000000  0.225005642219081 

-0.500000000000000 -2.50000000000000  0.245085926492925 
-0.500000000000000 -2.37500000000000  0.377456335474900 
-0.500000000000000 -2.25000000000000  0.566355222836557 
-0.500000000000000 -2.12500000000000  0.827826946539113 
-0.500000000000000 -2.00000000000000  1.17852534284917 
-0.500000000000000 -1.87500000000000  1.63381139892386 
-0.500000000000000 -1.75000000000000  2.20530247838916 
-0.500000000000000 -1.62500000000000  2.89820935424314 
-0.500000000000000 -1.50000000000000  3.70898104288950 
-0.500000000000000 -1.37500000000000  4.62385639533212 
-0.500000000000000 -1.25000000000000  5.61882958939657 
-0.500000000000000 -1.12500000000000  6.66125651058397 
-0.500000000000000 -1.00000000000000  7.71291490214967 
-0.500000000000000 -0.875000000000000  8.73390743258392 
-0.500000000000000 -0.750000000000000  9.68652336758332 
-0.500000000000000 -0.625000000000000  10.5381847861948 
-0.500000000000000 -0.500000000000000  11.2629324561328 
-0.500000000000000 -0.375000000000000  11.8414435823812 
-0.500000000000000 -0.250000000000000  12.2600820537582 
-0.500000000000000 -0.125000000000000  12.5097139866145 
-0.500000000000000  0.00000000000000  12.5848811559246 
-0.500000000000000  0.125000000000000  12.4835509611759 
-0.500000000000000  0.250000000000000  12.2073289301930 
-0.500000000000000  0.375000000000000  11.7619182248545 
-0.500000000000000  0.500000000000000  11.1576999523482 
-0.500000000000000  0.625000000000000  10.4103884417194 
-0.500000000000000  0.750000000000000  9.54163760809715 
-0.500000000000000  0.875000000000000  8.57928191096180 
-0.500000000000000  1.00000000000000  7.55677611068850 
-0.500000000000000  1.12500000000000  6.51150997384900 
-0.500000000000000  1.25000000000000  5.48201369462271 
-0.500000000000000  1.37500000000000  4.50448096491337 
-0.500000000000000  1.50000000000000  3.60932256158293 
-0.500000000000000  1.62500000000000  2.81850049579012 
-0.500000000000000  1.75000000000000  2.14417965439644 
-0.500000000000000  1.87500000000000  1.58886996907836 
-0.500000000000000  2.00000000000000  1.14685863539537 
-0.500000000000000  2.12500000000000  0.806469326655442 
-0.500000000000000  2.25000000000000  0.552593396836734 
-0.500000000000000  2.37500000000000  0.369007299558962 
-0.500000000000000  2.50000000000000  0.240161706107246 

-0.375000000000000 -2.50000000000000  0.258313786268250 
-0.375000000000000 -2.37500000000000  0.397392915450976 
-0.375000000000000 -2.25000000000000  0.595702252341912 
-0.375000000000000 -2.12500000000000  0.869977077855736 
-0.375000000000000 -2.00000000000000  1.23749539222354 
-0.375000000000000 -1.87500000000000  1.71400459844531 
-0.375000000000000 -1.75000000000000  2.31105494897894 
-0.375000000000000 -1.62500000000000  3.03311779679755 
-0.375000000000000 -1.50000000000000  3.87507292739320 
-0.375000000000000 -1.37500000000000  4.82073623127446 
-0.375000000000000 -1.25000000000000  5.84299284929367 
-0.375000000000000 -1.12500000000000  6.90578365417544 
-0.375000000000000 -1.00000000000000  7.96772683838262 
-0.375000000000000 -0.875000000000000  8.98667857484744 
-0.375000000000000 -0.750000000000000  9.92421919156332 
-0.375000000000000 -0.625000000000000  10.7490364494348 
-0.375000000000000 -0.500000000000000  11.4385098347532 
-0.375000000000000 -0.375000000000000  11.9783818565692 
-0.375000000000000 -0.250000000000000  12.3610083754082 
-0.375000000000000 -0.125000000000000  12.5830501788699 
-0.375000000000000  0.00000000000000  12.6434576259964 
-0.375000000000000  0.125000000000000  12.5422824504135 
-0.375000000000000  0.250000000000000  12.2804633009340 
-0.375000000000000  0.375000000000000  11.8604822507416 
-0.375000000000000  0.500000000000000  11.2876975278033 
-0.375000000000000  0.625000000000000  10.5720888819143 
-0.375000000000000  0.750000000000000  9.73000283145020 
-0.375000000000000  0.875000000000000  8.78531348319982 
-0.375000000000000  1.00000000000000  7.76938864026028 
-0.375000000000000  1.12500000000000  6.71948602163141 
-0.375000000000000  1.25000000000000  5.67565478723607 
-0.375000000000000  1.37500000000000  4.67670202621312 
-0.375000000000000  1.50000000000000  3.75609882451285 
-0.375000000000000  1.62500000000000  2.93872613804815 
-0.375000000000000  1.75000000000000  2.23910459759437 
-0.375000000000000  1.87500000000000  1.66132812827416 
-0.375000000000000  2.00000000000000  1.20048765670326 
-0.375000000000000  2.12500000000000  0.845065104010024 
-0.375000000000000  2.25000000000000  0.579668216357207 
-0.375000000000000  2.37500000000000  0.387553329035182 
-0.375000000000000  2.50000000000000  0.252577782870563 

-0.250000000000000 -2.50000000000000  0.267783058381510 
-0.250000000000000 -2.37500000000000  0.411626787582272 
-0.250000000000000 -2.25000000000000  0.616647421680314 
-0.250000000000000 -2.12500000000000  0.900122278441393 
-0.250000000000000 -2.00000000000000  1.27985577607137 
-0.250000000000000 -1.87500000000000  1.77198563907171 
-0.250000000000000 -1.75000000000000  2.38815648282028 
-0.250000000000000 -1.62500000000000  3.13246791594170 
-0.250000000000000 -1.50000000000000  3.99882843915399 
-0.250000000000000 -1.37500000000000  4.96944046460305 
-0.250000000000000 -1.25000000000000  6.01502587279555 
-0.250000000000000 -1.12500000000000  7.09705768693672 
-0.250000000000000 -1.00000000000000  8.17176076677046 
-0.250000000000000 -0.875000000000000  9.19513017607567 
-0.250000000000000 -0.750000000000000  10.1278701069672 
-0.250000000000000 -0.625000000000000  10.9391243930649 
-0.250000000000000 -0.500000000000000  11.6081978549431 
-0.250000000000000 -0.375000000000000  12.1240663857398 
-0.250000000000000 -0.250000000000000  12.4831317443118 
-0.250000000000000 -0.125000000000000  12.6861411399701 
-0.250000000000000  0.00000000000000  12.7352933058690 
-0.250000000000000  0.125000000000000  12.6323097163789 
-0.250000000000000  0.250000000000000  12.3778465343411 
-0.250000000000000  0.375000000000000  11.9722606646111 
-0.250000000000000  0.500000000000000  11.4174904542034 
-0.250000000000000  0.625000000000000  10.7196077181644 
-0.250000000000000  0.750000000000000  9.89139281751928 
-0.250000000000000  0.875000000000000  8.95414401779754 
-0.250000000000000  1.00000000000000  7.93799216804638 
-0.250000000000000  1.12500000000000  6.88032312393355 
-0.250000000000000  1.25000000000000  5.82243679020574 
-0.250000000000000  1.37500000000000  4.80510169593829 
-0.250000000000000  1.50000000000000  3.86399524743304 
-0.250000000000000  1.62500000000000  3.02603586641382 
-0.250000000000000  1.75000000000000  2.30732621282650 
-0.250000000000000  1.87500000000000  1.71295855866637 
-0.250000000000000  2.00000000000000  1.23845551071308 
-0.250000000000000  2.12500000000000  0.872281274915056 
-0.250000000000000  2.25000000000000  0.598736827471684 
-0.250000000000000  2.37500000000000  0.400635945028266 
-0.250000000000000  2.50000000000000  0.261372835032929 

-0.125000000000000 -2.50000000000000  0.272702174388908 
-0.125000000000000 -2.37500000000000  0.418955309404193 
-0.125000000000000 -2.25000000000000  0.627376410555016 
-0.125000000000000 -2.12500000000000  0.915542674582415 
-0.125000000000000 -2.00000000000000  1.30156209546938 
-0.125000000000000 -1.87500000000000  1.80181064359723 
-0.125000000000000 -1.75000000000000  2.42801004116600 
-0.125000000000000 -1.62500000000000  3.18407074490364 
-0.125000000000000 -1.50000000000000  4.06336070675113 
-0.125000000000000 -1.37500000000000  5.04715931479249 
-0.125000000000000 -1.25000000000000  6.10493383942206 
-0.125000000000000 -1.12500000000000  7.19671493351893 
-0.125000000000000 -1.00000000000000  8.27732212640025 
-0.125000000000000 -0.875000000000000  9.30165414226407 
-0.125000000000000 -0.750000000000000  10.2298976342477 
-0.125000000000000 -0.625000000000000  11.0314679888503 
-0.125000000000000 -0.500000000000000  11.6868220679639 
-0.125000000000000 -0.375000000000000  12.1868879609754 
-0.125000000000000 -0.250000000000000  12.5305394546960 
-0.125000000000000 -0.125000000000000  12.7210585735739 
-0.125000000000000  0.00000000000000  12.7627014741089 
-0.125000000000000  0.125000000000000  12.6582960398314 
-0.125000000000000  0.250000000000000  12.4083981922054 
-0.125000000000000  0.375000000000000  12.0121052118224 
-0.125000000000000  0.500000000000000  11.4692657469227 
-0.125000000000000  0.625000000000000  10.7835303781528 
-0.125000000000000  0.750000000000000  9.96544385993413 
-0.125000000000000  0.875000000000000  9.03466077278982 
-0.125000000000000  1.00000000000000  8.02048168860000 
-0.125000000000000  1.12500000000000  6.96029815987246 
-0.125000000000000  1.25000000000000  5.89610744625284 
-0.125000000000000  1.37500000000000  4.86981607720027 
-0.125000000000000  1.50000000000000  3.91839386050504 
-0.125000000000000  1.62500000000000  3.06995140603298 
-0.125000000000000  1.75000000000000  2.34150835905893 
-0.125000000000000  1.87500000000000  1.73872333592867 
-0.125000000000000  2.00000000000000  1.25734994505165 
-0.125000000000000  2.12500000000000  0.885824582385679 
-0.125000000000000  2.25000000000000  0.608262287037503 
-0.125000000000000  2.37500000000000  0.407225682266296 
-0.125000000000000  2.50000000000000  0.265858872989530 

 0.00000000000000 -2.50000000000000  0.272610899862087 
 0.00000000000000 -2.37500000000000  0.418669071598253 
 0.00000000000000 -2.25000000000000  0.626790610483773 
 0.00000000000000 -2.12500000000000  0.914531106718664 
 0.00000000000000 -2.00000000000000  1.29996708719716 
 0.00000000000000 -1.87500000000000  1.79941376892715 
 0.00000000000000 -1.75000000000000  2.42447536435892 
 0.00000000000000 -1.62500000000000  3.17885971165486 
 0.00000000000000 -1.50000000000000  4.05562952341707 
 0.00000000000000 -1.37500000000000  5.03566284368128 
 0.00000000000000 -1.25000000000000  6.08796999650739 
 0.00000000000000 -1.12500000000000  7.17214574044031 
 0.00000000000000 -1.00000000000000  8.24269948121997 
 0.00000000000000 -0.875000000000000  9.25446077432052 
 0.00000000000000 -0.750000000000000  10.1678899614891 
 0.00000000000000 -0.625000000000000  10.9530818446875 
 0.00000000000000 -0.500000000000000  11.5915781143156 
 0.00000000000000 -0.375000000000000  12.0757150947296 
 0.00000000000000 -0.250000000000000  12.4059286254775 
 0.00000000000000 -0.125000000000000  12.5869759845199 
 0.00000000000000  0.00000000000000  12.6242354209258 
 0.00000000000000  0.125000000000000  12.5210788430042 
 0.00000000000000  0.250000000000000  12.2779110761837 
 0.00000000000000  0.375000000000000  11.8930113346216 
 0.00000000000000  0.500000000000000  11.3649082033747 
 0.00000000000000  0.625000000000000  10.6956826905221 
 0.00000000000000  0.750000000000000  9.89433198786658 
 0.00000000000000  0.875000000000000  8.97921304918485 
 0.00000000000000  1.00000000000000  7.97872280163010 
 0.00000000000000  1.12500000000000  6.92979000179448 
 0.00000000000000  1.25000000000000  5.87434971643966 
 0.00000000000000  1.37500000000000  4.85454573644297 
 0.00000000000000  1.50000000000000  3.90775646786203 
 0.00000000000000  1.62500000000000  3.06255034021267 
 0.00000000000000  1.75000000000000  2.33636230553183 
 0.00000000000000  1.87500000000000  1.73517361414148 
 0.00000000000000  2.00000000000000  1.25495705148776 
 0.00000000000000  2.12500000000000  0.884281574417169 
 0.00000000000000  2.25000000000000  0.607337291102410 
 0.00000000000000  2.37500000000000  0.406732508687513 
 0.00000000000000  2.50000000000000  0.265646904230077 

 0.125000000000000 -2.50000000000000  0.267457760454479 
 0.125000000000000 -2.37500000000000  0.410678182631779 
 0.125000000000000 -2.25000000000000  0.614719943763061 
 0.125000000000000 -2.12500000000000  0.896759503438392 
 0.125000000000000 -2.00000000000000  1.27445340917659 
 0.125000000000000 -1.87500000000000  1.76368543269835 
 0.125000000000000 -1.75000000000000  2.37566035041671 
 0.125000000000000 -1.62500000000000  3.11377348098880 
 0.125000000000000 -1.50000000000000  3.97092217205079 
 0.125000000000000 -1.37500000000000  4.92802323709931 
 0.125000000000000 -1.25000000000000  5.95437442927129 
 0.125000000000000 -1.12500000000000  7.01013082038738 
 0.125000000000000 -1.00000000000000  8.05063355805908 
 0.125000000000000 -0.875000000000000  9.03178529817533 
 0.125000000000000 -0.750000000000000  9.91530124163049 
 0.125000000000000 -0.625000000000000  10.6726253034490 
 0.125000000000000 -0.500000000000000  11.2866334776023 
 0.125000000000000 -0.375000000000000  11.7508645558238 
 0.125000000000000 -0.250000000000000  12.0667203474738 
 0.125000000000000 -0.125000000000000  12.2396159360267 
 0.125000000000000  0.00000000000000  12.2752509956009 
 0.125000000000000  0.125000000000000  12.1769913386582 
 0.125000000000000  0.250000000000000  11.9449357113401 
 0.125000000000000  0.375000000000000  11.5767873161616 
 0.125000000000000  0.500000000000000  11.0702588825772 
 0.125000000000000  0.625000000000000  10.4264154228717 
 0.125000000000000  0.750000000000000  9.65309706169297 
 0.125000000000000  0.875000000000000  8.76744087356122 
 0.125000000000000  1.00000000000000  7.79664806332809 
 0.125000000000000  1.12500000000000  6.77655757106828 
 0.125000000000000  1.25000000000000  5.74818638469641 
 0.125000000000000  1.37500000000000  4.75297655691658 
 0.125000000000000  1.50000000000000  3.82784304649744 
 0.125000000000000  1.62500000000000  3.00112885257362 
 0.125000000000000  1.75000000000000  2.29026067117862 
 0.125000000000000  1.87500000000000  1.70139073268256 
 0.125000000000000  2.00000000000000  1.23079279278815 
 0.125000000000000  2.12500000000000  0.867413737016503 
 0.125000000000000  2.25000000000000  0.595849360463395 
 0.125000000000000  2.37500000000000  0.399101887049494 
 0.125000000000000  2.50000000000000  0.260706163251217 

 0.250000000000000 -2.50000000000000  0.257612725150464 
 0.250000000000000 -2.37500000000000  0.395539526800166 
 0.250000000000000 -2.25000000000000  0.591982915874385 
 0.250000000000000 -2.12500000000000  0.863406419416700 
 0.250000000000000 -2.00000000000000  1.22668871391809 
 0.250000000000000 -1.87500000000000  1.69695068447419 
 0.250000000000000 -1.75000000000000  2.28476489626900 
 0.250000000000000 -1.62500000000000  2.99316337895091 
 0.250000000000000 -1.50000000000000  3.81508511612338 
 0.250000000000000 -1.37500000000000  4.73199593110070 
 0.250000000000000 -1.25000000000000  5.71428964264816 
 0.250000000000000 -1.12500000000000  6.72372303282651 
 0.250000000000000 -1.00000000000000  7.71761983508183 
 0.250000000000000 -0.875000000000000  8.65405160626971 
 0.250000000000000 -0.750000000000000  9.49684998839866 
 0.250000000000000 -0.625000000000000  10.2192743284963 
 0.250000000000000 -0.500000000000000  10.8054999939111 
 0.250000000000000 -0.375000000000000  11.2497188387923 
 0.250000000000000 -0.250000000000000  11.5533423525804 
 0.250000000000000 -0.125000000000000  11.7213076367350 
 0.250000000000000  0.00000000000000  11.7586196968990 
 0.250000000000000  0.125000000000000  11.6680213538432 
 0.250000000000000  0.250000000000000  11.4492473446905 
 0.250000000000000  0.375000000000000  11.0999071729014 
 0.250000000000000  0.500000000000000  10.6177361482894 
 0.250000000000000  0.625000000000000  10.0037030637541 
 0.250000000000000  0.750000000000000  9.26522216559605 
 0.250000000000000  0.875000000000000  8.41856295266000 
 0.250000000000000  1.00000000000000  7.48962801920102 
 0.250000000000000  1.12500000000000  6.51264321107024 
 0.250000000000000  1.25000000000000  5.52688285641413 
 0.250000000000000  1.37500000000000  4.57212641257443 
 0.250000000000000  1.50000000000000  3.68389829871537 
 0.250000000000000  1.62500000000000  2.88956176000953 
 0.250000000000000  1.75000000000000  2.20603738391505 
 0.250000000000000  1.87500000000000  1.63942755181560 
 0.250000000000000  2.00000000000000  1.18632921548685 
 0.250000000000000  2.12500000000000  0.836264170446030 
 0.250000000000000  2.25000000000000  0.574526890860105 
 0.250000000000000  2.37500000000000  0.384833306960717 
 0.250000000000000  2.50000000000000  0.251371743815933 

 0.375000000000000 -2.50000000000000  0.243814335488935 
 0.375000000000000 -2.37500000000000  0.374379174475566 
 0.375000000000000 -2.25000000000000  0.560274591401569 
 0.375000000000000 -2.12500000000000  0.816996161976727 
 0.375000000000000 -2.00000000000000  1.16039344478315 
 0.375000000000000 -1.87500000000000  1.60463001426699 
 0.375000000000000 -1.75000000000000  2.15957900867301 
 0.375000000000000 -1.62500000000000  2.82804487258525 
 0.375000000000000 -1.50000000000000  3.60340832354163 
 0.375000000000000 -1.37500000000000  4.46837288833505 
 0.375000000000000 -1.25000000000000  5.39537275108806 
 0.375000000000000 -1.12500000000000  6.34886626755344 
 0.375000000000000 -1.00000000000000  7.28925304511373 
 0.375000000000000 -0.875000000000000  8.17765694423312 
 0.375000000000000 -0.750000000000000  8.98049007505543 
 0.375000000000000 -0.625000000000000  9.67270189032983 
 0.375000000000000 -0.500000000000000  10.2389734860015 
 0.375000000000000 -0.375000000000000  10.6727471202431 
 0.375000000000000 -0.250000000000000  10.9736536730633 
 0.375000000000000 -0.125000000000000  11.1443340404339 
 0.375000000000000  0.00000000000000  11.1876672549752 
 0.375000000000000  0.125000000000000  11.1050754819258 
 0.375000000000000  0.250000000000000  10.8961297250929 
 0.375000000000000  0.375000000000000  10.5593724298640 
 0.375000000000000  0.500000000000000  10.0941372032035 
 0.375000000000000  0.625000000000000  9.50303450565060 
 0.375000000000000  0.750000000000000  8.79457400553287 
 0.375000000000000  0.875000000000000  7.98518617313240 
 0.375000000000000  1.00000000000000  7.09988347645305 
 0.375000000000000  1.12500000000000  6.17108677265159 
 0.375000000000000  1.25000000000000  5.23566737595180 
 0.375000000000000  1.37500000000000  4.33080759361722 
 0.375000000000000  1.50000000000000  3.48963797126985 
 0.375000000000000  1.62500000000000  2.73764372915494 
 0.375000000000000  1.75000000000000  2.09056078040272 
 0.375000000000000  1.87500000000000  1.55402902195129 
 0.375000000000000  2.00000000000000  1.12480773369761 
 0.375000000000000  2.12500000000000  0.793029794682443 
 0.375000000000000  2.25000000000000  0.544850106513192 
 0.375000000000000  2.37500000000000  0.364917936977167 
 0.375000000000000  2.50000000000000  0.238301381438581 

 0.500000000000000 -2.50000000000000  0.227059644872936 
 0.500000000000000 -2.37500000000000  0.348721983955825 
 0.500000000000000 -2.25000000000000  0.521900127301217 
 0.500000000000000 -2.12500000000000  0.760976648313728 
 0.500000000000000 -2.00000000000000  1.08066591317824 
 0.500000000000000 -1.87500000000000  1.49415953287609 
 0.500000000000000 -1.75000000000000  2.01077059346275 
 0.500000000000000 -1.62500000000000  2.63342897636694 
 0.500000000000000 -1.50000000000000  3.35656108988329 
 0.500000000000000 -1.37500000000000  4.16495631088593 
 0.500000000000000 -1.25000000000000  5.03411279381775 
 0.500000000000000 -1.12500000000000  5.93225140309545 
 0.500000000000000 -1.00000000000000  6.82374706562107 
 0.500000000000000 -0.875000000000000  7.67328218263123 
 0.500000000000000 -0.750000000000000  8.44974430041961 
 0.500000000000000 -0.625000000000000  9.12891287139605 
 0.500000000000000 -0.500000000000000  9.69435263064273 
 0.500000000000000 -0.375000000000000  10.1365448559437 
 0.500000000000000 -0.250000000000000  10.4508866890071 
 0.500000000000000 -0.125000000000000  10.6354821810383 
 0.500000000000000  0.00000000000000  10.6895006683481 
 0.500000000000000  0.125000000000000  10.6124316765525 
 0.500000000000000  0.250000000000000  10.4041502362566 
 0.500000000000000  0.375000000000000  10.0655643606120 
 0.500000000000000  0.500000000000000  9.59970322338641 
 0.500000000000000  0.625000000000000  9.01317113944184 
 0.500000000000000  0.750000000000000  8.31775834714960 
 0.500000000000000  0.875000000000000  7.53173490476747 
 0.500000000000000  1.00000000000000  6.68020262178761 
 0.500000000000000  1.12500000000000  5.79402949018210 
 0.500000000000000  1.25000000000000  4.90731873311099 
 0.500000000000000  1.37500000000000  4.05386935001306 
 0.500000000000000  1.50000000000000  3.26343414726671 
 0.500000000000000  1.62500000000000  2.55863939824087 
 0.500000000000000  1.75000000000000  1.95320363513402 
 0.500000000000000  1.87500000000000  1.45169700385763 
 0.500000000000000  2.00000000000000  1.05067357037316 
 0.500000000000000  2.12500000000000  0.740717915284259 
 0.500000000000000  2.25000000000000  0.508838453705160 
 0.500000000000000  2.37500000000000  0.340703247631486 
 0.500000000000000  2.50000000000000  0.222387032655724 

 0.625000000000000 -2.50000000000000  0.208454259794487 
 0.625000000000000 -2.37500000000000  0.320257871473394 
 0.625000000000000 -2.25000000000000  0.479407129966579 
 0.625000000000000 -2.12500000000000  0.699135577122656 
 0.625000000000000 -2.00000000000000  0.993051262341890 
 0.625000000000000 -1.87500000000000  1.37351260768115 
 0.625000000000000 -1.75000000000000  1.84956814524862 
 0.625000000000000 -1.62500000000000  2.42476116474598 
 0.625000000000000 -1.50000000000000  3.09525178899334 
 0.625000000000000 -1.37500000000000  3.84876484400406 
 0.625000000000000 -1.25000000000000  4.66477579658538 
 0.625000000000000 -1.12500000000000  5.51608575836351 
 0.625000000000000 -1.00000000000000  6.37156163111425 
 0.625000000000000 -0.875000000000000  7.19944550584776 
 0.625000000000000 -0.750000000000000  7.97042050617552 
 0.625000000000000 -0.625000000000000  8.65968581656923 
 0.625000000000000 -0.500000000000000  9.24766725467332 
 0.625000000000000 -0.375000000000000  9.71953854931167 
 0.625000000000000 -0.250000000000000  10.0641852179123 
 0.625000000000000 -0.125000000000000  10.2733480863847 
 0.625000000000000  0.00000000000000  10.3413806649065 
 0.625000000000000  0.125000000000000  10.2655687482237 
 0.625000000000000  0.250000000000000  10.0466418248711 
 0.625000000000000  0.375000000000000  9.68914627056794 
 0.625000000000000  0.500000000000000  9.20163360813264 
 0.625000000000000  0.625000000000000  8.59684058328369 
 0.625000000000000  0.750000000000000  7.89198548351242 
 0.625000000000000  0.875000000000000  7.10902471892358 
 0.625000000000000  1.00000000000000  6.27445546687833 
 0.625000000000000  1.12500000000000  5.41824564495513 
 0.625000000000000  1.25000000000000  4.57175732161595 
 0.625000000000000  1.37500000000000  3.76494326173724 
 0.625000000000000  1.50000000000000  3.02341654909547 
 0.625000000000000  1.62500000000000  2.36607564606886 
 0.625000000000000  1.75000000000000  1.80380096097218 
 0.625000000000000  1.87500000000000  1.33941934897400 
 0.625000000000000  2.00000000000000  0.968795538392561 
 0.625000000000000  2.12500000000000  0.682667674469437 
 0.625000000000000  2.25000000000000  0.468753271001271 
 0.625000000000000  2.37500000000000  0.313704092609479 
 0.625000000000000  2.50000000000000  0.204632126607130 

 0.750000000000000 -2.50000000000000  0.189048167106453 
 0.750000000000000 -2.37500000000000  0.290587760806581 
 0.750000000000000 -2.25000000000000  0.435192324484824 
 0.750000000000000 -2.12500000000000  0.634991190665801 
 0.750000000000000 -2.00000000000000  0.902600999714282 
 0.750000000000000 -1.87500000000000  1.24976156725118 
 0.750000000000000 -1.75000000000000  1.68559503596040 
 0.750000000000000 -1.62500000000000  2.21472753419844 
 0.750000000000000 -1.50000000000000  2.83563280087984 
 0.750000000000000 -1.37500000000000  3.53960101481708 
 0.750000000000000 -1.25000000000000  4.31065906642369 
 0.750000000000000 -1.12500000000000  5.12656144210537 
 0.750000000000000 -1.00000000000000  5.96067832327739 
 0.750000000000000 -0.875000000000000  6.78432886263541 
 0.750000000000000 -0.750000000000000  7.56896991886593 
 0.750000000000000 -0.625000000000000  8.28775035784088 
 0.750000000000000 -0.500000000000000  8.91627254361785 
 0.750000000000000 -0.375000000000000  9.43281810914548 
 0.750000000000000 -0.250000000000000  9.81855568220687 
 0.750000000000000 -0.125000000000000  10.0581739012665 
 0.750000000000000  0.00000000000000  10.1410057118942 
 0.750000000000000  0.125000000000000  10.0622826075501 
 0.750000000000000  0.250000000000000  9.82397673648430 
 0.750000000000000  0.375000000000000  9.43486911689799 
 0.750000000000000  0.500000000000000  8.90987488895974 
 0.750000000000000  0.625000000000000  8.26897374498373 
 0.750000000000000  0.750000000000000  7.53612752688804 
 0.750000000000000  0.875000000000000  6.73833280042997 
 0.750000000000000  1.00000000000000  5.90466005027559 
 0.750000000000000  1.12500000000000  5.06500022729325 
 0.750000000000000  1.25000000000000  4.24835819036845 
 0.750000000000000  1.37500000000000  3.48080715147466 
 0.750000000000000  1.50000000000000  2.78346983719831 
 0.750000000000000  1.62500000000000  2.17098272437021 
 0.750000000000000  1.75000000000000  1.65079855242077 
 0.750000000000000  1.87500000000000  1.22345395574928 
 0.750000000000000  2.00000000000000  0.883678848035100 
 0.750000000000000  2.12500000000000  0.622043211108921 
 0.750000000000000  2.25000000000000  0.426770431897318 
 0.750000000000000  2.37500000000000  0.285389477183239 
 0.750000000000000  2.50000000000000  0.186011563529812 

 0.875000000000000 -2.50000000000000  0.169690566854832 
 0.875000000000000 -2.37500000000000  0.261001368919954 
 0.875000000000000 -2.25000000000000  0.391165910891024 
 0.875000000000000 -2.12500000000000  0.571292923009161 
 0.875000000000000 -2.00000000000000  0.813143813465158 
 0.875000000000000 -1.87500000000000  1.12803724514289 
 0.875000000000000 -1.75000000000000  1.52542595711096 
 0.875000000000000 -1.62500000000000  2.01131743047345 
 0.875000000000000 -1.50000000000000  2.58679995517390 
 0.875000000000000 -1.37500000000000  3.24697018420780 
 0.875000000000000 -1.25000000000000  3.98050623049510 
 0.875000000000000 -1.12500000000000  4.76998758143035 
 0.875000000000000 -1.00000000000000  5.59286628708507 
 0.875000000000000 -0.875000000000000  6.42281935381888 
 0.875000000000000 -0.750000000000000  7.23115013207489 
 0.875000000000000 -0.625000000000000  7.98801067237374 
 0.875000000000000 -0.500000000000000  8.66345320204818 
 0.875000000000000 -0.375000000000000  9.22855314237193 
 0.875000000000000 -0.250000000000000  9.65690980836381 
 0.875000000000000 -0.125000000000000  9.92664034158737 
 0.875000000000000  0.00000000000000  10.0226235525470 
 0.875000000000000  0.125000000000000  9.93844271593585 
 0.875000000000000  0.250000000000000  9.67742651721929 
 0.875000000000000  0.375000000000000  9.25244402292879 
 0.875000000000000  0.500000000000000  8.68453121095996 
 0.875000000000000  0.625000000000000  8.00077892505282 
 0.875000000000000  0.750000000000000  7.23201994444911 
 0.875000000000000  0.875000000000000  6.41070316636734 
 0.875000000000000  1.00000000000000  5.56907502509193 
 0.875000000000000  1.12500000000000  4.73758586986282 
 0.875000000000000  1.25000000000000  3.94340659525109 
 0.875000000000000  1.37500000000000  3.20905283067675 
 0.875000000000000  1.50000000000000  2.55125948769958 
 0.875000000000000  1.62500000000000  1.98031944134878 
 0.875000000000000  1.75000000000000  1.50005409733338 
 0.875000000000000  1.87500000000000  1.10844984952006 
 0.875000000000000  2.00000000000000  0.798839962244729 
 0.875000000000000  2.12500000000000  0.561399431579265 
 0.875000000000000  2.25000000000000  0.384684145250161 
 0.875000000000000  2.37500000000000  0.256983347855651 
 0.875000000000000  2.50000000000000  0.167339393711712 

 1.00000000000000 -2.50000000000000  0.150940600104959 
 1.00000000000000 -2.37500000000000  0.232342060043063 
 1.00000000000000 -2.25000000000000  0.348554340509082 
 1.00000000000000 -2.12500000000000  0.509746664580773 
 1.00000000000000 -2.00000000000000  0.726925150091548 
 1.00000000000000 -1.87500000000000  1.01109312360671 
 1.00000000000000 -1.75000000000000  1.37212124811615 
 1.00000000000000 -1.62500000000000  1.81743218764708 
 1.00000000000000 -1.50000000000000  2.35066758387245 
 1.00000000000000 -1.37500000000000  2.97053415477384 
 1.00000000000000 -1.25000000000000  3.67000290093063 
 1.00000000000000 -1.12500000000000  4.43596144503615 
 1.00000000000000 -1.00000000000000  5.24932087594781 
 1.00000000000000 -0.875000000000000  6.08550233954145 
 1.00000000000000 -0.750000000000000  6.91522136996416 
 1.00000000000000 -0.625000000000000  7.70556212970999 
 1.00000000000000 -0.500000000000000  8.42144381258924 
 1.00000000000000 -0.375000000000000  9.02763477663724 
 1.00000000000000 -0.250000000000000  9.49138154136400 
 1.00000000000000 -0.125000000000000  9.78548175514519 
 1.00000000000000  0.00000000000000  9.89134071703153 
 1.00000000000000  0.125000000000000  9.80136858795657 
 1.00000000000000  0.250000000000000  9.52012334979250 
 1.00000000000000  0.375000000000000  9.06389096012197 
 1.00000000000000  0.500000000000000  8.45880245354682 
 1.00000000000000  0.625000000000000  7.73794212089015 
 1.00000000000000  0.750000000000000  6.93806299624020 
 1.00000000000000  0.875000000000000  6.09646392386924 
 1.00000000000000  1.00000000000000  5.24837421768140 
 1.00000000000000  1.12500000000000  4.42496543941859 
 1.00000000000000  1.25000000000000  3.65196490199215 
 1.00000000000000  1.37500000000000  2.94880700139107 
 1.00000000000000  1.50000000000000  2.32828468591005 
 1.00000000000000  1.62500000000000  1.79669136232856 
 1.00000000000000  1.75000000000000  1.35443319908282 
 1.00000000000000  1.87500000000000  0.997042227870067 
 1.00000000000000  2.00000000000000  0.716458832570591 
 1.00000000000000  2.12500000000000  0.502410193547597 
 1.00000000000000  2.25000000000000  0.343708199855946 
 1.00000000000000  2.37500000000000  0.229326438847637 
 1.00000000000000  2.50000000000000  0.149176524776430 

 1.12500000000000 -2.50000000000000  0.133062662631916 
 1.12500000000000 -2.37500000000000  0.205001446404320 
 1.12500000000000 -2.25000000000000  0.307901143949942 
 1.12500000000000 -2.12500000000000  0.451041094436806 
 1.12500000000000 -2.00000000000000  0.644701391379422 
 1.12500000000000 -1.87500000000000  0.899547899628156 
 1.12500000000000 -1.75000000000000  1.22575566013586 
 1.12500000000000 -1.62500000000000  1.63191621332832 
 1.12500000000000 -1.50000000000000  2.12381549191237 
 1.12500000000000 -1.37500000000000  2.70319573649821 
 1.12500000000000 -1.25000000000000  3.36662147625617 
 1.12500000000000 -1.12500000000000  4.10456014361235 
 1.12500000000000 -1.00000000000000  4.90077631937911 
 1.12500000000000 -0.875000000000000  5.73214123760611 
 1.12500000000000 -0.750000000000000  6.56898149863405 
 1.12500000000000 -0.625000000000000  7.37611588463400 
 1.12500000000000 -0.500000000000000  8.11471742861440 
 1.12500000000000 -0.375000000000000  8.74504670234397 
 1.12500000000000 -0.250000000000000  9.22991683253725 
 1.12500000000000 -0.125000000000000  9.53850871546651 
 1.12500000000000  0.00000000000000  9.64994340803537 
 1.12500000000000  0.125000000000000  9.55593810982676 
 1.12500000000000  0.250000000000000  9.26198423391557 
 1.12500000000000  0.375000000000000  8.78677649811372 
 1.12500000000000  0.500000000000000  8.16000083162488 
 1.12500000000000  0.625000000000000  7.41892979100427 
 1.12500000000000  0.750000000000000  6.60447080329747 
 1.12500000000000  0.875000000000000  5.75732237137983 
 1.12500000000000  1.00000000000000  4.91474720713148 
 1.12500000000000  1.12500000000000  4.10824785789643 
 1.12500000000000  1.25000000000000  3.36221406057252 
 1.12500000000000  1.37500000000000  2.69345656140345 
 1.12500000000000  1.50000000000000  2.11146261839901 
 1.12500000000000  1.62500000000000  1.61918598644397 
 1.12500000000000  1.75000000000000  1.21419095252304 
 1.12500000000000  1.87500000000000  0.889985209039566 
 1.12500000000000  2.00000000000000  0.637392696016923 
 1.12500000000000  2.12500000000000  0.445837440745993 
 1.12500000000000  2.25000000000000  0.304437464682111 
 1.12500000000000  2.37500000000000  0.202844842295357 
 1.12500000000000  2.50000000000000  0.131809481109953 

 1.25000000000000 -2.50000000000000  0.116107997230605 
 1.25000000000000 -2.37500000000000  0.179046894913952 
 1.25000000000000 -2.25000000000000  0.269268629562311 
 1.25000000000000 -2.12500000000000  0.395171343672573 
 1.25000000000000 -2.00000000000000  0.566263830593917 
 1.25000000000000 -1.87500000000000  0.792732461777761 
 1.25000000000000 -1.75000000000000  1.08477000050993 
 1.25000000000000 -1.62500000000000  1.45166589335188 
 1.25000000000000 -1.50000000000000  1.90068235659807 
 1.25000000000000 -1.37500000000000  2.43576678245693 
 1.25000000000000 -1.25000000000000  3.05618221780684 
 1.25000000000000 -1.12500000000000  3.75517975513873 
 1.25000000000000 -1.00000000000000  4.51889115721756 
 1.25000000000000 -0.875000000000000  5.32567631416637 
 1.25000000000000 -0.750000000000000  6.14619274103327 
 1.25000000000000 -0.625000000000000  6.94443015216120 
 1.25000000000000 -0.500000000000000  7.67984726175284 
 1.25000000000000 -0.375000000000000  8.31056028162815 
 1.25000000000000 -0.250000000000000  8.79729604246090 
 1.25000000000000 -0.125000000000000  9.10759760210703 
 1.25000000000000  0.00000000000000  9.21962645034362 
 1.25000000000000  0.125000000000000  9.12489836222781 
 1.25000000000000  0.250000000000000  8.82943927764387 
 1.25000000000000  0.375000000000000  8.35312685285716 
 1.25000000000000  0.500000000000000  7.72732537131498 
 1.25000000000000  0.625000000000000  6.99123894113369 
 1.25000000000000  0.750000000000000  6.18762037065294 
 1.25000000000000  0.875000000000000  5.35853345052233 
 1.25000000000000  1.00000000000000  4.54177280259900 
 1.25000000000000  1.12500000000000  3.76833886007593 
 1.25000000000000  1.25000000000000  3.06111287810848 
 1.25000000000000  1.37500000000000  2.43464752306831 
 1.25000000000000  1.50000000000000  1.89583226572890 
 1.25000000000000  1.62500000000000  1.44512708506577 
 1.25000000000000  1.75000000000000  1.07806969598862 
 1.25000000000000  1.87500000000000  0.786819744744766 
 1.25000000000000  2.00000000000000  0.561576315670231 
 1.25000000000000  2.12500000000000  0.391771542997995 
 1.25000000000000  2.25000000000000  0.266995172835448 
 1.25000000000000  2.37500000000000  0.177643191266013 
 1.25000000000000  2.50000000000000  0.115311147379034 

 1.37500000000000 -2.50000000000000  0.100046395934792 
 1.37500000000000 -2.37500000000000  0.154427483287297 
 1.37500000000000 -2.25000000000000  0.232558227451188 
 1.37500000000000 -2.12500000000000  0.341934996644743 
 1.37500000000000 -2.00000000000000  0.491201641743763 
 1.37500000000000 -1.87500000000000  0.689851079119276 
 1.37500000000000 -1.75000000000000  0.947710609719902 
 1.37500000000000 -1.62500000000000  1.27418079382205 
 1.37500000000000 -1.50000000000000  1.67721133718029 
 1.37500000000000 -1.37500000000000  2.16202291176333 
 1.37500000000000 -1.25000000000000  2.72963108423102 
 1.37500000000000 -1.12500000000000  3.37530401477256 
 1.37500000000000 -1.00000000000000  4.08718119660183 
 1.37500000000000 -0.875000000000000  4.84536673027607 
 1.37500000000000 -0.750000000000000  5.62184297862642 
 1.37500000000000 -0.625000000000000  6.38148973032691 
 1.37500000000000 -0.500000000000000  7.08432959125713 
 1.37500000000000 -0.375000000000000  7.68888133168968 
 1.37500000000000 -0.250000000000000  8.15624968349412 
 1.37500000000000 -0.125000000000000  8.45438142913637 
 1.37500000000000  0.00000000000000  8.56182695425641 
 1.37500000000000  0.125000000000000  8.47038755777381 
 1.37500000000000  0.250000000000000  8.18619421425331 
 1.37500000000000  0.375000000000000  7.72902064269041 
 1.37500000000000  0.500000000000000  7.12993332463988 
 1.37500000000000  0.625000000000000  6.42766554678719 
 1.37500000000000  0.750000000000000  5.66431323185169 
 1.37500000000000  0.875000000000000  4.88104002747196 
 1.37500000000000  1.00000000000000  4.11442576057780 
 1.37500000000000  1.12500000000000  3.39391010796641 
 1.37500000000000  1.25000000000000  2.74052315765870 
 1.37500000000000  1.37500000000000  2.16682974705799 
 1.37500000000000  1.50000000000000  1.67781480224153 
 1.37500000000000  1.62500000000000  1.27234285260764 
 1.37500000000000  1.75000000000000  0.944835656502546 
 1.37500000000000  1.87500000000000  0.686893168995774 
 1.37500000000000  2.00000000000000  0.488688837036716 
 1.37500000000000  2.12500000000000  0.340064166848339 
 1.37500000000000  2.25000000000000  0.231313294927355 
 1.37500000000000  2.37500000000000  0.153686322630955 
 1.37500000000000  2.50000000000000  0.0996583540708356 

 1.50000000000000 -2.50000000000000  0.0848880020853740 
 1.50000000000000 -2.37500000000000  0.131165051302664 
 1.50000000000000 -2.25000000000000  0.197806192516298 
 1.50000000000000 -2.12500000000000  0.291383454583391 
 1.50000000000000 -2.00000000000000  0.419580252736561 
 1.50000000000000 -1.87500000000000  0.590982997416593 
 1.50000000000000 -1.75000000000000  0.814678330891135 
 1.50000000000000 -1.62500000000000  1.09961199645004 
 1.50000000000000 -1.50000000000000  1.45367253215723 
 1.50000000000000 -1.37500000000000  1.88248647397479 
 1.50000000000000 -1.25000000000000  2.38796493434252 
 1.50000000000000 -1.12500000000000  2.96673116022571 
 1.50000000000000 -1.00000000000000  3.60867169852715 
 1.50000000000000 -0.875000000000000  4.29595099624736 
 1.50000000000000 -0.750000000000000  5.00285778098283 
 1.50000000000000 -0.625000000000000  5.69677185671259 
 1.50000000000000 -0.500000000000000  6.34035131339500 
 1.50000000000000 -0.375000000000000  6.89478701870648 
 1.50000000000000 -0.250000000000000  7.32372544958742 
 1.50000000000000 -0.125000000000000  7.59729114389356 
 1.50000000000000  0.00000000000000  7.69558673191758 
 1.50000000000000  0.125000000000000  7.61111596451277 
 1.50000000000000  0.250000000000000  7.34974062973700 
 1.50000000000000  0.375000000000000  6.93001121291671 
 1.50000000000000  0.500000000000000  6.38096730570204 
 1.50000000000000  0.625000000000000  5.73874969694667 
 1.50000000000000  0.750000000000000  5.04256019010025 
 1.50000000000000  0.875000000000000  4.33060444582802 
 1.50000000000000  1.00000000000000  3.63662610108003 
 1.50000000000000  1.12500000000000  2.98748510362074 
 1.50000000000000  1.25000000000000  2.40198739822716 
 1.50000000000000  1.37500000000000  1.89090654506219 
 1.50000000000000  1.50000000000000  1.45792657682647 
 1.50000000000000  1.62500000000000  1.10113052570503 
 1.50000000000000  1.75000000000000  0.814667512808021 
 1.50000000000000  1.87500000000000  0.590319500775296 
 1.50000000000000  2.00000000000000  0.418805495479037 
 1.50000000000000  2.12500000000000  0.290763519743643 
 1.50000000000000  2.25000000000000  0.197419274924489 
 1.50000000000000  2.37500000000000  0.130985887052971 
 1.50000000000000  2.50000000000000  0.0848518721183065 

 1.62500000000000 -2.50000000000000  0.0707448159076433 
 1.62500000000000 -2.37500000000000  0.109449320604757 
 1.62500000000000 -2.25000000000000  0.165326938798075 
 1.62500000000000 -2.12500000000000  0.244031513628739 
 1.62500000000000 -2.00000000000000  0.352237543710025 
 1.62500000000000 -1.87500000000000  0.497485691674329 
 1.62500000000000 -1.75000000000000  0.687855696193276 
 1.62500000000000 -1.62500000000000  0.931421790921023 
 1.62500000000000 -1.50000000000000  1.23545020989975 
 1.62500000000000 -1.37500000000000  1.60531852583920 
 1.62500000000000 -1.25000000000000  2.04318662893158 
 1.62500000000000 -1.12500000000000  2.54653664652414 
 1.62500000000000 -1.00000000000000  3.10681043345348 
 1.62500000000000 -0.875000000000000  3.70846829562766 
 1.62500000000000 -0.750000000000000  4.32881839152396 
 1.62500000000000 -0.625000000000000  4.93888546784788 
 1.62500000000000 -0.500000000000000  5.50540345096681 
 1.62500000000000 -0.375000000000000  5.99377636149028 
 1.62500000000000 -0.250000000000000  6.37162725401259 
 1.62500000000000 -0.125000000000000  6.61240913866084 
 1.62500000000000  0.00000000000000  6.69851774709534 
 1.62500000000000  0.125000000000000  6.62342026075981 
 1.62500000000000  0.250000000000000  6.39246953333125 
 1.62500000000000  0.375000000000000  6.02227611825673 
 1.62500000000000  0.500000000000000  5.53873042668654 
 1.62500000000000  0.625000000000000  4.97397709836931 
 1.62500000000000  0.750000000000000  4.36281192797024 
 1.62500000000000  0.875000000000000  3.73906237013300 
 1.62500000000000  1.00000000000000  3.13249522808100 
 1.62500000000000  1.12500000000000  2.56666246907904 
 1.62500000000000  1.25000000000000  2.05787734091640 
 1.62500000000000  1.37500000000000  1.61526966837515 
 1.62500000000000  1.50000000000000  1.24167281388878 
 1.62500000000000  1.62500000000000  0.934996007603914 
 1.62500000000000  1.75000000000000  0.689743741485879 
 1.62500000000000  1.87500000000000  0.498427716380763 
 1.62500000000000  2.00000000000000  0.352727068202475 
 1.62500000000000  2.12500000000000  0.244348040097372 
 1.62500000000000  2.25000000000000  0.165596457965730 
 1.62500000000000  2.37500000000000  0.109707278825387 
 1.62500000000000  2.50000000000000  0.0709858501228764 

 1.75000000000000 -2.50000000000000  0.0578170717368487 
 1.75000000000000 -2.37500000000000  0.0896112735599812 
 1.75000000000000 -2.25000000000000  0.135660881149277 
 1.75000000000000 -2.12500000000000  0.200755984416346 
 1.75000000000000 -2.00000000000000  0.290591100839375 
 1.75000000000000 -1.87500000000000  0.411640564059230 
 1.75000000000000 -1.75000000000000  0.570881833908024 
 1.75000000000000 -1.62500000000000  0.775328927101674 
 1.75000000000000 -1.50000000000000  1.03134250352985 
 1.75000000000000 -1.37500000000000  1.34369922120110 
 1.75000000000000 -1.25000000000000  1.71444381257389 
 1.75000000000000 -1.12500000000000  2.14162132934253 
 1.75000000000000 -1.00000000000000  2.61808407926636 
 1.75000000000000 -0.875000000000000  3.13065339994936 
 1.75000000000000 -0.750000000000000  3.65994327216239 
 1.75000000000000 -0.625000000000000  4.18108640106880 
 1.75000000000000 -0.500000000000000  4.66544482605233 
 1.75000000000000 -0.375000000000000  5.08317654563567 
 1.75000000000000 -0.250000000000000  5.40632889229084 
 1.75000000000000 -0.125000000000000  5.61199529032113 
 1.75000000000000  0.00000000000000  5.68503618815126 
 1.75000000000000  0.125000000000000  5.61992850467406 
 1.75000000000000  0.250000000000000  5.42144938169450 
 1.75000000000000  0.375000000000000  5.10408794529124 
 1.75000000000000  0.500000000000000  4.69028098941343 
 1.75000000000000  0.625000000000000  4.20775476350765 
 1.75000000000000  0.750000000000000  3.68639576843000 
 1.75000000000000  0.875000000000000  3.15514032221986 
 1.75000000000000  1.00000000000000  2.63934538950966 
 1.75000000000000  1.12500000000000  2.15898098089893 
 1.75000000000000  1.25000000000000  1.72779450231102 
 1.75000000000000  1.37500000000000  1.35339170372992 
 1.75000000000000  1.50000000000000  1.03801624752156 
 1.75000000000000  1.62500000000000  0.779731421307830 
 1.75000000000000  1.75000000000000  0.573718942863974 
 1.75000000000000  1.87500000000000  0.413483192297306 
 1.75000000000000  2.00000000000000  0.291842026102589 
 1.75000000000000  2.12500000000000  0.201663528187561 
 1.75000000000000  2.25000000000000  0.136358043898021 
 1.75000000000000  2.37500000000000  0.0901601178738110 
 1.75000000000000  2.50000000000000  0.0582450135792432 

 1.87500000000000 -2.50000000000000  0.0463257486339794 
 1.87500000000000 -2.37500000000000  0.0720080535716467 
 1.87500000000000 -2.25000000000000  0.109378778621616 
 1.87500000000000 -2.12500000000000  0.162464683181305 
 1.87500000000000 -2.00000000000000  0.236083342991795 
 1.87500000000000 -1.87500000000000  0.335736721790705 
 1.87500000000000 -1.75000000000000  0.467371056130684 
 1.87500000000000 -1.62500000000000  0.636975085214607 
 1.87500000000000 -1.50000000000000  0.849993979597280 
 1.87500000000000 -1.37500000000000  1.11054827380895 
 1.87500000000000 -1.25000000000000  1.42047637797509 
 1.87500000000000 -1.12500000000000  1.77827491795312 
 1.87500000000000 -1.00000000000000  2.17808867145714 
 1.87500000000000 -0.875000000000000  2.60897607842710 
 1.87500000000000 -0.750000000000000  3.05470872088788 
 1.87500000000000 -0.625000000000000  3.49432179334744 
 1.87500000000000 -0.500000000000000  3.90351136997756 
 1.87500000000000 -0.375000000000000  4.25679896847848 
 1.87500000000000 -0.250000000000000  4.53020176056252 
 1.87500000000000 -0.125000000000000  4.70400824255907 
 1.87500000000000  0.00000000000000  4.76520181730923 
 1.87500000000000  0.125000000000000  4.70911431861963 
 1.87500000000000  0.250000000000000  4.54002004392564 
 1.87500000000000  0.375000000000000  4.27056982163444 
 1.87500000000000  0.500000000000000  3.92017234781159 
 1.87500000000000  0.625000000000000  3.51261192507243 
 1.87500000000000  0.750000000000000  3.07331074535377 
 1.87500000000000  0.875000000000000  2.62667778710571 
 1.87500000000000  1.00000000000000  2.19393149348245 
 1.87500000000000  1.12500000000000  1.79165511260850 
 1.87500000000000  1.25000000000000  1.43117480810873 
 1.87500000000000  1.37500000000000  1.11868532023663 
 1.87500000000000  1.50000000000000  0.855928321988975 
 1.87500000000000  1.62500000000000  0.641179583700854 
 1.87500000000000  1.75000000000000  0.470320426322837 
 1.87500000000000  1.87500000000000  0.337831086776838 
 1.87500000000000  2.00000000000000  0.237615286833085 
 1.87500000000000  2.12500000000000  0.163622684950075 
 1.87500000000000  2.25000000000000  0.110271892080448 
 1.87500000000000  2.37500000000000  0.0726962712584810 
 1.87500000000000  2.50000000000000  0.0468452414677732 

 2.00000000000000 -2.50000000000000  0.0364305575773458 
 2.00000000000000 -2.37500000000000  0.0568847521291806 
 2.00000000000000 -2.25000000000000  0.0868504954734106 
 2.00000000000000 -2.12500000000000  0.129712579929786 
 2.00000000000000 -2.00000000000000  0.189550796977636 
 2.00000000000000 -1.87500000000000  0.271048708459540 
 2.00000000000000 -1.75000000000000  0.379285153712610 
 2.00000000000000 -1.62500000000000  0.519389173194994 
 2.00000000000000 -1.50000000000000  0.696045096882693 
 2.00000000000000 -1.37500000000000  0.912842806027381 
 2.00000000000000 -1.25000000000000  1.17148680168857 
 2.00000000000000 -1.12500000000000  1.47091605166163 
 2.00000000000000 -1.00000000000000  1.80644554508514 
 2.00000000000000 -0.875000000000000  2.16910488556337 
 2.00000000000000 -0.750000000000000  2.54538995669337 
 2.00000000000000 -0.625000000000000  2.91763046832317 
 2.00000000000000 -0.500000000000000  3.26509366199407 
 2.00000000000000 -0.375000000000000  3.56580143603380 
 2.00000000000000 -0.250000000000000  3.79886658969241 
 2.00000000000000 -0.125000000000000  3.94699998484261 
 2.00000000000000  0.00000000000000  3.99875180420382 
 2.00000000000000  0.125000000000000  3.95006118076140 
 2.00000000000000  0.250000000000000  3.80480695126427 
 2.00000000000000  0.375000000000000  3.57425218691182 
 2.00000000000000  0.500000000000000  3.27550264650630 
 2.00000000000000  0.625000000000000  2.92929119511507 
 2.00000000000000  0.750000000000000  2.55750712150057 
 2.00000000000000  0.875000000000000  2.18089164953285 
 2.00000000000000  1.00000000000000  1.81723141846141 
 2.00000000000000  1.12500000000000  1.48023556861471 
 2.00000000000000  1.25000000000000  1.17912315594775 
 2.00000000000000  1.37500000000000  0.918815749639438 
 2.00000000000000  1.50000000000000  0.700551621997308 
 2.00000000000000  1.62500000000000  0.522720015746767 
 2.00000000000000  1.75000000000000  0.381744165218447 
 2.00000000000000  1.87500000000000  0.272895519964038 
 2.00000000000000  2.00000000000000  0.190974742551017 
 2.00000000000000  2.12500000000000  0.130833895154650 
 2.00000000000000  2.25000000000000  0.0877378164816273 
 2.00000000000000  2.37500000000000  0.0575769960426993 
 2.00000000000000  2.50000000000000  0.0369546907442808 

 2.12500000000000 -2.50000000000000  0.0281708905320914 
 2.12500000000000 -2.37500000000000  0.0442782440714141 
 2.12500000000000 -2.25000000000000  0.0680908484588903 
 2.12500000000000 -2.12500000000000  0.102458288579445 
 2.12500000000000 -2.00000000000000  0.150844512402180 
 2.12500000000000 -1.87500000000000  0.217251827190265 
 2.12500000000000 -1.75000000000000  0.306043006667582 
 2.12500000000000 -1.62500000000000  0.421648071907282 
 2.12500000000000 -1.50000000000000  0.568148246635010 
 2.12500000000000 -1.37500000000000  0.748734911113680 
 2.12500000000000 -1.25000000000000  0.965052165171141 
 2.12500000000000 -1.12500000000000  1.21645693243460 
 2.12500000000000 -1.00000000000000  1.49927524083783 
 2.12500000000000 -0.875000000000000  1.80619022410138 
 2.12500000000000 -0.750000000000000  2.12594517438838 
 2.12500000000000 -0.625000000000000  2.44355488895192 
 2.12500000000000 -0.500000000000000  2.74116727550699 
 2.12500000000000 -0.375000000000000  2.99959947850545 
 2.12500000000000 -0.250000000000000  3.20040858698274 
 2.12500000000000 -0.125000000000000  3.32818993848532 
 2.12500000000000  0.00000000000000  3.37268227502390 
 2.12500000000000  0.125000000000000  3.33024725747164 
 2.12500000000000  0.250000000000000  3.20440022368054 
 2.12500000000000  0.375000000000000  3.00527569127241 
 2.12500000000000  0.500000000000000  2.74815307276040 
 2.12500000000000  0.625000000000000  2.45136926809000 
 2.12500000000000  0.750000000000000  2.13404613412440 
 2.12500000000000  0.875000000000000  1.81404268783157 
 2.12500000000000  1.00000000000000  1.50642705056952 
 2.12500000000000  1.12500000000000  1.22260134667747 
 2.12500000000000  1.25000000000000  0.970057803718049 
 2.12500000000000  1.37500000000000  0.752635121668684 
 2.12500000000000  1.50000000000000  0.571096246750578 
 2.12500000000000  1.62500000000000  0.423855176665404 
 2.12500000000000  1.75000000000000  0.307720216887772 
 2.12500000000000  1.87500000000000  0.218569900546210 
 2.12500000000000  2.00000000000000  0.151918076351847 
 2.12500000000000  2.12500000000000  0.103350446003035 
 2.12500000000000  2.25000000000000  0.0688294601188194 
 2.12500000000000  2.37500000000000  0.0448744595668309 
 2.12500000000000  2.50000000000000  0.0286332837514385 

 2.25000000000000 -2.50000000000000  0.0214523794675337 
 2.25000000000000 -2.37500000000000  0.0340040818462445 
 2.25000000000000 -2.25000000000000  0.0527558189800258 
 2.25000000000000 -2.12500000000000  0.0800894390794760 
 2.25000000000000 -2.00000000000000  0.118922227927164 
 2.25000000000000 -1.87500000000000  0.172645047007576 
 2.25000000000000 -1.75000000000000  0.244973825070195 
 2.25000000000000 -1.62500000000000  0.339704563384935 
 2.25000000000000 -1.50000000000000  0.460367229989773 
 2.25000000000000 -1.37500000000000  0.609777297726415 
 2.25000000000000 -1.25000000000000  0.789489676029387 
 2.25000000000000 -1.12500000000000  0.999176596211733 
 2.25000000000000 -1.00000000000000  1.23598536047557 
 2.25000000000000 -0.875000000000000  1.49398167279374 
 2.25000000000000 -0.750000000000000  1.76383401592398 
 2.25000000000000 -0.625000000000000  2.03291777924189 
 2.25000000000000 -0.500000000000000  2.28598752383554 
 2.25000000000000 -0.375000000000000  2.50646852852266 
 2.25000000000000 -0.250000000000000  2.67826674188328 
 2.25000000000000 -0.125000000000000  2.78782991650995 
 2.25000000000000  0.00000000000000  2.82607035834315 
 2.25000000000000  0.125000000000000  2.78973534614232 
 2.25000000000000  0.250000000000000  2.68190892483629 
 2.25000000000000  0.375000000000000  2.51152702267384 
 2.25000000000000  0.500000000000000  2.29202441154519 
 2.25000000000000  0.625000000000000  2.03942860436367 
 2.25000000000000  0.750000000000000  1.77031110100765 
 2.25000000000000  0.875000000000000  1.49998064011337 
 2.25000000000000  1.00000000000000  1.24118178076123 
 2.25000000000000  1.12500000000000  1.00339951030900 
 2.25000000000000  1.25000000000000  0.792723664556009 
 2.25000000000000  1.37500000000000  0.612133644202310 
 2.25000000000000  1.50000000000000  0.462034008790198 
 2.25000000000000  1.62500000000000  0.340891110992326 
 2.25000000000000  1.75000000000000  0.245864730953293 
 2.25000000000000  1.87500000000000  0.173373243194496 
 2.25000000000000  2.00000000000000  0.119562985748336 
 2.25000000000000  2.12500000000000  0.0806705020315321 
 2.25000000000000  2.25000000000000  0.0532755979988560 
 2.25000000000000  2.37500000000000  0.0344500421717122 
 2.25000000000000  2.50000000000000  0.0218143438440019 

 2.37500000000000 -2.50000000000000  0.0160806341685211 
 2.37500000000000 -2.37500000000000  0.0257276544771076 
 2.37500000000000 -2.25000000000000  0.0402863731646379 
 2.37500000000000 -2.12500000000000  0.0617004377636899 
 2.37500000000000 -2.00000000000000  0.0923607058015508 
 2.37500000000000 -1.87500000000000  0.135054749778248 
 2.37500000000000 -1.75000000000000  0.192845228399749 
 2.37500000000000 -1.62500000000000  0.268869923901855 
 2.37500000000000 -1.50000000000000  0.366060687850755 
 2.37500000000000 -1.37500000000000  0.486780873197908 
 2.37500000000000 -1.25000000000000  0.632384167273905 
 2.37500000000000 -1.12500000000000  0.802708884024680 
 2.37500000000000 -1.00000000000000  0.995547582473877 
 2.37500000000000 -0.875000000000000  1.20617297216725 
 2.37500000000000 -0.750000000000000  1.42704645595517 
 2.37500000000000 -0.625000000000000  1.64786283622267 
 2.37500000000000 -0.500000000000000  1.85606756991282 
 2.37500000000000 -0.375000000000000  2.03790547197759 
 2.37500000000000 -0.250000000000000  2.17992902358806 
 2.37500000000000 -0.125000000000000  2.27074521208585 
 2.37500000000000  0.00000000000000  2.30266554959361 
 2.37500000000000  0.125000000000000  2.27289550350575 
 2.37500000000000  0.250000000000000  2.18398100952456 
 2.37500000000000  0.375000000000000  2.04340318088608 
 2.37500000000000  0.500000000000000  1.86242208558820 
 2.37500000000000  0.625000000000000  1.65444553514863 
 2.37500000000000  0.750000000000000  1.43328317839618 
 2.37500000000000  0.875000000000000  1.21162142311651 
 2.37500000000000  1.00000000000000  0.999944165834248 
 2.37500000000000  1.12500000000000  0.805978192740292 
 2.37500000000000  1.25000000000000  0.634613021475259 
 2.37500000000000  1.37500000000000  0.488166891845541 
 2.37500000000000  1.50000000000000  0.366850473941899 
 2.37500000000000  1.62500000000000  0.269302435534928 
 2.37500000000000  1.75000000000000  0.193111893572022 
 2.37500000000000  1.87500000000000  0.135281197497620 
 2.37500000000000  2.00000000000000  0.0926082767717959 
 2.37500000000000  2.12500000000000  0.0619810797022190 
 2.37500000000000  2.25000000000000  0.0405830023312247 
 2.37500000000000  2.37500000000000  0.0260131689768326 
 2.37500000000000  2.50000000000000  0.0163313712192743 

 2.50000000000000 -2.50000000000000  0.0118224483531329 
 2.50000000000000 -2.37500000000000  0.0190778503363108 
 2.50000000000000 -2.25000000000000  0.0301126005328303 
 2.50000000000000 -2.12500000000000  0.0464461694027956 
 2.50000000000000 -2.00000000000000  0.0699472090639501 
 2.50000000000000 -1.87500000000000  0.102791499826696 
 2.50000000000000 -1.75000000000000  0.147364392377301 
 2.50000000000000 -1.62500000000000  0.206103110748815 
 2.50000000000000 -1.50000000000000  0.281278049171420 
 2.50000000000000 -1.37500000000000  0.374713964969319 
 2.50000000000000 -1.25000000000000  0.487453746208880 
 2.50000000000000 -1.12500000000000  0.619374365223769 
 2.50000000000000 -1.00000000000000  0.768782592189808 
 2.50000000000000 -0.875000000000000  0.932048797199463 
 2.50000000000000 -0.750000000000000  1.10337352045089 
 2.50000000000000 -0.625000000000000  1.27480622973837 
 2.50000000000000 -0.500000000000000  1.43662707707358 
 2.50000000000000 -0.375000000000000  1.57814545296308 
 2.50000000000000 -0.250000000000000  1.68886708717610 
 2.50000000000000 -0.125000000000000  1.75986118126096 
 2.50000000000000  0.00000000000000  1.78506408032642 
 2.50000000000000  0.125000000000000  1.76222889353655 
 2.50000000000000  0.250000000000000  1.69329229724094 
 2.50000000000000  0.375000000000000  1.58406720177297 
 2.50000000000000  0.500000000000000  1.44333831243131 
 2.50000000000000  0.625000000000000  1.28157907143850 
 2.50000000000000  0.750000000000000  1.10957704048301 
 2.50000000000000  0.875000000000000  0.937235092271614 
 2.50000000000000  1.00000000000000  0.772726686417815 
 2.50000000000000  1.12500000000000  0.622066002183538 
 2.50000000000000  1.25000000000000  0.489050710180074 
 2.50000000000000  1.37500000000000  0.375474086064311 
 2.50000000000000  1.50000000000000  0.281488896224333 
 2.50000000000000  1.62500000000000  0.206024902707307 
 2.50000000000000  1.75000000000000  0.147194841985544 
 2.50000000000000  1.87500000000000  0.102653834383679 
 2.50000000000000  2.00000000000000  0.0698968050880793 
 2.50000000000000  2.12500000000000  0.0464882861103848 
 2.50000000000000  2.25000000000000  0.0302235600198340 
 2.50000000000000  2.37500000000000  0.0192238111543422 
 2.50000000000000  2.50000000000000  0.0119725215528716 

