 6260000.00000000  0.191654299299450  0.0661282071427828  0.0197898213768321  0.00125529908463060  0.000433127136714517  0.000129619553279762  0.990018909061669  0.0994990166662162  0.0995002170536241 -6260000.00000000 
 6260025.00000000  0.191654299299450  0.0665036242099179  0.0198057263735283  0.00125529908463060  0.000435586046858730  0.000129723727972772  0.990018909061669  0.0994990016534521  0.0995002168637466 -6260025.00000000 
 6260050.00000000  0.191654299299450  0.0668834611748468  0.0198217058912907  0.00125529908463060  0.000438073906489988  0.000129828390764545  0.990018909061669  0.0994989863774414  0.0995002166728258 -6260050.00000000 
 6260075.00000000  0.191654299299450  0.0672677949512814  0.0198377601893201  0.00125529908463060  0.000440591219378425  0.000129933543352796  0.990018909061669  0.0994989708320267  0.0995002164808565 -6260075.00000000 
 6260100.00000000  0.191654299299450  0.0676567042352990  0.0198538895285154  0.00125529908463060  0.000443138500968330  0.000130039187446362  0.990018909061669  0.0994989550108710  0.0995002162878334 -6260100.00000000 
 6260125.00000000  0.191654299299450  0.0680502695567925  0.0198700941714822  0.00125529908463060  0.000445716278715132  0.000130145324765261  0.990018909061669  0.0994989389074502  0.0995002160937511 -6260125.00000000 
 6260150.00000000  0.191654299299450  0.0684485733328867  0.0198863743825504  0.00125529908463060  0.000448325092435272  0.000130251957040802  0.990018909061669  0.0994989225150475  0.0995002158986042 -6260150.00000000 
 6260175.00000000  0.191654299299450  0.0688516999228349  0.0199027304277752  0.00125529908463060  0.000450965494665756  0.000130359086015596  0.990018909061669  0.0994989058267458  0.0995002157023875 -6260175.00000000 
 6260200.00000000  0.191654299299450  0.0692597356853297  0.0199191625749590  0.00125529908463060  0.000453638051039542  0.000130466713443699  0.990018909061669  0.0994988888354212  0.0995002155050954 -6260200.00000000 
 6260225.00000000  0.191654299299450  0.0696727690374630  0.0199356710936588  0.00125529908463060  0.000456343340671708  0.000130574841090655  0.990018909061669  0.0994988715337351  0.0995002153067223 -6260225.00000000 
 6260250.00000000  0.191654299299450  0.0700908905158702  0.0199522562551971  0.00125529908463060  0.000459081956559937  0.000130683470733578  0.990018909061669  0.0994988539141264  0.0995002151072628 -6260250.00000000 
 6260275.00000000  0.191654299299450  0.0705141928400792  0.0199689183326749  0.00125529908463060  0.000461854505999444  0.000130792604161225  0.990018909061669  0.0994988359688037  0.0995002149067112 -6260275.00000000 
 6260300.00000000  0.191654299299450  0.0709427709782162  0.0199856576009877  0.00125529908463060  0.000464661611013328  0.000130902243174111  0.990018909061669  0.0994988176897368  0.0995002147050620 -6260300.00000000 
 6260325.00000000  0.191654299299450  0.0713767222147771  0.0200024743368312  0.00125529908463060  0.000467503908796474  0.000131012389584538  0.990018909061669  0.0994987990686479  0.0995002145023093 -6260325.00000000 
 6260350.00000000  0.191654299299450  0.0718161462211283  0.0200193688187163  0.00125529908463060  0.000470382052177310  0.000131123045216701  0.990018909061669  0.0994987800970022  0.0995002142984477 -6260350.00000000 
 6260375.00000000  0.191654299299450  0.0722611451285735  0.0200363413269861  0.00125529908463060  0.000473296710096383  0.000131234211906793  0.990018909061669  0.0994987607659985  0.0995002140934712 -6260375.00000000 
 6260400.00000000  0.191654299299450  0.0727118236037989  0.0200533921438211  0.00125529908463060  0.000476248568100513  0.000131345891503042  0.990018909061669  0.0994987410665597  0.0995002138873740 -6260400.00000000 
 6260425.00000000  0.191654299299450  0.0731682889273988  0.0200705215532554  0.00125529908463060  0.000479238328857121  0.000131458085865817  0.990018909061669  0.0994987209893214  0.0995002136801504 -6260425.00000000 
 6260450.00000000  0.191654299299450  0.0736306510752080  0.0200877298411911  0.00125529908463060  0.000482266712686934  0.000131570796867724  0.990018909061669  0.0994987005246217  0.0995002134717943 -6260450.00000000 
 6260475.00000000  0.191654299299450  0.0740990228026234  0.0201050172954104  0.00125529908463060  0.000485334458116286  0.000131684026393680  0.990018909061669  0.0994986796624900  0.0995002132623000 -6260475.00000000 
 6260500.00000000  0.191654299299450  0.0745735197319570  0.0201223842055831  0.00125529908463060  0.000488442322449253  0.000131797776340967  0.990018909061669  0.0994986583926346  0.0995002130516612 -6260500.00000000 
 6260525.00000000  0.191654299299450  0.0750542604435050  0.0201398308632911  0.00125529908463060  0.000491591082364145  0.000131912048619391  0.990018909061669  0.0994986367044304  0.0995002128398722 -6260525.00000000 
 6260550.00000000  0.191654299299450  0.0755413665694712  0.0201573575620309  0.00125529908463060  0.000494781534528685  0.000132026845151299  0.990018909061669  0.0994986145869064  0.0995002126269267 -6260550.00000000 
 6260575.00000000  0.191654299299450  0.0760349628918992  0.0201749645972318  0.00125529908463060  0.000498014496241445  0.000132142167871694  0.990018909061669  0.0994985920287319  0.0995002124128185 -6260575.00000000 
 6260600.00000000  0.191654299299450  0.0765351774442314  0.0201926522662700  0.00125529908463060  0.000501290806097037  0.000132258018728336  0.990018909061669  0.0994985690182021  0.0995002121975417 -6260600.00000000 
 6260625.00000000  0.191654299299450  0.0770421416167214  0.0202104208684818  0.00125529908463060  0.000504611324676549  0.000132374399681819  0.990018909061669  0.0994985455432236  0.0995002119810899 -6260625.00000000 
 6260650.00000000  0.191654299299450  0.0775559902659075  0.0202282707051743  0.00125529908463060  0.000507976935264570  0.000132491312705648  0.990018909061669  0.0994985215912990  0.0995002117634567 -6260650.00000000 
 6260675.00000000  0.191654299299450  0.0780768618285183  0.0202462020796442  0.00125529908463060  0.000511388544595253  0.000132608759786358  0.990018909061669  0.0994984971495104  0.0995002115446361 -6260675.00000000 
 6260700.00000000  0.191654299299450  0.0786048984396915  0.0202642152971899  0.00125529908463060  0.000514847083626624  0.000132726742923595  0.990018909061669  0.0994984722045024  0.0995002113246214 -6260700.00000000 
 6260725.00000000  0.191654299299450  0.0791402460557330  0.0202823106651209  0.00125529908463060  0.000518353508344632  0.000132845264130179  0.990018909061669  0.0994984467424650  0.0995002111034064 -6260725.00000000 
 6260750.00000000  0.191654299299450  0.0796830545822313  0.0203004884927829  0.00125529908463060  0.000521908800602273  0.000132964325432263  0.990018909061669  0.0994984207491141  0.0995002108809844 -6260750.00000000 
 6260775.00000000  0.191654299299450  0.0802334780065739  0.0203187490915600  0.00125529908463060  0.000525513968987548  0.000133083928869355  0.990018909061669  0.0994983942096727  0.0995002106573491 -6260775.00000000 
 6260800.00000000  0.191654299299450  0.0807916745365176  0.0203370927749008  0.00125529908463060  0.000529170049731072  0.000133204076494483  0.990018909061669  0.0994983671088500  0.0995002104324938 -6260800.00000000 
 6260825.00000000  0.191654299299450  0.0813578067436061  0.0203555198583210  0.00125529908463060  0.000532878107645431  0.000133324770374216  0.990018909061669  0.0994983394308204  0.0995002102064119 -6260825.00000000 
 6260850.00000000  0.191654299299450  0.0819320417131485  0.0203740306594294  0.00125529908463060  0.000536639237107510  0.000133446012588828  0.990018909061669  0.0994983111592009  0.0995002099790967 -6260850.00000000 
 6260875.00000000  0.191654299299450  0.0825145511998120  0.0203926254979371  0.00125529908463060  0.000540454563077605  0.000133567805232369  0.990018909061669  0.0994982822770275  0.0995002097505415 -6260875.00000000 
 6260900.00000000  0.191654299299450  0.0831055117897561  0.0204113046956726  0.00125529908463060  0.000544325242161357  0.000133690150412752  0.990018909061669  0.0994982527667304  0.0995002095207394 -6260900.00000000 
 6260925.00000000  0.191654299299450  0.0837051050695161  0.0204300685765973  0.00125529908463060  0.000548252463715919  0.000133813050251863  0.990018909061669  0.0994982226101084  0.0995002092896837 -6260925.00000000 
 6260950.00000000  0.191654299299450  0.0843135178020520  0.0204489174668257  0.00125529908463060  0.000552237451003038  0.000133936506885691  0.990018909061669  0.0994981917883015  0.0995002090573675 -6260950.00000000 
 6260975.00000000  0.191654299299450  0.0849309421097506  0.0204678516946330  0.00125529908463060  0.000556281462387681  0.000134060522464373  0.990018909061669  0.0994981602817623  0.0995002088237838 -6260975.00000000 
 6261000.00000000  0.191654299299450  0.0855575756655392  0.0204868715904746  0.00125529908463060  0.000560385792589797  0.000134185099152332  0.990018909061669  0.0994981280702261  0.0995002085889256 -6261000.00000000 
 6261025.00000000  0.191654299299450  0.0861936218921345  0.0205059774870068  0.00125529908463060  0.000564551773989361  0.000134310239128401  0.990018909061669  0.0994980951326792  0.0995002083527858 -6261025.00000000 
 6261050.00000000  0.191654299299450  0.0868392901692387  0.0205251697190914  0.00125529908463060  0.000568780777983461  0.000134435944585862  0.990018909061669  0.0994980614473257  0.0995002081153573 -6261050.00000000 
 6261075.00000000  0.191654299299450  0.0874947960504260  0.0205444486238230  0.00125529908463060  0.000573074216406873  0.000134562217732620  0.990018909061669  0.0994980269915530  0.0995002078766330 -6261075.00000000 
 6261100.00000000  0.191654299299450  0.0881603614888174  0.0205638145405402  0.00125529908463060  0.000577433543010182  0.000134689060791279  0.990018909061669  0.0994979917418947  0.0995002076366056 -6261100.00000000 
 6261125.00000000  0.191654299299450  0.0888362150727330  0.0205832678108412  0.00125529908463060  0.000581860255003259  0.000134816475999240  0.990018909061669  0.0994979556739922  0.0995002073952678 -6261125.00000000 
 6261150.00000000  0.191654299299450  0.0895225922717084  0.0206028087786008  0.00125529908463060  0.000586355894666624  0.000134944465608819  0.990018909061669  0.0994979187625541  0.0995002071526123 -6261150.00000000 
 6261175.00000000  0.191654299299450  0.0902197356935518  0.0206224377899941  0.00125529908463060  0.000590922051035122  0.000135073031887396  0.990018909061669  0.0994978809813132  0.0995002069086317 -6261175.00000000 
 6261200.00000000  0.191654299299450  0.0909278953520097  0.0206421551934972  0.00125529908463060  0.000595560361651079  0.000135202177117423  0.990018909061669  0.0994978423029819  0.0995002066633185 -6261200.00000000 
 6261225.00000000  0.191654299299450  0.0916473289476566  0.0206619613399245  0.00125529908463060  0.000600272514404079  0.000135331903596668  0.990018909061669  0.0994978026992039  0.0995002064166651 -6261225.00000000 
 6261250.00000000  0.191654299299450  0.0923783021600498  0.0206818565824286  0.00125529908463060  0.000605060249444517  0.000135462213638212  0.990018909061669  0.0994977621405053  0.0995002061686641 -6261250.00000000 
 6261275.00000000  0.191654299299450  0.0931210889541933  0.0207018412765308  0.00125529908463060  0.000609925361190887  0.000135593109570653  0.990018909061669  0.0994977205962407  0.0995002059193077 -6261275.00000000 
 6261300.00000000  0.191654299299450  0.0938759719000582  0.0207219157801276  0.00125529908463060  0.000614869700422572  0.000135724593738144  0.990018909061669  0.0994976780345382  0.0995002056685883 -6261300.00000000 
 6261325.00000000  0.191654299299450  0.0946432425074371  0.0207420804535166  0.00125529908463060  0.000619895176473082  0.000135856668500566  0.990018909061669  0.0994976344222406  0.0995002054164981 -6261325.00000000 
 6261350.00000000  0.191654299299450  0.0954232015758471  0.0207623356594120  0.00125529908463060  0.000625003759521849  0.000135989336233627  0.990018909061669  0.0994975897248428  0.0995002051630292 -6261350.00000000 
 6261375.00000000  0.191654299299450  0.0962161595605122  0.0207826817629569  0.00125529908463060  0.000630197482991342  0.000136122599328945  0.990018909061669  0.0994975439064273  0.0995002049081739 -6261375.00000000 
 6261400.00000000  0.191654299299450  0.0970224369561527  0.0208031191317538  0.00125529908463060  0.000635478446060813  0.000136256460194247  0.990018909061669  0.0994974969295941  0.0995002046519239 -6261400.00000000 
 6261425.00000000  0.191654299299450  0.0978423646978180  0.0208236481358709  0.00125529908463060  0.000640848816291681  0.000136390921253408  0.990018909061669  0.0994974487553881  0.0995002043942715 -6261425.00000000 
 6261450.00000000  0.191654299299450  0.0986762845814409  0.0208442691478668  0.00125529908463060  0.000646310832382077  0.000136525984946616  0.990018909061669  0.0994973993432214  0.0995002041352085 -6261450.00000000 
 6261475.00000000  0.191654299299450  0.0995245497040235  0.0208649825428066  0.00125529908463060  0.000651866807049978  0.000136661653730476  0.990018909061669  0.0994973486507919  0.0995002038747267 -6261475.00000000 
 6261500.00000000  0.191654299299450  0.100387524925317  0.0208857886982873  0.00125529908463060  0.000657519130057124  0.000136797930078177  0.990018909061669  0.0994972966339965  0.0995002036128180 -6261500.00000000 
 6261525.00000000  0.191654299299450  0.101265587350921  0.0209066879944437  0.00125529908463060  0.000663270271373224  0.000136934816479528  0.990018909061669  0.0994972432468396  0.0995002033494739 -6261525.00000000 
 6261550.00000000  0.191654299299450  0.102159126840104  0.0209276808139839  0.00125529908463060  0.000669122784502087  0.000137072315441195  0.990018909061669  0.0994971884413360  0.0995002030846863 -6261550.00000000 
 6261575.00000000  0.191654299299450  0.103068546537154  0.0209487675421956  0.00125529908463060  0.000675079309961858  0.000137210429486738  0.990018909061669  0.0994971321674084  0.0995002028184467 -6261575.00000000 
 6261600.00000000  0.191654299299450  0.103994263429669  0.0209699485669704  0.00125529908463060  0.000681142578941728  0.000137349161156774  0.990018909061669  0.0994970743727780  0.0995002025507466 -6261600.00000000 
 6261625.00000000  0.191654299299450  0.104936708934468  0.0209912242788289  0.00125529908463060  0.000687315417139528  0.000137488513009137  0.990018909061669  0.0994970150028494  0.0995002022815773 -6261625.00000000 
 6261650.00000000  0.191654299299450  0.105896329512076  0.0210125950709311  0.00125529908463060  0.000693600748786496  0.000137628487618952  0.990018909061669  0.0994969540005877  0.0995002020109304 -6261650.00000000 
 6261675.00000000  0.191654299299450  0.106873587312717  0.0210340613391030  0.00125529908463060  0.000700001600878397  0.000137769087578802  0.990018909061669  0.0994968913063889  0.0995002017387971 -6261675.00000000 
 6261700.00000000  0.191654299299450  0.107868960854493  0.0210556234818536  0.00125529908463060  0.000706521107617476  0.000137910315498846  0.990018909061669  0.0994968268579415  0.0995002014651687 -6261700.00000000 
 6261725.00000000  0.191654299299450  0.108882945736452  0.0210772819004023  0.00125529908463060  0.000713162515082927  0.000138052174006993  0.990018909061669  0.0994967605900801  0.0995002011900362 -6261725.00000000 
 6261750.00000000  0.191654299299450  0.109916055387350  0.0210990369986888  0.00125529908463060  0.000719929186135102  0.000138194665748973  0.990018909061669  0.0994966924346289  0.0995002009133908 -6261750.00000000 
 6261775.00000000  0.191654299299450  0.110968821853860  0.0211208891834043  0.00125529908463060  0.000726824605578186  0.000138337793388535  0.990018909061669  0.0994966223202371  0.0995002006352236 -6261775.00000000 
 6261800.00000000  0.191654299299450  0.112041796628782  0.0211428388640042  0.00125529908463060  0.000733852385584761  0.000138481559607533  0.990018909061669  0.0994965501722018  0.0995002003555254 -6261800.00000000 
 6261825.00000000  0.191654299299450  0.113135551523338  0.0211648864527411  0.00125529908463060  0.000741016271409212  0.000138625967106143  0.990018909061669  0.0994964759122805  0.0995002000742871 -6261825.00000000 
 6261850.00000000  0.191654299299450  0.114250679583749  0.0211870323646677  0.00125529908463060  0.000748320147391107  0.000138771018602882  0.990018909061669  0.0994963994584919  0.0995001997914995 -6261850.00000000 
 6261875.00000000  0.191654299299450  0.115387796058236  0.0212092770176813  0.00125529908463060  0.000755768043288875  0.000138916716834896  0.990018909061669  0.0994963207249028  0.0995001995071533 -6261875.00000000 
 6261900.00000000  0.191654299299450  0.116547539413321  0.0212316208325281  0.00125529908463060  0.000763364140936392  0.000139063064557994  0.990018909061669  0.0994962396214016  0.0995001992212393 -6261900.00000000 
 6261925.00000000  0.191654299299450  0.117730572405661  0.0212540642328319  0.00125529908463060  0.000771112781263271  0.000139210064546830  0.990018909061669  0.0994961560534567  0.0995001989337477 -6261925.00000000 
 6261950.00000000  0.191654299299450  0.118937583211412  0.0212766076451213  0.00125529908463060  0.000779018471692016  0.000139357719595085  0.990018909061669  0.0994960699218586  0.0995001986446694 -6261950.00000000 
 6261975.00000000  0.191654299299450  0.120169286615828  0.0212992514988424  0.00125529908463060  0.000787085893929610  0.000139506032515549  0.990018909061669  0.0994959811224447  0.0995001983539946 -6261975.00000000 
 6262000.00000000  0.191654299299450  0.121426425268641  0.0213219962263905  0.00125529908463060  0.000795319912190087  0.000139655006140329  0.990018909061669  0.0994958895458062  0.0995001980617136 -6262000.00000000 
 6262025.00000000  0.191654299299450  0.122709771007128  0.0213448422631262  0.00125529908463060  0.000803725581860300  0.000139804643320954  0.990018909061669  0.0994957950769735  0.0995001977678166 -6262025.00000000 
 6262050.00000000  0.191654299299450  0.124020126253048  0.0213677900474095  0.00125529908463060  0.000812308158649638  0.000139954946928597  0.990018909061669  0.0994956975950812  0.0995001974722940 -6262050.00000000 
 6262075.00000000  0.191654299299450  0.125358325485085  0.0213908400206045  0.00125529908463060  0.000821073108234222  0.000140105919854110  0.990018909061669  0.0994955969730096  0.0995001971751357 -6262075.00000000 
 6262100.00000000  0.191654299299450  0.126725236795619  0.0214139926271269  0.00125529908463060  0.000830026116453486  0.000140257565008331  0.990018909061669  0.0994954930770006  0.0995001968763317 -6262100.00000000 
 6262125.00000000  0.191654299299450  0.128121763532064  0.0214372483144493  0.00125529908463060  0.000839173100060579  0.000140409885322120  0.990018909061669  0.0994953857662477  0.0995001965758719 -6262125.00000000 
 6262150.00000000  0.191654299299450  0.129548846031919  0.0214606075331331  0.00125529908463060  0.000848520218086675  0.000140562883746568  0.990018909061669  0.0994952748924553  0.0995001962737463 -6262150.00000000 
 6262175.00000000  0.191654299299450  0.131007463455371  0.0214840707368542  0.00125529908463060  0.000858073883844126  0.000140716563253165  0.990018909061669  0.0994951602993678  0.0995001959699444 -6262175.00000000 
 6262200.00000000  0.191654299299450  0.132498635721578  0.0215076383824248  0.00125529908463060  0.000867840777608780  0.000140870926833945  0.990018909061669  0.0994950418222645  0.0995001956644562 -6262200.00000000 
 6262225.00000000  0.191654299299450  0.134023425555495  0.0215313109298205  0.00125529908463060  0.000877827860026269  0.000141025977501659  0.990018909061669  0.0994949192874168  0.0995001953572709 -6262225.00000000 
 6262250.00000000  0.191654299299450  0.135582940651332  0.0215550888422012  0.00125529908463060  0.000888042386282282  0.000141181718289917  0.990018909061669  0.0994947925115074  0.0995001950483782 -6262250.00000000 
 6262275.00000000  0.191654299299450  0.137178335961105  0.0215789725859460  0.00125529908463060  0.000898491921092101  0.000141338152253413  0.990018909061669  0.0994946613010056  0.0995001947377675 -6262275.00000000 
 6262300.00000000  0.191654299299450  0.138810816113592  0.0216029626306679  0.00125529908463060  0.000909184354544343  0.000141495282468022  0.990018909061669  0.0994945254514956  0.0995001944254280 -6262300.00000000 
 6262325.00000000  0.191654299299450  0.140481637974262  0.0216270594492466  0.00125529908463060  0.000920127918867954  0.000141653112031016  0.990018909061669  0.0994943847469562  0.0995001941113491 -6262325.00000000 
 6262350.00000000  0.191654299299450  0.142192113352746  0.0216512635178516  0.00125529908463060  0.000931331206165665  0.000141811644061214  0.990018909061669  0.0994942389589850  0.0995001937955197 -6262350.00000000 
 6262375.00000000  0.191654299299450  0.143943611868278  0.0216755753159764  0.00125529908463060  0.000942803187182090  0.000141970881699208  0.990018909061669  0.0994940878459635  0.0995001934779290 -6262375.00000000 
 6262400.00000000  0.191654299299450  0.145737563980080  0.0216999953264505  0.00125529908463060  0.000954553231152129  0.000142130828107438  0.990018909061669  0.0994939311521599  0.0995001931585659 -6262400.00000000 
 6262425.00000000  0.191654299299450  0.147575464196288  0.0217245240354814  0.00125529908463060  0.000966591126818867  0.000142291486470471  0.990018909061669  0.0994937686067604  0.0995001928374191 -6262425.00000000 
 6262450.00000000  0.191654299299450  0.149458874468095  0.0217491619326752  0.00125529908463060  0.000978927104664524  0.000142452859995133  0.990018909061669  0.0994935999228284  0.0995001925144777 -6262450.00000000 
 6262475.00000000  0.191654299299450  0.151389427781861  0.0217739095110629  0.00125529908463060  0.000991571860438125  0.000142614951910683  0.990018909061669  0.0994934247961795  0.0995001921897301 -6262475.00000000 
 6262500.00000000  0.191654299299450  0.153368831960171  0.0217987672671297  0.00125529908463060  0.00100453658005166  0.000142777765469005  0.990018909061669  0.0994932429041706  0.0995001918631649 -6262500.00000000 
 6262525.00000000  0.191654299299450  0.155398873683782  0.0218237357008491  0.00125529908463060  0.00101783296592313  0.000142941303944830  0.990018909061669  0.0994930539043916  0.0995001915347706 -6262525.00000000 
 6262550.00000000  0.191654299299450  0.157481422744688  0.0218488153157009  0.00125529908463060  0.00103147326483324  0.000143105570635853  0.990018909061669  0.0994928574332546  0.0995001912045356 -6262550.00000000 
 6262575.00000000  0.191654299299450  0.159618436545218  0.0218740066187051  0.00125529908463060  0.00104547029739371  0.000143270568862960  0.990018909061669  0.0994926531044690  0.0995001908724481 -6262575.00000000 
 6262600.00000000  0.191654299299450  0.161811964854601  0.0218993101204575  0.00125529908463060  0.00105983748920180  0.000143436301970455  0.990018909061669  0.0994924405073956  0.0995001905384963 -6262600.00000000 
 6262625.00000000  0.191654299299450  0.164064154833570  0.0219247263351439  0.00125529908463060  0.00107458890375053  0.000143602773326158  0.990018909061669  0.0994922192052662  0.0995001902026682 -6262625.00000000 
 6262650.00000000  0.191654299299450  0.166377256344116  0.0219502557805846  0.00125529908463060  0.00108973927720660  0.000143769986321692  0.990018909061669  0.0994919887332607  0.0995001898649519 -6262650.00000000 
 6262675.00000000  0.191654299299450  0.168753627552031  0.0219758989782568  0.00125529908463060  0.00110530405510588  0.000143937944372633  0.990018909061669  0.0994917485964262  0.0995001895253351 -6262675.00000000 
 6262700.00000000  0.191654299299450  0.171195740837116  0.0220016564533281  0.00125529908463060  0.00112129943106424  0.000144106650918730  0.990018909061669  0.0994914982674270  0.0995001891838058 -6262700.00000000 
 6262725.00000000  0.191654299299450  0.173706189019900  0.0220275287346791  0.00125529908463060  0.00113774238756133  0.000144276109424049  0.990018909061669  0.0994912371841107  0.0995001888403513 -6262725.00000000 
 6262750.00000000  0.191654299299450  0.176287691918135  0.0220535163549498  0.00125529908463060  0.00115465073888437  0.000144446323377281  0.990018909061669  0.0994909647468736  0.0995001884949594 -6262750.00000000 
 6262775.00000000  0.191654299299450  0.178943103235830  0.0220796198505553  0.00125529908463060  0.00117204317625000  0.000144617296291841  0.990018909061669  0.0994906803158109  0.0995001881476175 -6262775.00000000 
 6262800.00000000  0.191654299299450  0.181675417795920  0.0221058397617244  0.00125529908463060  0.00118993931517692  0.000144789031706126  0.990018909061669  0.0994903832076317  0.0995001877983129 -6262800.00000000 
 6262825.00000000  0.191654299299450  0.184487779116554  0.0221321766325329  0.00125529908463060  0.00120835974510908  0.000144961533183727  0.990018909061669  0.0994900726923222  0.0995001874470328 -6262825.00000000 
 6262850.00000000  0.191654299299450  0.187383487330123  0.0221586310109333  0.00125529908463060  0.00122732608128384  0.000145134804313631  0.990018909061669  0.0994897479895348  0.0995001870937643 -6262850.00000000 
 6262875.00000000  0.191654299299450  0.190366007438932  0.0221852034487853  0.00125529908463060  0.00124686101880502  0.000145308848710412  0.990018909061669  0.0994894082646821  0.0995001867384945 -6262875.00000000 
 6262900.00000000  0.191654299299450  0.193438977895898  0.0222118945018934  0.00125529908463060  0.00126698838884485  0.000145483670014483  0.990018909061669  0.0994890526247156  0.0995001863812101 -6262900.00000000 
 6262925.00000000  0.191654299299450  0.196606219487619  0.0222387047300391  0.00125529908463060  0.00128773321682640  0.000145659271892307  0.990018909061669  0.0994886801135628  0.0995001860218979 -6262925.00000000 
 6262950.00000000  0.191654299299450  0.199871744488757  0.0222656346970060  0.00125529908463060  0.00130912178238298  0.000145835658036559  0.990018909061669  0.0994882897072010  0.0995001856605447 -6262950.00000000 
 6262975.00000000  0.191654299299450  0.203239766047542  0.0222926849706308  0.00125529908463060  0.00133118168083145  0.000146012832166460  0.990018909061669  0.0994878803083437  0.0995001852971369 -6262975.00000000 
 6263000.00000000  0.191654299299450  0.206714707735855  0.0223198561228204  0.00125529908463060  0.00135394188572343  0.000146190798027892  0.990018909061669  0.0994874507407146  0.0995001849316610 -6263000.00000000 
 6263025.00000000  0.191654299299450  0.210301213191559  0.0223471487295947  0.00125529908463060  0.00137743281200072  0.000146369559393676  0.990018909061669  0.0994869997428881  0.0995001845641032 -6263025.00000000 
 6263050.00000000  0.191654299299450  0.214004155746153  0.0223745633711225  0.00125529908463060  0.00140168637905459  0.000146549120063805  0.990018909061669  0.0994865259616728  0.0995001841944498 -6263050.00000000 
 6263075.00000000  0.191654299299450  0.217828647905534  0.0224021006317558  0.00125529908463060  0.00142673607282298  0.000146729483865673  0.990018909061669  0.0994860279450237  0.0995001838226868 -6263075.00000000 
 6263100.00000000  0.191654299299450  0.221780050514208  0.0224297611000573  0.00125529908463060  0.00145261700581435  0.000146910654654256  0.990018909061669  0.0994855041344673  0.0995001834488001 -6263100.00000000 
 6263125.00000000  0.191654299299450  0.225863981394549  0.0224575453688539  0.00125529908463060  0.00147936597369310  0.000147092636312455  0.990018909061669  0.0994849528570330  0.0995001830727754 -6263125.00000000 
 6263150.00000000  0.191654299299450  0.230086323185819  0.0224854540352539  0.00125529908463060  0.00150702150662376  0.000147275432751216  0.990018909061669  0.0994843723166967  0.0995001826945986 -6263150.00000000 
 6263175.00000000  0.191654299299450  0.234453230061288  0.0225134877007007  0.00125529908463060  0.00153562391326677  0.000147459047909878  0.990018909061669  0.0994837605853502  0.0995001823142552 -6263175.00000000 
 6263200.00000000  0.191654299299450  0.238971132902507  0.0225416469709962  0.00125529908463060  0.00156521531466899  0.000147643485756330  0.990018909061669  0.0994831155933319  0.0995001819317305 -6263200.00000000 
 6263225.00000000  0.191654299299450  0.243646742431400  0.0225699324563446  0.00125529908463060  0.00159583966477835  0.000147828750287289  0.990018909061669  0.0994824351195743  0.0995001815470099 -6263225.00000000 
 6263250.00000000  0.191654299299450  0.248487049675087  0.0225983447713969  0.00125529908463060  0.00162754275348829  0.000148014845528605  0.990018909061669  0.0994817167814560  0.0995001811600786 -6263250.00000000 
 6263275.00000000  0.191654299299450  0.253499322997188  0.0226268845352727  0.00125529908463060  0.00166037218719340  0.000148201775535393  0.990018909061669  0.0994809580244865  0.0995001807709215 -6263275.00000000 
 6263300.00000000  0.191654299299450  0.258691100776927  0.0226555523716159  0.00125529908463060  0.00169437734083897  0.000148389544392400  0.990018909061669  0.0994801561119983  0.0995001803795236 -6263300.00000000 
 6263325.00000000  0.191654299299450  0.264070178597358  0.0226843489086261  0.00125529908463060  0.00172960927400627  0.000148578156214215  0.990018909061669  0.0994793081150917  0.0995001799858697 -6263325.00000000 
 6263350.00000000  0.191654299299450  0.269644589581416  0.0227132747790970  0.00125529908463060  0.00176612060211746  0.000148767615145514  0.990018909061669  0.0994784109031549  0.0995001795899443 -6263350.00000000 
 6263375.00000000  0.191654299299450  0.275422576225826  0.0227423306204572  0.00125529908463060  0.00180396531195308  0.000148957925361335  0.990018909061669  0.0994774611353918  0.0995001791917320 -6263375.00000000 
 6263400.00000000  0.191654299299450  0.281412551751617  0.0227715170748209  0.00125529908463060  0.00184319850850526  0.000149149091067402  0.990018909061669  0.0994764552539132  0.0995001787912171 -6263400.00000000 
 6263425.00000000  0.191654299299450  0.287623048589108  0.0228008347890050  0.00125529908463060  0.00188387607756423  0.000149341116500242  0.990018909061669  0.0994753894791219  0.0995001783883839 -6263425.00000000 
 6263450.00000000  0.191654299299450  0.294062651186277  0.0228302844146003  0.00125529908463060  0.00192605424562599  0.000149534005927652  0.990018909061669  0.0994742598083107  0.0995001779832163 -6263450.00000000 
 6263475.00000000  0.191654299299450  0.300739909766018  0.0228598666079889  0.00125529908463060  0.00196978901501874  0.000149727763648808  0.990018909061669  0.0994730620186538  0.0995001775756983 -6263475.00000000 
 6263500.00000000  0.191654299299450  0.307663231102455  0.0228895820304003  0.00125529908463060  0.00201513544850863  0.000149922393994639  0.990018909061669  0.0994717916760640  0.0995001771658138 -6263500.00000000 
 6263525.00000000  0.191654299299450  0.314840741687285  0.0229194313479490  0.00125529908463060  0.00206214677306538  0.000150117901328065  0.990018909061669  0.0994704441517632  0.0995001767535463 -6263525.00000000 
 6263550.00000000  0.191654299299450  0.322280117942223  0.0229494152316792  0.00125529908463060  0.00211087326778625  0.000150314290044299  0.990018909061669  0.0994690146488408  0.0995001763388792 -6263550.00000000 
 6263575.00000000  0.191654299299450  0.329988377344099  0.0229795343576060  0.00125529908463060  0.00216136089580523  0.000150511564571111  0.990018909061669  0.0994674982415840  0.0995001759217961 -6263575.00000000 
 6263600.00000000  0.191654299299450  0.337971623536436  0.0230097894067599  0.00125529908463060  0.00221364963482258  0.000150709729369120  0.990018909061669  0.0994658899309594  0.0995001755022799 -6263600.00000000 
 6263625.00000000  0.191654299299450  0.346234737736012  0.0230401810652395  0.00125529908463060  0.00226777145587664  0.000150908788932143  0.990018909061669  0.0994641847202632  0.0995001750803138 -6263625.00000000 
 6263650.00000000  0.191654299299450  0.354781008085048  0.0230707100242433  0.00125529908463060  0.00232374789567145  0.000151108747787395  0.990018909061669  0.0994623777156831  0.0995001746558807 -6263650.00000000 
 6263675.00000000  0.191654299299450  0.363611688201868  0.0231013769801239  0.00125529908463060  0.00238158716516776  0.000151309610495855  0.990018909061669  0.0994604642572272  0.0995001742289632 -6263675.00000000 
 6263700.00000000  0.191654299299450  0.372725476148309  0.0231321826344298  0.00125529908463060  0.00244128073691911  0.000151511381652532  0.990018909061669  0.0994584400861595  0.0995001737995439 -6263700.00000000 
 6263725.00000000  0.191654299299450  0.382117905671560  0.0231631276939620  0.00125529908463060  0.00250279935782191  0.000151714065886837  0.990018909061669  0.0994563015556141  0.0995001733676052 -6263725.00000000 
 6263750.00000000  0.191654299299450  0.391780643126061  0.0231942128708010  0.00125529908463060  0.00256608844408815  0.000151917667862760  0.990018909061669  0.0994540458913090  0.0995001729331293 -6263750.00000000 
 6263775.00000000  0.191654299299450  0.401700686430064  0.0232254388823787  0.00125529908463060  0.00263106283456377  0.000152122192279344  0.990018909061669  0.0994516715090165  0.0995001724960984 -6263775.00000000 
 6263800.00000000  0.191654299299450  0.411859467103626  0.0232568064515069  0.00125529908463060  0.00269760090924875  0.000152327643870869  0.990018909061669  0.0994491783943930  0.0995001720564942 -6263800.00000000 
 6263825.00000000  0.191654299299450  0.422231863611593  0.0232883163064331  0.00125529908463060  0.00276553812688211  0.000152534027407217  0.990018909061669  0.0994465685485690  0.0995001716142987 -6263825.00000000 
 6263850.00000000  0.191654299299450  0.432785144301276  0.0233199691808970  0.00125529908463060  0.00283466010138533  0.000152741347694243  0.990018909061669  0.0994438464990574  0.0995001711694932 -6263850.00000000 
 6263875.00000000  0.191654299299450  0.443477871815946  0.0233517658141667  0.00125529908463060  0.00290469542597984  0.000152949609574011  0.990018909061669  0.0994410198696351  0.0995001707220593 -6263875.00000000 
 6263900.00000000  0.191654299299450  0.454258818282557  0.0233837069510974  0.00125529908463060  0.00297530856787363  0.000153158817925181  0.990018909061669  0.0994380999943209  0.0995001702719781 -6263900.00000000 
 6263925.00000000  0.191654299299450  0.465065961627980  0.0234157933421781  0.00125529908463060  0.00304609329432417  0.000153368977663314  0.990018909061669  0.0994351025491878  0.0995001698192308 -6263925.00000000 
 6263950.00000000  0.191654299299450  0.475825657311353  0.0234480257435937  0.00125529908463060  0.00311656724764332  0.000153580093741275  0.990018909061669  0.0994320481614453  0.0995001693637982 -6263950.00000000 
 6263975.00000000  0.191654299299450  0.486452104525047  0.0234804049172553  0.00125529908463060  0.00318616844891552  0.000153792171149437  0.990018909061669  0.0994289629386847  0.0995001689056609 -6263975.00000000 
 6264000.00000000  0.191654299299450  0.496847248232914  0.0235129316308790  0.00125529908463060  0.00325425465636710  0.000154005214916194  0.990018909061669  0.0994258788439321  0.0995001684447996 -6264000.00000000 
 6264025.00000000  0.191654299299450  0.506901273070050  0.0235456066580177  0.00125529908463060  0.00332010660031536  0.000154219230108169  0.990018909061669  0.0994228338269448  0.0995001679811945 -6264025.00000000 
 6264050.00000000  0.191654299299450  0.516493845762734  0.0235784307781252  0.00125529908463060  0.00338293612078213  0.000154434221830637  0.990018909061669  0.0994198716130966  0.0995001675148257 -6264050.00000000 
 6264075.00000000  0.191654299299450  0.525496241724743  0.0236114047766064  0.00125529908463060  0.00344190009629376  0.000154650195227849  0.990018909061669  0.0994170410534001  0.0995001670456734 -6264075.00000000 
 6264100.00000000  0.191654299299450  0.533774442252518  0.0236445294448810  0.00125529908463060  0.00349612072991841  0.000154867155483454  0.990018909061669  0.0994143949581236  0.0995001665737172 -6264100.00000000 
 6264125.00000000  0.191654299299450  0.541193207337300  0.0236778055804251  0.00125529908463060  0.00354471222540824  0.000155085107820768  0.990018909061669  0.0994119883762979  0.0995001660989367 -6264125.00000000 
 6264150.00000000  0.191654299299450  0.547621017490660  0.0237112339868348  0.00125529908463060  0.00358681315521355  0.000155304057503191  0.990018909061669  0.0994098763451639  0.0995001656213113 -6264150.00000000 
 6264175.00000000  0.191654299299450  0.552935646082917  0.0237448154738895  0.00125529908463060  0.00362162295823596  0.000155524009834626  0.990018909061669  0.0994081112127711  0.0995001651408202 -6264175.00000000 
 6264200.00000000  0.191654299299450  0.557029990716783  0.0237785508575943  0.00125529908463060  0.00364844013421292  0.000155744970159748  0.990018909061669  0.0994067397224752  0.0995001646574424 -6264200.00000000 
 6264225.00000000  0.191654299299450  0.559817684468919  0.0238124409602523  0.00125529908463060  0.00366669899627904  0.000155966943864487  0.990018909061669  0.0994058001227877  0.0995001641711567 -6264225.00000000 
 6264250.00000000  0.191654299299450  0.561237953775074  0.0238464866105113  0.00125529908463060  0.00367600148918664  0.000156189936376327  0.990018909061669  0.0994053196101333  0.0995001636819418 -6264250.00000000 
 6264275.00000000  0.191654299299450  0.561259211811814  0.0238806886434404  0.00125529908463060  0.00367614072527036  0.000156413953164812  0.990018909061669  0.0994053124087419  0.0995001631897759 -6264275.00000000 
 6264300.00000000  0.191654299299450  0.559880982572593  0.0239150479005613  0.00125529908463060  0.00366711358677813  0.000156638999741749  0.990018909061669  0.0994057787334259  0.0995001626946373 -6264300.00000000 
 6264325.00000000  0.191654299299450  0.557133930156642  0.0239495652299446  0.00125529908463060  0.00364912091770794  0.000156865081661836  0.990018909061669  0.0994067047737499  0.0995001621965040 -6264325.00000000 
 6264350.00000000  0.191654299299450  0.553077989792494  0.0239842414862429  0.00125529908463060  0.00362255528236847  0.000157092204522888  0.990018909061669  0.0994080637017150  0.0995001616953537 -6264350.00000000 
 6264375.00000000  0.191654299299450  0.547798819792332  0.0240190775307650  0.00125529908463060  0.00358797772635727  0.000157320373966311  0.990018909061669  0.0994098175683266  0.0995001611911641 -6264375.00000000 
 6264400.00000000  0.191654299299450  0.541402974768532  0.0240540742315397  0.00125529908463060  0.00354608616205027  0.000157549595677528  0.990018909061669  0.0994119198458489  0.0995001606839123 -6264400.00000000 
 6264425.00000000  0.191654299299450  0.534012309279080  0.0240892324633754  0.00125529908463060  0.00349767871354726  0.000157779875386368  0.990018909061669  0.0994143183125106  0.0995001601735756 -6264425.00000000 
 6264450.00000000  0.191654299299450  0.525758145648230  0.0241245531079276  0.00125529908463060  0.00344361551701020  0.000158011218867506  0.990018909061669  0.0994169579714250  0.0995001596601309 -6264450.00000000 
 6264475.00000000  0.191654299299450  0.516775687702293  0.0241600370537569  0.00125529908463060  0.00338478213169882  0.000158243631940844  0.990018909061669  0.0994197837383932  0.0995001591435548 -6264475.00000000 
 6264500.00000000  0.191654299299450  0.507199055663924  0.0241956851964119  0.00125529908463060  0.00332205701947567  0.000158477120472054  0.990018909061669  0.0994227427073186  0.0995001586238238 -6264500.00000000 
 6264525.00000000  0.191654299299450  0.497157184843728  0.0242314984384661  0.00125529908463060  0.00325628468201886  0.000158711690372821  0.990018909061669  0.0994257858874669  0.0995001581009140 -6264525.00000000 
 6264550.00000000  0.191654299299450  0.486770698485198  0.0242674776896210  0.00125529908463060  0.00318825517855325  0.000158947347601517  0.990018909061669  0.0994288693863247  0.0995001575748016 -6264550.00000000 
 6264575.00000000  0.191654299299450  0.476149752733849  0.0243036238667441  0.00125529908463060  0.00311869001080949  0.000159184098163447  0.990018909061669  0.0994319550742205  0.0995001570454622 -6264575.00000000 
 6264600.00000000  0.191654299299450  0.465392769267596  0.0243399378939614  0.00125529908463060  0.00304823382199488  0.000159421948111461  0.990018909061669  0.0994350108073524  0.0995001565128714 -6264600.00000000 
 6264625.00000000  0.191654299299450  0.454585920993332  0.0243764207027032  0.00125529908463060  0.00297745102820412  0.000159660903546250  0.990018909061669  0.0994380103053887  0.0995001559770045 -6264625.00000000 
 6264650.00000000  0.191654299299450  0.443803214429542  0.0244130732317963  0.00125529908463060  0.00290682635800970  0.000159900970616951  0.990018909061669  0.0994409327824143  0.0995001554378365 -6264650.00000000 
 6264675.00000000  0.191654299299450  0.433107012481995  0.0244498964275254  0.00125529908463060  0.00283676827654292  0.000160142155521546  0.990018909061669  0.0994437624211768  0.0995001548953421 -6264675.00000000 
 6264700.00000000  0.191654299299450  0.422548855671420  0.0244868912437034  0.00125529908463060  0.00276761436437843  0.000160384464507330  0.990018909061669  0.0994464877654928  0.0995001543494960 -6264700.00000000 
 6264725.00000000  0.191654299299450  0.412170462014589  0.0245240586417462  0.00125529908463060  0.00269963786656452  0.000160627903871392  0.990018909061669  0.0994491010884516  0.0995001538002725 -6264725.00000000 
 6264750.00000000  0.191654299299450  0.402004810528627  0.0245613995907557  0.00125529908463060  0.00263305478936955  0.000160872479961166  0.990018909061669  0.0994515977774460  0.0995001532476455 -6264750.00000000 
 6264775.00000000  0.191654299299450  0.392077237312494  0.0245989150675788  0.00125529908463060  0.00256803107940652  0.000161118199174811  0.990018909061669  0.0994539757626886  0.0995001526915889 -6264775.00000000 
 6264800.00000000  0.191654299299450  0.382406494321406  0.0246366060568907  0.00125529908463060  0.00250468955840342  0.000161365067961762  0.990018909061669  0.0994562350043861  0.0995001521320762 -6264800.00000000 
 6264825.00000000  0.191654299299450  0.373005738483039  0.0246744735512813  0.00125529908463060  0.00244311640172563  0.000161613092823294  0.990018909061669  0.0994583770451462  0.0995001515690806 -6264825.00000000 
 6264850.00000000  0.191654299299450  0.363883432507696  0.0247125185513093  0.00125529908463060  0.00238336703851058  0.000161862280312875  0.990018909061669  0.0994604046281869  0.0995001510025752 -6264850.00000000 
 6264875.00000000  0.191654299299450  0.355044148911983  0.0247507420656038  0.00125529908463060  0.00232547141786942  0.000162112637036834  0.990018909061669  0.0994623213780568  0.0995001504325327 -6264875.00000000 
 6264900.00000000  0.191654299299450  0.346489276024593  0.0247891451109330  0.00125529908463060  0.00226943863309013  0.000162364169654808  0.990018909061669  0.0994641315382974  0.0995001498589255 -6264900.00000000 
 6264925.00000000  0.191654299299450  0.338217629516935  0.0248277287122825  0.00125529908463060  0.00221526092704646  0.000162616884880257  0.990018909061669  0.0994658397594115  0.0995001492817258 -6264925.00000000 
 6264950.00000000  0.191654299299450  0.330225975975368  0.0248664939029384  0.00125529908463060  0.00216291712149614  0.000162870789481009  0.990018909061669  0.0994674509302231  0.0995001487009056 -6264950.00000000 
 6264975.00000000  0.191654299299450  0.322509476632096  0.0249054417245803  0.00125529908463060  0.00211237552343354  0.000163125890279865  0.990018909061669  0.0994689700459366  0.0995001481164364 -6264975.00000000 
 6265000.00000000  0.191654299299450  0.315062060027955  0.0249445732273409  0.00125529908463060  0.00206359636595983  0.000163382194154993  0.990018909061669  0.0994704021067380  0.0995001475282897 -6265000.00000000 
 6265025.00000000  0.191654299299450  0.307876732356142  0.0249838894699138  0.00125529908463060  0.00201653384097517  0.000163639708040637  0.990018909061669  0.0994717520414654  0.0995001469364363 -6265025.00000000 
 6265050.00000000  0.191654299299450  0.300945833862598  0.0250233915196263  0.00125529908463060  0.00197113777855228  0.000163898438927585  0.990018909061669  0.0994730246515775  0.0995001463408471 -6265050.00000000 
 6265075.00000000  0.191654299299450  0.294261249006518  0.0250630804525295  0.00125529908463060  0.00192735502344767  0.000164158393863767  0.990018909061669  0.0994742245713890  0.0995001457414926 -6265075.00000000 
 6265100.00000000  0.191654299299450  0.287814577338559  0.0251029573534803  0.00125529908463060  0.00188513055432132  0.000164419579954788  0.990018909061669  0.0994753562411675  0.0995001451383429 -6265100.00000000 
 6265125.00000000  0.191654299299450  0.281597271247145  0.0251430233162378  0.00125529908463060  0.00184440838594864  0.000164682004364562  0.990018909061669  0.0994764238902985  0.0995001445313679 -6265125.00000000 
 6265150.00000000  0.191654299299450  0.275600745949985  0.0251832794435501  0.00125529908463060  0.00180513228964397  0.000164945674315878  0.990018909061669  0.0994774315282220  0.0995001439205370 -6265150.00000000 
 6265175.00000000  0.191654299299450  0.269816466368176  0.0252237268472331  0.00125529908463060  0.00176724636226935  0.000165210597090919  0.990018909061669  0.0994783829412870  0.0995001433058197 -6265175.00000000 
 6265200.00000000  0.191654299299450  0.264236014844607  0.0252643666482868  0.00125529908463060  0.00173069546977715  0.000165476780032021  0.990018909061669  0.0994792816940400  0.0995001426871847 -6265200.00000000 
 6265225.00000000  0.191654299299450  0.258851143088764  0.0253051999769631  0.00125529908463060  0.00169542558743863  0.000165744230542118  0.990018909061669  0.0994801311337572  0.0995001420646007 -6265225.00000000 
 6265250.00000000  0.191654299299450  0.253653811178728  0.0253462279728715  0.00125529908463060  0.00166138405529958  0.000166012956085433  0.990018909061669  0.0994809343972948  0.0995001414380360 -6265250.00000000 
 6265275.00000000  0.191654299299450  0.248636216013742  0.0253874517850751  0.00125529908463060  0.00162851976453920  0.000166282964188113  0.990018909061669  0.0994816944195236  0.0995001408074585 -6265275.00000000 
 6265300.00000000  0.191654299299450  0.243790811209783  0.0254288725721860  0.00125529908463060  0.00159678328778232  0.000166554262438843  0.990018909061669  0.0994824139427842  0.0995001401728359 -6265300.00000000 
 6265325.00000000  0.191654299299450  0.239110320097433  0.0254704915024497  0.00125529908463060  0.00156612696423293  0.000166826858489411  0.990018909061669  0.0994830955269313  0.0995001395341355 -6265325.00000000 
 6265350.00000000  0.191654299299450  0.234587743191194  0.0255123097538701  0.00125529908463060  0.00153650494859684  0.000167100760055516  0.990018909061669  0.0994837415596372  0.0995001388913242 -6265350.00000000 
 6265375.00000000  0.191654299299450  0.230216361275555  0.0255543285142828  0.00125529908463060  0.00150787323129474  0.000167375974917255  0.990018909061669  0.0994843542667093  0.0995001382443686 -6265375.00000000 
 6265400.00000000  0.191654299299450  0.225989735032038  0.0255965489814671  0.00125529908463060  0.00148018963601952  0.000167652510919854  0.990018909061669  0.0994849357222467  0.0995001375932350 -6265400.00000000 
 6265425.00000000  0.191654299299450  0.221901701978073  0.0256389723632572  0.00125529908463060  0.00145341379968639  0.000167930375974395  0.990018909061669  0.0994854878585013  0.0995001369378894 -6265425.00000000 
 6265450.00000000  0.191654299299450  0.217946371346392  0.0256815998776272  0.00125529908463060  0.00142750713889397  0.000168209578058378  0.990018909061669  0.0994860124753606  0.0995001362782973 -6265450.00000000 
 6265475.00000000  0.191654299299450  0.214118117409404  0.0257244327528068  0.00125529908463060  0.00140243280620015  0.000168490125216473  0.990018909061669  0.0994865112493920  0.0995001356144239 -6265475.00000000 
 6265500.00000000  0.191654299299450  0.210411571666245  0.0257674722273890  0.00125529908463060  0.00137815563894882  0.000168772025561227  0.990018909061669  0.0994869857424142  0.0995001349462340 -6265500.00000000 
 6265525.00000000  0.191654299299450  0.206821614226062  0.0258107195504341  0.00125529908463060  0.00135464210283199  0.000169055287273746  0.990018909061669  0.0994874374095806  0.0995001342736922 -6265525.00000000 
 6265550.00000000  0.191654299299450  0.203343364655665  0.0258541759815739  0.00125529908463060  0.00133186023194365  0.000169339918604379  0.990018909061669  0.0994878676069680  0.0995001335967624 -6265550.00000000 
 6265575.00000000  0.191654299299450  0.199972172504636  0.0258978427911328  0.00125529908463060  0.00130977956672106  0.000169625927873507  0.990018909061669  0.0994882775986808  0.0995001329154086 -6265575.00000000 
 6265600.00000000  0.191654299299450  0.196703607681280  0.0259417212602250  0.00125529908463060  0.00128837109090908  0.000169913323472186  0.990018909061669  0.0994886685634799  0.0995001322295939 -6265600.00000000 
 6265625.00000000  0.191654299299450  0.193533450808313  0.0259858126808898  0.00125529908463060  0.00126760716839173  0.000170202113863024  0.990018909061669  0.0994890416009571  0.0995001315392813 -6265625.00000000 
 6265650.00000000  0.191654299299450  0.190457683669500  0.0260301183561691  0.00125529908463060  0.00124746148061951  0.000170492307580699  0.990018909061669  0.0994893977372726  0.0995001308444335 -6265650.00000000 
 6265675.00000000  0.191654299299450  0.187472479816842  0.0260746396002678  0.00125529908463060  0.00122790896508830  0.000170783913233001  0.990018909061669  0.0994897379304818  0.0995001301450125 -6265675.00000000 
 6265700.00000000  0.191654299299450  0.184574195410236  0.0261193777386345  0.00125529908463060  0.00120892575534079  0.000171076939501366  0.990018909061669  0.0994900630754721  0.0995001294409801 -6265700.00000000 
 6265725.00000000  0.191654299299450  0.181759360324026  0.0261643341081008  0.00125529908463060  0.00119048912271621  0.000171371395141786  0.990018909061669  0.0994903740085371  0.0995001287322977 -6265725.00000000 
 6265750.00000000  0.191654299299450  0.179024669557952  0.0262095100569938  0.00125529908463060  0.00117257742009358  0.000171667288985545  0.990018909061669  0.0994906715116075  0.0995001280189263 -6265750.00000000 
 6265775.00000000  0.191654299299450  0.176366974970912  0.0262549069452606  0.00125529908463060  0.00115517002774948  0.000171964629940038  0.990018909061669  0.0994909563161664  0.0995001273008263 -6265775.00000000 
 6265800.00000000  0.191654299299450  0.173783277351723  0.0263005261445873  0.00125529908463060  0.00113824730142304  0.000172263426989547  0.990018909061669  0.0994912291068684  0.0995001265779578 -6265800.00000000 
 6265825.00000000  0.191654299299450  0.171270718832414  0.0263463690385250  0.00125529908463060  0.00112179052262446  0.000172563689196068  0.990018909061669  0.0994914905248854  0.0995001258502805 -6265825.00000000 
 6265850.00000000  0.191654299299450  0.168826575645070  0.0263924370226317  0.00125529908463060  0.00110578185119369  0.000172865425700238  0.990018909061669  0.0994917411709980  0.0995001251177538 -6265850.00000000 
 6265875.00000000  0.191654299299450  0.166448251222970  0.0264387315045635  0.00125529908463060  0.00109020428011425  0.000173168645721938  0.990018909061669  0.0994919816084527  0.0995001243803363 -6265875.00000000 
 6265900.00000000  0.191654299299450  0.164133269633092  0.0264852539042511  0.00125529908463060  0.00107504159249737  0.000173473358561442  0.990018909061669  0.0994922123656024  0.0995001236379863 -6265900.00000000 
 6265925.00000000  0.191654299299450  0.161879269340824  0.0265320056539931  0.00125529908463060  0.00106027832074201  0.000173779573600032  0.990018909061669  0.0994924339383463  0.0995001228906619 -6265925.00000000 
 6265950.00000000  0.191654299299450  0.159683997289430  0.0265789881986122  0.00125529908463060  0.00104589970775653  0.000174087300301022  0.990018909061669  0.0994926467923855  0.0995001221383205 -6265950.00000000 
 6265975.00000000  0.191654299299450  0.157545303288512  0.0266262029955736  0.00125529908463060  0.00103189167020417  0.000174396548210531  0.990018909061669  0.0994928513653080  0.0995001213809190 -6265975.00000000 
 6266000.00000000  0.191654299299450  0.155461134695898  0.0266736515151419  0.00125529908463060  0.00101824076367044  0.000174707326958510  0.990018909061669  0.0994930480685174  0.0995001206184139 -6266000.00000000 
 6266025.00000000  0.191654299299450  0.153429531384349  0.0267213352404972  0.00125529908463060  0.00100493414969600  0.000175019646259508  0.990018909061669  0.0994932372890165  0.0995001198507614 -6266025.00000000 
 6266050.00000000  0.191654299299450  0.151448620977095  0.0267692556678858  0.00125529908463060  0.000991959564570331  0.000175333515913650  0.990018909061669  0.0994934193910576  0.0995001190779169 -6266050.00000000 
 6266075.00000000  0.191654299299450  0.149516614341123  0.0268174143067725  0.00125529908463060  0.000979305289813643  0.000175648945807644  0.990018909061669  0.0994935947176704  0.0995001182998356 -6266075.00000000 
 6266100.00000000  0.191654299299450  0.147631801326896  0.0268658126799637  0.00125529908463060  0.000966960124272833  0.000175965945915581  0.990018909061669  0.0994937635920769  0.0995001175164719 -6266100.00000000 
 6266125.00000000  0.191654299299450  0.145792546739470  0.0269144523237673  0.00125529908463060  0.000954913357733089  0.000176284526299984  0.990018909061669  0.0994939263190017  0.0995001167277800 -6266125.00000000 
 6266150.00000000  0.191654299299450  0.143997286531272  0.0269633347881332  0.00125529908463060  0.000943154745981293  0.000176604697112731  0.990018909061669  0.0994940831858870  0.0995001159337135 -6266150.00000000 
 6266175.00000000  0.191654299299450  0.142244524203174  0.0270124616368193  0.00125529908463060  0.000931674487233755  0.000176926468596135  0.990018909061669  0.0994942344640185  0.0995001151342254 -6266175.00000000 
 6266200.00000000  0.191654299299450  0.140532827405195  0.0270618344475106  0.00125529908463060  0.000920463199871446  0.000177249851083734  0.990018909061669  0.0994943804095705  0.0995001143292682 -6266200.00000000 
 6266225.00000000  0.191654299299450  0.138860824721736  0.0271114548120126  0.00125529908463060  0.000909511901383919  0.000177574855001549  0.990018909061669  0.0994945212645747  0.0995001135187940 -6266225.00000000 
 6266250.00000000  0.191654299299450  0.137227202636077  0.0271613243363747  0.00125529908463060  0.000898811988487331  0.000177901490868897  0.990018909061669  0.0994946572578213  0.0995001127027542 -6266250.00000000 
 6266275.00000000  0.191654299299450  0.135630702660030  0.0272114446410640  0.00125529908463060  0.000888355218324234  0.000178229769299529  0.990018909061669  0.0994947886056948  0.0995001118810997 -6266275.00000000 
 6266300.00000000  0.191654299299450  0.134070118621843  0.0272618173611180  0.00125529908463060  0.000878133690699828  0.000178559701002628  0.990018909061669  0.0994949155129510  0.0995001110537810 -6266300.00000000 
 6266325.00000000  0.191654299299450  0.132544294101913  0.0273124441463215  0.00125529908463060  0.000868139831286411  0.000178891296783970  0.990018909061669  0.0994950381734403  0.0995001102207479 -6266325.00000000 
 6266350.00000000  0.191654299299450  0.131052120009660  0.0273633266613484  0.00125529908463060  0.000858366375752351  0.000179224567546851  0.990018909061669  0.0994951567707800  0.0995001093819495 -6266350.00000000 
 6266375.00000000  0.191654299299450  0.129592532291376  0.0274144665859395  0.00125529908463060  0.000848806354748923  0.000179559524293253  0.990018909061669  0.0994952714789797  0.0995001085373347 -6266375.00000000 
 6266400.00000000  0.191654299299450  0.128164509762469  0.0274658656150839  0.00125529908463060  0.000839453079711940  0.000179896178125031  0.990018909061669  0.0994953824630249  0.0995001076868515 -6266400.00000000 
 6266425.00000000  0.191654299299450  0.126767072058251  0.0275175254591566  0.00125529908463060  0.000830300129439779  0.000180234540244815  0.990018909061669  0.0994954898794199  0.0995001068304475 -6266425.00000000 
 6266450.00000000  0.191654299299450  0.125399277693111  0.0275694478441326  0.00125529908463060  0.000821341337381374  0.000180574621957411  0.990018909061669  0.0994955938766940  0.0995001059680695 -6266450.00000000 
 6266475.00000000  0.191654299299450  0.124060222225944  0.0276216345117253  0.00125529908463060  0.000812570779620094  0.000180916434670711  0.990018909061669  0.0994956945958741  0.0995001050996640 -6266475.00000000 
 6266500.00000000  0.191654299299450  0.122749036521702  0.0276740872196002  0.00125529908463060  0.000803982763487233  0.000181259989897086  0.990018909061669  0.0994957921709252  0.0995001042251767 -6266500.00000000 
 6266525.00000000  0.191654299299450  0.121464885107449  0.0277268077415094  0.00125529908463060  0.000795571816794506  0.000181605299254277  0.990018909061669  0.0994958867291624  0.0995001033445525 -6266525.00000000 
 6266550.00000000  0.191654299299450  0.120206964613030  0.0277797978675285  0.00125529908463060  0.000787332677620722  0.000181952374466935  0.990018909061669  0.0994959783916348  0.0995001024577361 -6266550.00000000 
 6266575.00000000  0.191654299299450  0.118974502296181  0.0278330594041992  0.00125529908463060  0.000779260284651521  0.000182301227367565  0.990018909061669  0.0994960672734856  0.0995001015646712 -6266575.00000000 
 6266600.00000000  0.191654299299450  0.117766754643532  0.0278865941747349  0.00125529908463060  0.000771349768016224  0.000182651869897866  0.990018909061669  0.0994961534842872  0.0995001006653011 -6266600.00000000 
 6266625.00000000  0.191654299299450  0.116583006044926  0.0279404040192129  0.00125529908463060  0.000763596440604866  0.000183004314109993  0.990018909061669  0.0994962371283567  0.0995000997595682 -6266625.00000000 
 6266650.00000000  0.191654299299450  0.115422567536662  0.0279944907947618  0.00125529908463060  0.000755995789836691  0.000183358572167783  0.990018909061669  0.0994963183050492  0.0995000988474145 -6266650.00000000 
 6266675.00000000  0.191654299299450  0.114284775609356  0.0280488563757610  0.00125529908463060  0.000748543469851862  0.000183714656348066  0.990018909061669  0.0994963971090342  0.0995000979287811 -6266675.00000000 
 6266700.00000000  0.191654299299450  0.113168991077244  0.0281035026540297  0.00125529908463060  0.000741235294105614  0.000184072579041895  0.990018909061669  0.0994964736305535  0.0995000970036085 -6266700.00000000 
 6266725.00000000  0.191654299299450  0.112074598004446  0.0281584315390533  0.00125529908463060  0.000734067228335469  0.000184432352756035  0.990018909061669  0.0994965479556632  0.0995000960718367 -6266725.00000000 
 6266750.00000000  0.191654299299450  0.111001002687104  0.0282136449581423  0.00125529908463060  0.000727035383894464  0.000184793990114003  0.990018909061669  0.0994966201664612  0.0995000951334047 -6266750.00000000 
 6266775.00000000  0.191654299299450  0.109947632684871  0.0282691448566943  0.00125529908463060  0.000720136011407579  0.000185157503857781  0.990018909061669  0.0994966903413001  0.0995000941882509 -6266775.00000000 
 6266800.00000000  0.191654299299450  0.108913935902879  0.0283249331983606  0.00125529908463060  0.000713365494758780  0.000185522906848910  0.990018909061669  0.0994967585549870  0.0995000932363131 -6266800.00000000 
 6266825.00000000  0.191654299299450  0.107899379718272  0.0283810119652760  0.00125529908463060  0.000706720345370016  0.000185890212069995  0.990018909061669  0.0994968248789720  0.0995000922775282 -6266825.00000000 
 6266850.00000000  0.191654299299450  0.106903450150330  0.0284373831582772  0.00125529908463060  0.000700197196765662  0.000186259432626135  0.990018909061669  0.0994968893815240  0.0995000913118324 -6266850.00000000 
 6266875.00000000  0.191654299299450  0.105925651071529  0.0284940487971191  0.00125529908463060  0.000693792799405111  0.000186630581746339  0.990018909061669  0.0994969521278975  0.0995000903391612 -6266875.00000000 
 6266900.00000000  0.191654299299450  0.104965503457456  0.0285510109206805  0.00125529908463060  0.000687504015769878  0.000187003672784873  0.990018909061669  0.0994970131804880  0.0995000893594493 -6266900.00000000 
 6266925.00000000  0.191654299299450  0.104022544672359  0.0286082715872234  0.00125529908463060  0.000681327815684085  0.000187378719222961  0.990018909061669  0.0994970725989797  0.0995000883726307 -6266925.00000000 
 6266950.00000000  0.191654299299450  0.103096327790477  0.0286658328745824  0.00125529908463060  0.000675261271869280  0.000187755734670025  0.990018909061669  0.0994971304404830  0.0995000873786385 -6266950.00000000 
 6266975.00000000  0.191654299299450  0.102186420948769  0.0287236968804311  0.00125529908463060  0.000669301555704966  0.000188134732865424  0.990018909061669  0.0994971867596655  0.0995000863774051 -6266975.00000000 
 6267000.00000000  0.191654299299450  0.101292406731592  0.0287818657224876  0.00125529908463060  0.000663445933198342  0.000188515727679808  0.990018909061669  0.0994972416088742  0.0995000853688620 -6267000.00000000 
 6267025.00000000  0.191654299299450  0.100413881583931  0.0288403415387645  0.00125529908463060  0.000657691761141078  0.000188898733116752  0.990018909061669  0.0994972950382516  0.0995000843529400 -6267025.00000000 
 6267050.00000000  0.191654299299450  0.0995504552522931  0.0288991264878259  0.00125529908463060  0.000652036483447264  0.000189283763314439  0.990018909061669  0.0994973470958446  0.0995000833295690 -6267050.00000000 
 6267075.00000000  0.191654299299450  0.0987017502525533  0.0289582227489954  0.00125529908463060  0.000646477627667932  0.000189670832547022  0.990018909061669  0.0994973978277077  0.0995000822986780 -6267075.00000000 
 6267100.00000000  0.191654299299450  0.0978674013615589  0.0290176325226408  0.00125529908463060  0.000641012801661125  0.000190059955226492  0.990018909061669  0.0994974472779998  0.0995000812601953 -6267100.00000000 
 6267125.00000000  0.191654299299450  0.0970470551330315  0.0290773580304093  0.00125529908463060  0.000635639690421175  0.000190451145904212  0.990018909061669  0.0994974954890763  0.0995000802140483 -6267125.00000000 
 6267150.00000000  0.191654299299450  0.0962403694355359  0.0291374015154804  0.00125529908463060  0.000630356053052474  0.000190844419272580  0.990018909061669  0.0994975425015757  0.0995000791601633 -6267150.00000000 
 6267175.00000000  0.191654299299450  0.0954470130115189  0.0291977652428272  0.00125529908463060  0.000625159719881266  0.000191239790166738  0.990018909061669  0.0994975883545013  0.0995000780984660 -6267175.00000000 
 6267200.00000000  0.191654299299450  0.0946666650561961  0.0292584514994972  0.00125529908463060  0.000620048589697437  0.000191637273566412  0.990018909061669  0.0994976330852991  0.0995000770288811 -6267200.00000000 
 6267225.00000000  0.191654299299450  0.0938990148161588  0.0293194625948417  0.00125529908463060  0.000615020627125465  0.000192036884597409  0.990018909061669  0.0994976767299307  0.0995000759513323 -6267225.00000000 
 6267250.00000000  0.191654299299450  0.0931437612050255  0.0293808008608258  0.00125529908463060  0.000610073860107010  0.000192438638533659  0.990018909061669  0.0994977193229427  0.0995000748657425 -6267250.00000000 
 6267275.00000000  0.191654299299450  0.0924006124370909  0.0294424686522747  0.00125529908463060  0.000605206377501388  0.000192842550798815  0.990018909061669  0.0994977608975323  0.0995000737720335 -6267275.00000000 
 6267300.00000000  0.191654299299450  0.0916692856766465  0.0295044683471697  0.00125529908463060  0.000600416326788686  0.000193248636968203  0.990018909061669  0.0994978014856094  0.0995000726701263 -6267300.00000000 
 6267325.00000000  0.191654299299450  0.0909495067030730  0.0295668023469225  0.00125529908463060  0.000595701911876180  0.000193656912770608  0.990018909061669  0.0994978411178555  0.0995000715599408 -6267325.00000000 
 6267350.00000000  0.191654299299450  0.0902410095904389  0.0296294730766660  0.00125529908463060  0.000591061390999769  0.000194067394090191  0.990018909061669  0.0994978798237797  0.0995000704413960 -6267350.00000000 
 6267375.00000000  0.191654299299450  0.0895435364011691  0.0296924829855390  0.00125529908463060  0.000586493074717562  0.000194480096968342  0.990018909061669  0.0994979176317708  0.0995000693144098 -6267375.00000000 
 6267400.00000000  0.191654299299450  0.0888568368928598  0.0297558345469836  0.00125529908463060  0.000581995323989570  0.000194895037605636  0.990018909061669  0.0994979545691483  0.0995000681788994 -6267400.00000000 
 6267425.00000000  0.191654299299450  0.0881806682375517  0.0298195302590614  0.00125529908463060  0.000577566548339001  0.000195312232363898  0.990018909061669  0.0994979906622097  0.0995000670347804 -6267425.00000000 
 6267450.00000000  0.191654299299450  0.0875147947534565  0.0298835726447296  0.00125529908463060  0.000573205204095122  0.000195731697768017  0.990018909061669  0.0994980259362751  0.0995000658819680 -6267450.00000000 
 6267475.00000000  0.191654299299450  0.0868589876476144  0.0299479642521664  0.00125529908463060  0.000568909792707707  0.000196153450508075  0.990018909061669  0.0994980604157309  0.0995000647203758 -6267475.00000000 
 6267500.00000000  0.191654299299450  0.0862130247695572  0.0300127076550862  0.00125529908463060  0.000564678859133586  0.000196577507441408  0.990018909061669  0.0994980941240697  0.0995000635499166 -6267500.00000000 
 6267525.00000000  0.191654299299450  0.0855766903753510  0.0300778054530559  0.00125529908463060  0.000560510990291166  0.000197003885594685  0.990018909061669  0.0994981270839298  0.0995000623705020 -6267525.00000000 
 6267550.00000000  0.191654299299450  0.0849497749016316  0.0301432602717983  0.00125529908463060  0.000556404813580405  0.000197432602165888  0.990018909061669  0.0994981593171310  0.0995000611820426 -6267550.00000000 
 6267575.00000000  0.191654299299450  0.0843320747484629  0.0302090747635579  0.00125529908463060  0.000552358995460576  0.000197863674526713  0.990018909061669  0.0994981908447102  0.0995000599844478 -6267575.00000000 
 6267600.00000000  0.191654299299450  0.0837233920717665  0.0302752516074051  0.00125529908463060  0.000548372240090722  0.000198297120224559  0.990018909061669  0.0994982216869543  0.0995000587776258 -6267600.00000000 
 6267625.00000000  0.191654299299450  0.0831235345840434  0.0303417935095662  0.00125529908463060  0.000544443288024424  0.000198732956984693  0.990018909061669  0.0994982518634320  0.0995000575614839 -6267625.00000000 
 6267650.00000000  0.191654299299450  0.0825323153627991  0.0304087032038050  0.00125529908463060  0.000540570914955014  0.000199171202712746  0.990018909061669  0.0994982813930238  0.0995000563359278 -6267650.00000000 
 6267675.00000000  0.191654299299450  0.0819495526674233  0.0304759834517294  0.00125529908463060  0.000536753930516177  0.000199611875496722  0.990018909061669  0.0994983102939503  0.0995000551008624 -6267675.00000000 
 6267700.00000000  0.191654299299450  0.0813750697629014  0.0305436370431641  0.00125529908463060  0.000532991177127298  0.000200054993609440  0.990018909061669  0.0994983385838000  0.0995000538561911 -6267700.00000000 
 6267725.00000000  0.191654299299450  0.0808086947507227  0.0306116667965117  0.00125529908463060  0.000529281528885936  0.000200500575510900  0.990018909061669  0.0994983662795550  0.0995000526018162 -6267725.00000000 
 6267750.00000000  0.191654299299450  0.0802502604065480  0.0306800755591143  0.00125529908463060  0.000525623890504585  0.000200948639850650  0.990018909061669  0.0994983933976154  0.0995000513376388 -6267750.00000000 
 6267775.00000000  0.191654299299450  0.0796996040244272  0.0307488662076035  0.00125529908463060  0.000522017196290319  0.000201399205470076  0.990018909061669  0.0994984199538234  0.0995000500635585 -6267775.00000000 
 6267800.00000000  0.191654299299450  0.0791565672666392  0.0308180416483176  0.00125529908463060  0.000518460409161287  0.000201852291405141  0.990018909061669  0.0994984459634857  0.0995000487794740 -6267800.00000000 
 6267825.00000000  0.191654299299450  0.0786209960200640  0.0308876048176408  0.00125529908463060  0.000514952519705962  0.000202307916888601  0.990018909061669  0.0994984714413946  0.0995000474852823 -6267825.00000000 
 6267850.00000000  0.191654299299450  0.0780927402576198  0.0309575586824127  0.00125529908463060  0.000511492545275589  0.000202766101352688  0.990018909061669  0.0994984964018486  0.0995000461808793 -6267850.00000000 
 6267875.00000000  0.191654299299450  0.0775716539052992  0.0310279062403106  0.00125529908463060  0.000508079529113298  0.000203226864431617  0.990018909061669  0.0994985208586721  0.0995000448661593 -6267875.00000000 
 6267900.00000000  0.191654299299450  0.0770575947141169  0.0310986505202646  0.00125529908463060  0.000504712539515382  0.000203690225964302  0.990018909061669  0.0994985448252337  0.0995000435410156 -6267900.00000000 
 6267925.00000000  0.191654299299450  0.0765504241371118  0.0311697945828550  0.00125529908463060  0.000501390669025687  0.000204156205996961  0.990018909061669  0.0994985683144645  0.0995000422053399 -6267925.00000000 
 6267950.00000000  0.191654299299450  0.0760500072111181  0.0312413415207011  0.00125529908463060  0.000498113033661233  0.000204624824785658  0.990018909061669  0.0994985913388742  0.0995000408590223 -6267950.00000000 
 6267975.00000000  0.191654299299450  0.0755562124425442  0.0313132944589198  0.00125529908463060  0.000494878772164090  0.000205096102799313  0.990018909061669  0.0994986139105684  0.0995000395019518 -6267975.00000000 
 6268000.00000000  0.191654299299450  0.0750689116979540  0.0313856565555172  0.00125529908463060  0.000491687045284704  0.000205570060722265  0.990018909061669  0.0994986360412632  0.0995000381340157 -6268000.00000000 
 6268025.00000000  0.191654299299450  0.0745879800983375  0.0314584310018435  0.00125529908463060  0.000488537035089393  0.000206046719457247  0.990018909061669  0.0994986577423006  0.0995000367551000 -6268025.00000000 
 6268050.00000000  0.191654299299450  0.0741132959176135  0.0315316210230068  0.00125529908463060  0.000485427944295555  0.000206526100128102  0.990018909061669  0.0994986790246623  0.0995000353650890 -6268050.00000000 
 6268075.00000000  0.191654299299450  0.0736447404844808  0.0316052298783559  0.00125529908463060  0.000482358995628814  0.000207008224082942  0.990018909061669  0.0994986998989837  0.0995000339638656 -6268075.00000000 
 6268100.00000000  0.191654299299450  0.0731821980884906  0.0316792608618709  0.00125529908463060  0.000479329431207814  0.000207493112896709  0.990018909061669  0.0994987203755661  0.0995000325513110 -6268100.00000000 
 6268125.00000000  0.191654299299450  0.0727255558886908  0.0317537173026971  0.00125529908463060  0.000476338511945852  0.000207980788374669  0.990018909061669  0.0994987404643900  0.0995000311273052 -6268125.00000000 
 6268150.00000000  0.191654299299450  0.0722747038264259  0.0318286025655502  0.00125529908463060  0.000473385516979741  0.000208471272555069  0.990018909061669  0.0994987601751264  0.0995000296917259 -6268150.00000000 
 6268175.00000000  0.191654299299450  0.0718295345406893  0.0319039200512255  0.00125529908463060  0.000470469743115374  0.000208964587712466  0.990018909061669  0.0994987795171483  0.0995000282444500 -6268175.00000000 
 6268200.00000000  0.191654299299450  0.0713899432868029  0.0319796731970655  0.00125529908463060  0.000467590504295101  0.000209460756360801  0.990018909061669  0.0994987984995417  0.0995000267853521 -6268200.00000000 
 6268225.00000000  0.191654299299450  0.0709558278578828  0.0320558654774553  0.00125529908463060  0.000464747131083337  0.000209959801256631  0.990018909061669  0.0994988171311159  0.0995000253143053 -6268225.00000000 
 6268250.00000000  0.191654299299450  0.0705270885091683  0.0321325004043113  0.00125529908463060  0.000461938970170935  0.000210461745402338  0.990018909061669  0.0994988354204134  0.0995000238311811 -6268250.00000000 
 6268275.00000000  0.191654299299450  0.0701036278849559  0.0322095815275892  0.00125529908463060  0.000459165383896618  0.000210966612049456  0.990018909061669  0.0994988533757198  0.0995000223358492 -6268275.00000000 
 6268300.00000000  0.191654299299450  0.0696853509479769  0.0322871124358226  0.00125529908463060  0.000456425749784411  0.000211474424702194  0.990018909061669  0.0994988710050728  0.0995000208281775 -6268300.00000000 
 6268325.00000000  0.191654299299450  0.0692721649117030  0.0323650967565836  0.00125529908463060  0.000453719460100263  0.000211985207120458  0.990018909061669  0.0994988883162707  0.0995000193080321 -6268325.00000000 
 6268350.00000000  0.191654299299450  0.0688639791742552  0.0324435381570909  0.00125529908463060  0.000451045921419156  0.000212498983323830  0.990018909061669  0.0994989053168815  0.0995000177752773 -6268350.00000000 
 6268375.00000000  0.191654299299450  0.0684607052553621  0.0325224403446821  0.00125529908463060  0.000448404554212199  0.000213015777594664  0.990018909061669  0.0994989220142504  0.0995000162297755 -6268375.00000000 
 6268400.00000000  0.191654299299450  0.0680622567348538  0.0326018070674146  0.00125529908463060  0.000445794792443771  0.000213535614482020  0.990018909061669  0.0994989384155078  0.0995000146713873 -6268400.00000000 
 6268425.00000000  0.191654299299450  0.0676685491938167  0.0326816421145656  0.00125529908463060  0.000443216083186100  0.000214058518804940  0.990018909061669  0.0994989545275769  0.0995000130999713 -6268425.00000000 
 6268450.00000000  0.191654299299450  0.0672795001571498  0.0327619493172608  0.00125529908463060  0.000440667886243013  0.000214584515656568  0.990018909061669  0.0994989703571805  0.0995000115153842 -6268450.00000000 
 6268475.00000000  0.191654299299450  0.0668950290386259  0.0328427325489982  0.00125529908463060  0.000438149673790101  0.000215113630407577  0.990018909061669  0.0994989859108482  0.0995000099174806 -6268475.00000000 
 6268500.00000000  0.191654299299450  0.0665150570874468  0.0329239957262528  0.00125529908463060  0.000435660930024666  0.000215645888710129  0.990018909061669  0.0994990011949228  0.0995000083061133 -6268500.00000000 
 6268525.00000000  0.191654299299450  0.0661395073366046  0.0330057428090888  0.00125529908463060  0.000433201150827493  0.000216181316501889  0.990018909061669  0.0994990162155670  0.0995000066811328 -6268525.00000000 
 6268550.00000000  0.191654299299450  0.0657683045532009  0.0330879778017285  0.00125529908463060  0.000430769843437457  0.000216719940009749  0.990018909061669  0.0994990309787688  0.0995000050423879 -6268550.00000000 
 6268575.00000000  0.191654299299450  0.0654013751901421  0.0331707047531903  0.00125529908463060  0.000428366526135129  0.000217261785754008  0.990018909061669  0.0994990454903481  0.0995000033897247 -6268575.00000000 
 6268600.00000000  0.191654299299450  0.0650386473395831  0.0332539277579019  0.00125529908463060  0.000425990727937848  0.000217806880552385  0.990018909061669  0.0994990597559618  0.0995000017229876 -6268600.00000000 
 6268625.00000000  0.191654299299450  0.0646800506877273  0.0333376509563617  0.00125529908463060  0.000423641988303666  0.000218355251524354  0.990018909061669  0.0994990737811093  0.0995000000420187 -6268625.00000000 
 6268650.00000000  0.191654299299450  0.0643255164714470  0.0334218785357313  0.00125529908463060  0.000421319856847217  0.000218906926095025  0.990018909061669  0.0994990875711382  0.0994999983466578 -6268650.00000000 
 6268675.00000000  0.191654299299450  0.0639749774357963  0.0335066147305582  0.00125529908463060  0.000419023893061442  0.000219461931999876  0.990018909061669  0.0994991011312485  0.0994999966367426 -6268675.00000000 
 6268700.00000000  0.191654299299450  0.0636283677934045  0.0335918638233891  0.00125529908463060  0.000416753666051618  0.000220020297288771  0.990018909061669  0.0994991144664981  0.0994999949121084 -6268700.00000000 
 6268725.00000000  0.191654299299450  0.0632856231848300  0.0336776301454765  0.00125529908463060  0.000414508754275684  0.000220582050330586  0.990018909061669  0.0994991275818071  0.0994999931725880 -6268725.00000000 
 6268750.00000000  0.191654299299450  0.0629466806403422  0.0337639180774572  0.00125529908463060  0.000412288745293923  0.000221147219817657  0.990018909061669  0.0994991404819621  0.0994999914180120 -6268750.00000000 
 6268775.00000000  0.191654299299450  0.0626114785427724  0.0338507320500792  0.00125529908463060  0.000410093235525638  0.000221715834770538  0.990018909061669  0.0994991531716209  0.0994999896482085 -6268775.00000000 
 6268800.00000000  0.191654299299450  0.0622799565917786  0.0339380765448797  0.00125529908463060  0.000407921830015099  0.000222287924542442  0.990018909061669  0.0994991656553165  0.0994999878630034 -6268800.00000000 
 6268825.00000000  0.191654299299450  0.0619520557690184  0.0340259560949294  0.00125529908463060  0.000405774142203424  0.000222863518824117  0.990018909061669  0.0994991779374608  0.0994999860622196 -6268825.00000000 
 6268850.00000000  0.191654299299450  0.0616277183044132  0.0341143752855918  0.00125529908463060  0.000403649793707625  0.000223442647648818  0.990018909061669  0.0994991900223488  0.0994999842456778 -6268850.00000000 
 6268875.00000000  0.191654299299450  0.0613068876436853  0.0342033387552330  0.00125529908463060  0.000401548414107974  0.000224025341396959  0.990018909061669  0.0994992019141622  0.0994999824131960 -6268875.00000000 
 6268900.00000000  0.191654299299450  0.0609895084166093  0.0342928511960258  0.00125529908463060  0.000399469640740064  0.000224611630801376  0.990018909061669  0.0994992136169726  0.0994999805645896 -6268900.00000000 
 6268925.00000000  0.191654299299450  0.0606755264064969  0.0343829173546951  0.00125529908463060  0.000397413118494931  0.000225201546952212  0.990018909061669  0.0994992251347455  0.0994999786996713 -6268925.00000000 
 6268950.00000000  0.191654299299450  0.0603648885203446  0.0344735420333557  0.00125529908463060  0.000395378499623537  0.000225795121302401  0.990018909061669  0.0994992364713433  0.0994999768182510 -6268950.00000000 
 6268975.00000000  0.191654299299450  0.0600575427603088  0.0345647300902423  0.00125529908463060  0.000393365443549928  0.000226392385672453  0.990018909061669  0.0994992476305284  0.0994999749201359 -6268975.00000000 
 6269000.00000000  0.191654299299450  0.0597534381954799  0.0346564864406214  0.00125529908463060  0.000391373616686366  0.000226993372256427  0.990018909061669  0.0994992586159664  0.0994999730051305 -6269000.00000000 
 6269025.00000000  0.191654299299450  0.0594525249350621  0.0347488160575525  0.00125529908463060  0.000389402692257661  0.000227598113626914  0.990018909061669  0.0994992694312291  0.0994999710730359 -6269025.00000000 
 6269050.00000000  0.191654299299450  0.0591547541020212  0.0348417239727671  0.00125529908463060  0.000387452350128566  0.000228206642740793  0.990018909061669  0.0994992800797974  0.0994999691236510 -6269050.00000000 
 6269075.00000000  0.191654299299450  0.0588600778076083  0.0349352152775353  0.00125529908463060  0.000385522276636914  0.000228818992944912  0.990018909061669  0.0994992905650637  0.0994999671567712 -6269075.00000000 
 6269100.00000000  0.191654299299450  0.0585684491266861  0.0350292951235348  0.00125529908463060  0.000383612164432013  0.000229435197981779  0.990018909061669  0.0994993008903351  0.0994999651721889 -6269100.00000000 
 6269125.00000000  0.191654299299450  0.0582798220737349  0.0351239687237529  0.00125529908463060  0.000381721712317484  0.000230055291995463  0.990018909061669  0.0994993110588355  0.0994999631696937 -6269125.00000000 
 6269150.00000000  0.191654299299450  0.0579941515796387  0.0352192413533789  0.00125529908463060  0.000379850625099218  0.000230679309537449  0.990018909061669  0.0994993210737084  0.0994999611490718 -6269150.00000000 
 6269175.00000000  0.191654299299450  0.0577113934689699  0.0353151183507764  0.00125529908463060  0.000377998613436594  0.000231307285572999  0.990018909061669  0.0994993309380190  0.0994999591101063 -6269175.00000000 
 6269200.00000000  0.191654299299450  0.0574315044383044  0.0354116051183466  0.00125529908463060  0.000376165393700451  0.000231939255486810  0.990018909061669  0.0994993406547569  0.0994999570525770 -6269200.00000000 
 6269225.00000000  0.191654299299450  0.0571544420346536  0.0355087071235862  0.00125529908463060  0.000374350687831813  0.000232575255089942  0.990018909061669  0.0994993502268379  0.0994999549762603 -6269225.00000000 
 6269250.00000000  0.191654299299450  0.0568801646350225  0.0356064298999878  0.00125529908463060  0.000372554223208007  0.000233215320625717  0.990018909061669  0.0994993596571065  0.0994999528809295 -6269250.00000000 
 6269275.00000000  0.191654299299450  0.0566086314262492  0.0357047790480674  0.00125529908463060  0.000370775732510611  0.000233859488776443  0.990018909061669  0.0994993689483378  0.0994999507663541 -6269275.00000000 
 6269300.00000000  0.191654299299450  0.0563398023855024  0.0358037602363804  0.00125529908463060  0.000369014953597720  0.000234507796670078  0.990018909061669  0.0994993781032395  0.0994999486323005 -6269300.00000000 
 6269325.00000000  0.191654299299450  0.0560736382613763  0.0359033792025431  0.00125529908463060  0.000367271629380114  0.000235160281886914  0.990018909061669  0.0994993871244539  0.0994999464785310 -6269325.00000000 
 6269350.00000000  0.191654299299450  0.0558101005554740  0.0360036417542904  0.00125529908463060  0.000365545507700642  0.000235816982466505  0.990018909061669  0.0994993960145600  0.0994999443048048 -6269350.00000000 
 6269375.00000000  0.191654299299450  0.0555491515045609  0.0361045537705346  0.00125529908463060  0.000363836341217323  0.000236477936914606  0.990018909061669  0.0994994047760748  0.0994999421108771 -6269375.00000000 
 6269400.00000000  0.191654299299450  0.0552907540631835  0.0362061212024577  0.00125529908463060  0.000362143887289509  0.000237143184210322  0.990018909061669  0.0994994134114555  0.0994999398964994 -6269400.00000000 
 6269425.00000000  0.191654299299450  0.0550348718867207  0.0363083500746475  0.00125529908463060  0.000360467907866865  0.000237812763813554  0.990018909061669  0.0994994219231011  0.0994999376614194 -6269425.00000000 
 6269450.00000000  0.191654299299450  0.0547814693150845  0.0364112464861822  0.00125529908463060  0.000358808169382622  0.000238486715672100  0.990018909061669  0.0994994303133540  0.0994999354053808 -6269450.00000000 
 6269475.00000000  0.191654299299450  0.0545305113567079  0.0365148166118037  0.00125529908463060  0.000357164442648693  0.000239165080229343  0.990018909061669  0.0994994385845013  0.0994999331281234 -6269475.00000000 
 6269500.00000000  0.191654299299450  0.0542819636729697  0.0366190667031160  0.00125529908463060  0.000355536502753664  0.000239847898432092  0.990018909061669  0.0994994467387771  0.0994999308293830 -6269500.00000000 
 6269525.00000000  0.191654299299450  0.0540357925632628  0.0367240030897148  0.00125529908463060  0.000353924128964987  0.000240535211737995  0.990018909061669  0.0994994547783632  0.0994999285088911 -6269525.00000000 
 6269550.00000000  0.191654299299450  0.0537919649501698  0.0368296321804681  0.00125529908463060  0.000352327104631893  0.000241227062123912  0.990018909061669  0.0994994627053910  0.0994999261663752 -6269550.00000000 
 6269575.00000000  0.191654299299450  0.0535504483652658  0.0369359604647246  0.00125529908463060  0.000350745217092394  0.000241923492093839  0.990018909061669  0.0994994705219426  0.0994999238015582 -6269575.00000000 
 6269600.00000000  0.191654299299450  0.0533112109352449  0.0370429945135724  0.00125529908463060  0.000349178257582420  0.000242624544687150  0.990018909061669  0.0994994782300523  0.0994999214141591 -6269600.00000000 
 6269625.00000000  0.191654299299450  0.0530742213684059  0.0371507409811284  0.00125529908463060  0.000347626021147301  0.000243330263487039  0.990018909061669  0.0994994858317082  0.0994999190038919 -6269625.00000000 
 6269650.00000000  0.191654299299450  0.0528394489414435  0.0372592066058798  0.00125529908463060  0.000346088306555248  0.000244040692629312  0.990018909061669  0.0994994933288529  0.0994999165704665 -6269650.00000000 
 6269675.00000000  0.191654299299450  0.0526068634868049  0.0373683982119530  0.00125529908463060  0.000344564916214549  0.000244755876810695  0.990018909061669  0.0994995007233849  0.0994999141135880 -6269675.00000000 
 6269700.00000000  0.191654299299450  0.0523764353801000  0.0374783227105407  0.00125529908463060  0.000343055656091102  0.000245475861298181  0.990018909061669  0.0994995080171603  0.0994999116329568 -6269700.00000000 
 6269725.00000000  0.191654299299450  0.0521481355280552  0.0375889871012570  0.00125529908463060  0.000341560335629517  0.000246200691937907  0.990018909061669  0.0994995152119932  0.0994999091282684 -6269725.00000000 
 6269750.00000000  0.191654299299450  0.0519219353567362  0.0377003984735424  0.00125529908463060  0.000340078767675978  0.000246930415164354  0.990018909061669  0.0994995223096572  0.0994999065992137 -6269750.00000000 
 6269775.00000000  0.191654299299450  0.0516978068000171  0.0378125640081277  0.00125529908463060  0.000338610768402717  0.000247665078009940  0.990018909061669  0.0994995293118865  0.0994999040454782 -6269775.00000000 
 6269800.00000000  0.191654299299450  0.0514757222884342  0.0379254909784862  0.00125529908463060  0.000337156157235007  0.000248404728114526  0.990018909061669  0.0994995362203768  0.0994999014667427 -6269800.00000000 
 6269825.00000000  0.191654299299450  0.0512556547382746  0.0380391867523422  0.00125529908463060  0.000335714756779697  0.000249149413735299  0.990018909061669  0.0994995430367864  0.0994998988626825 -6269825.00000000 
 6269850.00000000  0.191654299299450  0.0510375775410446  0.0381536587931589  0.00125529908463060  0.000334286392756232  0.000249899183756521  0.990018909061669  0.0994995497627373  0.0994998962329680 -6269850.00000000 
 6269875.00000000  0.191654299299450  0.0508214645530077  0.0382689146617638  0.00125529908463060  0.000332870893928128  0.000250654087700168  0.990018909061669  0.0994995563998159  0.0994998935772636 -6269875.00000000 
 6269900.00000000  0.191654299299450  0.0506072900852584  0.0383849620178635  0.00125529908463060  0.000331468092037956  0.000251414175735856  0.990018909061669  0.0994995629495741  0.0994998908952289 -6269900.00000000 
 6269925.00000000  0.191654299299450  0.0503950288938572  0.0385018086216929  0.00125529908463060  0.000330077821742729  0.000252179498691644  0.990018909061669  0.0994995694135301  0.0994998881865174 -6269925.00000000 
 6269950.00000000  0.191654299299450  0.0501846561702732  0.0386194623356680  0.00125529908463060  0.000328699920551305  0.000252950108064855  0.990018909061669  0.0994995757931693  0.0994998854507771 -6269950.00000000 
 6269975.00000000  0.191654299299450  0.0499761475320858  0.0387379311260619  0.00125529908463060  0.000327334228763482  0.000253726056033058  0.990018909061669  0.0994995820899454  0.0994998826876501 -6269975.00000000 
 6270000.00000000  0.191654299299450  0.0497694790139757  0.0388572230646844  0.00125529908463060  0.000325980589410993  0.000254507395465067  0.990018909061669  0.0994995883052805  0.0994998798967726 -6270000.00000000 
