-90.0000000000000  3.11070536073562 -0.00395630573038783 -0.00479412207339603 -0.00505369654064634 
-88.2000000000000  3.09889085550482  0.00243912716849336  0.00209427303206766  0.00149681865979646 
-86.4000000000000  3.06279394586457  0.00876815320089068  0.00891560689052373  0.00798770680881561 
-84.6000000000000  3.00298390164251  0.0149309598470082  0.0155623029938165  0.0143166027244393 
-82.8000000000000  2.92040396296419  0.0208303559670311  0.0219295389765884  0.0203836959400430 
-81.0000000000000  2.81635646479285  0.0263733045634214  0.0279168997275579  0.0260933047749911 
-79.2000000000000  2.69248229832907  0.0314723900298917  0.0334299609957482  0.0313553852918390 
-77.4000000000000  2.55073503317632  0.0360471967476684  0.0383817785172577  0.0360869513429438 
-75.6000000000000  2.39335010838130  0.0400255772877569  0.0426942591781491  0.0402133833114986 
-73.8000000000000  2.22280957822485  0.0433447902189035  0.0462993925894061  0.0436696049073658 
-72.0000000000000  2.04180296874317  0.0459524895773450  0.0491403236512818  0.0464011094589366 
-70.2000000000000  1.85318486229564  0.0478075503938156  0.0511722491920629  0.0483648195157827 
-68.4000000000000  1.65992987909573  0.0488807172587637  0.0523631245407219  0.0495297662056560 
-66.6000000000000  1.46508576567334  0.0491550656975138  0.0526941688903863  0.0498775776319709 
-64.8000000000000  1.27172533009135  0.0486262690792188  0.0521601614827437  0.0494027686094525 
-63.0000000000000  1.08289798192685  0.0473026668502870  0.0507695239423793  0.0481128271686476 
-61.2000000000000  0.901581641260513  0.0452051330162069  0.0485441874625871  0.0460280964650748 
-59.4000000000000  0.730635775097993  0.0423667469458889  0.0455192469372148  0.0431814539553757 
-57.6000000000000  0.572756301867061  0.0388322716901418  0.0417424074930944  0.0396177929000567 
-55.8000000000000  0.430433075173540  0.0346574480415108  0.0372732321515713  0.0353933143698324 
-54.0000000000000  0.305910617322577  0.0299081154685810  0.0321822024839638  0.0305746409210565 
-52.2000000000000  0.201152721861059  0.0246591737881361  0.0265496070749787  0.0252377659181095 
-50.4000000000000  0.117811483380268  0.0189934019502253  0.0204642753236787  0.0194668550725588 
-48.6000000000000  0.0572012429972482  0.0130001525646052  0.0140221765507214  0.0133529190995349 
-46.8000000000000  0.0202778604102351  0.00677394275665424  0.00732490650478307  0.00699237842432847 
-45.0000000000000  0.00762363942020251  0.000412963575806071  0.000478085136869799  0.000485542574641871 
-43.2000000000000  0.0194381446520580 -0.00598246853597935 -0.00641030908943100 -0.00606497176061093 
-41.4000000000000  0.0555350543012855 -0.0123114937944385 -0.0132316420828325 -0.0125558590577975 
-39.6000000000000  0.115345098540095 -0.0184742996920442 -0.0198783373488542 -0.0188847541483782 
-37.8000000000000  0.197925037242664 -0.0243736951008500 -0.0262455725353763 -0.0249518465787388 
-36.0000000000000  0.301972535445372 -0.0299166430345975 -0.0322329325437072 -0.0306614546806256 
-34.2000000000000  0.425846701947152 -0.0350157278975134 -0.0377459931346152 -0.0359235345281536 
-32.4000000000000  0.567593967143935 -0.0395905340804057 -0.0426978100549126 -0.0406550999842337 
-30.6000000000000  0.724978891988311 -0.0435689141627790 -0.0470102902001768 -0.0447815314414415 
-28.8000000000000  0.895519422198684 -0.0468881267206617 -0.0506154231895563 -0.0482377526177023 
-27.0000000000000  1.07652603173799 -0.0494958257962404 -0.0534563539299903 -0.0509692568480229 
-25.2000000000000  1.26514413824595 -0.0513508864247741 -0.0554882792548679 -0.0529329666870402 
-23.4000000000000  1.45839912150812 -0.0524240531997383 -0.0566791544965995 -0.0540979132659397 
-21.6000000000000  1.65324323499364 -0.0526984016479404 -0.0570101988500320 -0.0544457246898843 
-19.8000000000000  1.84660367063863 -0.0521696051384475 -0.0564761915568264 -0.0539709157736349 
-18.0000000000000  2.03543101886500 -0.0508460031160160 -0.0550855542397966 -0.0526809745460614 
-16.2000000000000  2.21674735959110 -0.0487484695829409 -0.0528602180887469 -0.0505962441593176 
-14.4000000000000  2.38769322581034 -0.0459100839034494 -0.0498352779923740 -0.0477496020650472 
-12.6000000000000  2.54557269909405 -0.0423756091222498 -0.0460584390707771 -0.0441859415172034 
-10.8000000000000  2.68789592583558 -0.0382007860244676 -0.0415892643370942 -0.0399614635784964 
-9.00000000000000  2.81241838372902 -0.0334514540700638 -0.0364982353530906 -0.0351427907959495 
-7.20000000000000  2.91717627922682 -0.0282025130661311 -0.0308656406927252 -0.0298059165234351 
-5.39999999999999  3.00051751773712 -0.0225367419521135 -0.0247803097432876 -0.0240350064609995 
-3.59999999999999  3.06112775814242 -0.0165434933264146 -0.0183382118128223 -0.0179210713114217 
-1.80000000000000  3.09805114074411 -0.0103172843024922 -0.0116409426367525 -0.0115605314870046 
 0.00000000000000  3.11070536174101 -0.00395630591747884 -0.00479412215239859 -0.00505369650203157 
 1.80000000000000  3.09889085650809  0.00243912539915281  0.00209427119055325  0.00149681696822200 
 3.60000000000001  3.06279394684989  0.00876814987561573  0.00891560331471410  0.00798770341376673 
 5.40000000000001  3.00298390259434  0.0149309550166517  0.0155622977392788  0.0143165976794954 
 7.20000000000000  2.92040396386752  0.0208303497061824  0.0219295321253650  0.0203836893248036 
 9.00000000000000  2.81635646563344  0.0263732969692293  0.0279168913868713  0.0260932966938200 
 10.8000000000000  2.69248229909366  0.0314723812205326  0.0334299512963109  0.0313553758722187 
 12.6000000000000  2.55073503385285  0.0360471868604827  0.0383817676112102  0.0360869407334650 
 14.4000000000000  2.39335010895910  0.0400255664770828  0.0426942472366613  0.0402133716795168 
 16.2000000000000  2.22280957869481  0.0433447786536435  0.0462993797999772  0.0436695924363619 
 18.0000000000000  2.04180296909788  0.0459524774383015  0.0491403102147834  0.0464010963456232 
 19.8000000000000  1.85318486252950  0.0478075378708403  0.0511722353195715  0.0483648059670025 
 21.6000000000000  1.65992987920506  0.0488807045477626  0.0523631104501897  0.0495297524351188 
 23.4000000000000  1.46508576565641  0.0491550529973587  0.0526941548032043  0.0498775638568840 
 25.2000000000000  1.27172532994843  0.0486262565886102  0.0521601476202499  0.0494027550470947 
 27.0000000000000  1.08289798166019  0.0473026547646209  0.0507695105223683  0.0481128140329432 
 28.8000000000000  0.901581640874322  0.0452051215244928  0.0485441746958753  0.0460280839632192 
 30.6000000000000  0.730635774598359  0.0423667362277696  0.0455192350243157  0.0431814422845682 
 32.4000000000000  0.572756301261865  0.0388322619130599  0.0417423966210563  0.0396177822443907 
 34.2000000000000  0.430433074472328  0.0346574393580683  0.0372732224910276  0.0353933048973916 
 36.0000000000000  0.305910616536406  0.0299081080141325  0.0321821941864418  0.0305746327812646 
 37.8000000000000  0.201152721002328  0.0246591676786542  0.0265496002705101  0.0252377592393736 
 39.6000000000000  0.117811482462518  0.0189933972804717  0.0204642701187488  0.0194668499602440 
 41.4000000000000  0.0572012420349533  0.0130001494066361  0.0140221730265898  0.0133529156343031 
 43.2000000000000  0.0202778594185718  0.00677394115868429  0.00732490471620232  0.00699237666086615 
 45.0000000000000  0.00762363841480986  0.000412963561447787  0.000478085111221711  0.000485542540797517 
 46.8000000000000  0.0194381436487917 -0.00598246696808811 -0.00641030735256723 -0.00606497006426605 
 48.6000000000000  0.0555350533159671 -0.0123114906706127 -0.0132316386116733 -0.0125558556579780 
 50.4000000000000  0.115345097588265 -0.0184742950631370 -0.0198783321989672 -0.0188847490986638 
 52.2000000000000  0.197925036339332 -0.0243736890414505 -0.0262455657888035 -0.0249518399587289 
 54.0000000000000  0.301972534604784 -0.0299166356418546 -0.0322329243076711 -0.0306614465946840 
 55.8000000000000  0.425846701182566 -0.0350157192896035 -0.0377459835398284 -0.0359235251037628 
 57.6000000000000  0.567593966467406 -0.0395905243946691 -0.0426977992535156 -0.0406550893699843 
 59.4000000000000  0.724978891410512 -0.0435689035535541 -0.0470102783633396 -0.0447815198046892 
 61.2000000000000  0.895519421728726 -0.0468881153568508 -0.0506154105047779 -0.0482377401419278 
 63.0000000000000  1.07652603138328 -0.0494958138586461 -0.0534563405981424 -0.0509692437299390 
 64.8000000000000  1.26514413801209 -0.0513508741032478 -0.0554882654870269 -0.0529329531334894 
 66.6000000000000  1.45839912139879 -0.0524240406901864 -0.0566791405107178 -0.0540978994906319 
 68.4000000000000  1.65324323501057 -0.0526983891492345 -0.0570101848675004 -0.0544457109100268 
 70.2000000000000  1.84660367078155 -0.0521695928492882 -0.0564761777989831 -0.0539709022065066 
 72.0000000000000  2.03543101913166 -0.0508459912317990 -0.0550855409244360 -0.0526809614055864 
 73.8000000000000  2.21674735997729 -0.0487484582926759 -0.0528602054266855 -0.0505962316526914 
 75.6000000000000  2.38769322630997 -0.0459100733867793 -0.0498352661841255 -0.0477495903894692 
 77.4000000000000  2.54557269969925 -0.0423755995466172 -0.0460584283033896 -0.0441859308567669 
 79.2000000000000  2.68789592653680 -0.0382007775424743 -0.0415892547812010 -0.0399614541012850 
 81.0000000000000  2.81241838451520 -0.0334514468170645 -0.0364982271602192 -0.0351427826513871 
 82.8000000000000  2.91717628008556 -0.0282025071580984 -0.0308656339929071 -0.0298059098399286 
 84.6000000000000  3.00051751865487 -0.0225367374838090 -0.0247803046430082 -0.0240350013439142 
 86.4000000000000  3.06112775910471 -0.0165434903698948 -0.0183382083933414 -0.0179210678414195 
 88.2000000000000  3.09805114173577 -0.0103172829059715 -0.0116409409528223 -0.0115605297187718 
 90.0000000000000  3.11070536274640 -0.00395630610456986 -0.00479412223140114 -0.00505369646341678 
