-0.00200000000000000 -1.91110003576056e-08  6.91180686806832e-08 
-0.00194333333333330 -1.85693948017632e-08  6.88297461528755e-08 
-0.00188666666666670 -1.80277892086157e-08  6.85414235037645e-08 
-0.00183000000000000 -1.74861835805340e-08  6.82531007346248e-08 
-0.00177333333333329 -1.69445779198850e-08  6.79647778467289e-08 
-0.00171666666666670 -1.64029722290438e-08  6.76764548413507e-08 
-0.00165999999999999 -1.58613665103792e-08  6.73881317197598e-08 
-0.00160333333333329 -1.53197607662635e-08  6.70998084832354e-08 
-0.00154666666666670 -1.47781549990619e-08  6.68114851330409e-08 
-0.00148999999999999 -1.42365492111513e-08  6.65231616704510e-08 
-0.00143333333333329 -1.36949434049018e-08  6.62348380967455e-08 
-0.00137666666666669 -1.31533375826772e-08  6.59465144131922e-08 
-0.00131999999999999 -1.26117317468532e-08  6.56581906210620e-08 
-0.00126333333333328 -1.20701258998037e-08  6.53698667216313e-08 
-0.00120666666666669 -1.15285200438927e-08  6.50815427161706e-08 
-0.00114999999999998 -1.09869141814927e-08  6.47932186059497e-08 
-0.00109333333333328 -1.04453083149747e-08  6.45048943922432e-08 
-0.00103666666666669 -9.90370244671395e-09  6.42165700763295e-08 
-0.000979999999999981 -9.36209657907179e-09  6.39282456594758e-08 
-0.000923333333333387 -8.82049071442806e-09  6.36399211429511e-08 
-0.000866666666666682 -8.27888485514629e-09  6.33515965280353e-08 
-0.000809999999999977 -7.73727900360025e-09  6.30632718159971e-08 
-0.000753333333333384 -7.19567316215917e-09  6.27749470081102e-08 
-0.000696666666666679 -6.65406733319541e-09  6.24866221056496e-08 
-0.000639999999999974 -6.11246151907632e-09  6.21982971098784e-08 
-0.000583333333333380 -5.57085572217754e-09  6.19099720220821e-08 
-0.000526666666666675 -5.02924994486641e-09  6.16216468435240e-08 
-0.000469999999999970 -4.48764418951040e-09  6.13333215754803e-08 
-0.000413333333333377 -3.94603845848749e-09  6.10449962192234e-08 
-0.000356666666666672 -3.40443275416503e-09  6.07566707760281e-08 
-0.000299999999999967 -2.86282707890779e-09  6.04683452471603e-08 
-0.000243333333333373 -2.32122143509618e-09  6.01800196339015e-08 
-0.000186666666666668 -1.77961582509452e-09  5.98916939375168e-08 
-0.000129999999999963 -1.23801025127306e-09  5.96033681592842e-08 
-7.33333333333697e-05 -6.96404716008860e-10  5.93150423004719e-08 
-1.66666666666648e-05 -1.54799221665371e-10  5.90267163623542e-08 
 4.00000000000400e-05  3.86806229388729e-10  5.87383903462063e-08 
 9.66666666666338e-05  9.28411634773421e-10  5.84500642532973e-08 
 0.000153333333333339  1.47001699212547e-09  5.81617380849001e-08 
 0.000210000000000043  2.01162229906913e-09  5.78734118422895e-08 
 0.000266666666666637  2.55322755323937e-09  5.75850855267377e-08 
 0.000323333333333342  3.09483275226488e-09  5.72967591395131e-08 
 0.000380000000000047  3.63643789377191e-09  5.70084326818948e-08 
 0.000436666666666641  4.17804297539022e-09  5.67201061551508e-08 
 0.000493333333333346  4.71964799474987e-09  5.64317795605550e-08 
 0.000550000000000050  5.26125294948207e-09  5.61434528993798e-08 
 0.000606666666666644  5.80285783721442e-09  5.58551261729003e-08 
 0.000663333333333349  6.34446265557798e-09  5.55667993823853e-08 
 0.000720000000000054  6.88606740220207e-09  5.52784725291088e-08 
 0.000776666666666648  7.42767207470957e-09  5.49901456143453e-08 
 0.000833333333333353  7.96927667074190e-09  5.47018186393648e-08 
 0.000889999999999946  8.51088118792117e-09  5.44134916054387e-08 
 0.000946666666666651  9.05248562387605e-09  5.41251645138475e-08 
 0.00100333333333336  9.59408997623868e-09  5.38368373658520e-08 
 0.00105999999999995  1.01356942426368e-08  5.35485101627333e-08 
 0.00111666666666665  1.06772984207016e-08  5.32601829057620e-08 
 0.00117333333333336  1.12189025080641e-08  5.29718555962082e-08 
 0.00122999999999995  1.17605065023462e-08  5.26835282353491e-08 
 0.00128666666666666  1.23021104011845e-08  5.23952008244561e-08 
 0.00134333333333336  1.28437142022078e-08  5.21068733647938e-08 
 0.00139999999999996  1.33853179030425e-08  5.18185458576487e-08 
 0.00145666666666666  1.39269215013213e-08  5.15302183042825e-08 
 0.00151333333333337  1.44685249946705e-08  5.12418907059714e-08 
 0.00156999999999996  1.50101283807183e-08  5.09535630639899e-08 
 0.00162666666666667  1.55517316571042e-08  5.06652353796062e-08 
 0.00168333333333337  1.60933348214480e-08  5.03769076540977e-08 
 0.00173999999999996  1.66349378713773e-08  5.00885798887348e-08 
 0.00179666666666667  1.71765408045301e-08  4.98002520847865e-08 
 0.00185333333333337  1.77181436185334e-08  4.95119242435281e-08 
 0.00190999999999997  1.82597463110125e-08  4.92235963662388e-08 
 0.00196666666666667  1.88013488795981e-08  4.89352684541816e-08 
 0.00202333333333338  1.93429513219230e-08  4.86469405086333e-08 
 0.00207999999999997  1.98845536356118e-08  4.83586125308678e-08 
 0.00213666666666668  2.04261558183011e-08  4.80702845221568e-08 
 0.00219333333333338  2.09677578676138e-08  4.77819564837657e-08 
 0.00224999999999997  2.15093597811782e-08  4.74936284169786e-08 
 0.00230666666666668  2.20509615566322e-08  4.72053003230603e-08 
 0.00236333333333338  2.25925631915962e-08  4.69169722032910e-08 
 0.00241999999999998  2.31341646837105e-08  4.66286440589293e-08 
 0.00247666666666668  2.36757660305935e-08  4.63403158912610e-08 
 0.00253333333333339  2.42173672298819e-08  4.60519877015554e-08 
 0.00258999999999998  2.47589682791966e-08  4.57636594910836e-08 
 0.00264666666666669  2.53005691761799e-08  4.54753312611173e-08 
 0.00270333333333339  2.58421699184514e-08  4.51870030129284e-08 
 0.00275999999999998  2.63837705036446e-08  4.48986747477947e-08 
 0.00281666666666669  2.69253709293864e-08  4.46103464669842e-08 
 0.00287333333333328  2.74669711933051e-08  4.43220181717714e-08 
 0.00292999999999999  2.80085712930378e-08  4.40336898634280e-08 
 0.00298666666666669  2.85501712262092e-08  4.37453615432263e-08 
 0.00304333333333329  2.90917709904466e-08  4.34570332124384e-08 
 0.00309999999999999  2.96333705833799e-08  4.31687048723402e-08 
 0.00315666666666670  3.01749700026451e-08  4.28803765241980e-08 
 0.00321333333333329  3.07165692458636e-08  4.25920481692917e-08 
 0.00327000000000000  3.12581683106712e-08  4.23037198088870e-08 
 0.00332666666666670  3.17997671946965e-08  4.20153914442627e-08 
 0.00338333333333329  3.23413658955603e-08  4.17270630766884e-08 
 0.00344000000000000  3.28829644109022e-08  4.14387347074380e-08 
 0.00349666666666670  3.34245627383504e-08  4.11504063377771e-08 
 0.00355333333333330  3.39661608755343e-08  4.08620779689869e-08 
 0.00361000000000000  3.45077588200777e-08  4.05737496023371e-08 
 0.00366666666666671  3.50493565696165e-08  4.02854212391004e-08 
 0.00372333333333330  3.55909541217774e-08  3.99970928805477e-08 
 0.00378000000000001  3.61325514741891e-08  3.97087645279543e-08 
 0.00383666666666671  3.66741486244827e-08  3.94204361825904e-08 
 0.00389333333333330  3.72157455702881e-08  3.91321078457292e-08 
 0.00395000000000001  3.77573423092340e-08  3.88437795186435e-08 
 0.00400666666666671  3.82989388389532e-08  3.85554512026055e-08 
 0.00406333333333331  3.88405351570687e-08  3.82671228988898e-08 
 0.00412000000000001  3.93821312612134e-08  3.79787946087656e-08 
 0.00417666666666672  3.99237271490209e-08  3.76904663335077e-08 
 0.00423333333333331  4.04653228181150e-08  3.74021380743864e-08 
 0.00429000000000002  4.10069182661264e-08  3.71138098326771e-08 
 0.00434666666666672  4.15485134906901e-08  3.68254816096497e-08 
 0.00440333333333331  4.20901084894272e-08  3.65371534065773e-08 
 0.00446000000000002  4.26317032599740e-08  3.62488252247363e-08 
 0.00451666666666672  4.31732977999559e-08  3.59604970653943e-08 
 0.00457333333333332  4.37148921070056e-08  3.56721689298238e-08 
 0.00463000000000002  4.42564861787470e-08  3.53838408193013e-08 
 0.00468666666666662  4.47980800128157e-08  3.50955127350974e-08 
 0.00474333333333332  4.53396736068430e-08  3.48071846784808e-08 
 0.00480000000000003  4.58812669584510e-08  3.45188566507328e-08 
 0.00485666666666662  4.64228600652755e-08  3.42305286531170e-08 
 0.00491333333333333  4.69644529249420e-08  3.39422006869106e-08 
 0.00497000000000003  4.75060455350854e-08  3.36538727533831e-08 
 0.00502666666666662  4.80476378933305e-08  3.33655448538104e-08 
 0.00508333333333333  4.85892299973066e-08  3.30772169894644e-08 
 0.00514000000000003  4.91308218446461e-08  3.27888891616154e-08 
 0.00519666666666663  4.96724134329790e-08  3.25005613715370e-08 
 0.00525333333333333  5.02140047599326e-08  3.22122336204994e-08 
 0.00531000000000004  5.07555958231371e-08  3.19239059097804e-08 
 0.00536666666666663  5.12971866202242e-08  3.16355782406520e-08 
 0.00542333333333334  5.18387771488165e-08  3.13472506143827e-08 
 0.00548000000000004  5.23803674065561e-08  3.10589230322457e-08 
 0.00553666666666663  5.29219573910628e-08  3.07705954955131e-08 
 0.00559333333333334  5.34635470999697e-08  3.04822680054603e-08 
 0.00565000000000004  5.40051365309074e-08  3.01939405633577e-08 
 0.00570666666666664  5.45467256815030e-08  2.99056131704760e-08 
 0.00576333333333334  5.50883145493839e-08  2.96172858280955e-08 
 0.00582000000000005  5.56299031321857e-08  2.93289585374801e-08 
 0.00587666666666664  5.61714914275356e-08  2.90406312999046e-08 
 0.00593333333333335  5.67130794330629e-08  2.87523041166409e-08 
 0.00599000000000005  5.72546671463983e-08  2.84639769889639e-08 
 0.00604666666666664  5.77962545651718e-08  2.81756499181448e-08 
 0.00610333333333335  5.83378416870082e-08  2.78873229054579e-08 
 0.00616000000000005  5.88794285095462e-08  2.75989959521704e-08 
 0.00621666666666665  5.94210150304056e-08  2.73106690595622e-08 
 0.00627333333333335  5.99626012472230e-08  2.70223422288986e-08 
 0.00633000000000006  6.05041871576291e-08  2.67340154614553e-08 
 0.00638666666666665  6.10457727592467e-08  2.64456887585067e-08 
 0.00644333333333336  6.15873580497100e-08  2.61573621213213e-08 
 0.00650000000000006  6.21289430266473e-08  2.58690355511729e-08 
 0.00655666666666666  6.26705276876874e-08  2.55807090493371e-08 
 0.00661333333333336  6.32121120304680e-08  2.52923826170829e-08 
 0.00666999999999995  6.37536960526079e-08  2.50040562556816e-08 
 0.00672666666666666  6.42952797517445e-08  2.47157299664095e-08 
 0.00678333333333336  6.48368631255013e-08  2.44274037505384e-08 
 0.00683999999999996  6.53784461715142e-08  2.41390776093356e-08 
 0.00689666666666666  6.59200288874102e-08  2.38507515440799e-08 
 0.00695333333333337  6.64616112708155e-08  2.35624255560425e-08 
 0.00700999999999996  6.70031933193686e-08  2.32740996464928e-08 
 0.00706666666666667  6.75447750306918e-08  2.29857738167051e-08 
 0.00712333333333337  6.80863564024158e-08  2.26974480679487e-08 
 0.00717999999999996  6.86279374321686e-08  2.24091224015028e-08 
 0.00723666666666667  6.91695181175903e-08  2.21207968186344e-08 
 0.00729333333333337  6.97110984563023e-08  2.18324713206158e-08 
 0.00734999999999997  7.02526784459331e-08  2.15441459087242e-08 
 0.00740666666666667  7.07942580841153e-08  2.12558205842255e-08 
 0.00746333333333338  7.13358373684813e-08  2.09674953483991e-08 
 0.00751999999999997  7.18774162966552e-08  2.06791702025126e-08 
 0.00757666666666668  7.24189948662717e-08  2.03908451478384e-08 
 0.00763333333333338  7.29605730749568e-08  2.01025201856514e-08 
 0.00768999999999997  7.35021509203431e-08  1.98141953172208e-08 
 0.00774666666666668  7.40437284000598e-08  1.95258705438224e-08 
 0.00780333333333338  7.45853055117361e-08  1.92375458667243e-08 
 0.00785999999999998  7.51268822530028e-08  1.89492212872044e-08 
 0.00791666666666668  7.56684586214877e-08  1.86608968065314e-08 
 0.00797333333333339  7.62100346148224e-08  1.83725724259795e-08 
 0.00802999999999998  7.67516102306380e-08  1.80842481468178e-08 
 0.00808666666666669  7.72931854665620e-08  1.77959239703221e-08 
 0.00814333333333339  7.78347603202249e-08  1.75075998977642e-08 
 0.00819999999999999  7.83763347892561e-08  1.72192759304176e-08 
 0.00825666666666669  7.89179088712882e-08  1.69309520695503e-08 
 0.00831333333333339  7.94594825639500e-08  1.66426283164361e-08 
 0.00836999999999999  8.00010558648665e-08  1.63543046723517e-08 
 0.00842666666666669  8.05426287716764e-08  1.60659811385650e-08 
 0.00848333333333329  8.10842012820025e-08  1.57776577163471e-08 
 0.00853999999999999  8.16257733934766e-08  1.54893344069742e-08 
 0.00859666666666670  8.21673451037301e-08  1.52010112117176e-08 
 0.00865333333333329  8.27089164103925e-08  1.49126881318517e-08 
 0.00871000000000000  8.32504873110879e-08  1.46243651686458e-08 
 0.00876666666666670  8.37920578034589e-08  1.43360423233692e-08 
 0.00882333333333329  8.43336278851240e-08  1.40477195972991e-08 
 0.00888000000000000  8.48751975537212e-08  1.37593969917098e-08 
 0.00893666666666670  8.54167668068732e-08  1.34710745078680e-08 
 0.00899333333333330  8.59583356422109e-08  1.31827521470497e-08 
 0.00905000000000000  8.64999040573707e-08  1.28944299105199e-08 
 0.00910666666666671  8.70414720499776e-08  1.26061077995639e-08 
 0.00916333333333330  8.75830396176600e-08  1.23177858154473e-08 
 0.00922000000000001  8.81246067580531e-08  1.20294639594377e-08 
 0.00927666666666671  8.86661734687870e-08  1.17411422328131e-08 
 0.00933333333333330  8.92077397474822e-08  1.14528206368467e-08 
 0.00939000000000001  8.97493055917793e-08  1.11644991728082e-08 
 0.00944666666666671  9.02908709993035e-08  1.08761778419701e-08 
 0.00950333333333331  9.08324359676840e-08  1.05878566456032e-08 
 0.00956000000000001  9.13740004945572e-08  1.02995355849804e-08 
 0.00961666666666672  9.19155645775469e-08  1.00112146613798e-08 
 0.00967333333333331  9.24571282142826e-08  9.72289387606438e-09 
 0.00973000000000002  9.29986914023965e-08  9.43457323031297e-09 
 0.00978666666666672  9.35402541395219e-08  9.14625272539468e-09 
 0.00984333333333332  9.40818164232815e-08  8.85793236258635e-09 
 0.00990000000000002  9.46233782513087e-08  8.56961214315410e-09 
 0.00995666666666672  9.51649396212402e-08  8.28129206837343e-09 
 0.0100133333333333  9.57065005306968e-08  7.99297213951557e-09 
 0.0100700000000000  9.62480609773136e-08  7.70465235785378e-09 
 0.0101266666666667  9.67896209587188e-08  7.41633272465758e-09 
 0.0101833333333333  9.73311804725367e-08  7.12801324120643e-09 
 0.0102400000000000  9.78727395164112e-08  6.83969390876330e-09 
 0.0102966666666667  9.84142980879635e-08  6.55137472860502e-09 
 0.0103533333333333  9.89558561848238e-08  6.26305570200354e-09 
 0.0104100000000000  9.94974138046199e-08  5.97473683023481e-09 
 0.0104666666666666  1.00038970944989e-07  5.68641811456342e-09 
 0.0105233333333333  1.00580527603557e-07  5.39809955626595e-09 
 0.0105800000000000  1.01122083777957e-07  5.10978115661490e-09 
 0.0106366666666666  1.01663639465815e-07  4.82146291687837e-09 
 0.0106933333333333  1.02205194664762e-07  4.53314483833644e-09 
 0.0107500000000000  1.02746749372430e-07  4.24482692225432e-09 
 0.0108066666666666  1.03288303586447e-07  3.95650916990686e-09 
 0.0108633333333333  1.03829857304446e-07  3.66819158256504e-09 
 0.0109200000000000  1.04371410524056e-07  3.37987416150534e-09 
 0.0109766666666666  1.04912963242907e-07  3.09155690799375e-09 
 0.0110333333333333  1.05454515458632e-07  2.80323982330531e-09 
 0.0110900000000000  1.05996067168854e-07  2.51492290871394e-09 
 0.0111466666666666  1.06537618371210e-07  2.22660616548898e-09 
 0.0112033333333333  1.07079169063325e-07  1.93828959490353e-09 
 0.0112600000000000  1.07620719242834e-07  1.64997319823262e-09 
 0.0113166666666666  1.08162268907366e-07  1.36165697674297e-09 
 0.0113733333333333  1.08703818054553e-07  1.07334093171025e-09 
 0.0114300000000001  1.09245366682019e-07  7.85025064405270e-10 
 0.0114866666666666  1.09786914787398e-07  4.96709376099067e-10 
 0.0115433333333333  1.10328462368321e-07  2.08393868068110e-10 
 0.0116000000000001  1.10870009422417e-07 -7.99214584194089e-11 
 0.0116566666666666  1.11411555947317e-07 -3.68236602089796e-10 
 0.0117133333333334  1.11953101940653e-07 -6.56551561669966e-10 
 0.0117700000000001  1.12494647400053e-07 -9.44866335888469e-10 
 0.0118266666666667  1.13036192323148e-07 -1.23318092347673e-09 
 0.0118833333333334  1.13577736707567e-07 -1.52149532315658e-09 
 0.0119400000000001  1.14119280550942e-07 -1.80980953366098e-09 
 0.0119966666666667  1.14660823850905e-07 -2.09812355371433e-09 
 0.0120533333333334  1.15202366605081e-07 -2.38643738204836e-09 
 0.0121100000000001  1.15743908811107e-07 -2.67475101738828e-09 
 0.0121666666666667  1.16285450466605e-07 -2.96306445845663e-09 
 0.0122233333333334  1.16826991569214e-07 -3.25137770399099e-09 
 0.0122800000000000  1.17368532116561e-07 -3.53969075271757e-09 
 0.0123366666666667  1.17910072106274e-07 -3.82800360335927e-09 
 0.0123933333333334  1.18451611535986e-07 -4.11631625464530e-09 
 0.0124500000000000  1.18993150403327e-07 -4.40462870530547e-09 
 0.0125066666666667  1.19534688705925e-07 -4.69294095406704e-09 
 0.0125633333333334  1.20076226441417e-07 -4.98125299966292e-09 
 0.0126200000000000  1.20617763607427e-07 -5.26956484081052e-09 
 0.0126766666666667  1.21159300201588e-07 -5.55787647624554e-09 
 0.0127333333333334  1.21700836221530e-07 -5.84618790469652e-09 
 0.0127900000000000  1.22242371664883e-07 -6.13449912488462e-09 
 0.0128466666666667  1.22783906529276e-07 -6.42281013554146e-09 
 0.0129033333333334  1.23325440812348e-07 -6.71112093540057e-09 
 0.0129600000000000  1.23866974511715e-07 -6.99943152318132e-09 
 0.0130166666666667  1.24408507625022e-07 -7.28774189761363e-09 
 0.0130733333333334  1.24950040149888e-07 -7.57605205743230e-09 
 0.0131300000000000  1.25491572083950e-07 -7.86436200135565e-09 
 0.0131866666666667  1.26033103424837e-07 -8.15267172811661e-09 
 0.0132433333333334  1.26574634170177e-07 -8.44098123644300e-09 
 0.0133000000000000  1.27116164317603e-07 -8.72929052506124e-09 
 0.0133566666666667  1.27657693864750e-07 -9.01759959270365e-09 
 0.0134133333333334  1.28199222809241e-07 -9.30590843809329e-09 
 0.0134700000000000  1.28740751148708e-07 -9.59421705995533e-09 
 0.0135266666666667  1.29282278880787e-07 -9.88252545703009e-09 
 0.0135833333333334  1.29823806003103e-07 -1.01708336280345e-08 
 0.0136400000000000  1.30365332513288e-07 -1.04591415717013e-08 
 0.0136966666666667  1.30906858408973e-07 -1.07474492867545e-08 
 0.0137533333333334  1.31448383687786e-07 -1.10357567719264e-08 
 0.0138100000000000  1.31989908347362e-07 -1.13240640259424e-08 
 0.0138666666666667  1.32531432385332e-07 -1.16123710475345e-08 
 0.0139233333333334  1.33072955799321e-07 -1.19006778354267e-08 
 0.0139800000000000  1.33614478586964e-07 -1.21889843883478e-08 
 0.0140366666666667  1.34156000745891e-07 -1.24772907050238e-08 
 0.0140933333333334  1.34697522273730e-07 -1.27655967841861e-08 
 0.0141500000000000  1.35239043168117e-07 -1.30539026245665e-08 
 0.0142066666666667  1.35780563426677e-07 -1.33422082248827e-08 
 0.0142633333333333  1.36322083047043e-07 -1.36305135838702e-08 
 0.0143200000000000  1.36863602026848e-07 -1.39188187002574e-08 
 0.0143766666666667  1.37405120363720e-07 -1.42071235727686e-08 
 0.0144333333333333  1.37946638055291e-07 -1.44954282001333e-08 
 0.0144900000000000  1.38488155099190e-07 -1.47837325810826e-08 
 0.0145466666666667  1.39029671493053e-07 -1.50720367143413e-08 
 0.0146033333333333  1.39571187234500e-07 -1.53603405986384e-08 
 0.0146600000000000  1.40112702321172e-07 -1.56486442326998e-08 
 0.0147166666666667  1.40654216750698e-07 -1.59369476152565e-08 
 0.0147733333333333  1.41195730520701e-07 -1.62252507450356e-08 
 0.0148300000000000  1.41737243628820e-07 -1.65135536207635e-08 
 0.0148866666666667  1.42278756072686e-07 -1.68018562411738e-08 
 0.0149433333333333  1.42820267849926e-07 -1.70901586049880e-08 
 0.0150000000000000  1.43361778958169e-07 -1.73784607109404e-08 
