-25.0000000000000  1.75943890274005  0.178414968366836 
-24.5000000000000  1.76628245400549  0.171571417101399 
-24.0000000000000  1.77300456262199  0.164849308484894 
-23.5000000000000  1.77960420476687  0.158249666340018 
-23.0000000000000  1.78608037526989  0.151773495836993 
-22.5000000000000  1.79243208776641  0.145421783340475 
-22.0000000000000  1.79865837484757  0.139195496259319 
-21.5000000000000  1.80475828820764  0.133095582899244 
-21.0000000000000  1.81073089878849  0.127122972318390 
-20.5000000000000  1.81657529692106  0.121278574185825 
-20.0000000000000  1.82229059246390  0.115563278642990 
-19.5000000000000  1.82787591493876  0.109977956168127 
-19.0000000000000  1.83333041366319  0.104523457443699 
-18.5000000000000  1.83865325788006  0.0992006132268262 
-18.0000000000000  1.84384363688413  0.0940102342227540 
-17.5000000000000  1.84890076014551  0.0889531109613783 
-17.0000000000000  1.85382385743004  0.0840300136768430 
-16.5000000000000  1.85861217891666  0.0792416921902269 
-16.0000000000000  1.86326499531154  0.0745888757953418 
-15.5000000000000  1.86778159795923  0.0700722731476554 
-15.0000000000000  1.87216129895053  0.0656925721563589 
-14.5000000000000  1.87640343122729  0.0614504398795934 
-14.0000000000000  1.88050734868403  0.0573465224228523 
-13.5000000000000  1.88447242626631  0.0533814448405758 
-13.0000000000000  1.88829806006594  0.0495558110409496 
-12.5000000000000  1.89198366741296  0.0458702036939268 
-12.0000000000000  1.89552868696440  0.0423251841424829 
-11.5000000000000  1.89893257878977  0.0389212923171192 
-11.0000000000000  1.90219482445326  0.0356590466536280 
-10.5000000000000  1.90531492709275  0.0325389440141311 
-10.0000000000000  1.90829241149548  0.0295614596114049 
-9.50000000000000  1.91112682417038  0.0267270469365014 
-9.00000000000000  1.91381773341721  0.0240361376896791 
-8.50000000000000  1.91636472939223  0.0214891417146520 
-8.00000000000000  1.91876742417072  0.0190864469361672 
-7.50000000000000  1.92102545180596  0.0168284193009220 
-7.00000000000000  1.92313846838506  0.0147154027218274 
-6.50000000000000  1.92510615208126  0.0127477190256277 
-6.00000000000000  1.92692820320300  0.0109256679038843 
-5.50000000000000  1.92860434423956  0.00924952686733067 
-5.00000000000000  1.93013431990328  0.00771955120360535 
-4.50000000000000  1.93151789716851  0.00633597393837029 
-4.00000000000000  1.93275486530707  0.00509900579981903 
-3.50000000000000  1.93384503592030  0.00400883518658178 
-3.00000000000000  1.93478824296785  0.00306562813903065 
-2.50000000000000  1.93558434279289  0.00226952831399090 
-2.00000000000000  1.93623321414402  0.00162065696286086 
-1.50000000000000  1.93673475819374  0.00111911291314449 
-1.00000000000000  1.93708889855349  0.000764972553399433 
-0.500000000000000  1.93729558128528  0.000558289821602387 
 0.00000000000000  1.93735477490995  0.000499096196934040 
 0.500000000000000  1.93726647041190  0.000587400694984578 
 1.00000000000000  1.93703068124050  0.000823189866380514 
 1.50000000000000  1.93664744330805  0.00120642779883318 
 2.00000000000000  1.93611681498428  0.00173705612260834 
 2.50000000000000  1.93543887708747  0.00241499401941634 
 3.00000000000000  1.93461373287216  0.00324013823472135 
 3.50000000000000  1.93364150801342  0.00421236309346753 
 4.00000000000000  1.93252235058767  0.00533152051922041 
 4.50000000000000  1.93125643105017  0.00659744005671975 
 5.00000000000000  1.92984394220904  0.00800992889784127 
 5.50000000000000  1.92828509919592  0.00956877191096233 
 6.00000000000000  1.92658013943316  0.0112737316737282 
 6.50000000000000  1.92472932259767  0.0131245485092129 
 7.00000000000000  1.92273293058142  0.0151209405254698 
 7.50000000000000  1.92059126744842  0.0172626036584660 
 8.00000000000000  1.91830465938849  0.0195492117183927 
 8.50000000000000  1.91587345466754  0.0219804164393467 
 9.00000000000000  1.91329802357451  0.0245558475323732 
 9.50000000000000  1.91057875836502  0.0272751127418639 
 10.0000000000000  1.90771607320159  0.0301377979052995 
 10.5000000000000  1.90471040409056  0.0331434670163301 
 11.0000000000000  1.90156220881570  0.0362916622911811 
 11.5000000000000  1.89827196686851  0.0395819042383780 
 12.0000000000000  1.89484017937511  0.0430136917317750 
 12.5000000000000  1.89126736902000  0.0465865020868805 
 13.0000000000000  1.88755407996642  0.0502997911404654 
 13.5000000000000  1.88370087777344  0.0541529933334428 
 14.0000000000000  1.87970834930988  0.0581455217970067 
 14.5000000000000  1.87557710266487  0.0622767684420156 
 15.0000000000000  1.87130776705528  0.0665461040516093 
 15.5000000000000  1.86690099272984  0.0709528783770419 
 16.0000000000000  1.86235745087017  0.0754964202367204 
 16.5000000000000  1.85767783348846  0.0801760376184291 
 17.0000000000000  1.85286285332216  0.0849910177847280 
 17.5000000000000  1.84791324372538  0.0899406273815084 
 18.0000000000000  1.84282975855720  0.0950241125496859 
 18.5000000000000  1.83761317206687  0.100240699040020 
 19.0000000000000  1.83226427877585  0.105589592331037 
 19.5000000000000  1.82678389335684  0.111069977750041 
 20.0000000000000  1.82117285050969  0.116681020597193 
 20.5000000000000  1.81543200483424  0.122421866272643 
 21.0000000000000  1.80956223070020  0.128291640406690 
 21.5000000000000  1.80356442211393  0.134289448992955 
 22.0000000000000  1.79743949258234  0.140414378524546 
 22.5000000000000  1.79118837497370  0.146665496133188 
 23.0000000000000  1.78481202137558  0.153041849731307 
 23.5000000000000  1.77831140294985  0.159542468157038 
 24.0000000000000  1.77168750978474  0.166166361322143 
 24.5000000000000  1.76494135074408  0.172912520362804 
 25.0000000000000  1.75807395331360  0.179779917793282 
