-90.0000000000000 -5.20417042793042e-16 -3.67990420004010e-16 -3.18663532839115e-32 
-89.4000000000000  0.00369609363046587  0.00172535384140061 -0.00125607482806461 
-88.8000000000000  0.00740029342742702  0.00345282293184989 -0.00251726440873207 
-88.2000000000000  0.0111207498763423  0.00518451900669040 -0.00378873278269964 
-87.6000000000000  0.0148657025070365  0.00692254645836784 -0.00507574341945482 
-87.0000000000000  0.0186435254352442  0.00866899786245860 -0.00638371108597185 
-86.4000000000000  0.0224627741371790  0.0104259485018120 -0.00771825636531304 
-85.8000000000000  0.0263322338840759  0.0121954494879962 -0.00908526381891567 
-85.2000000000000  0.0302609702765105  0.0139795190175521 -0.0104909448864357 
-84.6000000000000  0.0342583823331962  0.0157801312177022 -0.0119419067490947 
-84.0000000000000  0.0383342586048341  0.0175992019276717 -0.0134452285517780 
-83.4000000000000  0.0424988367990074  0.0194385706218906 -0.0150085465923824 
-82.8000000000000  0.0467628674147509  0.0212999775022897 -0.0166401503527711 
-82.2000000000000  0.0511376818920731  0.0231850345585505 -0.0183490915752821 
-81.6000000000000  0.0556352657777711  0.0250951891044062 -0.0201453089960024 
-81.0000000000000  0.0602683373876005  0.0270316779275436 -0.0220397718487669 
-80.4000000000000  0.0650504323967706  0.0289954697177696 -0.0240446458745225 
-79.8000000000000  0.0699959947021804  0.0309871928331405 -0.0261734863376828 
-79.2000000000000  0.0751204737514639  0.0330070446876483 -0.0284414635003369 
-78.6000000000000  0.0804404282981775  0.0350546780450774 -0.0308656271822066 
-78.0000000000000  0.0859736361799955  0.0371290582132916 -0.0334652184966183 
-77.4000000000000  0.0917392091715947  0.0392282834602657 -0.0362620386734708 
-76.8000000000000  0.0977577111559469  0.0413493587958266 -0.0392808871514577 
-76.2000000000000  0.104051276672279  0.0434879104179792 -0.0425500839599063 
-75.6000000000000  0.110643725171658  0.0456378243903369 -0.0461020949616420 
-75.0000000000000  0.117560663805095  0.0477907882013931 -0.0499742829741845 
-74.4000000000000  0.124829567942525  0.0499357073569815 -0.0542098133515881 
-73.8000000000000  0.132479823378743  0.0520579605322838 -0.0588587495645043 
-73.2000000000000  0.140542706605160  0.0541384453255928 -0.0639793829799123 
-72.6000000000000  0.149051268565505  0.0561523513197996 -0.0696398517699054 
-72.0000000000000  0.158040071437676  0.0580675766315752 -0.0759201170311630 
-71.4000000000000  0.167544704950107  0.0598426766213452 -0.0829143800634932 
-70.8000000000000  0.177600975263534  0.0614241965818095 -0.0907340433996675 
-70.2000000000000  0.188243610716969  0.0627431909535256 -0.0995113391239283 
-69.6000000000000  0.199504257729824  0.0637106661056165 -0.109403769655437 
-69.0000000000000  0.211408436698954  0.0642115974957706 -0.120599524658793 
-68.4000000000000  0.223970977287374  0.0640970605433323 -0.133324044958744 
-67.8000000000000  0.237189234760461  0.0631738748088667 -0.147847884218101 
-67.2000000000000  0.251033076781817  0.0611909954349874 -0.164495941142548 
-66.6000000000000  0.265430189686087  0.0578217103736169 -0.183657942676108 
-66.0000000000000  0.280244649918304  0.0526405639606896 -0.205799650434128 
-65.4000000000000  0.295245921974237  0.0450939399108828 -0.231473460571429 
-64.8000000000000  0.310064524318161  0.0344636441885483 -0.261325571297915 
-64.2000000000000  0.324129768157619  0.0198241229900683 -0.296094224562912 
-63.6000000000000  0.336584845925748 -2.93961049538775e-06 -0.336589003162778 
-63.0000000000000  0.346176605711674 -0.0264863779243834 -0.383634000590477 
-62.4000000000000  0.351124652068284 -0.0613930773217711 -0.437947574652553 
-61.8000000000000  0.348992387085860 -0.106722107653882 -0.499920239135021 
-61.2000000000000  0.336618646126358 -0.164493827572109 -0.569248048005496 
-60.6000000000000  0.310226717815471 -0.236297670052551 -0.644402087560951 
-60.0000000000000  0.265891081074904 -0.322519092846780 -0.722001956303088 
-59.4000000000000  0.200541811920624 -0.421296622953449 -0.796345209883376 
-58.8000000000000  0.113486967392828 -0.527565702062188 -0.859577538292058 
-58.2000000000000  0.00794329986090161 -0.632919525550962 -0.903026676785817 
-57.6000000000000 -0.108463409197024 -0.727020388124519 -0.919698683810422 
-57.0000000000000 -0.225124267061924 -0.800458547032173 -0.906895066268437 
-56.4000000000000 -0.331476677437934 -0.847674763870229 -0.867316470108754 
-55.8000000000000 -0.419980108557740 -0.868220888828070 -0.807869647558540 
-55.2000000000000 -0.487442162579786 -0.865848949567595 -0.737053164865204 
-54.6000000000000 -0.534471067260816 -0.846413912363432 -0.662538966984823 
-54.0000000000000 -0.563973291026788 -0.815919732058004 -0.589911459857463 
-53.4000000000000 -0.579690347075390 -0.779380910747482 -0.522520707158393 
-52.8000000000000 -0.585240521468094 -0.740465424828935 -0.461935724793341 
-52.2000000000000 -0.583671778225573 -0.701599648904971 -0.408539960612040 
-51.6000000000000 -0.577352573160170 -0.664247393152390 -0.362035099006913 
-51.0000000000000 -0.568030936009983 -0.629199096592289 -0.321790959823732 
-50.4000000000000 -0.556952398387178 -0.596806648137220 -0.287059657522906 
-49.8000000000000 -0.544981504683030 -0.567152724914047 -0.257093570827272 
-49.2000000000000 -0.532705186704853 -0.540164575074004 -0.231202881278303 
-48.6000000000000 -0.520513133041509 -0.515686863343667 -0.208778223036746 
-48.0000000000000 -0.508657255667869 -0.493526540218994 -0.189294670900903 
-47.4000000000000 -0.497294428534829 -0.473479455736456 -0.172306639272699 
-46.8000000000000 -0.486516665700967 -0.455345434111393 -0.157439022784029 
-46.2000000000000 -0.476372197836539 -0.438936236680500 -0.144377381094031 
-45.6000000000000 -0.466880088513965 -0.424079246643201 -0.132858533609814 
-45.0000000000000 -0.458040320302471 -0.410618652060009 -0.122662146404153 
-44.4000000000000 -0.449840726067774 -0.398415222744398 -0.113603485393252 
-43.8000000000000 -0.442261731697140 -0.387345346290417 -0.105527310348871 
-43.2000000000000 -0.435279583644479 -0.377299719921538 -0.0983027973481302 
-42.6000000000000 -0.428868528731339 -0.368181929011607 -0.0918193486975636 
-42.0000000000000 -0.423002270170553 -0.359907041749589 -0.0859831494652952 
-41.4000000000000 -0.417654924331570 -0.352400288164755 -0.0807143425752141 
-40.8000000000000 -0.412801633966516 -0.345595855293659 -0.0759447116897058 
-40.2000000000000 -0.408418946020919 -0.339435809092760 -0.0716157787531480 
-39.6000000000000 -0.404485029189762 -0.333869141833114 -0.0676772392484937 
-39.0000000000000 -0.400979783508996 -0.328850937469610 -0.0640856722596331 
-38.4000000000000 -0.397884878371146 -0.324341644580003 -0.0608034742362876 
-37.8000000000000 -0.395183744274573 -0.320306445518337 -0.0577979750929780 
-37.2000000000000 -0.392861535882329 -0.316714710568450 -0.0550407032066425 
-36.6000000000000 -0.390905078560964 -0.313539526598687 -0.0525067722949391 
-36.0000000000000 -0.389302806788857 -0.310757290700756 -0.0501743683264713 
-35.4000000000000 -0.388044700180405 -0.308347360364335 -0.0480243187687821 
-34.8000000000000 -0.387122221028033 -0.306291752794288 -0.0460397298166768 
-34.2000000000000 -0.386528255981872 -0.304574886966345 -0.0442056799241855 
-33.6000000000000 -0.386257063601973 -0.303183362915872 -0.0425089601195367 
-33.0000000000000 -0.386304228913665 -0.302105773555331 -0.0409378533194993 
-32.4000000000000 -0.386666625691521 -0.301332545021101 -0.0394819462617219 
-31.8000000000000 -0.387342386933538 -0.300855802166114 -0.0381319688084173 
-31.2000000000000 -0.388330883823800 -0.300669256350297 -0.0368796562954221 
-30.6000000000000 -0.389632713389996 -0.300768113145453 -0.0357176313496696 
-30.0000000000000 -0.391249695021172 -0.301148997974419 -0.0346393022093200 
-29.4000000000000 -0.393184876006208 -0.301809898054530 -0.0336387750809503 
-28.8000000000000 -0.395442546273986 -0.302750119320266 -0.0327107784788072 
-28.2000000000000 -0.398028262554242 -0.303970257265859 -0.0318505978291753 
-27.6000000000000 -0.400948882227474 -0.305472180881002 -0.0310540189021264 
-27.0000000000000 -0.404212607187919 -0.307259029055618 -0.0303172788641246 
-26.4000000000000 -0.407829038100821 -0.309335219005957 -0.0296370239370542 
-25.8000000000000 -0.411809239488898 -0.311706466425203 -0.0290102728090181 
-25.2000000000000 -0.416165816127149 -0.314379817187321 -0.0284343850755348 
-24.6000000000000 -0.420913001252313 -0.317363690530554 -0.0279070341007748 
-24.0000000000000 -0.426066757092900 -0.320667933712037 -0.0274261837808193 
-23.4000000000000 -0.431644888183597 -0.324303888149068 -0.0269900687671429 
-22.8000000000000 -0.437667167823693 -0.328284467032809 -0.0265971777705285 
-22.2000000000000 -0.444155477844844 -0.332624244297316 -0.0262462396145214 
-21.6000000000000 -0.451133961528782 -0.337339554622849 -0.0259362117437512 
-21.0000000000000 -0.458629189004021 -0.342448603806962 -0.0256662709155148 
-20.4000000000000 -0.466670333671798 -0.347971588292147 -0.0254358058114632 
-19.8000000000000 -0.475289357051719 -0.353930821812486 -0.0252444112973544 
-19.2000000000000 -0.484521197734706 -0.360350865895838 -0.0250918840280773 
-18.6000000000000 -0.494403957654172 -0.367258659164861 -0.0249782190357326 
-18.0000000000000 -0.504979075305667 -0.374683637778695 -0.0249036068402517 
-17.4000000000000 -0.516291470387442 -0.382657835602487 -0.0248684304699298 
-16.8000000000000 -0.528389636918783 -0.391215947287316 -0.0248732615515765 
-16.2000000000000 -0.541325651237126 -0.400395329671512 -0.0249188542951729 
-15.6000000000000 -0.555155045956808 -0.410235905737755 -0.0250061357099363 
-15.0000000000000 -0.569936478926146 -0.420779919270665 -0.0251361896806843 
-14.4000000000000 -0.585731094438073 -0.432071465161464 -0.0253102315076845 
-13.8000000000000 -0.602601428045178 -0.444155686796382 -0.0255295680274021 
-13.2000000000000 -0.620609639897069 -0.457077483467132 -0.0257955362775128 
-12.6000000000000 -0.639814765212504 -0.470879500433210 -0.0261094105436089 
-12.0000000000000 -0.660268530738331 -0.485599072230439 -0.0264722630857476 
-11.4000000000000 -0.682009083235781 -0.501263641751225 -0.0268847572533302 
-10.8000000000000 -0.705051682285978 -0.517883963159895 -0.0273468421502743 
-10.2000000000000 -0.729374986292008 -0.535444087575700 -0.0278573042500347 
-9.60000000000001 -0.754900955972408 -0.553886689055228 -0.0284131117074249 
-9.00000000000000 -0.781465550874004 -0.573091668727003 -0.0290084595227533 
-8.40000000000001 -0.808776237789101 -0.592845130473193 -0.0296333861129363 
-7.80000000000000 -0.836350836214521 -0.612794730976897 -0.0302717832837790 
-7.20000000000000 -0.863430491592767 -0.632386140679740 -0.0308985652133017 
-6.60000000000001 -0.888858025377996 -0.650774226609677 -0.0314757119362715 
-6.00000000000000 -0.910912779047178 -0.666702471723895 -0.0319468985324198 
-5.40000000000001 -0.927097200352381 -0.678347161563332 -0.0322305555277768 
-4.80000000000000 -0.933884683510888 -0.683133282654338 -0.0322116697273301 
-4.20000000000000 -0.926472959661878 -0.677554473181496 -0.0317337655579510 
-3.60000000000001 -0.898656834606838 -0.657080108565172 -0.0305947664916144 
-3.00000000000000 -0.843046242699929 -0.616314500690342 -0.0285540828635538 
-2.40000000000001 -0.751979273554669 -0.549663493385069 -0.0253622935318699 
-1.80000000000000 -0.619483275876865 -0.452766253854905 -0.0208249009096019 
-1.20000000000000 -0.444258627644150 -0.324673707783758 -0.0148993332495997 
-0.600000000000009 -0.232710989755244 -0.170062371993621 -0.00779352316747307 
 0.00000000000000  0.00000000000000  0.00000000000000  0.00000000000000 
 0.599999999999994  0.232710989755194  0.170062371994528  0.00779352316880534 
 1.20000000000000  0.444258627643980  0.324673707787235  0.0148993332546872 
 1.80000000000000  0.619483275876504  0.452766253862173  0.0208249009202410 
 2.39999999999999  0.751979273554068  0.549663493396817  0.0253622935490854 
 3.00000000000000  0.843046242699066  0.616314500706785  0.0285540828876723 
 3.59999999999999  0.898656834605695  0.657080108586172  0.0305947665224553 
 4.20000000000000  0.926472959660450  0.677554473206705  0.0317337655950302 
 4.80000000000000  0.933884683509170  0.683133282683313  0.0322116697700247 
 5.39999999999999  0.927097200350371  0.678347161595608  0.0322305555754324 
 6.00000000000000  0.910912779044870  0.666702471759029  0.0319468985844139 
 6.59999999999999  0.888858025375384  0.650774226647265  0.0314757119920412 
 7.20000000000000  0.863430491589842  0.632386140719430  0.0308985652723555 
 7.80000000000000  0.836350836211273  0.612794731018381  0.0302717833456951 
 8.39999999999999  0.808776237785515  0.592845130516210  0.0296333861773574 
 9.00000000000000  0.781465550870063  0.573091668771327  0.0290084595893775 
 9.59999999999999  0.754900955968097  0.553886689100670  0.0284131117760004 
 10.2000000000000  0.729374986287304  0.535444087622094  0.0278573043203498 
 10.8000000000000  0.705051682280859  0.517883963207101  0.0273468422221513 
 11.4000000000000  0.682009083230225  0.501263641799121  0.0268847573266204 
 12.0000000000000  0.660268530732311  0.485599072278918  0.0264722631603268 
 12.6000000000000  0.639814765205994  0.470879500482179  0.0261094106193719 
 13.2000000000000  0.620609639890038  0.457077483516508  0.0257955363543725 
 13.8000000000000  0.602601428037595  0.444155686846090  0.0255295681052834 
 14.4000000000000  0.585731094429906  0.432071465211439  0.0253102315865253 
 15.0000000000000  0.569936478917359  0.420779919320842  0.0251361897604327 
 15.6000000000000  0.555155045947365  0.410235905788079  0.0250061357905474 
 16.2000000000000  0.541325651226986  0.400395329721926  0.0249188543766094 
 16.8000000000000  0.528389636907905  0.391215947337770  0.0248732616338077 
 17.4000000000000  0.516291470375782  0.382657835652931  0.0248684305529282 
 18.0000000000000  0.504979075293176  0.374683637829078  0.0249036069239955 
 18.6000000000000  0.494403957640802  0.367258659215136  0.0249782191202022 
 19.2000000000000  0.484521197720402  0.360350865945955  0.0250918841132572 
 19.8000000000000  0.475289357036426  0.353930821862396  0.0252444113832301 
 20.4000000000000  0.466670333655457  0.347971588341799  0.0254358058980228 
 21.0000000000000  0.458629188986565  0.342448603856301  0.0256662710027472 
 21.6000000000000  0.451133961510145  0.337339554671822  0.0259362118316464 
 22.2000000000000  0.444155477824952  0.332624244345864  0.0262462397030705 
 22.8000000000000  0.437667167802470  0.328284467080871  0.0265971778597221 
 23.4000000000000  0.431644888160959  0.324303888196579  0.0269900688569719 
 24.0000000000000  0.426066757068758  0.320667933758927  0.0274261838712739 
 24.6000000000000  0.420913001226573  0.317363690576748  0.0279070341918433 
 25.2000000000000  0.416165816099708  0.314379817232738  0.0284343851672051 
 25.8000000000000  0.411809239459648  0.311706466469756  0.0290102729012759 
 26.4000000000000  0.407829038069644  0.309335219049550  0.0296370240298821 
 27.0000000000000  0.404212607154689  0.307259029098149  0.0303172789575029 
 27.6000000000000  0.400948882192055  0.305472180922358  0.0310540189960312 
 28.2000000000000  0.398028262516489  0.303970257305918  0.0318505979235798 
 28.8000000000000  0.395442546233741  0.302750119358891  0.0327107785736769 
 29.4000000000000  0.393184875963300  0.301809898091575  0.0336387751762468 
 30.0000000000000  0.391249694975418  0.301148998009721  0.0346393023049974 
 30.6000000000000  0.389632713341198  0.300768113178832  0.0357176314456723 
 31.2000000000000  0.388330883771742  0.300669256381555  0.0368796563916857 
 31.8000000000000  0.387342386877985  0.300855802195032  0.0381319689048662 
 32.4000000000000  0.386666625632221  0.301332545047437  0.0394819463582655 
 33.0000000000000  0.386304228850343  0.302105773578815  0.0409378534160332 
 33.6000000000000  0.386257063534329  0.303183362936205  0.0425089602159365 
 34.2000000000000  0.386528255909580  0.304574886983193  0.0442056800203050 
 34.8000000000000  0.387122220950737  0.306291752807280  0.0460397299123466 
 35.4000000000000  0.388044700097717  0.308347360373055  0.0480243188638013 
 36.0000000000000  0.389302806700354  0.310757290704737  0.0501743684206041 
 36.6000000000000  0.390905078466185  0.313539526597407  0.0525067723879078 
 37.2000000000000  0.392861535780767  0.316714710561320  0.0550407032981221 
 37.8000000000000  0.395183744165675  0.320306445504696  0.0577979751825847 
 38.4000000000000  0.397884878254308  0.324341644559102  0.0608034743235683 
 39.0000000000000  0.400979783383554  0.328850937440603  0.0640856723440525 
 39.6000000000000  0.404485029054993  0.333869141795041  0.0676772393294201 
 40.2000000000000  0.408418945876032  0.339435809044533  0.0716157788298308 
 40.8000000000000  0.412801633810648  0.345595855234036  0.0759447117612541 
 41.4000000000000  0.417654924163782  0.352400288092323  0.0807143426405677 
 42.0000000000000  0.423002269989826  0.359907041662731  0.0859831495231869 
 42.6000000000000  0.428868528536571  0.368181928908472  0.0918193487464775 
 43.2000000000000  0.435279583434493  0.377299719800009  0.0983027973862480 
 43.8000000000000  0.442261731470684  0.387345346148061  0.105527310374005 
 44.4000000000000  0.449840725823542  0.398415222578425  0.113603485402762 
 45.0000000000000  0.458040320039126  0.410618651867214  0.122662146394844 
 45.6000000000000  0.466880088230191  0.424079246419914  0.132858533577813 
 46.2000000000000  0.476372197531111  0.438936236422526  0.144377381034629 
 46.8000000000000  0.486516665372872  0.455345433813962  0.157439022691494 
 47.4000000000000  0.497294428183442  0.473479455394189  0.172306639140047 
 48.0000000000000  0.508657255293225  0.493526539825898  0.189294670719625 
 48.6000000000000  0.520513132644711  0.515686862893209  0.208778222796501 
 49.2000000000000  0.532705186288675  0.540164574559306  0.231202880966588 
 49.8000000000000  0.544981504252800  0.567152724328283  0.257093570429107 
 50.4000000000000  0.556952397952058  0.596806647474378  0.287059657020626 
 51.0000000000000  0.568030935584771  0.629199095848494  0.321790959197058 
 51.6000000000000  0.577352572767765  0.664247392328114  0.362035098233615 
 52.2000000000000  0.583671777900149  0.701599648008546  0.408539959669727 
 52.8000000000000  0.585240521258772  0.740465423881800  0.461935723663212 
 53.4000000000000  0.579690347049601  0.779380909791407  0.522520705832088 
 54.0000000000000  0.563973291271336  0.815919731163664  0.589911458348128 
 54.6000000000000  0.534471067876903  0.846413911637794  0.662538965342528 
 55.2000000000000  0.487442163666698  0.865848949154217  0.737053163193689 
 55.8000000000000  0.419980110181057  0.868220888891116  0.807869646024383 
 56.4000000000000  0.331476679586098  0.847674764554461  0.867316468928241 
 57.0000000000000  0.225124269610497  0.800458548404109  0.906895065660074 
 57.6000000000000  0.108463411911212  0.727020390122482  0.919698683921781 
 58.2000000000000 -0.00794329726901090  0.632919527982295  0.903026677632351 
 58.8000000000000 -0.113486965176350  0.527565704660388  0.859577539749989 
 59.4000000000000 -0.200541810230561  0.421296625462597  0.796345211741785 
 60.0000000000000 -0.265891079945801  0.322519095084103  0.722001958338037 
 60.6000000000000 -0.310226717194902  0.236297671926236  0.644402089590173 
 61.2000000000000 -0.336618645918388  0.164493829064968  0.569248049908748 
 61.8000000000000 -0.348992387186016  0.106722108795015  0.499920240848983 
 62.4000000000000 -0.351124652383287  0.0613930781615894  0.437947576155238 
 63.0000000000000 -0.346176606166826  0.0264863785181314  0.383634001885315 
 63.6000000000000 -0.336584846465178  2.94000951318951e-06  0.336589004266505 
 64.2000000000000 -0.324129768741451 -0.0198241227418950  0.296094225497714 
 64.8000000000000 -0.310064524918937 -0.0344636440554523  0.261325572086918 
 65.4000000000000 -0.295245922573645 -0.0450939398645371  0.231473461236380 
 66.0000000000000 -0.280244650504536 -0.0526405639790416  0.205799650994407 
 66.6000000000000 -0.265430190251857 -0.0578217104396825  0.183657943148449 
 67.2000000000000 -0.251033077322931 -0.0611909955357608  0.164495941541146 
 67.8000000000000 -0.237189235274793 -0.0631738749344256  0.147847884554866 
 68.4000000000000 -0.223970977774174 -0.0640970606861199  0.133324045243612 
 69.0000000000000 -0.211408437158353 -0.0642115976500342  0.120599524900030 
 69.6000000000000 -0.199504258162513 -0.0637106662669843  0.109403769859917 
 70.2000000000000 -0.188243611123966 -0.0627431911186743  0.0995113392973701 
 70.8000000000000 -0.177600975646041 -0.0614241967482188  0.0907340435468370 
 71.4000000000000 -0.167544705309408 -0.0598426767871057  0.0829143801883733 
 72.0000000000000 -0.158040071775069 -0.0580675767952450  0.0759201171370927 
 72.6000000000000 -0.149051268882266 -0.0561523514802972  0.0696398518596883 
 73.2000000000000 -0.140542706902511 -0.0541384454821103  0.0639793830559146 
 73.8000000000000 -0.132479823657842 -0.0520579606842246  0.0588587496287260 
 74.4000000000000 -0.124829568204455 -0.0499357075039119  0.0542098134057264 
 75.0000000000000 -0.117560664050862 -0.0477907883430034  0.0499742830196842 
 75.6000000000000 -0.110643725402192 -0.0456378245264104  0.0461020949997387 
 76.2000000000000 -0.104051276888435 -0.0434879105483738  0.0425500839916568 
 76.8000000000000 -0.0977577113585082 -0.0413493589204529  0.0392808871777708 
 77.4000000000000 -0.0917392093612759 -0.0392282835790753  0.0362620386951298 
 78.0000000000000 -0.0859736363574484 -0.0371290583262675  0.0334652185142992 
 78.6000000000000 -0.0804404284639937 -0.0350546781522232  0.0308656271964958 
 79.2000000000000 -0.0751204739061789 -0.0330070447889839  0.0284414635117416 
 79.8000000000000 -0.0699959948462778 -0.0309871929286946  0.0261734863466462 
 80.4000000000000 -0.0650504325306851 -0.0289954698075772  0.0240446458814297 
 81.0000000000000 -0.0602683375117224 -0.0270316780116427  0.0220397718539547 
 81.6000000000000 -0.0556352658924477 -0.0250951891828335  0.0201453089997661 
 82.2000000000000 -0.0511376819976125 -0.0231850346313437  0.0183490915778764 
 82.8000000000000 -0.0467628675114239 -0.0212999775694802  0.0166401503544222 
 83.4000000000000 -0.0424988368870500 -0.0194385706835068  0.0150085465932867 
 84.0000000000000 -0.0383342586844486 -0.0175992019837347  0.0134452285521075 
 84.6000000000000 -0.0342583824045535 -0.0157801312682283  0.0119419067489973 
 85.2000000000000 -0.0302609703397512 -0.0139795190625484  0.0104909448860421 
 85.8000000000000 -0.0263322339393111 -0.0121954495274627  0.00908526381833668 
 86.4000000000000 -0.0224627741844919 -0.0104259485357407  0.00771825636464357 
 87.0000000000000 -0.0186435254746904 -0.00866899789083190  0.00638371108529212 
 87.6000000000000 -0.0148657025386442 -0.00692254648115890  0.00507574341883116 
 88.2000000000000 -0.0111207499001132 -0.00518451902386305  0.00378873278218478 
 88.8000000000000 -0.00740029344333575 -0.00345282294335872  0.00251726440836486 
 89.4000000000000 -0.00369609363845990 -0.00172535384718827  0.00125607482787365 
 90.0000000000000  5.55111512312578e-16  1.96261557335472e-16 -2.77555756156289e-16 
