-5.00000000000000e-05  0.487729933453411  6.95203092730657 
-4.96666666666667e-05  0.487729933443202  6.95203092744513 
-4.93333333333333e-05  0.487729933433063  6.95203092758270 
-4.90000000000000e-05  0.487729933422991  6.95203092771942 
-4.86666666666667e-05  0.487729933412988  6.95203092785515 
-4.83333333333333e-05  0.487729933403053  6.95203092798999 
-4.80000000000000e-05  0.487729933393185  6.95203092812391 
-4.76666666666667e-05  0.487729933383388  6.95203092825684 
-4.73333333333333e-05  0.487729933373657  6.95203092838892 
-4.70000000000000e-05  0.487729933363996  6.95203092852001 
-4.66666666666667e-05  0.487729933354402  6.95203092865021 
-4.63333333333333e-05  0.487729933344877  6.95203092877949 
-4.60000000000000e-05  0.487729933335420  6.95203092890782 
-4.56666666666667e-05  0.487729933326031  6.95203092903526 
-4.53333333333333e-05  0.487729933316710  6.95203092916174 
-4.50000000000000e-05  0.487729933307458  6.95203092928731 
-4.46666666666667e-05  0.487729933298275  6.95203092941192 
-4.43333333333333e-05  0.487729933289159  6.95203092953564 
-4.40000000000000e-05  0.487729933280112  6.95203092965841 
-4.36666666666667e-05  0.487729933271132  6.95203092978029 
-4.33333333333333e-05  0.487729933262221  6.95203092990121 
-4.30000000000000e-05  0.487729933253378  6.95203093002125 
-4.26666666666667e-05  0.487729933244604  6.95203093014030 
-4.23333333333333e-05  0.487729933235898  6.95203093025846 
-4.20000000000000e-05  0.487729933227261  6.95203093037567 
-4.16666666666667e-05  0.487729933218692  6.95203093049195 
-4.13333333333333e-05  0.487729933210190  6.95203093060732 
-4.10000000000000e-05  0.487729933201758  6.95203093072176 
-4.06666666666667e-05  0.487729933193393  6.95203093083528 
-4.03333333333333e-05  0.487729933185097  6.95203093094785 
-4.00000000000000e-05  0.487729933176869  6.95203093105953 
-3.96666666666667e-05  0.487729933168709  6.95203093117025 
-3.93333333333333e-05  0.487729933160617  6.95203093128009 
-3.90000000000000e-05  0.487729933152594  6.95203093138898 
-3.86666666666667e-05  0.487729933144639  6.95203093149694 
-3.83333333333333e-05  0.487729933136753  6.95203093160395 
-3.80000000000000e-05  0.487729933128934  6.95203093171006 
-3.76666666666667e-05  0.487729933121184  6.95203093181523 
-3.73333333333333e-05  0.487729933113503  6.95203093191947 
-3.70000000000000e-05  0.487729933105889  6.95203093202280 
-3.66666666666667e-05  0.487729933098345  6.95203093212517 
-3.63333333333333e-05  0.487729933090868  6.95203093222665 
-3.60000000000000e-05  0.487729933083460  6.95203093232717 
-3.56666666666667e-05  0.487729933076119  6.95203093242681 
-3.53333333333333e-05  0.487729933068847  6.95203093252549 
-3.50000000000000e-05  0.487729933061642  6.95203093262329 
-3.46666666666667e-05  0.487729933054507  6.95203093272010 
-3.43333333333333e-05  0.487729933047441  6.95203093281599 
-3.40000000000000e-05  0.487729933040441  6.95203093291099 
-3.36666666666667e-05  0.487729933033511  6.95203093300503 
-3.33333333333333e-05  0.487729933026648  6.95203093309819 
-3.30000000000000e-05  0.487729933019855  6.95203093319036 
-3.26666666666667e-05  0.487729933013128  6.95203093328167 
-3.23333333333333e-05  0.487729933006471  6.95203093337200 
-3.20000000000000e-05  0.487729932999881  6.95203093346144 
-3.16666666666667e-05  0.487729932993361  6.95203093354989 
-3.13333333333333e-05  0.487729932986909  6.95203093363746 
-3.10000000000000e-05  0.487729932980523  6.95203093372417 
-3.06666666666667e-05  0.487729932974207  6.95203093380985 
-3.03333333333333e-05  0.487729932967960  6.95203093389462 
-3.00000000000000e-05  0.487729932961781  6.95203093397847 
-2.96666666666667e-05  0.487729932955669  6.95203093406142 
-2.93333333333333e-05  0.487729932949626  6.95203093414343 
-2.90000000000000e-05  0.487729932943652  6.95203093422451 
-2.86666666666667e-05  0.487729932937745  6.95203093430467 
-2.83333333333333e-05  0.487729932931907  6.95203093438391 
-2.80000000000000e-05  0.487729932926136  6.95203093446223 
-2.76666666666667e-05  0.487729932920435  6.95203093453960 
-2.73333333333333e-05  0.487729932914802  6.95203093461604 
-2.70000000000000e-05  0.487729932909237  6.95203093469156 
-2.66666666666667e-05  0.487729932903740  6.95203093476617 
-2.63333333333333e-05  0.487729932898312  6.95203093483985 
-2.60000000000000e-05  0.487729932892952  6.95203093491257 
-2.56666666666667e-05  0.487729932887660  6.95203093498438 
-2.53333333333333e-05  0.487729932882436  6.95203093505529 
-2.50000000000000e-05  0.487729932877282  6.95203093512522 
-2.46666666666667e-05  0.487729932872194  6.95203093519430 
-2.43333333333333e-05  0.487729932867175  6.95203093526238 
-2.40000000000000e-05  0.487729932862225  6.95203093532955 
-2.36666666666667e-05  0.487729932857343  6.95203093539583 
-2.33333333333333e-05  0.487729932852529  6.95203093546115 
-2.30000000000000e-05  0.487729932847783  6.95203093552555 
-2.26666666666667e-05  0.487729932843106  6.95203093558903 
-2.23333333333333e-05  0.487729932838497  6.95203093565159 
-2.20000000000000e-05  0.487729932833956  6.95203093571320 
-2.16666666666667e-05  0.487729932829484  6.95203093577388 
-2.13333333333333e-05  0.487729932825079  6.95203093583368 
-2.10000000000000e-05  0.487729932820744  6.95203093589249 
-2.06666666666667e-05  0.487729932816475  6.95203093595044 
-2.03333333333333e-05  0.487729932812277  6.95203093600741 
-2.00000000000000e-05  0.487729932808145  6.95203093606349 
-1.96666666666667e-05  0.487729932804083  6.95203093611861 
-1.93333333333333e-05  0.487729932800088  6.95203093617285 
-1.90000000000000e-05  0.487729932796162  6.95203093622609 
-1.86666666666667e-05  0.487729932792304  6.95203093627846 
-1.83333333333333e-05  0.487729932788514  6.95203093632989 
-1.80000000000000e-05  0.487729932784794  6.95203093638038 
-1.76666666666667e-05  0.487729932781140  6.95203093642998 
-1.73333333333333e-05  0.487729932777555  6.95203093647862 
-1.70000000000000e-05  0.487729932774039  6.95203093652634 
-1.66666666666667e-05  0.487729932770590  6.95203093657314 
-1.63333333333333e-05  0.487729932767210  6.95203093661902 
-1.60000000000000e-05  0.487729932763898  6.95203093666398 
-1.56666666666667e-05  0.487729932760656  6.95203093670795 
-1.53333333333333e-05  0.487729932757480  6.95203093675107 
-1.50000000000000e-05  0.487729932754374  6.95203093679320 
-1.46666666666667e-05  0.487729932751335  6.95203093683447 
-1.43333333333333e-05  0.487729932748364  6.95203093687479 
-1.40000000000000e-05  0.487729932745464  6.95203093691412 
-1.36666666666667e-05  0.487729932742629  6.95203093695260 
-1.33333333333333e-05  0.487729932739863  6.95203093699015 
-1.30000000000000e-05  0.487729932737166  6.95203093702675 
-1.26666666666667e-05  0.487729932734537  6.95203093706244 
-1.23333333333333e-05  0.487729932731977  6.95203093709716 
-1.20000000000000e-05  0.487729932729484  6.95203093713100 
-1.16666666666667e-05  0.487729932727061  6.95203093716388 
-1.13333333333333e-05  0.487729932724705  6.95203093719584 
-1.10000000000000e-05  0.487729932722418  6.95203093722688 
-1.06666666666667e-05  0.487729932720198  6.95203093725701 
-1.03333333333333e-05  0.487729932718047  6.95203093728621 
-1.00000000000000e-05  0.487729932715964  6.95203093731449 
-9.66666666666667e-06  0.487729932713951  6.95203093734177 
-9.33333333333333e-06  0.487729932712005  6.95203093736821 
-9.00000000000000e-06  0.487729932710126  6.95203093739372 
-8.66666666666667e-06  0.487729932708316  6.95203093741829 
-8.33333333333333e-06  0.487729932706576  6.95203093744189 
-8.00000000000000e-06  0.487729932704903  6.95203093746457 
-7.66666666666667e-06  0.487729932703299  6.95203093748634 
-7.33333333333333e-06  0.487729932701762  6.95203093750721 
-7.00000000000000e-06  0.487729932700294  6.95203093752713 
-6.66666666666667e-06  0.487729932698894  6.95203093754614 
-6.33333333333334e-06  0.487729932697563  6.95203093756418 
-6.00000000000000e-06  0.487729932696300  6.95203093758134 
-5.66666666666666e-06  0.487729932695104  6.95203093759757 
-5.33333333333333e-06  0.487729932693978  6.95203093761286 
-5.00000000000000e-06  0.487729932692919  6.95203093762722 
-4.66666666666667e-06  0.487729932691929  6.95203093764066 
-4.33333333333333e-06  0.487729932691007  6.95203093765318 
-4.00000000000000e-06  0.487729932690154  6.95203093766474 
-3.66666666666666e-06  0.487729932689369  6.95203093767542 
-3.33333333333333e-06  0.487729932688653  6.95203093768510 
-3.00000000000000e-06  0.487729932688003  6.95203093769394 
-2.66666666666667e-06  0.487729932687423  6.95203093770182 
-2.33333333333333e-06  0.487729932686911  6.95203093770874 
-2.00000000000000e-06  0.487729932686467  6.95203093771478 
-1.66666666666667e-06  0.487729932686091  6.95203093771990 
-1.33333333333333e-06  0.487729932685784  6.95203093772406 
-9.99999999999997e-07  0.487729932685545  6.95203093772730 
-6.66666666666665e-07  0.487729932685374  6.95203093772962 
-3.33333333333332e-07  0.487729932685272  6.95203093773098 
 0.00000000000000  0.487729932685238  6.95203093773146 
 3.33333333333332e-07  0.487729932685272  6.95203093773098 
 6.66666666666665e-07  0.487729932685374  6.95203093772962 
 1.00000000000000e-06  0.487729932685545  6.95203093772730 
 1.33333333333334e-06  0.487729932685784  6.95203093772406 
 1.66666666666667e-06  0.487729932686091  6.95203093771990 
 2.00000000000000e-06  0.487729932686467  6.95203093771478 
 2.33333333333333e-06  0.487729932686911  6.95203093770874 
 2.66666666666667e-06  0.487729932687423  6.95203093770182 
 3.00000000000000e-06  0.487729932688003  6.95203093769394 
 3.33333333333333e-06  0.487729932688653  6.95203093768510 
 3.66666666666667e-06  0.487729932689369  6.95203093767542 
 4.00000000000000e-06  0.487729932690154  6.95203093766474 
 4.33333333333333e-06  0.487729932691007  6.95203093765318 
 4.66666666666667e-06  0.487729932691929  6.95203093764066 
 5.00000000000000e-06  0.487729932692919  6.95203093762722 
 5.33333333333333e-06  0.487729932693978  6.95203093761286 
 5.66666666666666e-06  0.487729932695104  6.95203093759757 
 6.00000000000000e-06  0.487729932696300  6.95203093758134 
 6.33333333333334e-06  0.487729932697563  6.95203093756418 
 6.66666666666667e-06  0.487729932698894  6.95203093754614 
 7.00000000000000e-06  0.487729932700294  6.95203093752713 
 7.33333333333333e-06  0.487729932701762  6.95203093750721 
 7.66666666666667e-06  0.487729932703299  6.95203093748634 
 8.00000000000000e-06  0.487729932704903  6.95203093746457 
 8.33333333333334e-06  0.487729932706576  6.95203093744189 
 8.66666666666667e-06  0.487729932708316  6.95203093741829 
 9.00000000000000e-06  0.487729932710126  6.95203093739372 
 9.33333333333333e-06  0.487729932712005  6.95203093736821 
 9.66666666666667e-06  0.487729932713951  6.95203093734177 
 1.00000000000000e-05  0.487729932715964  6.95203093731449 
 1.03333333333333e-05  0.487729932718047  6.95203093728621 
 1.06666666666667e-05  0.487729932720198  6.95203093725701 
 1.10000000000000e-05  0.487729932722418  6.95203093722688 
 1.13333333333333e-05  0.487729932724705  6.95203093719584 
 1.16666666666667e-05  0.487729932727061  6.95203093716388 
 1.20000000000000e-05  0.487729932729484  6.95203093713100 
 1.23333333333333e-05  0.487729932731977  6.95203093709716 
 1.26666666666667e-05  0.487729932734537  6.95203093706244 
 1.30000000000000e-05  0.487729932737166  6.95203093702675 
 1.33333333333333e-05  0.487729932739863  6.95203093699015 
 1.36666666666667e-05  0.487729932742629  6.95203093695260 
 1.40000000000000e-05  0.487729932745464  6.95203093691412 
 1.43333333333333e-05  0.487729932748364  6.95203093687479 
 1.46666666666667e-05  0.487729932751335  6.95203093683447 
 1.50000000000000e-05  0.487729932754374  6.95203093679320 
 1.53333333333333e-05  0.487729932757480  6.95203093675107 
 1.56666666666667e-05  0.487729932760656  6.95203093670795 
 1.60000000000000e-05  0.487729932763898  6.95203093666398 
 1.63333333333333e-05  0.487729932767210  6.95203093661902 
 1.66666666666667e-05  0.487729932770590  6.95203093657314 
 1.70000000000000e-05  0.487729932774039  6.95203093652634 
 1.73333333333333e-05  0.487729932777555  6.95203093647862 
 1.76666666666667e-05  0.487729932781140  6.95203093642998 
 1.80000000000000e-05  0.487729932784794  6.95203093638038 
 1.83333333333333e-05  0.487729932788514  6.95203093632989 
 1.86666666666667e-05  0.487729932792304  6.95203093627846 
 1.90000000000000e-05  0.487729932796162  6.95203093622609 
 1.93333333333333e-05  0.487729932800088  6.95203093617285 
 1.96666666666667e-05  0.487729932804083  6.95203093611861 
 2.00000000000000e-05  0.487729932808145  6.95203093606349 
 2.03333333333333e-05  0.487729932812277  6.95203093600741 
 2.06666666666667e-05  0.487729932816475  6.95203093595044 
 2.10000000000000e-05  0.487729932820744  6.95203093589249 
 2.13333333333333e-05  0.487729932825079  6.95203093583368 
 2.16666666666667e-05  0.487729932829484  6.95203093577388 
 2.20000000000000e-05  0.487729932833956  6.95203093571320 
 2.23333333333333e-05  0.487729932838497  6.95203093565159 
 2.26666666666667e-05  0.487729932843106  6.95203093558903 
 2.30000000000000e-05  0.487729932847783  6.95203093552555 
 2.33333333333333e-05  0.487729932852529  6.95203093546115 
 2.36666666666667e-05  0.487729932857343  6.95203093539583 
 2.40000000000000e-05  0.487729932862225  6.95203093532955 
 2.43333333333333e-05  0.487729932867175  6.95203093526238 
 2.46666666666667e-05  0.487729932872194  6.95203093519430 
 2.50000000000000e-05  0.487729932877282  6.95203093512522 
 2.53333333333333e-05  0.487729932882436  6.95203093505529 
 2.56666666666667e-05  0.487729932887660  6.95203093498438 
 2.60000000000000e-05  0.487729932892952  6.95203093491257 
 2.63333333333333e-05  0.487729932898312  6.95203093483985 
 2.66666666666667e-05  0.487729932903740  6.95203093476617 
 2.70000000000000e-05  0.487729932909237  6.95203093469156 
 2.73333333333333e-05  0.487729932914802  6.95203093461604 
 2.76666666666667e-05  0.487729932920435  6.95203093453960 
 2.80000000000000e-05  0.487729932926136  6.95203093446223 
 2.83333333333333e-05  0.487729932931907  6.95203093438391 
 2.86666666666667e-05  0.487729932937745  6.95203093430467 
 2.90000000000000e-05  0.487729932943652  6.95203093422451 
 2.93333333333333e-05  0.487729932949626  6.95203093414343 
 2.96666666666667e-05  0.487729932955669  6.95203093406142 
 3.00000000000000e-05  0.487729932961781  6.95203093397847 
 3.03333333333333e-05  0.487729932967960  6.95203093389462 
 3.06666666666667e-05  0.487729932974207  6.95203093380985 
 3.10000000000000e-05  0.487729932980523  6.95203093372417 
 3.13333333333333e-05  0.487729932986909  6.95203093363746 
 3.16666666666667e-05  0.487729932993361  6.95203093354989 
 3.20000000000000e-05  0.487729932999881  6.95203093346144 
 3.23333333333333e-05  0.487729933006471  6.95203093337200 
 3.26666666666667e-05  0.487729933013128  6.95203093328167 
 3.30000000000000e-05  0.487729933019855  6.95203093319036 
 3.33333333333333e-05  0.487729933026648  6.95203093309819 
 3.36666666666667e-05  0.487729933033511  6.95203093300503 
 3.40000000000000e-05  0.487729933040441  6.95203093291099 
 3.43333333333333e-05  0.487729933047441  6.95203093281599 
 3.46666666666667e-05  0.487729933054507  6.95203093272010 
 3.50000000000000e-05  0.487729933061642  6.95203093262329 
 3.53333333333333e-05  0.487729933068847  6.95203093252549 
 3.56666666666667e-05  0.487729933076119  6.95203093242681 
 3.60000000000000e-05  0.487729933083460  6.95203093232717 
 3.63333333333333e-05  0.487729933090868  6.95203093222665 
 3.66666666666667e-05  0.487729933098345  6.95203093212517 
 3.70000000000000e-05  0.487729933105889  6.95203093202280 
 3.73333333333333e-05  0.487729933113503  6.95203093191947 
 3.76666666666667e-05  0.487729933121184  6.95203093181523 
 3.80000000000000e-05  0.487729933128934  6.95203093171006 
 3.83333333333333e-05  0.487729933136753  6.95203093160395 
 3.86666666666667e-05  0.487729933144639  6.95203093149694 
 3.90000000000000e-05  0.487729933152594  6.95203093138898 
 3.93333333333333e-05  0.487729933160617  6.95203093128009 
 3.96666666666667e-05  0.487729933168709  6.95203093117025 
 4.00000000000000e-05  0.487729933176869  6.95203093105953 
 4.03333333333333e-05  0.487729933185097  6.95203093094785 
 4.06666666666667e-05  0.487729933193393  6.95203093083528 
 4.10000000000000e-05  0.487729933201758  6.95203093072176 
 4.13333333333333e-05  0.487729933210190  6.95203093060732 
 4.16666666666667e-05  0.487729933218692  6.95203093049195 
 4.20000000000000e-05  0.487729933227261  6.95203093037567 
 4.23333333333333e-05  0.487729933235898  6.95203093025846 
 4.26666666666667e-05  0.487729933244604  6.95203093014030 
 4.30000000000000e-05  0.487729933253378  6.95203093002125 
 4.33333333333333e-05  0.487729933262221  6.95203092990121 
 4.36666666666667e-05  0.487729933271132  6.95203092978029 
 4.40000000000000e-05  0.487729933280112  6.95203092965841 
 4.43333333333333e-05  0.487729933289159  6.95203092953564 
 4.46666666666667e-05  0.487729933298275  6.95203092941192 
 4.50000000000000e-05  0.487729933307458  6.95203092928731 
 4.53333333333333e-05  0.487729933316710  6.95203092916174 
 4.56666666666667e-05  0.487729933326031  6.95203092903526 
 4.60000000000000e-05  0.487729933335420  6.95203092890782 
 4.63333333333333e-05  0.487729933344877  6.95203092877949 
 4.66666666666667e-05  0.487729933354402  6.95203092865021 
 4.70000000000000e-05  0.487729933363996  6.95203092852001 
 4.73333333333333e-05  0.487729933373657  6.95203092838892 
 4.76666666666667e-05  0.487729933383388  6.95203092825684 
 4.80000000000000e-05  0.487729933393185  6.95203092812391 
 4.83333333333333e-05  0.487729933403053  6.95203092798999 
 4.86666666666667e-05  0.487729933412988  6.95203092785515 
 4.90000000000000e-05  0.487729933422991  6.95203092771942 
 4.93333333333333e-05  0.487729933433063  6.95203092758270 
 4.96666666666667e-05  0.487729933443202  6.95203092744513 
 5.00000000000000e-05  0.487729933453411  6.95203092730657 
