-3.00000000000000  0.0773487469857310 
-2.99400000000000  0.0776048683825423 
-2.98800000000000  0.0778621307765025 
-2.98200000000000  0.0781205397636445 
-2.97600000000000  0.0783801009589466 
-2.97000000000000  0.0786408199961191 
-2.96400000000000  0.0789027025273823 
-2.95800000000000  0.0791657542232357 
-2.95200000000000  0.0794299807722175 
-2.94600000000000  0.0796953878806551 
-2.94000000000000  0.0799619812724054 
-2.93400000000000  0.0802297666885857 
-2.92800000000000  0.0804987498872940 
-2.92200000000000  0.0807689366433186 
-2.91600000000000  0.0810403327478380 
-2.91000000000000  0.0813129440081091 
-2.90400000000000  0.0815867762471436 
-2.89800000000000  0.0818618353033738 
-2.89200000000000  0.0821381270303067 
-2.88600000000000  0.0824156572961647 
-2.88000000000000  0.0826944319835154 
-2.87400000000000  0.0829744569888873 
-2.86800000000000  0.0832557382223742 
-2.86200000000000  0.0835382816072238 
-2.85600000000000  0.0838220930794150 
-2.85000000000000  0.0841071785872199 
-2.84400000000000  0.0843935440907511 
-2.83800000000000  0.0846811955614956 
-2.83200000000000  0.0849701389818323 
-2.82600000000000  0.0852603803445349 
-2.82000000000000  0.0855519256522582 
-2.81400000000000  0.0858447809170091 
-2.80800000000000  0.0861389521595998 
-2.80200000000000  0.0864344454090853 
-2.79600000000000  0.0867312667021820 
-2.79000000000000  0.0870294220826698 
-2.78400000000000  0.0873289176007751 
-2.77800000000000  0.0876297593125348 
-2.77200000000000  0.0879319532791419 
-2.76600000000000  0.0882355055662710 
-2.76000000000000  0.0885404222433827 
-2.75400000000000  0.0888467093830100 
-2.74800000000000  0.0891543730600202 
-2.74200000000000  0.0894634193508570 
-2.73600000000000  0.0897738543327607 
-2.73000000000000  0.0900856840829653 
-2.72400000000000  0.0903989146778706 
-2.71800000000000  0.0907135521921936 
-2.71200000000000  0.0910296026980930 
-2.70600000000000  0.0913470722642697 
-2.70000000000000  0.0916659669550412 
-2.69400000000000  0.0919862928293909 
-2.68800000000000  0.0923080559399884 
-2.68200000000000  0.0926312623321849 
-2.67600000000000  0.0929559180429781 
-2.67000000000000  0.0932820290999496 
-2.66400000000000  0.0936096015201723 
-2.65800000000000  0.0939386413090880 
-2.65200000000000  0.0942691544593527 
-2.64600000000000  0.0946011469496520 
-2.64000000000000  0.0949346247434826 
-2.63400000000000  0.0952695937879007 
-2.62800000000000  0.0956060600122375 
-2.62200000000000  0.0959440293267775 
-2.61600000000000  0.0962835076214042 
-2.61000000000000  0.0966245007642055 
-2.60400000000000  0.0969670146000453 
-2.59800000000000  0.0973110549490938 
-2.59200000000000  0.0976566276053202 
-2.58600000000000  0.0980037383349448 
-2.58000000000000  0.0983523928748489 
-2.57400000000000  0.0987025969309448 
-2.56800000000000  0.0990543561764995 
-2.56200000000000  0.0994076762504171 
-2.55600000000000  0.0997625627554740 
-2.55000000000000  0.100119021256508 
-2.54400000000000  0.100477057278562 
-2.53800000000000  0.100836676304975 
-2.53200000000000  0.101197883775427 
-2.52600000000000  0.101560685083929 
-2.52000000000000  0.101925085576770 
-2.51400000000000  0.102291090550395 
-2.50800000000000  0.102658705249244 
-2.50200000000000  0.103027934863524 
-2.49600000000000  0.103398784526931 
-2.49000000000000  0.103771259314307 
-2.48400000000000  0.104145364239240 
-2.47800000000000  0.104521104251604 
-2.47200000000000  0.104898484235035 
-2.46600000000000  0.105277509004337 
-2.46000000000000  0.105658183302830 
-2.45400000000000  0.106040511799625 
-2.44800000000000  0.106424499086835 
-2.44200000000000  0.106810149676704 
-2.43600000000000  0.107197467998678 
-2.43000000000000  0.107586458396389 
-2.42400000000000  0.107977125124572 
-2.41800000000000  0.108369472345898 
-2.41200000000000  0.108763504127727 
-2.40600000000000  0.109159224438785 
-2.40000000000000  0.109556637145752 
-2.39400000000000  0.109955746009763 
-2.38800000000000  0.110356554682828 
-2.38200000000000  0.110759066704158 
-2.37600000000000  0.111163285496392 
-2.37000000000000  0.111569214361744 
-2.36400000000000  0.111976856478045 
-2.35800000000000  0.112386214894682 
-2.35200000000000  0.112797292528447 
-2.34600000000000  0.113210092159269 
-2.34000000000000  0.113624616425857 
-2.33400000000000  0.114040867821215 
-2.32800000000000  0.114458848688059 
-2.32200000000000  0.114878561214115 
-2.31600000000000  0.115300007427306 
-2.31000000000000  0.115723189190807 
-2.30400000000000  0.116148108197991 
-2.29800000000000  0.116574765967242 
-2.29200000000000  0.117003163836643 
-2.28600000000000  0.117433302958533 
-2.28000000000000  0.117865184293925 
-2.27400000000000  0.118298808606789 
-2.26800000000000  0.118734176458199 
-2.26200000000000  0.119171288200325 
-2.25600000000000  0.119610143970288 
-2.25000000000000  0.120050743683853 
-2.24400000000000  0.120493087028977 
-2.23800000000000  0.120937173459192 
-2.23200000000000  0.121383002186826 
-2.22600000000000  0.121830572176058 
-2.22000000000000  0.122279882135804 
-2.21400000000000  0.122730930512427 
-2.20800000000000  0.123183715482268 
-2.20200000000000  0.123638234943993 
-2.19600000000000  0.124094486510756 
-2.19000000000000  0.124552467502163 
-2.18400000000000  0.125012174936049 
-2.17800000000000  0.125473605520045 
-2.17200000000000  0.125936755642944 
-2.16600000000000  0.126401621365853 
-2.16000000000000  0.126868198413128 
-2.15400000000000  0.127336482163092 
-2.14800000000000  0.127806467638522 
-2.14200000000000  0.128278149496905 
-2.13600000000000  0.128751522020455 
-2.13000000000000  0.129226579105888 
-2.12400000000000  0.129703314253949 
-2.11800000000000  0.130181720558680 
-2.11200000000000  0.130661790696426 
-2.10600000000000  0.131143516914578 
-2.10000000000000  0.131626891020036 
-2.09400000000000  0.132111904367396 
-2.08800000000000  0.132598547846844 
-2.08200000000000  0.133086811871762 
-2.07600000000000  0.133576686366022 
-2.07000000000000  0.134068160750985 
-2.06400000000000  0.134561223932169 
-2.05800000000000  0.135055864285603 
-2.05200000000000  0.135552069643846 
-2.04600000000000  0.136049827281663 
-2.04000000000000  0.136549123901358 
-2.03400000000000  0.137049945617748 
-2.02800000000000  0.137552277942771 
-2.02200000000000  0.138056105769721 
-2.01600000000000  0.138561413357103 
-2.01000000000000  0.139068184312088 
-2.00400000000000  0.139576401573577 
-1.99800000000000  0.140086047394847 
-1.99200000000000  0.140597103325775 
-1.98600000000000  0.141109550194635 
-1.98000000000000  0.141623368089454 
-1.97400000000000  0.142138536338909 
-1.96800000000000  0.142655033492768 
-1.96200000000000  0.143172837301855 
-1.95600000000000  0.143691924697526 
-1.95000000000000  0.144212271770653 
-1.94400000000000  0.144733853750094 
-1.93800000000000  0.145256644980646 
-1.93200000000000  0.145780618900459 
-1.92600000000000  0.146305748017909 
-1.92000000000000  0.146832003887909 
-1.91400000000000  0.147359357087640 
-1.90800000000000  0.147887777191710 
-1.90200000000000  0.148417232746694 
-1.89600000000000  0.148947691245076 
-1.89000000000000  0.149479119098546 
-1.88400000000000  0.150011481610661 
-1.87800000000000  0.150544742948842 
-1.87200000000000  0.151078866115700 
-1.86600000000000  0.151613812919655 
-1.86000000000000  0.152149543944866 
-1.85400000000000  0.152686018520417 
-1.84800000000000  0.153223194688773 
-1.84200000000000  0.153761029173468 
-1.83600000000000  0.154299477346014 
-1.83000000000000  0.154838493192021 
-1.82400000000000  0.155378029276482 
-1.81800000000000  0.155918036708250 
-1.81200000000000  0.156458465103629 
-1.80600000000000  0.156999262549117 
-1.80000000000000  0.157540375563231 
-1.79400000000000  0.158081749057426 
-1.78800000000000  0.158623326296076 
-1.78200000000000  0.159165048855483 
-1.77600000000000  0.159706856581917 
-1.77000000000000  0.160248687548633 
-1.76400000000000  0.160790478011876 
-1.75800000000000  0.161332162365812 
-1.75200000000000  0.161873673096390 
-1.74600000000000  0.162414940734106 
-1.74000000000000  0.162955893805621 
-1.73400000000000  0.163496458784235 
-1.72800000000000  0.164036560039175 
-1.72200000000000  0.164576119783666 
-1.71600000000000  0.165115058021772 
-1.71000000000000  0.165653292493968 
-1.70400000000000  0.166190738621411 
-1.69800000000000  0.166727309448889 
-1.69200000000000  0.167262915586412 
-1.68600000000000  0.167797465149415 
-1.68000000000000  0.168330863697547 
-1.67400000000000  0.168863014172000 
-1.66800000000000  0.169393816831358 
-1.66200000000000  0.169923169185933 
-1.65600000000000  0.170450965930542 
-1.65000000000000  0.170977098875694 
-1.64400000000000  0.171501456877171 
-1.63800000000000  0.172023925763929 
-1.63200000000000  0.172544388264320 
-1.62600000000000  0.173062723930570 
-1.62000000000000  0.173578809061491 
-1.61400000000000  0.174092516623385 
-1.60800000000000  0.174603716169088 
-1.60200000000000  0.175112273755133 
-1.59600000000000  0.175618051856977 
-1.59000000000000  0.176120909282255 
-1.58400000000000  0.176620701082019 
-1.57800000000000  0.177117278459914 
-1.57200000000000  0.177610488679260 
-1.56600000000000  0.178100174967969 
-1.56000000000000  0.178586176421293 
-1.55400000000000  0.179068327902311 
-1.54800000000000  0.179546459940141 
-1.54200000000000  0.180020398625820 
-1.53600000000000  0.180489965505791 
-1.53000000000000  0.180954977472980 
-1.52400000000000  0.181415246655376 
-1.51800000000000  0.181870580302089 
-1.51200000000000  0.182320780666828 
-1.50600000000000  0.182765644888746 
-1.50000000000000  0.183204964870609 
-1.49400000000000  0.183638527154217 
-1.48800000000000  0.184066112793051 
-1.48200000000000  0.184487497222069 
-1.47600000000000  0.184902450124610 
-1.47000000000000  0.185310735296355 
-1.46400000000000  0.185712110506267 
-1.45800000000000  0.186106327354495 
-1.45200000000000  0.186493131127142 
-1.44600000000000  0.186872260647879 
-1.44000000000000  0.187243448126318 
-1.43400000000000  0.187606419003125 
-1.42800000000000  0.187960891791767 
-1.42200000000000  0.188306577916893 
-1.41600000000000  0.188643181549236 
-1.41000000000000  0.188970399437042 
-1.40400000000000  0.189287920733905 
-1.39800000000000  0.189595426823002 
-1.39200000000000  0.189892591137652 
-1.38600000000000  0.190179078978146 
-1.38000000000000  0.190454547324793 
-1.37400000000000  0.190718644647137 
-1.36800000000000  0.190971010709276 
-1.36200000000000  0.191211276371252 
-1.35600000000000  0.191439063386433 
-1.35000000000000  0.191653984194881 
-1.34400000000000  0.191855641712606 
-1.33800000000000  0.192043629116689 
-1.33200000000000  0.192217529626245 
-1.32600000000000  0.192376916279125 
-1.32000000000000  0.192521351704395 
-1.31400000000000  0.192650387890471 
-1.30800000000000  0.192763565948950 
-1.30200000000000  0.192860415874029 
-1.29600000000000  0.192940456297559 
-1.29000000000000  0.193003194239633 
-1.28400000000000  0.193048124854734 
-1.27800000000000  0.193074731173405 
-1.27200000000000  0.193082483839424 
-1.26600000000000  0.193070840842467 
-1.26000000000000  0.193039247246276 
-1.25400000000000  0.192987134912295 
-1.24800000000000  0.192913922218806 
-1.24200000000000  0.192819013775554 
-1.23600000000000  0.192701800133906 
-1.23000000000000  0.192561657492523 
-1.22400000000000  0.192397947398616 
-1.21800000000000  0.192210016444788 
-1.21200000000000  0.191997195961551 
-1.20600000000000  0.191758801705517 
-1.20000000000000  0.191494133543372 
-1.19400000000000  0.191202475131689 
-1.18800000000000  0.190883093592665 
-1.18200000000000  0.190535239185858 
-1.17600000000000  0.190158144976084 
-1.17000000000000  0.189751026497511 
-1.16400000000000  0.189313081414188 
-1.15800000000000  0.188843489177036 
-1.15200000000000  0.188341410677570 
-1.14600000000000  0.187805987898455 
-1.14000000000000  0.187236343561137 
-1.13400000000000  0.186631580770716 
-1.12800000000000  0.185990782658346 
-1.12200000000000  0.185313012021352 
-1.11600000000000  0.184597310961378 
-1.11000000000000  0.183842700520847 
-1.10400000000000  0.183048180318017 
-1.09800000000000  0.182212728181028 
-1.09200000000000  0.181335299781254 
-1.08600000000000  0.180414828266370 
-1.08000000000000  0.179450223893552 
-1.07400000000000  0.178440373663268 
-1.06800000000000  0.177384140954097 
-1.06200000000000  0.176280365159154 
-1.05600000000000  0.175127861324592 
-1.05000000000000  0.173925419790812 
-1.04400000000000  0.172671805836993 
-1.03800000000000  0.171365759329554 
-1.03200000000000  0.170005994375298 
-1.02600000000000  0.168591198979964 
-1.02000000000000  0.167120034712935 
-1.01400000000000  0.165591136378973 
-1.00800000000000  0.164003111697845 
-1.00200000000000  0.162354540992776 
-0.996000000000000  0.160643976888676 
-0.990000000000000  0.158869944021244 
-0.984000000000000  0.157030938757986 
-0.978000000000000  0.155125428932333 
-0.972000000000000  0.153151853592070 
-0.966000000000000  0.151108622763375 
-0.960000000000000  0.148994117231802 
-0.954000000000000  0.146806688341663 
-0.948000000000000  0.144544657815301 
-0.942000000000000  0.142206317593840 
-0.936000000000000  0.139789929701109 
-0.930000000000000  0.137293726132491 
-0.924000000000000  0.134715908770561 
-0.918000000000000  0.132054649329501 
-0.912000000000000  0.129308089330393 
-0.906000000000000  0.126474340109597 
-0.900000000000000  0.123551482862606 
-0.894000000000000  0.120537568725922 
-0.888000000000000  0.117430618899735 
-0.882000000000000  0.114228624814350 
-0.876000000000000  0.110929548343712 
-0.870000000000000  0.107531322069754 
-0.864000000000000  0.104031849601749 
-0.858000000000000  0.100429005955634 
-0.852000000000000  0.0967206379991984 
-0.846000000000000  0.0929045649705438 
-0.840000000000000  0.0889785790791802 
-0.834000000000000  0.0849404462024598 
-0.828000000000000  0.0807879066949552 
-0.822000000000000  0.0765186763363544 
-0.816000000000000  0.0721304474568539 
-0.810000000000000  0.0676208903016103 
-0.804000000000000  0.0629876547363905 
-0.798000000000000  0.0582283724715273 
-0.792000000000000  0.0533406601272470 
-0.786000000000000  0.0483221237637225 
-0.780000000000000  0.0431703661594093 
-0.774000000000000  0.0378829996944011 
-0.768000000000000  0.0324576718397467 
-0.762000000000000  0.0268921226718552 
-0.756000000000000  0.0211843381053970 
-0.750000000000000  0.0153330655928666 
-0.744000000000000  0.00934037103793555 
-0.738000000000000  0.00324384004372286 
-0.732000000000000  0.00324490821660508 
-0.726000000000000  0.00964971604469034 
-0.720000000000000  0.0162608071469163 
-0.714000000000000  0.0230397725619700 
-0.708000000000000  0.0299845007560843 
-0.702000000000000  0.0370962334610644 
-0.696000000000000  0.0443769771890482 
-0.690000000000000  0.0518289816787570 
-0.684000000000000  0.0594545838974701 
-0.678000000000000  0.0672561481883692 
-0.672000000000000  0.0752360383554730 
-0.666000000000000  0.0833966021345595 
-0.660000000000000  0.0917401610078425 
-0.654000000000000  0.100269002491002 
-0.648000000000000  0.108985373603517 
-0.642000000000000  0.117891474897002 
-0.636000000000000  0.126989454718132 
-0.630000000000000  0.136281403529549 
-0.624000000000000  0.145769348187750 
-0.618000000000000  0.155455246117848 
-0.612000000000000  0.165340979348240 
-0.606000000000000  0.175428348382009 
-0.600000000000000  0.185719065890196 
-0.594000000000000  0.196214750217724 
-0.588000000000000  0.206916918696286 
-0.582000000000000  0.217826980761394 
-0.576000000000000  0.228946230872649 
-0.570000000000000  0.240275841238100 
-0.564000000000000  0.251816854344916 
-0.558000000000000  0.263570175299967 
-0.552000000000000  0.275536563985117 
-0.546000000000000  0.287716627033241 
-0.540000000000000  0.300110809632252 
-0.534000000000000  0.312719387165525 
-0.528000000000000  0.325542456698531 
-0.522000000000000  0.338579928322595 
-0.516000000000000  0.351831516368170 
-0.510000000000000  0.365296730501293 
-0.504000000000000  0.378974866718325 
-0.498000000000000  0.392864998255571 
-0.492000000000000  0.406965966431755 
-0.486000000000000  0.421276371443011 
-0.480000000000000  0.435794563131457 
-0.474000000000000  0.450518631750142 
-0.468000000000000  0.465446398748691 
-0.462000000000000  0.480575407605651 
-0.456000000000000  0.495902914735191 
-0.450000000000000  0.511425880497464 
-0.444000000000000  0.527140960343567 
-0.438000000000000  0.543044496127757 
-0.432000000000000  0.559132507621093 
-0.426000000000000  0.575400684262361 
-0.420000000000000  0.591844377183644 
-0.414000000000000  0.608458591549374 
-0.408000000000000  0.625237979249176 
-0.402000000000000  0.642176831986093 
-0.396000000000000  0.659269074803088 
-0.390000000000000  0.676508260091792 
-0.384000000000000  0.693887562128542 
-0.378000000000000  0.711399772183509 
-0.372000000000000  0.729037294249591 
-0.366000000000000  0.746792141438065 
-0.360000000000000  0.764655933088522 
-0.354000000000000  0.782619892640599 
-0.348000000000000  0.800674846315042 
-0.342000000000000  0.818811222651169 
-0.336000000000000  0.837019052947315 
-0.330000000000000  0.855287972649946 
-0.324000000000000  0.873607223735933 
-0.318000000000000  0.891965658131046 
-0.312000000000000  0.910351742206018 
-0.306000000000000  0.928753562389320 
-0.300000000000000  0.947158831933470 
-0.294000000000000  0.965554898868882 
-0.288000000000000  0.983928755176177 
-0.282000000000000  1.00226704720434 
-0.276000000000000  1.02055608735849 
-0.270000000000000  1.03878186707655 
-0.264000000000000  1.05693007111000 
-0.258000000000000  1.07498609311877 
-0.252000000000000  1.09293505258519 
-0.246000000000000  1.11076181304666 
-0.240000000000000  1.12845100164071 
-0.234000000000000  1.14598702995024 
-0.228000000000000  1.16335411613032 
-0.222000000000000  1.18053630829170 
-0.216000000000000  1.19751750910904 
-0.210000000000000  1.21428150161570 
-0.204000000000000  1.23081197613925 
-0.198000000000000  1.24709255832561 
-0.192000000000000  1.26310683819191 
-0.186000000000000  1.27883840014200 
-0.180000000000000  1.29427085387086 
-0.174000000000000  1.30938786607781 
-0.168000000000000  1.32417319290154 
-0.162000000000000  1.33861071298389 
-0.156000000000000  1.35268446106270 
-0.150000000000000  1.36637866198887 
-0.144000000000000  1.37967776505676 
-0.138000000000000  1.39256647853288 
-0.132000000000000  1.40502980426259 
-0.126000000000000  1.41705307223145 
-0.120000000000000  1.42862197495375 
-0.114000000000000  1.43972260155924 
-0.108000000000000  1.45034147144576 
-0.102000000000000  1.46046556736565 
-0.0960000000000001  1.47008236781235 
-0.0899999999999999  1.47917987857430 
-0.0840000000000001  1.48774666332456 
-0.0779999999999998  1.49577187311601 
-0.0720000000000001  1.50324527465512 
-0.0659999999999998  1.51015727723076 
-0.0600000000000001  1.51649895817859 
-0.0539999999999998  1.52226208676728 
-0.0480000000000000  1.52743914639801 
-0.0419999999999998  1.53202335501596 
-0.0360000000000000  1.53600868363966 
-0.0299999999999998  1.53938987292179 
-0.0240000000000000  1.54216244766406 
-0.0179999999999998  1.54432272921793 
-0.0120000000000000  1.54586784571205 
-0.00599999999999978  1.54679574005823 
 0.00000000000000  1.54710517569738 
 0.00600000000000023  1.54679574005823 
 0.0120000000000000  1.54586784571205 
 0.0180000000000002  1.54432272921793 
 0.0240000000000000  1.54216244766406 
 0.0300000000000002  1.53938987292179 
 0.0360000000000000  1.53600868363966 
 0.0420000000000003  1.53202335501596 
 0.0480000000000000  1.52743914639801 
 0.0540000000000003  1.52226208676728 
 0.0600000000000001  1.51649895817859 
 0.0660000000000003  1.51015727723075 
 0.0720000000000001  1.50324527465512 
 0.0779999999999998  1.49577187311601 
 0.0840000000000001  1.48774666332456 
 0.0899999999999999  1.47917987857431 
 0.0960000000000001  1.47008236781235 
 0.102000000000000  1.46046556736565 
 0.108000000000000  1.45034147144576 
 0.114000000000000  1.43972260155924 
 0.120000000000000  1.42862197495375 
 0.126000000000000  1.41705307223145 
 0.132000000000000  1.40502980426259 
 0.138000000000000  1.39256647853288 
 0.144000000000000  1.37967776505676 
 0.150000000000000  1.36637866198887 
 0.156000000000000  1.35268446106270 
 0.162000000000000  1.33861071298389 
 0.168000000000000  1.32417319290154 
 0.174000000000000  1.30938786607781 
 0.180000000000000  1.29427085387086 
 0.186000000000000  1.27883840014200 
 0.192000000000000  1.26310683819191 
 0.198000000000000  1.24709255832561 
 0.204000000000000  1.23081197613925 
 0.210000000000000  1.21428150161570 
 0.216000000000000  1.19751750910904 
 0.222000000000000  1.18053630829170 
 0.228000000000000  1.16335411613032 
 0.234000000000000  1.14598702995024 
 0.240000000000000  1.12845100164071 
 0.246000000000000  1.11076181304666 
 0.252000000000000  1.09293505258519 
 0.258000000000000  1.07498609311877 
 0.264000000000000  1.05693007111000 
 0.270000000000000  1.03878186707655 
 0.276000000000000  1.02055608735848 
 0.282000000000000  1.00226704720434 
 0.288000000000000  0.983928755176177 
 0.294000000000000  0.965554898868882 
 0.300000000000000  0.947158831933469 
 0.306000000000000  0.928753562389320 
 0.312000000000000  0.910351742206017 
 0.318000000000000  0.891965658131047 
 0.324000000000000  0.873607223735932 
 0.330000000000000  0.855287972649947 
 0.336000000000000  0.837019052947316 
 0.342000000000000  0.818811222651170 
 0.348000000000000  0.800674846315043 
 0.354000000000000  0.782619892640599 
 0.360000000000000  0.764655933088522 
 0.366000000000000  0.746792141438066 
 0.372000000000000  0.729037294249591 
 0.378000000000000  0.711399772183509 
 0.384000000000000  0.693887562128542 
 0.390000000000000  0.676508260091793 
 0.396000000000000  0.659269074803089 
 0.402000000000000  0.642176831986094 
 0.408000000000000  0.625237979249177 
 0.414000000000000  0.608458591549375 
 0.420000000000000  0.591844377183645 
 0.426000000000000  0.575400684262361 
 0.432000000000000  0.559132507621094 
 0.438000000000000  0.543044496127758 
 0.444000000000000  0.527140960343568 
 0.450000000000000  0.511425880497464 
 0.456000000000000  0.495902914735192 
 0.462000000000000  0.480575407605651 
 0.468000000000000  0.465446398748692 
 0.474000000000000  0.450518631750142 
 0.480000000000000  0.435794563131458 
 0.486000000000000  0.421276371443011 
 0.492000000000000  0.406965966431757 
 0.498000000000000  0.392864998255571 
 0.504000000000000  0.378974866718326 
 0.510000000000000  0.365296730501293 
 0.516000000000000  0.351831516368172 
 0.522000000000000  0.338579928322595 
 0.528000000000000  0.325542456698532 
 0.534000000000000  0.312719387165525 
 0.540000000000000  0.300110809632253 
 0.546000000000000  0.287716627033241 
 0.552000000000000  0.275536563985118 
 0.558000000000000  0.263570175299968 
 0.564000000000000  0.251816854344918 
 0.570000000000000  0.240275841238101 
 0.576000000000000  0.228946230872651 
 0.582000000000000  0.217826980761394 
 0.588000000000000  0.206916918696287 
 0.594000000000000  0.196214750217726 
 0.600000000000000  0.185719065890197 
 0.606000000000000  0.175428348382010 
 0.612000000000000  0.165340979348241 
 0.618000000000000  0.155455246117849 
 0.624000000000000  0.145769348187752 
 0.630000000000000  0.136281403529551 
 0.636000000000000  0.126989454718134 
 0.642000000000000  0.117891474897003 
 0.648000000000000  0.108985373603519 
 0.654000000000000  0.100269002491004 
 0.660000000000000  0.0917401610078445 
 0.666000000000000  0.0833966021345614 
 0.672000000000000  0.0752360383554743 
 0.678000000000000  0.0672561481883709 
 0.684000000000000  0.0594545838974721 
 0.690000000000000  0.0518289816787590 
 0.696000000000000  0.0443769771890500 
 0.702000000000000  0.0370962334610664 
 0.708000000000000  0.0299845007560858 
 0.714000000000000  0.0230397725619721 
 0.720000000000000  0.0162608071469179 
 0.726000000000000  0.00964971604469220 
 0.732000000000000  0.00324490821660633 
 0.738000000000000  0.00324384004372001 
 0.744000000000000  0.00934037103793335 
 0.750000000000000  0.0153330655928639 
 0.756000000000000  0.0211843381053948 
 0.762000000000000  0.0268921226718527 
 0.768000000000000  0.0324576718397445 
 0.774000000000000  0.0378829996943985 
 0.780000000000000  0.0431703661594071 
 0.786000000000000  0.0483221237637199 
 0.792000000000000  0.0533406601272447 
 0.798000000000000  0.0582283724715244 
 0.804000000000000  0.0629876547363881 
 0.810000000000000  0.0676208903016075 
 0.816000000000000  0.0721304474568513 
 0.822000000000000  0.0765186763363516 
 0.828000000000000  0.0807879066949528 
 0.834000000000000  0.0849404462024569 
 0.840000000000000  0.0889785790791773 
 0.846000000000000  0.0929045649705409 
 0.852000000000000  0.0967206379991956 
 0.858000000000000  0.100429005955631 
 0.864000000000000  0.104031849601746 
 0.870000000000000  0.107531322069751 
 0.876000000000000  0.110929548343709 
 0.882000000000000  0.114228624814347 
 0.888000000000000  0.117430618899732 
 0.894000000000000  0.120537568725919 
 0.900000000000000  0.123551482862603 
 0.906000000000000  0.126474340109594 
 0.912000000000000  0.129308089330390 
 0.918000000000000  0.132054649329497 
 0.924000000000000  0.134715908770557 
 0.930000000000000  0.137293726132488 
 0.936000000000000  0.139789929701105 
 0.942000000000000  0.142206317593836 
 0.948000000000000  0.144544657815298 
 0.954000000000000  0.146806688341659 
 0.960000000000000  0.148994117231798 
 0.966000000000000  0.151108622763372 
 0.972000000000000  0.153151853592067 
 0.978000000000000  0.155125428932329 
 0.984000000000000  0.157030938757983 
 0.990000000000000  0.158869944021241 
 0.996000000000000  0.160643976888673 
 1.00200000000000  0.162354540992772 
 1.00800000000000  0.164003111697841 
 1.01400000000000  0.165591136378969 
 1.02000000000000  0.167120034712931 
 1.02600000000000  0.168591198979960 
 1.03200000000000  0.170005994375294 
 1.03800000000000  0.171365759329550 
 1.04400000000000  0.172671805836990 
 1.05000000000000  0.173925419790809 
 1.05600000000000  0.175127861324588 
 1.06200000000000  0.176280365159150 
 1.06800000000000  0.177384140954093 
 1.07400000000000  0.178440373663264 
 1.08000000000000  0.179450223893548 
 1.08600000000000  0.180414828266366 
 1.09200000000000  0.181335299781250 
 1.09800000000000  0.182212728181024 
 1.10400000000000  0.183048180318012 
 1.11000000000000  0.183842700520843 
 1.11600000000000  0.184597310961374 
 1.12200000000000  0.185313012021348 
 1.12800000000000  0.185990782658342 
 1.13400000000000  0.186631580770712 
 1.14000000000000  0.187236343561132 
 1.14600000000000  0.187805987898451 
 1.15200000000000  0.188341410677565 
 1.15800000000000  0.188843489177032 
 1.16400000000000  0.189313081414183 
 1.17000000000000  0.189751026497507 
 1.17600000000000  0.190158144976079 
 1.18200000000000  0.190535239185854 
 1.18800000000000  0.190883093592661 
 1.19400000000000  0.191202475131684 
 1.20000000000000  0.191494133543367 
 1.20600000000000  0.191758801705513 
 1.21200000000000  0.191997195961547 
 1.21800000000000  0.192210016444784 
 1.22400000000000  0.192397947398611 
 1.23000000000000  0.192561657492519 
 1.23600000000000  0.192701800133901 
 1.24200000000000  0.192819013775550 
 1.24800000000000  0.192913922218801 
 1.25400000000000  0.192987134912291 
 1.26000000000000  0.193039247246271 
 1.26600000000000  0.193070840842462 
 1.27200000000000  0.193082483839419 
 1.27800000000000  0.193074731173400 
 1.28400000000000  0.193048124854729 
 1.29000000000000  0.193003194239628 
 1.29600000000000  0.192940456297555 
 1.30200000000000  0.192860415874024 
 1.30800000000000  0.192763565948945 
 1.31400000000000  0.192650387890467 
 1.32000000000000  0.192521351704390 
 1.32600000000000  0.192376916279120 
 1.33200000000000  0.192217529626240 
 1.33800000000000  0.192043629116684 
 1.34400000000000  0.191855641712600 
 1.35000000000000  0.191653984194876 
 1.35600000000000  0.191439063386428 
 1.36200000000000  0.191211276371247 
 1.36800000000000  0.190971010709271 
 1.37400000000000  0.190718644647132 
 1.38000000000000  0.190454547324788 
 1.38600000000000  0.190179078978140 
 1.39200000000000  0.189892591137647 
 1.39800000000000  0.189595426822996 
 1.40400000000000  0.189287920733899 
 1.41000000000000  0.188970399437037 
 1.41600000000000  0.188643181549231 
 1.42200000000000  0.188306577916888 
 1.42800000000000  0.187960891791761 
 1.43400000000000  0.187606419003119 
 1.44000000000000  0.187243448126313 
 1.44600000000000  0.186872260647874 
 1.45200000000000  0.186493131127137 
 1.45800000000000  0.186106327354489 
 1.46400000000000  0.185712110506261 
 1.47000000000000  0.185310735296349 
 1.47600000000000  0.184902450124605 
 1.48200000000000  0.184487497222063 
 1.48800000000000  0.184066112793045 
 1.49400000000000  0.183638527154212 
 1.50000000000000  0.183204964870603 
 1.50600000000000  0.182765644888741 
 1.51200000000000  0.182320780666822 
 1.51800000000000  0.181870580302084 
 1.52400000000000  0.181415246655370 
 1.53000000000000  0.180954977472974 
 1.53600000000000  0.180489965505785 
 1.54200000000000  0.180020398625814 
 1.54800000000000  0.179546459940135 
 1.55400000000000  0.179068327902305 
 1.56000000000000  0.178586176421287 
 1.56600000000000  0.178100174967963 
 1.57200000000000  0.177610488679254 
 1.57800000000000  0.177117278459908 
 1.58400000000000  0.176620701082013 
 1.59000000000000  0.176120909282249 
 1.59600000000000  0.175618051856971 
 1.60200000000000  0.175112273755127 
 1.60800000000000  0.174603716169082 
 1.61400000000000  0.174092516623379 
 1.62000000000000  0.173578809061484 
 1.62600000000000  0.173062723930563 
 1.63200000000000  0.172544388264314 
 1.63800000000000  0.172023925763923 
 1.64400000000000  0.171501456877165 
 1.65000000000000  0.170977098875687 
 1.65600000000000  0.170450965930535 
 1.66200000000000  0.169923169185927 
 1.66800000000000  0.169393816831351 
 1.67400000000000  0.168863014171993 
 1.68000000000000  0.168330863697541 
 1.68600000000000  0.167797465149409 
 1.69200000000000  0.167262915586405 
 1.69800000000000  0.166727309448882 
 1.70400000000000  0.166190738621404 
 1.71000000000000  0.165653292493962 
 1.71600000000000  0.165115058021765 
 1.72200000000000  0.164576119783659 
 1.72800000000000  0.164036560039168 
 1.73400000000000  0.163496458784229 
 1.74000000000000  0.162955893805614 
 1.74600000000000  0.162414940734099 
 1.75200000000000  0.161873673096383 
 1.75800000000000  0.161332162365805 
 1.76400000000000  0.160790478011869 
 1.77000000000000  0.160248687548626 
 1.77600000000000  0.159706856581910 
 1.78200000000000  0.159165048855476 
 1.78800000000000  0.158623326296069 
 1.79400000000000  0.158081749057419 
 1.80000000000000  0.157540375563224 
 1.80600000000000  0.156999262549110 
 1.81200000000000  0.156458465103622 
 1.81800000000000  0.155918036708243 
 1.82400000000000  0.155378029276475 
 1.83000000000000  0.154838493192014 
 1.83600000000000  0.154299477346007 
 1.84200000000000  0.153761029173461 
 1.84800000000000  0.153223194688766 
 1.85400000000000  0.152686018520410 
 1.86000000000000  0.152149543944858 
 1.86600000000000  0.151613812919648 
 1.87200000000000  0.151078866115693 
 1.87800000000000  0.150544742948835 
 1.88400000000000  0.150011481610653 
 1.89000000000000  0.149479119098538 
 1.89600000000000  0.148947691245069 
 1.90200000000000  0.148417232746687 
 1.90800000000000  0.147887777191702 
 1.91400000000000  0.147359357087633 
 1.92000000000000  0.146832003887901 
 1.92600000000000  0.146305748017902 
 1.93200000000000  0.145780618900451 
 1.93800000000000  0.145256644980638 
 1.94400000000000  0.144733853750086 
 1.95000000000000  0.144212271770646 
 1.95600000000000  0.143691924697518 
 1.96200000000000  0.143172837301848 
 1.96800000000000  0.142655033492761 
 1.97400000000000  0.142138536338901 
 1.98000000000000  0.141623368089446 
 1.98600000000000  0.141109550194627 
 1.99200000000000  0.140597103325767 
 1.99800000000000  0.140086047394839 
 2.00400000000000  0.139576401573569 
 2.01000000000000  0.139068184312080 
 2.01600000000000  0.138561413357095 
 2.02200000000000  0.138056105769713 
 2.02800000000000  0.137552277942763 
 2.03400000000000  0.137049945617740 
 2.04000000000000  0.136549123901350 
 2.04600000000000  0.136049827281655 
 2.05200000000000  0.135552069643838 
 2.05800000000000  0.135055864285595 
 2.06400000000000  0.134561223932161 
 2.07000000000000  0.134068160750977 
 2.07600000000000  0.133576686366014 
 2.08200000000000  0.133086811871754 
 2.08800000000000  0.132598547846836 
 2.09400000000000  0.132111904367387 
 2.10000000000000  0.131626891020027 
 2.10600000000000  0.131143516914569 
 2.11200000000000  0.130661790696418 
 2.11800000000000  0.130181720558672 
 2.12400000000000  0.129703314253941 
 2.13000000000000  0.129226579105880 
 2.13600000000000  0.128751522020446 
 2.14200000000000  0.128278149496897 
 2.14800000000000  0.127806467638514 
 2.15400000000000  0.127336482163084 
 2.16000000000000  0.126868198413120 
 2.16600000000000  0.126401621365844 
 2.17200000000000  0.125936755642936 
 2.17800000000000  0.125473605520037 
 2.18400000000000  0.125012174936040 
 2.19000000000000  0.124552467502154 
 2.19600000000000  0.124094486510747 
 2.20200000000000  0.123638234943985 
 2.20800000000000  0.123183715482260 
 2.21400000000000  0.122730930512418 
 2.22000000000000  0.122279882135795 
 2.22600000000000  0.121830572176049 
 2.23200000000000  0.121383002186817 
 2.23800000000000  0.120937173459184 
 2.24400000000000  0.120493087028969 
 2.25000000000000  0.120050743683844 
 2.25600000000000  0.119610143970279 
 2.26200000000000  0.119171288200317 
 2.26800000000000  0.118734176458190 
 2.27400000000000  0.118298808606781 
 2.28000000000000  0.117865184293916 
 2.28600000000000  0.117433302958524 
 2.29200000000000  0.117003163836634 
 2.29800000000000  0.116574765967233 
 2.30400000000000  0.116148108197982 
 2.31000000000000  0.115723189190798 
 2.31600000000000  0.115300007427297 
 2.32200000000000  0.114878561214106 
 2.32800000000000  0.114458848688050 
 2.33400000000000  0.114040867821206 
 2.34000000000000  0.113624616425848 
 2.34600000000000  0.113210092159260 
 2.35200000000000  0.112797292528437 
 2.35800000000000  0.112386214894673 
 2.36400000000000  0.111976856478036 
 2.37000000000000  0.111569214361735 
 2.37600000000000  0.111163285496382 
 2.38200000000000  0.110759066704148 
 2.38800000000000  0.110356554682819 
 2.39400000000000  0.109955746009754 
 2.40000000000000  0.109556637145742 
 2.40600000000000  0.109159224438776 
 2.41200000000000  0.108763504127718 
 2.41800000000000  0.108369472345889 
 2.42400000000000  0.107977125124563 
 2.43000000000000  0.107586458396380 
 2.43600000000000  0.107197467998668 
 2.44200000000000  0.106810149676694 
 2.44800000000000  0.106424499086825 
 2.45400000000000  0.106040511799616 
 2.46000000000000  0.105658183302820 
 2.46600000000000  0.105277509004327 
 2.47200000000000  0.104898484235025 
 2.47800000000000  0.104521104251595 
 2.48400000000000  0.104145364239230 
 2.49000000000000  0.103771259314297 
 2.49600000000000  0.103398784526921 
 2.50200000000000  0.103027934863515 
 2.50800000000000  0.102658705249234 
 2.51400000000000  0.102291090550386 
 2.52000000000000  0.101925085576760 
 2.52600000000000  0.101560685083920 
 2.53200000000000  0.101197883775417 
 2.53800000000000  0.100836676304965 
 2.54400000000000  0.100477057278553 
 2.55000000000000  0.100119021256499 
 2.55600000000000  0.0997625627554642 
 2.56200000000000  0.0994076762504072 
 2.56800000000000  0.0990543561764895 
 2.57400000000000  0.0987025969309349 
 2.58000000000000  0.0983523928748390 
 2.58600000000000  0.0980037383349347 
 2.59200000000000  0.0976566276053102 
 2.59800000000000  0.0973110549490838 
 2.60400000000000  0.0969670146000352 
 2.61000000000000  0.0966245007641954 
 2.61600000000000  0.0962835076213941 
 2.62200000000000  0.0959440293267675 
 2.62800000000000  0.0956060600122273 
 2.63400000000000  0.0952695937878906 
 2.64000000000000  0.0949346247434725 
 2.64600000000000  0.0946011469496418 
 2.65200000000000  0.0942691544593425 
 2.65800000000000  0.0939386413090778 
 2.66400000000000  0.0936096015201621 
 2.67000000000000  0.0932820290999394 
 2.67600000000000  0.0929559180429679 
 2.68200000000000  0.0926312623321746 
 2.68800000000000  0.0923080559399782 
 2.69400000000000  0.0919862928293805 
 2.70000000000000  0.0916659669550309 
 2.70600000000000  0.0913470722642593 
 2.71200000000000  0.0910296026980827 
 2.71800000000000  0.0907135521921832 
 2.72400000000000  0.0903989146778602 
 2.73000000000000  0.0900856840829549 
 2.73600000000000  0.0897738543327503 
 2.74200000000000  0.0894634193508465 
 2.74800000000000  0.0891543730600097 
 2.75400000000000  0.0888467093829995 
 2.76000000000000  0.0885404222433722 
 2.76600000000000  0.0882355055662604 
 2.77200000000000  0.0879319532791313 
 2.77800000000000  0.0876297593125241 
 2.78400000000000  0.0873289176007645 
 2.79000000000000  0.0870294220826592 
 2.79600000000000  0.0867312667021714 
 2.80200000000000  0.0864344454090746 
 2.80800000000000  0.0861389521595891 
 2.81400000000000  0.0858447809169984 
 2.82000000000000  0.0855519256522474 
 2.82600000000000  0.0852603803445240 
 2.83200000000000  0.0849701389818216 
 2.83800000000000  0.0846811955614848 
 2.84400000000000  0.0843935440907402 
 2.85000000000000  0.0841071785872090 
 2.85600000000000  0.0838220930794042 
 2.86200000000000  0.0835382816072130 
 2.86800000000000  0.0832557382223633 
 2.87400000000000  0.0829744569888764 
 2.88000000000000  0.0826944319835044 
 2.88600000000000  0.0824156572961537 
 2.89200000000000  0.0821381270302957 
 2.89800000000000  0.0818618353033629 
 2.90400000000000  0.0815867762471326 
 2.91000000000000  0.0813129440080980 
 2.91600000000000  0.0810403327478270 
 2.92200000000000  0.0807689366433075 
 2.92800000000000  0.0804987498872829 
 2.93400000000000  0.0802297666885747 
 2.94000000000000  0.0799619812723943 
 2.94600000000000  0.0796953878806440 
 2.95200000000000  0.0794299807722063 
 2.95800000000000  0.0791657542232244 
 2.96400000000000  0.0789027025273710 
 2.97000000000000  0.0786408199961079 
 2.97600000000000  0.0783801009589354 
 2.98200000000000  0.0781205397636333 
 2.98800000000000  0.0778621307764912 
 2.99400000000000  0.0776048683825310 
 3.00000000000000  0.0773487469857198 
