-3.00000000000000  4.43175593349481 
-2.99400000000000  4.44643060283430 
-2.98800000000000  4.46117064646199 
-2.98200000000000  4.47597638499685 
-2.97600000000000  4.49084814013292 
-2.97000000000000  4.50578623468377 
-2.96400000000000  4.52079099246486 
-2.95800000000000  4.53586273840800 
-2.95200000000000  4.55100179841511 
-2.94600000000000  4.56620849946628 
-2.94000000000000  4.58148316948624 
-2.93400000000000  4.59682613739206 
-2.92800000000000  4.61223773315038 
-2.92200000000000  4.62771828760886 
-2.91600000000000  4.64326813257568 
-2.91000000000000  4.65888760077822 
-2.90400000000000  4.67457702586620 
-2.89800000000000  4.69033674233537 
-2.89200000000000  4.70616708556888 
-2.88600000000000  4.72206839181176 
-2.88000000000000  4.73804099809788 
-2.87400000000000  4.75408524227527 
-2.86800000000000  4.77020146294262 
-2.86200000000000  4.78638999950964 
-2.85600000000000  4.80265119206668 
-2.85000000000000  4.81898538141335 
-2.84400000000000  4.83539290907762 
-2.83800000000000  4.85187411714722 
-2.83200000000000  4.86842934842552 
-2.82600000000000  4.88505894626293 
-2.82000000000000  4.90176325457602 
-2.81400000000000  4.91854261782841 
-2.80800000000000  4.93539738101484 
-2.80200000000000  4.95232788950859 
-2.79600000000000  4.96933448925858 
-2.79000000000000  4.98641752650953 
-2.78400000000000  5.00357734793873 
-2.77800000000000  5.02081430048744 
-2.77200000000000  5.03812873149131 
-2.76600000000000  5.05552098841959 
-2.76000000000000  5.07299141909137 
-2.75400000000000  5.09054037138300 
-2.74800000000000  5.10816819340619 
-2.74200000000000  5.12587523330446 
-2.73600000000000  5.14366183923722 
-2.73000000000000  5.16152835945931 
-2.72400000000000  5.17947514207290 
-2.71800000000000  5.19750253515789 
-2.71200000000000  5.21561088662562 
-2.70600000000000  5.23380054417751 
-2.70000000000000  5.25207185526370 
-2.69400000000000  5.27042516707673 
-2.68800000000000  5.28886082635749 
-2.68200000000000  5.30737917950337 
-2.67600000000000  5.32598057240288 
-2.67000000000000  5.34466535042290 
-2.66400000000000  5.36343385828468 
-2.65800000000000  5.38228644012422 
-2.65200000000000  5.40122343926014 
-2.64600000000000  5.42024519822547 
-2.64000000000000  5.43935205874535 
-2.63400000000000  5.45854436153035 
-2.62800000000000  5.47782244632732 
-2.62200000000000  5.49718665175400 
-2.61600000000000  5.51663731528317 
-2.61000000000000  5.53617477311534 
-2.60400000000000  5.55579936015338 
-2.59800000000000  5.57551140984983 
-2.59200000000000  5.59531125420053 
-2.58600000000000  5.61519922355379 
-2.58000000000000  5.63517564664856 
-2.57400000000000  5.65524085035362 
-2.56800000000000  5.67539515976302 
-2.56200000000000  5.69563889793522 
-2.55600000000000  5.71597238591225 
-2.55000000000000  5.73639594252562 
-2.54400000000000  5.75690988431050 
-2.53800000000000  5.77751452548342 
-2.53200000000000  5.79821017767832 
-2.52600000000000  5.81899714996559 
-2.52000000000000  5.83987574863266 
-2.51400000000000  5.86084627719031 
-2.50800000000000  5.88190903607691 
-2.50200000000000  5.90306432270614 
-2.49600000000000  5.92431243119026 
-2.49000000000000  5.94565365230828 
-2.48400000000000  5.96708827330247 
-2.47800000000000  5.98861657779878 
-2.47200000000000  6.01023884560016 
-2.46600000000000  6.03195535255612 
-2.46000000000000  6.05376637047049 
-2.45400000000000  6.07567216680884 
-2.44800000000000  6.09767300474934 
-2.44200000000000  6.11976914275661 
-2.43600000000000  6.14196083467705 
-2.43000000000000  6.16424832930957 
-2.42400000000000  6.18663187051047 
-2.41800000000000  6.20911169672594 
-2.41200000000000  6.23168804103974 
-2.40600000000000  6.25436113078839 
-2.40000000000000  6.27713118754204 
-2.39400000000000  6.29999842680554 
-2.38800000000000  6.32296305780849 
-2.38200000000000  6.34602528335579 
-2.37600000000000  6.36918529951273 
-2.37000000000000  6.39244329551277 
-2.36400000000000  6.41579945338541 
-2.35800000000000  6.43925394790532 
-2.35200000000000  6.46280694615340 
-2.34600000000000  6.48645860742136 
-2.34000000000000  6.51020908285871 
-2.33400000000000  6.53405851533277 
-2.32800000000000  6.55800703909159 
-2.32200000000000  6.58205477944266 
-2.31600000000000  6.60620185257800 
-2.31000000000000  6.63044836529745 
-2.30400000000000  6.65479441452207 
-2.29800000000000  6.67924008737677 
-2.29200000000000  6.70378546043025 
-2.28600000000000  6.72843059971398 
-2.28000000000000  6.75317556032791 
-2.27400000000000  6.77802038599829 
-2.26800000000000  6.80296510892189 
-2.26200000000000  6.82800974923479 
-2.25600000000000  6.85315431478343 
-2.25000000000000  6.87839880078424 
-2.24400000000000  6.90374318931162 
-2.23800000000000  6.92918744906574 
-2.23200000000000  6.95473153493996 
-2.22600000000000  6.98037538754062 
-2.22000000000000  7.00611893291663 
-2.21400000000000  7.03196208206016 
-2.20800000000000  7.05790473046774 
-2.20200000000000  7.08394675773629 
-2.19600000000000  7.11008802707650 
-2.19000000000000  7.13632838499482 
-2.18400000000000  7.16266766053961 
-2.17800000000000  7.18910566511987 
-2.17200000000000  7.21564219179918 
-2.16600000000000  7.24227701491083 
-2.16000000000000  7.26900988944077 
-2.15400000000000  7.29584055064602 
-2.14800000000000  7.32276871328168 
-2.14200000000000  7.34979407129572 
-2.13600000000000  7.37691629705601 
-2.13000000000000  7.40413504085739 
-2.12400000000000  7.43144993034278 
-2.11800000000000  7.45886056978438 
-2.11200000000000  7.48636653961296 
-2.10600000000000  7.51396739563861 
-2.10000000000000  7.54166266836695 
-2.09400000000000  7.56945186250608 
-2.08800000000000  7.59733445606974 
-2.08200000000000  7.62530989976977 
-2.07600000000000  7.65337761631959 
-2.07000000000000  7.68153699961045 
-2.06400000000000  7.70978741391624 
-2.05800000000000  7.73812819333379 
-2.05200000000000  7.76655864056145 
-2.04600000000000  7.79507802662883 
-2.04000000000000  7.82368558956407 
-2.03400000000000  7.85238053380867 
-2.02800000000000  7.88116202925376 
-2.02200000000000  7.91002921039090 
-2.01600000000000  7.93898117524658 
-2.01000000000000  7.96801698458076 
-2.00400000000000  7.99713566083721 
-1.99800000000000  8.02633618723078 
-1.99200000000000  8.05561750668186 
-1.98600000000000  8.08497852067138 
-1.98000000000000  8.11441808833438 
-1.97400000000000  8.14393502526410 
-1.96800000000000  8.17352810252285 
-1.96200000000000  8.20319604523933 
-1.95600000000000  8.23293753174361 
-1.95000000000000  8.26275119208490 
-1.94400000000000  8.29263560695976 
-1.93800000000000  8.32258930650664 
-1.93200000000000  8.35261076880788 
-1.92600000000000  8.38269841864605 
-1.92000000000000  8.41285062626677 
-1.91400000000000  8.44306570589655 
-1.90800000000000  8.47334191427654 
-1.90200000000000  8.50367744923448 
-1.89600000000000  8.53407044820259 
-1.89000000000000  8.56451898676396 
-1.88400000000000  8.59502107684613 
-1.87800000000000  8.62557466550598 
-1.87200000000000  8.65617763287203 
-1.86600000000000  8.68682779074492 
-1.86000000000000  8.71752288075906 
-1.85400000000000  8.74826057263974 
-1.84800000000000  8.77903846233925 
-1.84200000000000  8.80985407036394 
-1.83600000000000  8.84070483965600 
-1.83000000000000  8.87158813379003 
-1.82400000000000  8.90250123491210 
-1.81800000000000  8.93344134175184 
-1.81200000000000  8.96440556751697 
-1.80600000000000  8.99539093785135 
-1.80000000000000  9.02639438840503 
-1.79400000000000  9.05741276282418 
-1.78800000000000  9.08844281046423 
-1.78200000000000  9.11948118384863 
-1.77600000000000  9.15052443641701 
-1.77000000000000  9.18156901991077 
-1.76400000000000  9.21261128226752 
-1.75800000000000  9.24364746440559 
-1.75200000000000  9.27467369808032 
-1.74600000000000  9.30568600292293 
-1.74000000000000  9.33668028395972 
-1.73400000000000  9.36765232823434 
-1.72800000000000  9.39859780249547 
-1.72200000000000  9.42951224985410 
-1.71600000000000  9.46039108688921 
-1.71000000000000  9.49122960043541 
-1.70400000000000  9.52202294452327 
-1.69800000000000  9.55276613688701 
-1.69200000000000  9.58345405596533 
-1.68600000000000  9.61408143705284 
-1.68000000000000  9.64464286909094 
-1.67400000000000  9.67513279106425 
-1.66800000000000  9.70554548821255 
-1.66200000000000  9.73587508820139 
-1.65600000000000  9.76611555758216 
-1.65000000000000  9.79626069746650 
-1.64400000000000  9.82630413980191 
-1.63800000000000  9.85623934296663 
-1.63200000000000  9.88605958779400 
-1.62600000000000  9.91575797319916 
-1.62000000000000  9.94532741152275 
-1.61400000000000  9.97476062432299 
-1.60800000000000  10.0040501373950 
-1.60200000000000  10.0331882764324 
-1.59600000000000  10.0621671618464 
-1.59000000000000  10.0909787037944 
-1.58400000000000  10.1196145973869 
-1.57800000000000  10.1480663171693 
-1.57200000000000  10.1763251118646 
-1.56600000000000  10.2043819992300 
-1.56000000000000  10.2322277598808 
-1.55400000000000  10.2598529322839 
-1.54800000000000  10.2872478064570 
-1.54200000000000  10.3144024181072 
-1.53600000000000  10.3413065424668 
-1.53000000000000  10.3679496883108 
-1.52400000000000  10.3943210913922 
-1.51800000000000  10.4204097077693 
-1.51200000000000  10.4462042074760 
-1.50600000000000  10.4716929673566 
-1.50000000000000  10.4968640642750 
-1.49400000000000  10.5217052679711 
-1.48800000000000  10.5462040336565 
-1.48200000000000  10.5703474946772 
-1.47600000000000  10.5941224548928 
-1.47000000000000  10.6175153805819 
-1.46400000000000  10.6405123930633 
-1.45800000000000  10.6630992598829 
-1.45200000000000  10.6852613870622 
-1.44600000000000  10.7069838102252 
-1.44000000000000  10.7282511860484 
-1.43400000000000  10.7490477833716 
-1.42800000000000  10.7693574741363 
-1.42200000000000  10.7891637242482 
-1.41600000000000  10.8084495837362 
-1.41000000000000  10.8271976775099 
-1.40400000000000  10.8453901953600 
-1.39800000000000  10.8630088818919 
-1.39200000000000  10.8800350259787 
-1.38600000000000  10.8964494507489 
-1.38000000000000  10.9122325025216 
-1.37400000000000  10.9273640400430 
-1.36800000000000  10.9418234231702 
-1.36200000000000  10.9555895017205 
-1.35600000000000  10.9686406035945 
-1.35000000000000  10.9809545231295 
-1.34400000000000  10.9925085091054 
-1.33800000000000  11.0032792521117 
-1.33200000000000  11.0132428721558 
-1.32600000000000  11.0223749061126 
-1.32000000000000  11.0306502942550 
-1.31400000000000  11.0380433673918 
-1.30800000000000  11.0445278329109 
-1.30200000000000  11.0500767613837 
-1.29600000000000  11.0546625723215 
-1.29000000000000  11.0582570197781 
-1.28400000000000  11.0608311780780 
-1.27800000000000  11.0623554270813 
-1.27200000000000  11.0627994364587 
-1.26600000000000  11.0621321512871 
-1.26000000000000  11.0603217756598 
-1.25400000000000  11.0573357577385 
-1.24800000000000  11.0531407725966 
-1.24200000000000  11.0477027065747 
-1.23600000000000  11.0409866407478 
-1.23000000000000  11.0329568337218 
-1.22400000000000  11.0235767043120 
-1.21800000000000  11.0128088149789 
-1.21200000000000  11.0006148533078 
-1.20600000000000  10.9869556147705 
-1.20000000000000  10.9717909843473 
-1.19400000000000  10.9550799181507 
-1.18800000000000  10.9367804250409 
-1.18200000000000  10.9168495476768 
-1.17600000000000  10.8952433432923 
-1.17000000000000  10.8719168648420 
-1.16400000000000  10.8468241416572 
-1.15800000000000  10.8199181589250 
-1.15200000000000  10.7911508387382 
-1.14600000000000  10.7604730196448 
-1.14000000000000  10.7278344371256 
-1.13400000000000  10.6931837015973 
-1.12800000000000  10.6564682799591 
-1.12200000000000  10.6176344735958 
-1.11600000000000  10.5766273981117 
-1.11000000000000  10.5333909625484 
-1.10400000000000  10.4878678482598 
-1.09800000000000  10.4399994881304 
-1.09200000000000  10.3897260453163 
-1.08600000000000  10.3369863928834 
-1.08000000000000  10.2817180915625 
-1.07400000000000  10.2238573700109 
-1.06800000000000  10.1633391029365 
-1.06200000000000  10.1000967913911 
-1.05600000000000  10.0340625405001 
-1.05000000000000  9.96516704009294 
-1.04400000000000  9.89333954402323 
-1.03800000000000  9.81850784981940 
-1.03200000000000  9.74059827883178 
-1.02600000000000  9.65953565704746 
-1.02000000000000  9.57524329524367 
-1.01400000000000  9.48764297061685 
-1.00800000000000  9.39665490825276 
-1.00200000000000  9.30219776299094 
-0.996000000000000  9.20418860272046 
-0.990000000000000  9.10254289116040 
-0.984000000000000  8.99717447172167 
-0.978000000000000  8.88799555288925 
-0.972000000000000  8.77491669317809 
-0.966000000000000  8.65784678750768 
-0.960000000000000  8.53669305493144 
-0.954000000000000  8.41136102710402 
-0.948000000000000  8.28175453720664 
-0.942000000000000  8.14777571155037 
-0.936000000000000  8.00932496073426 
-0.930000000000000  7.86630097385668 
-0.924000000000000  7.71860071326742 
-0.918000000000000  7.56611941055382 
-0.912000000000000  7.40875056582199 
-0.906000000000000  7.24638594727695 
-0.900000000000000  7.07891559313098 
-0.894000000000000  6.90622781627902 
-0.888000000000000  6.72820920980741 
-0.882000000000000  6.54474465673272 
-0.876000000000000  6.35571734112100 
-0.870000000000000  6.16100876067005 
-0.864000000000000  5.96049874469861 
-0.858000000000000  5.75406547339510 
-0.852000000000000  5.54158550026598 
-0.846000000000000  5.32293377824173 
-0.840000000000000  5.09798368868986 
-0.834000000000000  4.86660707579674 
-0.828000000000000  4.62867428166816 
-0.822000000000000  4.38405418889791 
-0.816000000000000  4.13261426494285 
-0.810000000000000  3.87422061116710 
-0.804000000000000  3.60873801863528 
-0.798000000000000  3.33603002576328 
-0.792000000000000  3.05595898349418 
-0.786000000000000  2.76838612429721 
-0.780000000000000  2.47317163670719 
-0.774000000000000  2.17017474829255 
-0.768000000000000  1.85925380972369 
-0.762000000000000  1.54026639021507 
-0.756000000000000  1.21306937637053 
-0.750000000000000  0.877519078235674 
-0.744000000000000  0.533471344045920 
-0.738000000000000  0.180781680521452 
-0.732000000000000 -0.180694618873740 
-0.726000000000000 -0.551102337180726 
-0.720000000000000 -0.930586188651542 
-0.714000000000000 -1.31929066783823 
-0.708000000000000 -1.71735988612504 
-0.702000000000000 -2.12493740135249 
-0.696000000000000 -2.54216603990986 
-0.690000000000000 -2.96918770492866 
-0.684000000000000 -3.40614317913274 
-0.678000000000000 -3.85317191501714 
-0.672000000000000 -4.31041181664294 
-0.666000000000000 -4.77799900833459 
-0.660000000000000 -5.25606759644364 
-0.654000000000000 -5.74474941676821 
-0.648000000000000 -6.24417377234163 
-0.642000000000000 -6.75446715966946 
-0.636000000000000 -7.27575298493489 
-0.630000000000000 -7.80815126514749 
-0.624000000000000 -8.35177832151866 
-0.618000000000000 -8.90674645800294 
-0.612000000000000 -9.47316362933084 
-0.606000000000000 -10.0511330966247 
-0.600000000000000 -10.6407530713483 
-0.594000000000000 -11.2421163461719 
-0.588000000000000 -11.8553099161740 
-0.582000000000000 -12.4804145843260 
-0.576000000000000 -13.1175045600421 
-0.570000000000000 -13.7666470415156 
-0.564000000000000 -14.4279017906118 
-0.558000000000000 -15.1013206927563 
-0.552000000000000 -15.7869473104607 
-0.546000000000000 -16.4848164220981 
-0.540000000000000 -17.1949535539799 
-0.534000000000000 -17.9173745008168 
-0.528000000000000 -18.6520848394253 
-0.522000000000000 -19.3990794319183 
-0.516000000000000 -20.1583419228022 
-0.510000000000000 -20.9298442294967 
-0.504000000000000 -21.7135460254690 
-0.498000000000000 -22.5093942207605 
-0.492000000000000 -23.3173224366862 
-0.486000000000000 -24.1372504778114 
-0.480000000000000 -24.9690838053544 
-0.474000000000000 -25.8127130046591 
-0.468000000000000 -26.6680132609765 
-0.462000000000000 -27.5348438324273 
-0.456000000000000 -28.4130475284741 
-0.450000000000000 -29.3024501953390 
-0.444000000000000 -30.2028602099838 
-0.438000000000000 -31.1140679806552 
-0.432000000000000 -32.0358454609812 
-0.426000000000000 -32.9679456787505 
-0.420000000000000 -33.9101022762548 
-0.414000000000000 -34.8620290747377 
-0.408000000000000 -35.8234196534703 
-0.402000000000000 -36.7939469535850 
-0.396000000000000 -37.7732629089776 
-0.390000000000000 -38.7609981006679 
-0.384000000000000 -39.7567614467266 
-0.378000000000000 -40.7601399191589 
-0.372000000000000 -41.7706983002859 
-0.366000000000000 -42.7879789768014 
-0.360000000000000 -43.8115017738927 
-0.354000000000000 -44.8407638325922 
-0.348000000000000 -45.8752395344714 
-0.342000000000000 -46.9143804764891 
-0.336000000000000 -47.9576154940026 
-0.330000000000000 -49.0043507420407 
-0.324000000000000 -50.0539698311639 
-0.318000000000000 -51.1058340226839 
-0.312000000000000 -52.1592824879773 
-0.306000000000000 -53.2136326285608 
-0.300000000000000 -54.2681804638677 
-0.294000000000000 -55.3222010882296 
-0.288000000000000 -56.3749491948414 
-0.282000000000000 -57.4256596733271 
-0.276000000000000 -58.4735482801557 
-0.270000000000000 -59.5178123805253 
-0.264000000000000 -60.5576317677244 
-0.258000000000000 -61.5921695570143 
-0.252000000000000 -62.6205731536469 
-0.246000000000000 -63.6419752979056 
-0.240000000000000 -64.6554951853159 
-0.234000000000000 -65.6602396601647 
-0.228000000000000 -66.6553044850311 
-0.222000000000000 -67.6397756782318 
-0.216000000000000 -68.6127309255203 
-0.210000000000000 -69.5732410573206 
-0.204000000000000 -70.5203715925399 
-0.198000000000000 -71.4531843428183 
-0.192000000000000 -72.3707390793934 
-0.186000000000000 -73.2720952510395 
-0.180000000000000 -74.1563137556454 
-0.174000000000000 -75.0224587568521 
-0.168000000000000 -75.8695995427485 
-0.162000000000000 -76.6968124204622 
-0.156000000000000 -77.5031826402125 
-0.150000000000000 -78.2878063452764 
-0.144000000000000 -79.0497925382081 
-0.138000000000000 -79.7882650597919 
-0.132000000000000 -80.5023645713301 
-0.126000000000000 -81.1912505358038 
-0.120000000000000 -81.8541031869623 
-0.114000000000000 -82.4901254834971 
-0.108000000000000 -83.0985450364187 
-0.102000000000000 -83.6786160055747 
-0.0960000000000001 -84.2296209545161 
-0.0899999999999999 -84.7508726589007 
-0.0840000000000001 -85.2417158590287 
-0.0779999999999998 -85.7015289498681 
-0.0720000000000001 -86.1297256011471 
-0.0659999999999998 -86.5257562998841 
-0.0600000000000001 -86.8891098099964 
-0.0539999999999998 -87.2193145405241 
-0.0480000000000000 -87.5159398175481 
-0.0419999999999998 -87.7785970540775 
-0.0360000000000000 -88.0069408111697 
-0.0299999999999998 -88.2006697473615 
-0.0240000000000000 -88.3595274499094 
-0.0179999999999998 -88.4833031456536 
-0.0120000000000000 -88.5718322866628 
-0.00599999999999978 -88.6249970092718 
 0.00000000000000 -88.6427264630841 
 0.00600000000000023 -88.6249970092717 
 0.0120000000000000 -88.5718322866622 
 0.0180000000000002 -88.4833031456535 
 0.0240000000000000 -88.3595274499089 
 0.0300000000000002 -88.2006697473615 
 0.0360000000000000 -88.0069408111701 
 0.0420000000000003 -87.7785970540783 
 0.0480000000000000 -87.5159398175473 
 0.0540000000000003 -87.2193145405217 
 0.0600000000000001 -86.8891098099972 
 0.0660000000000003 -86.5257562998857 
 0.0720000000000001 -86.1297256011479 
 0.0779999999999998 -85.7015289498673 
 0.0840000000000001 -85.2417158590303 
 0.0899999999999999 -84.7508726589007 
 0.0960000000000001 -84.2296209545145 
 0.102000000000000 -83.6786160055667 
 0.108000000000000 -83.0985450364203 
 0.114000000000000 -82.4901254834971 
 0.120000000000000 -81.8541031869639 
 0.126000000000000 -81.1912505358022 
 0.132000000000000 -80.5023645713301 
 0.138000000000000 -79.7882650597934 
 0.144000000000000 -79.0497925382065 
 0.150000000000000 -78.2878063452717 
 0.156000000000000 -77.5031826402109 
 0.162000000000000 -76.6968124204606 
 0.168000000000000 -75.8695995427485 
 0.174000000000000 -75.0224587568585 
 0.180000000000000 -74.1563137556549 
 0.186000000000000 -73.2720952510427 
 0.192000000000000 -72.3707390794030 
 0.198000000000000 -71.4531843428183 
 0.204000000000000 -70.5203715925399 
 0.210000000000000 -69.5732410573142 
 0.216000000000000 -68.6127309255235 
 0.222000000000000 -67.6397756782286 
 0.228000000000000 -66.6553044850311 
 0.234000000000000 -65.6602396601616 
 0.240000000000000 -64.6554951853159 
 0.246000000000000 -63.6419752978992 
 0.252000000000000 -62.6205731536628 
 0.258000000000000 -61.5921695570111 
 0.264000000000000 -60.5576317677180 
 0.270000000000000 -59.5178123805221 
 0.276000000000000 -58.4735482801557 
 0.282000000000000 -57.4256596733271 
 0.288000000000000 -56.3749491948382 
 0.294000000000000 -55.3222010882359 
 0.300000000000000 -54.2681804638772 
 0.306000000000000 -53.2136326285608 
 0.312000000000000 -52.1592824879773 
 0.318000000000000 -51.1058340226807 
 0.324000000000000 -50.0539698311607 
 0.330000000000000 -49.0043507420407 
 0.336000000000000 -47.9576154940058 
 0.342000000000000 -46.9143804764891 
 0.348000000000000 -45.8752395344714 
 0.354000000000000 -44.8407638325890 
 0.360000000000000 -43.8115017738958 
 0.366000000000000 -42.7879789767918 
 0.372000000000000 -41.7706983002859 
 0.378000000000000 -40.7601399191493 
 0.384000000000000 -39.7567614467298 
 0.390000000000000 -38.7609981006711 
 0.396000000000000 -37.7732629089712 
 0.402000000000000 -36.7939469535881 
 0.408000000000000 -35.8234196534703 
 0.414000000000000 -34.8620290747377 
 0.420000000000000 -33.9101022762485 
 0.426000000000000 -32.9679456787505 
 0.432000000000000 -32.0358454609749 
 0.438000000000000 -31.1140679806615 
 0.444000000000000 -30.2028602099711 
 0.450000000000000 -29.3024501953262 
 0.456000000000000 -28.4130475284678 
 0.462000000000000 -27.5348438324401 
 0.468000000000000 -26.6680132609701 
 0.474000000000000 -25.8127130046528 
 0.480000000000000 -24.9690838053544 
 0.486000000000000 -24.1372504778051 
 0.492000000000000 -23.3173224366862 
 0.498000000000000 -22.5093942207605 
 0.504000000000000 -21.7135460254754 
 0.510000000000000 -20.9298442295094 
 0.516000000000000 -20.1583419228086 
 0.522000000000000 -19.3990794319310 
 0.528000000000000 -18.6520848394317 
 0.534000000000000 -17.9173745008295 
 0.540000000000000 -17.1949535539799 
 0.546000000000000 -16.4848164220981 
 0.552000000000000 -15.7869473104607 
 0.558000000000000 -15.1013206927754 
 0.564000000000000 -14.4279017905928 
 0.570000000000000 -13.7666470415092 
 0.576000000000000 -13.1175045600485 
 0.582000000000000 -12.4804145843260 
 0.588000000000000 -11.8553099161931 
 0.594000000000000 -11.2421163461655 
 0.600000000000000 -10.6407530713483 
 0.606000000000000 -10.0511330966374 
 0.612000000000000 -9.47316362931176 
 0.618000000000000 -8.90674645799022 
 0.624000000000000 -8.35177832151230 
 0.630000000000000 -7.80815126514113 
 0.636000000000000 -7.27575298492853 
 0.642000000000000 -6.75446715965674 
 0.648000000000000 -6.24417377234163 
 0.654000000000000 -5.74474941676821 
 0.660000000000000 -5.25606759643728 
 0.666000000000000 -4.77799900832187 
 0.672000000000000 -4.31041181664294 
 0.678000000000000 -3.85317191501714 
 0.684000000000000 -3.40614317912638 
 0.690000000000000 -2.96918770492230 
 0.696000000000000 -2.54216603992259 
 0.702000000000000 -2.12493740133341 
 0.708000000000000 -1.71735988615048 
 0.714000000000000 -1.31929066781914 
 0.720000000000000 -0.930586188651542 
 0.726000000000000 -0.551102337180726 
 0.732000000000000 -0.180694618873740 
 0.738000000000000  0.180781680546896 
 0.744000000000000  0.533471344033198 
 0.750000000000000  0.877519078242035 
 0.756000000000000  1.21306937635145 
 0.762000000000000  1.54026639021507 
 0.768000000000000  1.85925380971732 
 0.774000000000000  2.17017474828619 
 0.780000000000000  2.47317163670083 
 0.786000000000000  2.76838612429085 
 0.792000000000000  3.05595898348146 
 0.798000000000000  3.33603002578236 
 0.804000000000000  3.60873801864800 
 0.810000000000000  3.87422061115438 
 0.816000000000000  4.13261426494285 
 0.822000000000000  4.38405418889155 
 0.828000000000000  4.62867428167452 
 0.834000000000000  4.86660707579037 
 0.840000000000000  5.09798368868350 
 0.846000000000000  5.32293377822900 
 0.852000000000000  5.54158550027234 
 0.858000000000000  5.75406547339510 
 0.864000000000000  5.96049874469861 
 0.870000000000000  6.16100876067005 
 0.876000000000000  6.35571734112100 
 0.882000000000000  6.54474465673272 
 0.888000000000000  6.72820920981377 
 0.894000000000000  6.90622781628538 
 0.900000000000000  7.07891559314371 
 0.906000000000000  7.24638594728332 
 0.912000000000000  7.40875056581563 
 0.918000000000000  7.56611941054746 
 0.924000000000000  7.71860071326742 
 0.930000000000000  7.86630097387576 
 0.936000000000000  8.00932496072154 
 0.942000000000000  8.14777571155673 
 0.948000000000000  8.28175453719391 
 0.954000000000000  8.41136102711675 
 0.960000000000000  8.53669305492508 
 0.966000000000000  8.65784678749496 
 0.972000000000000  8.77491669319081 
 0.978000000000000  8.88799555288925 
 0.984000000000000  8.99717447171531 
 0.990000000000000  9.10254289115404 
 0.996000000000000  9.20418860270774 
 1.00200000000000  9.30219776299094 
 1.00800000000000  9.39665490824004 
 1.01400000000000  9.48764297061685 
 1.02000000000000  9.57524329522459 
 1.02600000000000  9.65953565704746 
 1.03200000000000  9.74059827882542 
 1.03800000000000  9.81850784981940 
 1.04400000000000  9.89333954403596 
 1.05000000000000  9.96516704008658 
 1.05600000000000  10.0340625405064 
 1.06200000000000  10.1000967913974 
 1.06800000000000  10.1633391029365 
 1.07400000000000  10.2238573699981 
 1.08000000000000  10.2817180915561 
 1.08600000000000  10.3369863928834 
 1.09200000000000  10.3897260453100 
 1.09800000000000  10.4399994881050 
 1.10400000000000  10.4878678482662 
 1.11000000000000  10.5333909625484 
 1.11600000000000  10.5766273981053 
 1.12200000000000  10.6176344736085 
 1.12800000000000  10.6564682799463 
 1.13400000000000  10.6931837016037 
 1.14000000000000  10.7278344371066 
 1.14600000000000  10.7604730196448 
 1.15200000000000  10.7911508387382 
 1.15800000000000  10.8199181589186 
 1.16400000000000  10.8468241416509 
 1.17000000000000  10.8719168648356 
 1.17600000000000  10.8952433433050 
 1.18200000000000  10.9168495476768 
 1.18800000000000  10.9367804250409 
 1.19400000000000  10.9550799181443 
 1.20000000000000  10.9717909843537 
 1.20600000000000  10.9869556147895 
 1.21200000000000  11.0006148533078 
 1.21800000000000  11.0128088149789 
 1.22400000000000  11.0235767043120 
 1.23000000000000  11.0329568337218 
 1.23600000000000  11.0409866407510 
 1.24200000000000  11.0477027065811 
 1.24800000000000  11.0531407725998 
 1.25400000000000  11.0573357577353 
 1.26000000000000  11.0603217756662 
 1.26600000000000  11.0621321512902 
 1.27200000000000  11.0627994364555 
 1.27800000000000  11.0623554270781 
 1.28400000000000  11.0608311780748 
 1.29000000000000  11.0582570197812 
 1.29600000000000  11.0546625723247 
 1.30200000000000  11.0500767613773 
 1.30800000000000  11.0445278329109 
 1.31400000000000  11.0380433673918 
 1.32000000000000  11.0306502942614 
 1.32600000000000  11.0223749061189 
 1.33200000000000  11.0132428721590 
 1.33800000000000  11.0032792521117 
 1.34400000000000  10.9925085091086 
 1.35000000000000  10.9809545231327 
 1.35600000000000  10.9686406035913 
 1.36200000000000  10.9555895017078 
 1.36800000000000  10.9418234231575 
 1.37400000000000  10.9273640400398 
 1.38000000000000  10.9122325025248 
 1.38600000000000  10.8964494507362 
 1.39200000000000  10.8800350259755 
 1.39800000000000  10.8630088818887 
 1.40400000000000  10.8453901953537 
 1.41000000000000  10.8271976775003 
 1.41600000000000  10.8084495837457 
 1.42200000000000  10.7891637242482 
 1.42800000000000  10.7693574741427 
 1.43400000000000  10.7490477833589 
 1.44000000000000  10.7282511860611 
 1.44600000000000  10.7069838102284 
 1.45200000000000  10.6852613870622 
 1.45800000000000  10.6630992599338 
 1.46400000000000  10.6405123930601 
 1.47000000000000  10.6175153805914 
 1.47600000000000  10.5941224548833 
 1.48200000000000  10.5703474946931 
 1.48800000000000  10.5462040336565 
 1.49400000000000  10.5217052679647 
 1.50000000000000  10.4968640642750 
 1.50600000000000  10.4716929673566 
 1.51200000000000  10.4462042074633 
 1.51800000000000  10.4204097077756 
 1.52400000000000  10.3943210913922 
 1.53000000000000  10.3679496883013 
 1.53600000000000  10.3413065424732 
 1.54200000000000  10.3144024181104 
 1.54800000000000  10.2872478064507 
 1.55400000000000  10.2598529322807 
 1.56000000000000  10.2322277598427 
 1.56600000000000  10.2043819992300 
 1.57200000000000  10.1763251118678 
 1.57800000000000  10.1480663171216 
 1.58400000000000  10.1196145973805 
 1.59000000000000  10.0909787037976 
 1.59600000000000  10.0621671618592 
 1.60200000000000  10.0331882764388 
 1.60800000000000  10.0040501373982 
 1.61400000000000  9.97476062432299 
 1.62000000000000  9.94532741153229 
 1.62600000000000  9.91575797319598 
 1.63200000000000  9.88605958780354 
 1.63800000000000  9.85623934296663 
 1.64400000000000  9.82630413979555 
 1.65000000000000  9.79626069746332 
 1.65600000000000  9.76611555758216 
 1.66200000000000  9.73587508820775 
 1.66800000000000  9.70554548821891 
 1.67400000000000  9.67513279106107 
 1.68000000000000  9.64464286908776 
 1.68600000000000  9.61408143705284 
 1.69200000000000  9.58345405595897 
 1.69800000000000  9.55276613688383 
 1.70400000000000  9.52202294451373 
 1.71000000000000  9.49122960043223 
 1.71600000000000  9.46039108687967 
 1.72200000000000  9.42951224985410 
 1.72800000000000  9.39859780248911 
 1.73400000000000  9.36765232823116 
 1.74000000000000  9.33668028395654 
 1.74600000000000  9.30568600291975 
 1.75200000000000  9.27467369808032 
 1.75800000000000  9.24364746440877 
 1.76400000000000  9.21261128225797 
 1.77000000000000  9.18156901991395 
 1.77600000000000  9.15052443642655 
 1.78200000000000  9.11948118384227 
 1.78800000000000  9.08844281047695 
 1.79400000000000  9.05741276281463 
 1.80000000000000  9.02639438840185 
 1.80600000000000  8.99539093786089 
 1.81200000000000  8.96440556751379 
 1.81800000000000  8.93344134174866 
 1.82400000000000  8.90250123492164 
 1.83000000000000  8.87158813378685 
 1.83600000000000  8.84070483966872 
 1.84200000000000  8.80985407036712 
 1.84800000000000  8.77903846234243 
 1.85400000000000  8.74826057263656 
 1.86000000000000  8.71752288077497 
 1.86600000000000  8.68682779073856 
 1.87200000000000  8.65617763287203 
 1.87800000000000  8.62557466550280 
 1.88400000000000  8.59502107684295 
 1.89000000000000  8.56451898675124 
 1.89600000000000  8.53407044820259 
 1.90200000000000  8.50367744924721 
 1.90800000000000  8.47334191427336 
 1.91400000000000  8.44306570590291 
 1.92000000000000  8.41285062626677 
 1.92600000000000  8.38269841864923 
 1.93200000000000  8.35261076881106 
 1.93800000000000  8.32258930651301 
 1.94400000000000  8.29263560695658 
 1.95000000000000  8.26275119208172 
 1.95600000000000  8.23293753174043 
 1.96200000000000  8.20319604524252 
 1.96800000000000  8.17352810251966 
 1.97400000000000  8.14393502525774 
 1.98000000000000  8.11441808832166 
 1.98600000000000  8.08497852067456 
 1.99200000000000  8.05561750666913 
 1.99800000000000  8.02633618722760 
 2.00400000000000  7.99713566084357 
 2.01000000000000  7.96801698457440 
 2.01600000000000  7.93898117524658 
 2.02200000000000  7.91002921038772 
 2.02800000000000  7.88116202925376 
 2.03400000000000  7.85238053380867 
 2.04000000000000  7.82368558955771 
 2.04600000000000  7.79507802662247 
 2.05200000000000  7.76655864055827 
 2.05800000000000  7.73812819333697 
 2.06400000000000  7.70978741391942 
 2.07000000000000  7.68153699960409 
 2.07600000000000  7.65337761632595 
 2.08200000000000  7.62530989976341 
 2.08800000000000  7.59733445607292 
 2.09400000000000  7.56945186250926 
 2.10000000000000  7.54166266836695 
 2.10600000000000  7.51396739563543 
 2.11200000000000  7.48636653960978 
 2.11800000000000  7.45886056977802 
 2.12400000000000  7.43144993035232 
 2.13000000000000  7.40413504086057 
 2.13600000000000  7.37691629705601 
 2.14200000000000  7.34979407130208 
 2.14800000000000  7.32276871328168 
 2.15400000000000  7.29584055065556 
 2.16000000000000  7.26900988944395 
 2.16600000000000  7.24227701491083 
 2.17200000000000  7.21564219178964 
 2.17800000000000  7.18910566512623 
 2.18400000000000  7.16266766054597 
 2.19000000000000  7.13632838498846 
 2.19600000000000  7.11008802707650 
 2.20200000000000  7.08394675773629 
 2.20800000000000  7.05790473046456 
 2.21400000000000  7.03196208205698 
 2.22000000000000  7.00611893290708 
 2.22600000000000  6.98037538754380 
 2.23200000000000  6.95473153493996 
 2.23800000000000  6.92918744906256 
 2.24400000000000  6.90374318930844 
 2.25000000000000  6.87839880078106 
 2.25600000000000  6.85315431478343 
 2.26200000000000  6.82800974923479 
 2.26800000000000  6.80296510891871 
 2.27400000000000  6.77802038599193 
 2.28000000000000  6.75317556033427 
 2.28600000000000  6.72843059970762 
 2.29200000000000  6.70378546042070 
 2.29800000000000  6.67924008737041 
 2.30400000000000  6.65479441453161 
 2.31000000000000  6.63044836529427 
 2.31600000000000  6.60620185258118 
 2.32200000000000  6.58205477943948 
 2.32800000000000  6.55800703907887 
 2.33400000000000  6.53405851532959 
 2.34000000000000  6.51020908285871 
 2.34600000000000  6.48645860742136 
 2.35200000000000  6.46280694615022 
 2.35800000000000  6.43925394791486 
 2.36400000000000  6.41579945337587 
 2.37000000000000  6.39244329550958 
 2.37600000000000  6.36918529951591 
 2.38200000000000  6.34602528333671 
 2.38800000000000  6.32296305781803 
 2.39400000000000  6.29999842681190 
 2.40000000000000  6.27713118753568 
 2.40600000000000  6.25436113078203 
 2.41200000000000  6.23168804103974 
 2.41800000000000  6.20911169671640 
 2.42400000000000  6.18663187051683 
 2.43000000000000  6.16424832930957 
 2.43600000000000  6.14196083467705 
 2.44200000000000  6.11976914275024 
 2.44800000000000  6.09767300474298 
 2.45400000000000  6.07567216681202 
 2.46000000000000  6.05376637047367 
 2.46600000000000  6.03195535256248 
 2.47200000000000  6.01023884558744 
 2.47800000000000  5.98861657779242 
 2.48400000000000  5.96708827329928 
 2.49000000000000  5.94565365230510 
 2.49600000000000  5.92431243119026 
 2.50200000000000  5.90306432270296 
 2.50800000000000  5.88190903607373 
 2.51400000000000  5.86084627719031 
 2.52000000000000  5.83987574862948 
 2.52600000000000  5.81899714995923 
 2.53200000000000  5.79821017768150 
 2.53800000000000  5.77751452547070 
 2.54400000000000  5.75690988432004 
 2.55000000000000  5.73639594253198 
 2.55600000000000  5.71597238591225 
 2.56200000000000  5.69563889794158 
 2.56800000000000  5.67539515976302 
 2.57400000000000  5.65524085036316 
 2.58000000000000  5.63517564665174 
 2.58600000000000  5.61519922356015 
 2.59200000000000  5.59531125419417 
 2.59800000000000  5.57551140985301 
 2.60400000000000  5.55579936014702 
 2.61000000000000  5.53617477310898 
 2.61600000000000  5.51663731527044 
 2.62200000000000  5.49718665175400 
 2.62800000000000  5.47782244632732 
 2.63400000000000  5.45854436153353 
 2.64000000000000  5.43935205874535 
 2.64600000000000  5.42024519821911 
 2.65200000000000  5.40122343925696 
 2.65800000000000  5.38228644012740 
 2.66400000000000  5.36343385828786 
 2.67000000000000  5.34466535042290 
 2.67600000000000  5.32598057240288 
 2.68200000000000  5.30737917950019 
 2.68800000000000  5.28886082635749 
 2.69400000000000  5.27042516706083 
 2.70000000000000  5.25207185526370 
 2.70600000000000  5.23380054417114 
 2.71200000000000  5.21561088661926 
 2.71800000000000  5.19750253516426 
 2.72400000000000  5.17947514207608 
 2.73000000000000  5.16152835945931 
 2.73600000000000  5.14366183924040 
 2.74200000000000  5.12587523330446 
 2.74800000000000  5.10816819340301 
 2.75400000000000  5.09054037138618 
 2.76000000000000  5.07299141908819 
 2.76600000000000  5.05552098841005 
 2.77200000000000  5.03812873148495 
 2.77800000000000  5.02081430047790 
 2.78400000000000  5.00357734792919 
 2.79000000000000  4.98641752651589 
 2.79600000000000  4.96933448926176 
 2.80200000000000  4.95232788950541 
 2.80800000000000  4.93539738101484 
 2.81400000000000  4.91854261783159 
 2.82000000000000  4.90176325457602 
 2.82600000000000  4.88505894625657 
 2.83200000000000  4.86842934842552 
 2.83800000000000  4.85187411714722 
 2.84400000000000  4.83539290906490 
 2.85000000000000  4.81898538140699 
 2.85600000000000  4.80265119205714 
 2.86200000000000  4.78638999950964 
 2.86800000000000  4.77020146294262 
 2.87400000000000  4.75408524227209 
 2.88000000000000  4.73804099809788 
 2.88600000000000  4.72206839181176 
 2.89200000000000  4.70616708557206 
 2.89800000000000  4.69033674232583 
 2.90400000000000  4.67457702585984 
 2.91000000000000  4.65888760077504 
 2.91600000000000  4.64326813257250 
 2.92200000000000  4.62771828760250 
 2.92800000000000  4.61223773315356 
 2.93400000000000  4.59682613739206 
 2.94000000000000  4.58148316947670 
 2.94600000000000  4.56620849945674 
 2.95200000000000  4.55100179841193 
 2.95800000000000  4.53586273840482 
 2.96400000000000  4.52079099246486 
 2.97000000000000  4.50578623467741 
 2.97600000000000  4.49084814013610 
 2.98200000000000  4.47597638499685 
 2.98800000000000  4.46117064646199 
 2.99400000000000  4.44643060283748 
 3.00000000000000  4.43175593348526 
