-2.00000000000000  39.8933615040798 
-1.96666666666667  40.8335744010887 
-1.93333333333333  41.7808362153429 
-1.90000000000000  42.7346176024770 
-1.86666666666667  43.6943698850165 
-1.83333333333333  44.6595254134711 
-1.80000000000000  45.6294979702794 
-1.76666666666667  46.6036832166820 
-1.73333333333333  47.5814591824912 
-1.70000000000000  48.5621867986157 
-1.66666666666667  49.5452104720851 
-1.63333333333333  50.5298587032060 
-1.60000000000000  51.5154447443660 
-1.56666666666667  52.5012672998854 
-1.53333333333333  53.4866112661989 
-1.50000000000000  54.4707485115335 
-1.46666666666667  55.4529386941320 
-1.43333333333333  56.4324301179525 
-1.40000000000000  57.4084606246622 
-1.36666666666667  58.3802585206276 
-1.33333333333333  59.3470435374912 
-1.30000000000000  60.3080278248132 
-1.26666666666667  61.2624169731518 
-1.23333333333333  62.2094110658482 
-1.20000000000000  63.1482057576813 
-1.16666666666667  64.0779933784594 
-1.13333333333333  64.9979640595239 
-1.10000000000000  65.9073068810474 
-1.06666666666667  66.8052110379272 
-1.03333333333333  67.6908670219938 
-1.00000000000000  68.5634678181815 
-0.966666666666667  69.4222101122391 
-0.933333333333333  70.2662955074965 
-0.900000000000000  71.0949317481499 
-0.866666666666667  71.9073339464759 
-0.833333333333333  72.7027258113453 
-0.800000000000000  73.4803408753720 
-0.766666666666667  74.2394237180054 
-0.733333333333333  74.9792311818522 
-0.700000000000000  75.6990335795060 
-0.666666666666667  76.3981158881538 
-0.633333333333333  77.0757789292346 
-0.600000000000000  77.7313405304360 
-0.566666666666667  78.3641366673341 
-0.533333333333333  78.9735225820085 
-0.500000000000000  79.5588738760019 
-0.466666666666667  80.1195875750334 
-0.433333333333333  80.6550831629292 
-0.400000000000000  81.1648035822912 
-0.366666666666667  81.6482161994923 
-0.333333333333333  82.1048137316584 
-0.300000000000000  82.5341151333814 
-0.266666666666667  82.9356664409944 
-0.233333333333333  83.3090415723352 
-0.200000000000000  83.6538430800269 
-0.166666666666667  83.9697028564105 
-0.133333333333333  84.2562827883816 
-0.100000000000000  84.5132753604989 
-0.0666666666666667  84.7404042048592 
-0.0333333333333334  84.9374245963633 
 0.00000000000000  85.1041238921291 
 0.0333333333333332  85.2403219139486 
 0.0666666666666664  85.3458712728260 
 0.100000000000000  85.4206576347770 
 0.133333333333333  85.4645999272202 
 0.166666666666667  85.4776504854384 
 0.200000000000000  85.4597951387388 
 0.233333333333333  85.4110532360947 
 0.266666666666667  85.3314776112043 
 0.300000000000000  85.2211544870534 
 0.333333333333333  85.0802033202245 
 0.366666666666667  84.9087765853460 
 0.400000000000000  84.7070595002246 
 0.433333333333333  84.4752696923563 
 0.466666666666667  84.2136568076551 
 0.500000000000000  83.9225020623848 
 0.533333333333333  83.6021177394195 
 0.566666666666666  83.2528466300962 
 0.600000000000000  82.8750614230547 
 0.633333333333333  82.4691640415924 
 0.666666666666667  82.0355849311796 
 0.700000000000000  81.5747822989066 
 0.733333333333333  81.0872413067413 
 0.766666666666667  80.5734732205850 
 0.800000000000000  80.0340145172159 
 0.833333333333333  79.4694259513026 
 0.866666666666667  78.8802915847565 
 0.900000000000000  78.2672177807750 
 0.933333333333333  77.6308321649967 
 0.966666666666667  76.9717825562580 
 1.00000000000000  76.2907358694977 
 1.03333333333333  75.5883769934033 
 1.06666666666667  74.8654076454405 
 1.10000000000000  74.1225452069353 
 1.13333333333333  73.3605215409084 
 1.16666666666667  72.5800817953784 
 1.20000000000000  71.7819831948596 
 1.23333333333333  70.9669938227845 
 1.26666666666667  70.1358913975728 
 1.30000000000000  69.2894620450570 
 1.33333333333333  68.4284990699539 
 1.36666666666667  67.5538017290410 
 1.40000000000000  66.6661740086616 
 1.43333333333333  65.7664234091414 
 1.46666666666667  64.8553597386452 
 1.50000000000000  63.9337939189511 
 1.53333333333333  63.0025368055508 
 1.56666666666667  62.0623980244224 
 1.60000000000000  61.1141848277398 
 1.63333333333333  60.1587009707104 
 1.66666666666667  59.1967456116398 
 1.70000000000000  58.2291122372395 
 1.73333333333333  57.2565876150925 
 1.76666666666667  56.2799507750994 
 1.80000000000000  55.2999720216188 
 1.83333333333333  54.3174119779173 
 1.86666666666667  53.3330206644310 
 1.90000000000000  52.3475366122313 
 1.93333333333333  51.3616860129769 
 1.96666666666667  50.3761819065157 
 2.00000000000000  49.3917234071885 
