 0.00000000000000  0.00000000000000  0.00000000000000  0.00000000000000  0.00000000000000  0.00000000000000  0.00000000000000  0.00000000000000  0.00000000000000  0.00000000000000  0.00000000000000  0.00000000000000  0.00000000000000  0.00000000000000  0.00000000000000  0.00000000000000  0.00000000000000  0.00000000000000  0.00000000000000  0.948677857146887  2.16172004541698e-17  0.00227191997845983 -90.1940495889635  0.00227191997845983 -90.1940495889635  0.948677857146887  90.0000000000000  0.948677857146887  90.0000000000000  0.00227191997845983 -0.194049588963491  0.00227191997845983 -0.194049588963491  0.00227191997845983 -0.194049588963491  0.00227191997845983 -0.194049588963491 
 1.80000000000000  0.00000000000000  0.00000000000000  0.00000000000000  0.00000000000000  0.00000000000000  0.00000000000000  0.00000000000000  0.00000000000000  0.00000000000000  0.00000000000000  0.00000000000000  0.00000000000000  0.00000000000000  0.00000000000000  0.00000000000000  0.00000000000000  0.00000000000000  0.00000000000000  0.948677857146887  3.60000000000000  0.00227191997845983 -86.5940495889635  0.00227191997845983 -86.5940495889635  0.948677857146887  93.6000000000000  0.948677857146887  93.6000000000000  0.00227191997845983  3.40595041103651  0.00227191997845983  3.40595041103650  0.00227191997845983  3.40595041103651  0.00227191997845983  3.40595041103650 
 3.60000000000000  0.00000000000000  0.00000000000000  0.00000000000000  0.00000000000000  0.00000000000000  0.00000000000000  0.00000000000000  0.00000000000000  0.00000000000000  0.00000000000000  0.00000000000000  0.00000000000000  0.00000000000000  0.00000000000000  0.00000000000000  0.00000000000000  0.00000000000000  0.00000000000000  0.948677857146887  7.20000000000000  0.00227191997845983 -82.9940495889635  0.00227191997845983 -82.9940495889635  0.948677857146887  97.2000000000000  0.948677857146887  97.2000000000000  0.00227191997845983  7.00595041103653  0.00227191997845983  7.00595041103649  0.00227191997845983  7.00595041103653  0.00227191997845983  7.00595041103649 
 5.40000000000000  0.00000000000000  0.00000000000000  0.00000000000000  0.00000000000000  0.00000000000000  0.00000000000000  0.00000000000000  0.00000000000000  0.00000000000000  0.00000000000000  0.00000000000000  0.00000000000000  0.00000000000000  0.00000000000000  0.00000000000000  0.00000000000000  0.00000000000000  0.00000000000000  0.948677857146887  10.8000000000000  0.00227191997845983 -79.3940495889635  0.00227191997845983 -79.3940495889635  0.948677857146887  100.800000000000  0.948677857146887  100.800000000000  0.00227191997845983  10.6059504110365  0.00227191997845983  10.6059504110365  0.00227191997845983  10.6059504110365  0.00227191997845983  10.6059504110365 
 7.20000000000000  0.00000000000000  0.00000000000000  0.00000000000000  0.00000000000000  0.00000000000000  0.00000000000000  0.00000000000000  0.00000000000000  0.00000000000000  0.00000000000000  0.00000000000000  0.00000000000000  0.00000000000000  0.00000000000000  0.00000000000000  0.00000000000000  0.00000000000000  0.00000000000000  0.948677857146887  14.4000000000000  0.00227191997845983 -75.7940495889635  0.00227191997845983 -75.7940495889635  0.948677857146887  104.400000000000  0.948677857146887  104.400000000000  0.00227191997845983  14.2059504110365  0.00227191997845983  14.2059504110365  0.00227191997845983  14.2059504110365  0.00227191997845983  14.2059504110365 
 9.00000000000000  0.00000000000000  0.00000000000000  0.00000000000000  0.00000000000000  0.00000000000000  0.00000000000000  0.00000000000000  0.00000000000000  0.00000000000000  0.00000000000000  0.00000000000000  0.00000000000000  0.00000000000000  0.00000000000000  0.00000000000000  0.00000000000000  0.00000000000000  0.00000000000000  0.948677857146887  18.0000000000000  0.00227191997845983 -72.1940495889635  0.00227191997845983 -72.1940495889635  0.948677857146887  108.000000000000  0.948677857146887  108.000000000000  0.00227191997845983  17.8059504110365  0.00227191997845983  17.8059504110365  0.00227191997845983  17.8059504110365  0.00227191997845983  17.8059504110365 
 10.8000000000000  0.00000000000000  0.00000000000000  0.00000000000000  0.00000000000000  0.00000000000000  0.00000000000000  0.00000000000000  0.00000000000000  0.00000000000000  0.00000000000000  0.00000000000000  0.00000000000000  0.00000000000000  0.00000000000000  0.00000000000000  0.00000000000000  0.00000000000000  0.00000000000000  0.948677857146887  21.6000000000000  0.00227191997845983 -68.5940495889635  0.00227191997845983 -68.5940495889635  0.948677857146887  111.600000000000  0.948677857146887  111.600000000000  0.00227191997845983  21.4059504110366  0.00227191997845983  21.4059504110365  0.00227191997845983  21.4059504110366  0.00227191997845983  21.4059504110365 
 12.6000000000000  0.00000000000000  0.00000000000000  0.00000000000000  0.00000000000000  0.00000000000000  0.00000000000000  0.00000000000000  0.00000000000000  0.00000000000000  0.00000000000000  0.00000000000000  0.00000000000000  0.00000000000000  0.00000000000000  0.00000000000000  0.00000000000000  0.00000000000000  0.00000000000000  0.948677857146887  25.2000000000000  0.00227191997845983 -64.9940495889635  0.00227191997845983 -64.9940495889635  0.948677857146887  115.200000000000  0.948677857146887  115.200000000000  0.00227191997845983  25.0059504110365  0.00227191997845983  25.0059504110365  0.00227191997845983  25.0059504110365  0.00227191997845983  25.0059504110365 
 14.4000000000000  0.00000000000000  0.00000000000000  0.00000000000000  0.00000000000000  0.00000000000000  0.00000000000000  0.00000000000000  0.00000000000000  0.00000000000000  0.00000000000000  0.00000000000000  0.00000000000000  0.00000000000000  0.00000000000000  0.00000000000000  0.00000000000000  0.00000000000000  0.00000000000000  0.948677857146887  28.8000000000000  0.00227191997845983 -61.3940495889635  0.00227191997845983 -61.3940495889635  0.948677857146887  118.800000000000  0.948677857146887  118.800000000000  0.00227191997845983  28.6059504110366  0.00227191997845983  28.6059504110365  0.00227191997845983  28.6059504110366  0.00227191997845983  28.6059504110365 
 16.2000000000000  0.00000000000000  0.00000000000000  0.00000000000000  0.00000000000000  0.00000000000000  0.00000000000000  0.00000000000000  0.00000000000000  0.00000000000000  0.00000000000000  0.00000000000000  0.00000000000000  0.00000000000000  0.00000000000000  0.00000000000000  0.00000000000000  0.00000000000000  0.00000000000000  0.948677857146887  32.4000000000000  0.00227191997845983 -57.7940495889635  0.00227191997845983 -57.7940495889635  0.948677857146887  122.400000000000  0.948677857146887  122.400000000000  0.00227191997845983  32.2059504110366  0.00227191997845983  32.2059504110365  0.00227191997845983  32.2059504110366  0.00227191997845983  32.2059504110365 
 18.0000000000000  0.00000000000000  0.00000000000000  0.00000000000000  0.00000000000000  0.00000000000000  0.00000000000000  0.00000000000000  0.00000000000000  0.00000000000000  0.00000000000000  0.00000000000000  0.00000000000000  0.00000000000000  0.00000000000000  0.00000000000000  0.00000000000000  0.00000000000000  0.00000000000000  0.948677857146887  36.0000000000000  0.00227191997845983 -54.1940495889635  0.00227191997845983 -54.1940495889635  0.948677857146887  126.000000000000  0.948677857146887  126.000000000000  0.00227191997845983  35.8059504110366  0.00227191997845983  35.8059504110365  0.00227191997845983  35.8059504110366  0.00227191997845983  35.8059504110365 
 19.8000000000000  0.00000000000000  0.00000000000000  0.00000000000000  0.00000000000000  0.00000000000000  0.00000000000000  0.00000000000000  0.00000000000000  0.00000000000000  0.00000000000000  0.00000000000000  0.00000000000000  0.00000000000000  0.00000000000000  0.00000000000000  0.00000000000000  0.00000000000000  0.00000000000000  0.948677857146887  39.6000000000000  0.00227191997845983 -50.5940495889635  0.00227191997845983 -50.5940495889635  0.948677857146887  129.600000000000  0.948677857146887  129.600000000000  0.00227191997845983  39.4059504110366  0.00227191997845983  39.4059504110364  0.00227191997845983  39.4059504110366  0.00227191997845983  39.4059504110364 
 21.6000000000000  0.00000000000000  0.00000000000000  0.00000000000000  0.00000000000000  0.00000000000000  0.00000000000000  0.00000000000000  0.00000000000000  0.00000000000000  0.00000000000000  0.00000000000000  0.00000000000000  0.00000000000000  0.00000000000000  0.00000000000000  0.00000000000000  0.00000000000000  0.00000000000000  0.948677857146887  43.2000000000000  0.00227191997845983 -46.9940495889635  0.00227191997845983 -46.9940495889635  0.948677857146887  133.200000000000  0.948677857146887  133.200000000000  0.00227191997845983  43.0059504110366  0.00227191997845983  43.0059504110364  0.00227191997845983  43.0059504110366  0.00227191997845983  43.0059504110364 
 23.4000000000000  0.00000000000000  0.00000000000000  0.00000000000000  0.00000000000000  0.00000000000000  0.00000000000000  0.00000000000000  0.00000000000000  0.00000000000000  0.00000000000000  0.00000000000000  0.00000000000000  0.00000000000000  0.00000000000000  0.00000000000000  0.00000000000000  0.00000000000000  0.00000000000000  0.948677857146887  46.8000000000000  0.00227191997845983 -43.3940495889635  0.00227191997845983 -43.3940495889635  0.948677857146887  136.800000000000  0.948677857146887  136.800000000000  0.00227191997845983  46.6059504110366  0.00227191997845983  46.6059504110365  0.00227191997845983  46.6059504110366  0.00227191997845983  46.6059504110365 
 25.2000000000000  0.00000000000000  0.00000000000000  0.00000000000000  0.00000000000000  0.00000000000000  0.00000000000000  0.00000000000000  0.00000000000000  0.00000000000000  0.00000000000000  0.00000000000000  0.00000000000000  0.00000000000000  0.00000000000000  0.00000000000000  0.00000000000000  0.00000000000000  0.00000000000000  0.948677857146887  50.4000000000000  0.00227191997845983 -39.7940495889635  0.00227191997845983 -39.7940495889635  0.948677857146887  140.400000000000  0.948677857146887  140.400000000000  0.00227191997845983  50.2059504110366  0.00227191997845983  50.2059504110364  0.00227191997845983  50.2059504110366  0.00227191997845983  50.2059504110364 
 27.0000000000000  0.00000000000000  0.00000000000000  0.00000000000000  0.00000000000000  0.00000000000000  0.00000000000000  0.00000000000000  0.00000000000000  0.00000000000000  0.00000000000000  0.00000000000000  0.00000000000000  0.00000000000000  0.00000000000000  0.00000000000000  0.00000000000000  0.00000000000000  0.00000000000000  0.948677857146887  54.0000000000000  0.00227191997845983 -36.1940495889635  0.00227191997845983 -36.1940495889635  0.948677857146887  144.000000000000  0.948677857146887  144.000000000000  0.00227191997845983  53.8059504110366  0.00227191997845983  53.8059504110364  0.00227191997845983  53.8059504110366  0.00227191997845983  53.8059504110364 
 28.8000000000000  0.00000000000000  0.00000000000000  0.00000000000000  0.00000000000000  0.00000000000000  0.00000000000000  0.00000000000000  0.00000000000000  0.00000000000000  0.00000000000000  0.00000000000000  0.00000000000000  0.00000000000000  0.00000000000000  0.00000000000000  0.00000000000000  0.00000000000000  0.00000000000000  0.948677857146887  57.6000000000000  0.00227191997845983 -32.5940495889635  0.00227191997845983 -32.5940495889635  0.948677857146887  147.600000000000  0.948677857146887  147.600000000000  0.00227191997845983  57.4059504110366  0.00227191997845983  57.4059504110364  0.00227191997845983  57.4059504110366  0.00227191997845983  57.4059504110364 
 30.6000000000000  0.00000000000000  0.00000000000000  0.00000000000000  0.00000000000000  0.00000000000000  0.00000000000000  0.00000000000000  0.00000000000000  0.00000000000000  0.00000000000000  0.00000000000000  0.00000000000000  0.00000000000000  0.00000000000000  0.00000000000000  0.00000000000000  0.00000000000000  0.00000000000000  0.948677857146887  61.2000000000000  0.00227191997845983 -28.9940495889635  0.00227191997845983 -28.9940495889635  0.948677857146887  151.200000000000  0.948677857146887  151.200000000000  0.00227191997845983  61.0059504110366  0.00227191997845983  61.0059504110364  0.00227191997845983  61.0059504110366  0.00227191997845983  61.0059504110364 
 32.4000000000000  0.00000000000000  0.00000000000000  0.00000000000000  0.00000000000000  0.00000000000000  0.00000000000000  0.00000000000000  0.00000000000000  0.00000000000000  0.00000000000000  0.00000000000000  0.00000000000000  0.00000000000000  0.00000000000000  0.00000000000000  0.00000000000000  0.00000000000000  0.00000000000000  0.948677857146887  64.8000000000000  0.00227191997845983 -25.3940495889635  0.00227191997845983 -25.3940495889635  0.948677857146887  154.800000000000  0.948677857146887  154.800000000000  0.00227191997845983  64.6059504110366  0.00227191997845983  64.6059504110364  0.00227191997845983  64.6059504110366  0.00227191997845983  64.6059504110364 
 34.2000000000000  0.00000000000000  0.00000000000000  0.00000000000000  0.00000000000000  0.00000000000000  0.00000000000000  0.00000000000000  0.00000000000000  0.00000000000000  0.00000000000000  0.00000000000000  0.00000000000000  0.00000000000000  0.00000000000000  0.00000000000000  0.00000000000000  0.00000000000000  0.00000000000000  0.948677857146887  68.4000000000000  0.00227191997845983 -21.7940495889635  0.00227191997845983 -21.7940495889635  0.948677857146887  158.400000000000  0.948677857146887  158.400000000000  0.00227191997845983  68.2059504110367  0.00227191997845983  68.2059504110364  0.00227191997845983  68.2059504110367  0.00227191997845983  68.2059504110364 
 36.0000000000000  0.00000000000000  0.00000000000000  0.00000000000000  0.00000000000000  0.00000000000000  0.00000000000000  0.00000000000000  0.00000000000000  0.00000000000000  0.00000000000000  0.00000000000000  0.00000000000000  0.00000000000000  0.00000000000000  0.00000000000000  0.00000000000000  0.00000000000000  0.00000000000000  0.948677857146887  72.0000000000000  0.00227191997845983 -18.1940495889635  0.00227191997845983 -18.1940495889635  0.948677857146887  162.000000000000  0.948677857146887  162.000000000000  0.00227191997845983  71.8059504110366  0.00227191997845983  71.8059504110364  0.00227191997845983  71.8059504110366  0.00227191997845983  71.8059504110364 
 37.8000000000000  0.00000000000000  0.00000000000000  0.00000000000000  0.00000000000000  0.00000000000000  0.00000000000000  0.00000000000000  0.00000000000000  0.00000000000000  0.00000000000000  0.00000000000000  0.00000000000000  0.00000000000000  0.00000000000000  0.00000000000000  0.00000000000000  0.00000000000000  0.00000000000000  0.948677857146887  75.6000000000000  0.00227191997845983 -14.5940495889635  0.00227191997845983 -14.5940495889635  0.948677857146887  165.600000000000  0.948677857146887  165.600000000000  0.00227191997845983  75.4059504110366  0.00227191997845983  75.4059504110364  0.00227191997845983  75.4059504110366  0.00227191997845983  75.4059504110364 
 39.6000000000000  0.00000000000000  0.00000000000000  0.00000000000000  0.00000000000000  0.00000000000000  0.00000000000000  0.00000000000000  0.00000000000000  0.00000000000000  0.00000000000000  0.00000000000000  0.00000000000000  0.00000000000000  0.00000000000000  0.00000000000000  0.00000000000000  0.00000000000000  0.00000000000000  0.948677857146887  79.2000000000000  0.00227191997845983 -10.9940495889635  0.00227191997845983 -10.9940495889635  0.948677857146887  169.200000000000  0.948677857146887  169.200000000000  0.00227191997845983  79.0059504110367  0.00227191997845983  79.0059504110364  0.00227191997845983  79.0059504110367  0.00227191997845983  79.0059504110364 
 41.4000000000000  0.00000000000000  0.00000000000000  0.00000000000000  0.00000000000000  0.00000000000000  0.00000000000000  0.00000000000000  0.00000000000000  0.00000000000000  0.00000000000000  0.00000000000000  0.00000000000000  0.00000000000000  0.00000000000000  0.00000000000000  0.00000000000000  0.00000000000000  0.00000000000000  0.948677857146887  82.8000000000000  0.00227191997845983 -7.39404958896349  0.00227191997845983 -7.39404958896349  0.948677857146887  172.800000000000  0.948677857146887  172.800000000000  0.00227191997845983  82.6059504110366  0.00227191997845983  82.6059504110363  0.00227191997845983  82.6059504110366  0.00227191997845983  82.6059504110363 
 43.2000000000000  0.00000000000000  0.00000000000000  0.00000000000000  0.00000000000000  0.00000000000000  0.00000000000000  0.00000000000000  0.00000000000000  0.00000000000000  0.00000000000000  0.00000000000000  0.00000000000000  0.00000000000000  0.00000000000000  0.00000000000000  0.00000000000000  0.00000000000000  0.00000000000000  0.948677857146887  86.4000000000000  0.00227191997845983 -3.79404958896348  0.00227191997845983 -3.79404958896348  0.948677857146887  176.400000000000  0.948677857146887  176.400000000000  0.00227191997845983  86.2059504110367  0.00227191997845983  86.2059504110364  0.00227191997845983  86.2059504110367  0.00227191997845983  86.2059504110364 
 45.0000000000000  0.00000000000000  0.00000000000000  0.00000000000000  0.00000000000000  0.00000000000000  0.00000000000000  0.00000000000000  0.00000000000000  0.00000000000000  0.00000000000000  0.00000000000000  0.00000000000000  0.00000000000000  0.00000000000000  0.00000000000000  0.00000000000000  0.00000000000000  0.00000000000000  0.948677857146887  90.0000000000000  0.00227191997845983 -0.194049588963491  0.00227191997845983 -0.194049588963491  0.948677857146887 -180.000000000000  0.948677857146887  180.000000000000  0.00227191997845983  89.8059504110367  0.00227191997845983  89.8059504110363  0.00227191997845983  89.8059504110367  0.00227191997845983  89.8059504110363 
 46.8000000000000  0.00000000000000  0.00000000000000  0.00000000000000  0.00000000000000  0.00000000000000  0.00000000000000  0.00000000000000  0.00000000000000  0.00000000000000  0.00000000000000  0.00000000000000  0.00000000000000  0.00000000000000  0.00000000000000  0.00000000000000  0.00000000000000  0.00000000000000  0.00000000000000  0.948677857146887  93.6000000000000  0.00227191997845983  3.40595041103651  0.00227191997845983  3.40595041103652  0.948677857146887 -176.400000000000  0.948677857146887 -176.400000000000  0.00227191997845983  93.4059504110367  0.00227191997845983  93.4059504110364  0.00227191997845983  93.4059504110367  0.00227191997845983  93.4059504110364 
 48.6000000000000  0.00000000000000  0.00000000000000  0.00000000000000  0.00000000000000  0.00000000000000  0.00000000000000  0.00000000000000  0.00000000000000  0.00000000000000  0.00000000000000  0.00000000000000  0.00000000000000  0.00000000000000  0.00000000000000  0.00000000000000  0.00000000000000  0.00000000000000  0.00000000000000  0.948677857146887  97.2000000000000  0.00227191997845983  7.00595041103652  0.00227191997845983  7.00595041103652  0.948677857146887 -172.800000000000  0.948677857146887 -172.800000000000  0.00227191997845983  97.0059504110367  0.00227191997845983  97.0059504110363  0.00227191997845983  97.0059504110367  0.00227191997845983  97.0059504110363 
 50.4000000000000  0.00000000000000  0.00000000000000  0.00000000000000  0.00000000000000  0.00000000000000  0.00000000000000  0.00000000000000  0.00000000000000  0.00000000000000  0.00000000000000  0.00000000000000  0.00000000000000  0.00000000000000  0.00000000000000  0.00000000000000  0.00000000000000  0.00000000000000  0.00000000000000  0.948677857146887  100.800000000000  0.00227191997845983  10.6059504110365  0.00227191997845983  10.6059504110365  0.948677857146887 -169.200000000000  0.948677857146887 -169.200000000000  0.00227191997845983  100.605950411037  0.00227191997845983  100.605950411036  0.00227191997845983  100.605950411037  0.00227191997845983  100.605950411036 
 52.2000000000000  0.00000000000000  0.00000000000000  0.00000000000000  0.00000000000000  0.00000000000000  0.00000000000000  0.00000000000000  0.00000000000000  0.00000000000000  0.00000000000000  0.00000000000000  0.00000000000000  0.00000000000000  0.00000000000000  0.00000000000000  0.00000000000000  0.00000000000000  0.00000000000000  0.948677857146887  104.400000000000  0.00227191997845983  14.2059504110365  0.00227191997845983  14.2059504110365  0.948677857146887 -165.600000000000  0.948677857146887 -165.600000000000  0.00227191997845983  104.205950411037  0.00227191997845983  104.205950411036  0.00227191997845983  104.205950411037  0.00227191997845983  104.205950411036 
 54.0000000000000  0.00000000000000  0.00000000000000  0.00000000000000  0.00000000000000  0.00000000000000  0.00000000000000  0.00000000000000  0.00000000000000  0.00000000000000  0.00000000000000  0.00000000000000  0.00000000000000  0.00000000000000  0.00000000000000  0.00000000000000  0.00000000000000  0.00000000000000  0.00000000000000  0.948677857146887  108.000000000000  0.00227191997845983  17.8059504110365  0.00227191997845983  17.8059504110365  0.948677857146887 -162.000000000000  0.948677857146887 -162.000000000000  0.00227191997845983  107.805950411037  0.00227191997845983  107.805950411036  0.00227191997845983  107.805950411037  0.00227191997845983  107.805950411036 
 55.8000000000000  0.00000000000000  0.00000000000000  0.00000000000000  0.00000000000000  0.00000000000000  0.00000000000000  0.00000000000000  0.00000000000000  0.00000000000000  0.00000000000000  0.00000000000000  0.00000000000000  0.00000000000000  0.00000000000000  0.00000000000000  0.00000000000000  0.00000000000000  0.00000000000000  0.948677857146887  111.600000000000  0.00227191997845983  21.4059504110365  0.00227191997845983  21.4059504110365  0.948677857146887 -158.400000000000  0.948677857146887 -158.400000000000  0.00227191997845983  111.405950411037  0.00227191997845983  111.405950411036  0.00227191997845983  111.405950411037  0.00227191997845983  111.405950411036 
 57.6000000000000  0.00000000000000  0.00000000000000  0.00000000000000  0.00000000000000  0.00000000000000  0.00000000000000  0.00000000000000  0.00000000000000  0.00000000000000  0.00000000000000  0.00000000000000  0.00000000000000  0.00000000000000  0.00000000000000  0.00000000000000  0.00000000000000  0.00000000000000  0.00000000000000  0.948677857146887  115.200000000000  0.00227191997845983  25.0059504110365  0.00227191997845983  25.0059504110365  0.948677857146887 -154.800000000000  0.948677857146887 -154.800000000000  0.00227191997845983  115.005950411037  0.00227191997845983  115.005950411036  0.00227191997845983  115.005950411037  0.00227191997845983  115.005950411036 
 59.4000000000000  0.00000000000000  0.00000000000000  0.00000000000000  0.00000000000000  0.00000000000000  0.00000000000000  0.00000000000000  0.00000000000000  0.00000000000000  0.00000000000000  0.00000000000000  0.00000000000000  0.00000000000000  0.00000000000000  0.00000000000000  0.00000000000000  0.00000000000000  0.00000000000000  0.948677857146887  118.800000000000  0.00227191997845983  28.6059504110365  0.00227191997845983  28.6059504110365  0.948677857146887 -151.200000000000  0.948677857146887 -151.200000000000  0.00227191997845983  118.605950411037  0.00227191997845983  118.605950411036  0.00227191997845983  118.605950411037  0.00227191997845983  118.605950411036 
 61.2000000000000  0.00000000000000  0.00000000000000  0.00000000000000  0.00000000000000  0.00000000000000  0.00000000000000  0.00000000000000  0.00000000000000  0.00000000000000  0.00000000000000  0.00000000000000  0.00000000000000  0.00000000000000  0.00000000000000  0.00000000000000  0.00000000000000  0.00000000000000  0.00000000000000  0.948677857146887  122.400000000000  0.00227191997845983  32.2059504110365  0.00227191997845983  32.2059504110365  0.948677857146887 -147.600000000000  0.948677857146887 -147.600000000000  0.00227191997845983  122.205950411037  0.00227191997845983  122.205950411036  0.00227191997845983  122.205950411037  0.00227191997845983  122.205950411036 
 63.0000000000000  0.00000000000000  0.00000000000000  0.00000000000000  0.00000000000000  0.00000000000000  0.00000000000000  0.00000000000000  0.00000000000000  0.00000000000000  0.00000000000000  0.00000000000000  0.00000000000000  0.00000000000000  0.00000000000000  0.00000000000000  0.00000000000000  0.00000000000000  0.00000000000000  0.948677857146887  126.000000000000  0.00227191997845983  35.8059504110365  0.00227191997845983  35.8059504110365  0.948677857146887 -144.000000000000  0.948677857146887 -144.000000000000  0.00227191997845983  125.805950411037  0.00227191997845983  125.805950411036  0.00227191997845983  125.805950411037  0.00227191997845983  125.805950411036 
 64.8000000000000  0.00000000000000  0.00000000000000  0.00000000000000  0.00000000000000  0.00000000000000  0.00000000000000  0.00000000000000  0.00000000000000  0.00000000000000  0.00000000000000  0.00000000000000  0.00000000000000  0.00000000000000  0.00000000000000  0.00000000000000  0.00000000000000  0.00000000000000  0.00000000000000  0.948677857146887  129.600000000000  0.00227191997845983  39.4059504110365  0.00227191997845983  39.4059504110365  0.948677857146887 -140.400000000000  0.948677857146887 -140.400000000000  0.00227191997845983  129.405950411037  0.00227191997845983  129.405950411036  0.00227191997845983  129.405950411037  0.00227191997845983  129.405950411036 
 66.6000000000000  0.00000000000000  0.00000000000000  0.00000000000000  0.00000000000000  0.00000000000000  0.00000000000000  0.00000000000000  0.00000000000000  0.00000000000000  0.00000000000000  0.00000000000000  0.00000000000000  0.00000000000000  0.00000000000000  0.00000000000000  0.00000000000000  0.00000000000000  0.00000000000000  0.948677857146887  133.200000000000  0.00227191997845983  43.0059504110365  0.00227191997845983  43.0059504110365  0.948677857146887 -136.800000000000  0.948677857146887 -136.800000000000  0.00227191997845983  133.005950411037  0.00227191997845983  133.005950411036  0.00227191997845983  133.005950411037  0.00227191997845983  133.005950411036 
 68.4000000000000  0.00000000000000  0.00000000000000  0.00000000000000  0.00000000000000  0.00000000000000  0.00000000000000  0.00000000000000  0.00000000000000  0.00000000000000  0.00000000000000  0.00000000000000  0.00000000000000  0.00000000000000  0.00000000000000  0.00000000000000  0.00000000000000  0.00000000000000  0.00000000000000  0.948677857146887  136.800000000000  0.00227191997845983  46.6059504110365  0.00227191997845983  46.6059504110365  0.948677857146887 -133.200000000000  0.948677857146887 -133.200000000000  0.00227191997845983  136.605950411037  0.00227191997845983  136.605950411036  0.00227191997845983  136.605950411037  0.00227191997845983  136.605950411036 
 70.2000000000000  0.00000000000000  0.00000000000000  0.00000000000000  0.00000000000000  0.00000000000000  0.00000000000000  0.00000000000000  0.00000000000000  0.00000000000000  0.00000000000000  0.00000000000000  0.00000000000000  0.00000000000000  0.00000000000000  0.00000000000000  0.00000000000000  0.00000000000000  0.00000000000000  0.948677857146887  140.400000000000  0.00227191997845983  50.2059504110365  0.00227191997845983  50.2059504110365  0.948677857146887 -129.600000000000  0.948677857146887 -129.600000000000  0.00227191997845983  140.205950411037  0.00227191997845983  140.205950411036  0.00227191997845983  140.205950411037  0.00227191997845983  140.205950411036 
 72.0000000000000  0.00000000000000  0.00000000000000  0.00000000000000  0.00000000000000  0.00000000000000  0.00000000000000  0.00000000000000  0.00000000000000  0.00000000000000  0.00000000000000  0.00000000000000  0.00000000000000  0.00000000000000  0.00000000000000  0.00000000000000  0.00000000000000  0.00000000000000  0.00000000000000  0.948677857146887  144.000000000000  0.00227191997845983  53.8059504110365  0.00227191997845983  53.8059504110365  0.948677857146887 -126.000000000000  0.948677857146887 -126.000000000000  0.00227191997845983  143.805950411037  0.00227191997845983  143.805950411036  0.00227191997845983  143.805950411037  0.00227191997845983  143.805950411036 
 73.8000000000000  0.00000000000000  0.00000000000000  0.00000000000000  0.00000000000000  0.00000000000000  0.00000000000000  0.00000000000000  0.00000000000000  0.00000000000000  0.00000000000000  0.00000000000000  0.00000000000000  0.00000000000000  0.00000000000000  0.00000000000000  0.00000000000000  0.00000000000000  0.00000000000000  0.948677857146887  147.600000000000  0.00227191997845983  57.4059504110365  0.00227191997845983  57.4059504110365  0.948677857146887 -122.400000000000  0.948677857146887 -122.400000000000  0.00227191997845983  147.405950411037  0.00227191997845983  147.405950411036  0.00227191997845983  147.405950411037  0.00227191997845983  147.405950411036 
 75.6000000000000  0.00000000000000  0.00000000000000  0.00000000000000  0.00000000000000  0.00000000000000  0.00000000000000  0.00000000000000  0.00000000000000  0.00000000000000  0.00000000000000  0.00000000000000  0.00000000000000  0.00000000000000  0.00000000000000  0.00000000000000  0.00000000000000  0.00000000000000  0.00000000000000  0.948677857146887  151.200000000000  0.00227191997845983  61.0059504110365  0.00227191997845983  61.0059504110365  0.948677857146887 -118.800000000000  0.948677857146887 -118.800000000000  0.00227191997845983  151.005950411037  0.00227191997845983  151.005950411036  0.00227191997845983  151.005950411037  0.00227191997845983  151.005950411036 
 77.4000000000000  0.00000000000000  0.00000000000000  0.00000000000000  0.00000000000000  0.00000000000000  0.00000000000000  0.00000000000000  0.00000000000000  0.00000000000000  0.00000000000000  0.00000000000000  0.00000000000000  0.00000000000000  0.00000000000000  0.00000000000000  0.00000000000000  0.00000000000000  0.00000000000000  0.948677857146887  154.800000000000  0.00227191997845983  64.6059504110365  0.00227191997845983  64.6059504110365  0.948677857146887 -115.200000000000  0.948677857146887 -115.200000000000  0.00227191997845983  154.605950411037  0.00227191997845983  154.605950411036  0.00227191997845983  154.605950411037  0.00227191997845983  154.605950411036 
 79.2000000000000  0.00000000000000  0.00000000000000  0.00000000000000  0.00000000000000  0.00000000000000  0.00000000000000  0.00000000000000  0.00000000000000  0.00000000000000  0.00000000000000  0.00000000000000  0.00000000000000  0.00000000000000  0.00000000000000  0.00000000000000  0.00000000000000  0.00000000000000  0.00000000000000  0.948677857146887  158.400000000000  0.00227191997845983  68.2059504110365  0.00227191997845983  68.2059504110365  0.948677857146887 -111.600000000000  0.948677857146887 -111.600000000000  0.00227191997845983  158.205950411037  0.00227191997845983  158.205950411036  0.00227191997845983  158.205950411037  0.00227191997845983  158.205950411036 
 81.0000000000000  0.00000000000000  0.00000000000000  0.00000000000000  0.00000000000000  0.00000000000000  0.00000000000000  0.00000000000000  0.00000000000000  0.00000000000000  0.00000000000000  0.00000000000000  0.00000000000000  0.00000000000000  0.00000000000000  0.00000000000000  0.00000000000000  0.00000000000000  0.00000000000000  0.948677857146887  162.000000000000  0.00227191997845983  71.8059504110365  0.00227191997845983  71.8059504110365  0.948677857146887 -108.000000000000  0.948677857146887 -108.000000000000  0.00227191997845983  161.805950411037  0.00227191997845983  161.805950411036  0.00227191997845983  161.805950411037  0.00227191997845983  161.805950411036 
 82.8000000000000  0.00000000000000  0.00000000000000  0.00000000000000  0.00000000000000  0.00000000000000  0.00000000000000  0.00000000000000  0.00000000000000  0.00000000000000  0.00000000000000  0.00000000000000  0.00000000000000  0.00000000000000  0.00000000000000  0.00000000000000  0.00000000000000  0.00000000000000  0.00000000000000  0.948677857146887  165.600000000000  0.00227191997845983  75.4059504110365  0.00227191997845983  75.4059504110365  0.948677857146887 -104.400000000000  0.948677857146887 -104.400000000000  0.00227191997845983  165.405950411037  0.00227191997845983  165.405950411036  0.00227191997845983  165.405950411037  0.00227191997845983  165.405950411036 
 84.6000000000000  0.00000000000000  0.00000000000000  0.00000000000000  0.00000000000000  0.00000000000000  0.00000000000000  0.00000000000000  0.00000000000000  0.00000000000000  0.00000000000000  0.00000000000000  0.00000000000000  0.00000000000000  0.00000000000000  0.00000000000000  0.00000000000000  0.00000000000000  0.00000000000000  0.948677857146887  169.200000000000  0.00227191997845983  79.0059504110365  0.00227191997845983  79.0059504110365  0.948677857146887 -100.800000000000  0.948677857146887 -100.800000000000  0.00227191997845983  169.005950411037  0.00227191997845983  169.005950411036  0.00227191997845983  169.005950411037  0.00227191997845983  169.005950411036 
 86.4000000000000  0.00000000000000  0.00000000000000  0.00000000000000  0.00000000000000  0.00000000000000  0.00000000000000  0.00000000000000  0.00000000000000  0.00000000000000  0.00000000000000  0.00000000000000  0.00000000000000  0.00000000000000  0.00000000000000  0.00000000000000  0.00000000000000  0.00000000000000  0.00000000000000  0.948677857146887  172.800000000000  0.00227191997845983  82.6059504110365  0.00227191997845983  82.6059504110365  0.948677857146887 -97.1999999999997  0.948677857146887 -97.2000000000003  0.00227191997845983  172.605950411037  0.00227191997845983  172.605950411036  0.00227191997845983  172.605950411037  0.00227191997845983  172.605950411036 
 88.2000000000000  0.00000000000000  0.00000000000000  0.00000000000000  0.00000000000000  0.00000000000000  0.00000000000000  0.00000000000000  0.00000000000000  0.00000000000000  0.00000000000000  0.00000000000000  0.00000000000000  0.00000000000000  0.00000000000000  0.00000000000000  0.00000000000000  0.00000000000000  0.00000000000000  0.948677857146887  176.400000000000  0.00227191997845983  86.2059504110365  0.00227191997845983  86.2059504110365  0.948677857146887 -93.5999999999997  0.948677857146887 -93.6000000000003  0.00227191997845983  176.205950411037  0.00227191997845983  176.205950411036  0.00227191997845983  176.205950411037  0.00227191997845983  176.205950411036 
 90.0000000000000  0.00000000000000  0.00000000000000  0.00000000000000  0.00000000000000  0.00000000000000  0.00000000000000  0.00000000000000  0.00000000000000  0.00000000000000  0.00000000000000  0.00000000000000  0.00000000000000  0.00000000000000  0.00000000000000  0.00000000000000  0.00000000000000  0.00000000000000  0.00000000000000  0.948677857146887  180.000000000000  0.00227191997845983  89.8059504110365  0.00227191997845983  89.8059504110365  0.948677857146887 -89.9999999999997  0.948677857146887 -90.0000000000004  0.00227191997845983  179.805950411037  0.00227191997845983  179.805950411036  0.00227191997845983  179.805950411037  0.00227191997845983  179.805950411036 
 91.8000000000000  0.00000000000000  0.00000000000000  0.00000000000000  0.00000000000000  0.00000000000000  0.00000000000000  0.00000000000000  0.00000000000000  0.00000000000000  0.00000000000000  0.00000000000000  0.00000000000000  0.00000000000000  0.00000000000000  0.00000000000000  0.00000000000000  0.00000000000000  0.00000000000000  0.948677857146887 -176.400000000000  0.00227191997845983  93.4059504110365  0.00227191997845983  93.4059504110365  0.948677857146887 -86.3999999999997  0.948677857146887 -86.4000000000003  0.00227191997845983 -176.594049588963  0.00227191997845983 -176.594049588964  0.00227191997845983 -176.594049588963  0.00227191997845983 -176.594049588964 
 93.6000000000000  0.00000000000000  0.00000000000000  0.00000000000000  0.00000000000000  0.00000000000000  0.00000000000000  0.00000000000000  0.00000000000000  0.00000000000000  0.00000000000000  0.00000000000000  0.00000000000000  0.00000000000000  0.00000000000000  0.00000000000000  0.00000000000000  0.00000000000000  0.00000000000000  0.948677857146887 -172.800000000000  0.00227191997845983  97.0059504110365  0.00227191997845983  97.0059504110365  0.948677857146887 -82.7999999999996  0.948677857146887 -82.8000000000003  0.00227191997845983 -172.994049588963  0.00227191997845983 -172.994049588964  0.00227191997845983 -172.994049588963  0.00227191997845983 -172.994049588964 
 95.4000000000000  0.00000000000000  0.00000000000000  0.00000000000000  0.00000000000000  0.00000000000000  0.00000000000000  0.00000000000000  0.00000000000000  0.00000000000000  0.00000000000000  0.00000000000000  0.00000000000000  0.00000000000000  0.00000000000000  0.00000000000000  0.00000000000000  0.00000000000000  0.00000000000000  0.948677857146887 -169.200000000000  0.00227191997845983  100.605950411037  0.00227191997845983  100.605950411037  0.948677857146887 -79.1999999999997  0.948677857146887 -79.2000000000003  0.00227191997845983 -169.394049588963  0.00227191997845983 -169.394049588964  0.00227191997845983 -169.394049588963  0.00227191997845983 -169.394049588964 
 97.2000000000000  0.00000000000000  0.00000000000000  0.00000000000000  0.00000000000000  0.00000000000000  0.00000000000000  0.00000000000000  0.00000000000000  0.00000000000000  0.00000000000000  0.00000000000000  0.00000000000000  0.00000000000000  0.00000000000000  0.00000000000000  0.00000000000000  0.00000000000000  0.00000000000000  0.948677857146887 -165.600000000000  0.00227191997845983  104.205950411037  0.00227191997845983  104.205950411037  0.948677857146887 -75.5999999999997  0.948677857146887 -75.6000000000003  0.00227191997845983 -165.794049588963  0.00227191997845983 -165.794049588964  0.00227191997845983 -165.794049588963  0.00227191997845983 -165.794049588964 
 99.0000000000000  0.00000000000000  0.00000000000000  0.00000000000000  0.00000000000000  0.00000000000000  0.00000000000000  0.00000000000000  0.00000000000000  0.00000000000000  0.00000000000000  0.00000000000000  0.00000000000000  0.00000000000000  0.00000000000000  0.00000000000000  0.00000000000000  0.00000000000000  0.00000000000000  0.948677857146887 -162.000000000000  0.00227191997845983  107.805950411037  0.00227191997845983  107.805950411037  0.948677857146887 -71.9999999999997  0.948677857146887 -72.0000000000004  0.00227191997845983 -162.194049588963  0.00227191997845983 -162.194049588964  0.00227191997845983 -162.194049588963  0.00227191997845983 -162.194049588964 
 100.800000000000  0.00000000000000  0.00000000000000  0.00000000000000  0.00000000000000  0.00000000000000  0.00000000000000  0.00000000000000  0.00000000000000  0.00000000000000  0.00000000000000  0.00000000000000  0.00000000000000  0.00000000000000  0.00000000000000  0.00000000000000  0.00000000000000  0.00000000000000  0.00000000000000  0.948677857146887 -158.400000000000  0.00227191997845983  111.405950411037  0.00227191997845983  111.405950411037  0.948677857146887 -68.3999999999996  0.948677857146887 -68.4000000000004  0.00227191997845983 -158.594049588963  0.00227191997845983 -158.594049588964  0.00227191997845983 -158.594049588963  0.00227191997845983 -158.594049588964 
 102.600000000000  0.00000000000000  0.00000000000000  0.00000000000000  0.00000000000000  0.00000000000000  0.00000000000000  0.00000000000000  0.00000000000000  0.00000000000000  0.00000000000000  0.00000000000000  0.00000000000000  0.00000000000000  0.00000000000000  0.00000000000000  0.00000000000000  0.00000000000000  0.00000000000000  0.948677857146887 -154.800000000000  0.00227191997845983  115.005950411037  0.00227191997845983  115.005950411037  0.948677857146887 -64.7999999999996  0.948677857146887 -64.8000000000004  0.00227191997845983 -154.994049588963  0.00227191997845983 -154.994049588964  0.00227191997845983 -154.994049588963  0.00227191997845983 -154.994049588964 
 104.400000000000  0.00000000000000  0.00000000000000  0.00000000000000  0.00000000000000  0.00000000000000  0.00000000000000  0.00000000000000  0.00000000000000  0.00000000000000  0.00000000000000  0.00000000000000  0.00000000000000  0.00000000000000  0.00000000000000  0.00000000000000  0.00000000000000  0.00000000000000  0.00000000000000  0.948677857146887 -151.200000000000  0.00227191997845983  118.605950411037  0.00227191997845983  118.605950411037  0.948677857146887 -61.1999999999996  0.948677857146887 -61.2000000000004  0.00227191997845983 -151.394049588963  0.00227191997845983 -151.394049588964  0.00227191997845983 -151.394049588963  0.00227191997845983 -151.394049588964 
 106.200000000000  0.00000000000000  0.00000000000000  0.00000000000000  0.00000000000000  0.00000000000000  0.00000000000000  0.00000000000000  0.00000000000000  0.00000000000000  0.00000000000000  0.00000000000000  0.00000000000000  0.00000000000000  0.00000000000000  0.00000000000000  0.00000000000000  0.00000000000000  0.00000000000000  0.948677857146887 -147.600000000000  0.00227191997845983  122.205950411037  0.00227191997845983  122.205950411037  0.948677857146887 -57.5999999999996  0.948677857146887 -57.6000000000003  0.00227191997845983 -147.794049588963  0.00227191997845983 -147.794049588964  0.00227191997845983 -147.794049588963  0.00227191997845983 -147.794049588964 
 108.000000000000  0.00000000000000  0.00000000000000  0.00000000000000  0.00000000000000  0.00000000000000  0.00000000000000  0.00000000000000  0.00000000000000  0.00000000000000  0.00000000000000  0.00000000000000  0.00000000000000  0.00000000000000  0.00000000000000  0.00000000000000  0.00000000000000  0.00000000000000  0.00000000000000  0.948677857146887 -144.000000000000  0.00227191997845983  125.805950411036  0.00227191997845983  125.805950411036  0.948677857146887 -53.9999999999996  0.948677857146887 -54.0000000000004  0.00227191997845983 -144.194049588963  0.00227191997845983 -144.194049588964  0.00227191997845983 -144.194049588963  0.00227191997845983 -144.194049588964 
 109.800000000000  0.00000000000000  0.00000000000000  0.00000000000000  0.00000000000000  0.00000000000000  0.00000000000000  0.00000000000000  0.00000000000000  0.00000000000000  0.00000000000000  0.00000000000000  0.00000000000000  0.00000000000000  0.00000000000000  0.00000000000000  0.00000000000000  0.00000000000000  0.00000000000000  0.948677857146887 -140.400000000000  0.00227191997845983  129.405950411037  0.00227191997845983  129.405950411037  0.948677857146887 -50.3999999999996  0.948677857146887 -50.4000000000004  0.00227191997845983 -140.594049588963  0.00227191997845983 -140.594049588964  0.00227191997845983 -140.594049588963  0.00227191997845983 -140.594049588964 
 111.600000000000  0.00000000000000  0.00000000000000  0.00000000000000  0.00000000000000  0.00000000000000  0.00000000000000  0.00000000000000  0.00000000000000  0.00000000000000  0.00000000000000  0.00000000000000  0.00000000000000  0.00000000000000  0.00000000000000  0.00000000000000  0.00000000000000  0.00000000000000  0.00000000000000  0.948677857146887 -136.800000000000  0.00227191997845983  133.005950411037  0.00227191997845983  133.005950411037  0.948677857146887 -46.7999999999996  0.948677857146887 -46.8000000000004  0.00227191997845983 -136.994049588963  0.00227191997845983 -136.994049588964  0.00227191997845983 -136.994049588963  0.00227191997845983 -136.994049588964 
 113.400000000000  0.00000000000000  0.00000000000000  0.00000000000000  0.00000000000000  0.00000000000000  0.00000000000000  0.00000000000000  0.00000000000000  0.00000000000000  0.00000000000000  0.00000000000000  0.00000000000000  0.00000000000000  0.00000000000000  0.00000000000000  0.00000000000000  0.00000000000000  0.00000000000000  0.948677857146887 -133.200000000000  0.00227191997845983  136.605950411037  0.00227191997845983  136.605950411037  0.948677857146887 -43.1999999999996  0.948677857146887 -43.2000000000004  0.00227191997845983 -133.394049588963  0.00227191997845983 -133.394049588964  0.00227191997845983 -133.394049588963  0.00227191997845983 -133.394049588964 
 115.200000000000  0.00000000000000  0.00000000000000  0.00000000000000  0.00000000000000  0.00000000000000  0.00000000000000  0.00000000000000  0.00000000000000  0.00000000000000  0.00000000000000  0.00000000000000  0.00000000000000  0.00000000000000  0.00000000000000  0.00000000000000  0.00000000000000  0.00000000000000  0.00000000000000  0.948677857146887 -129.600000000000  0.00227191997845983  140.205950411037  0.00227191997845983  140.205950411037  0.948677857146887 -39.5999999999996  0.948677857146887 -39.6000000000003  0.00227191997845983 -129.794049588963  0.00227191997845983 -129.794049588964  0.00227191997845983 -129.794049588963  0.00227191997845983 -129.794049588964 
 117.000000000000  0.00000000000000  0.00000000000000  0.00000000000000  0.00000000000000  0.00000000000000  0.00000000000000  0.00000000000000  0.00000000000000  0.00000000000000  0.00000000000000  0.00000000000000  0.00000000000000  0.00000000000000  0.00000000000000  0.00000000000000  0.00000000000000  0.00000000000000  0.00000000000000  0.948677857146887 -126.000000000000  0.00227191997845983  143.805950411037  0.00227191997845983  143.805950411037  0.948677857146887 -35.9999999999996  0.948677857146887 -36.0000000000005  0.00227191997845983 -126.194049588963  0.00227191997845983 -126.194049588964  0.00227191997845983 -126.194049588963  0.00227191997845983 -126.194049588964 
 118.800000000000  0.00000000000000  0.00000000000000  0.00000000000000  0.00000000000000  0.00000000000000  0.00000000000000  0.00000000000000  0.00000000000000  0.00000000000000  0.00000000000000  0.00000000000000  0.00000000000000  0.00000000000000  0.00000000000000  0.00000000000000  0.00000000000000  0.00000000000000  0.00000000000000  0.948677857146887 -122.400000000000  0.00227191997845983  147.405950411036  0.00227191997845983  147.405950411036  0.948677857146887 -32.3999999999996  0.948677857146887 -32.4000000000004  0.00227191997845983 -122.594049588963  0.00227191997845983 -122.594049588964  0.00227191997845983 -122.594049588963  0.00227191997845983 -122.594049588964 
 120.600000000000  0.00000000000000  0.00000000000000  0.00000000000000  0.00000000000000  0.00000000000000  0.00000000000000  0.00000000000000  0.00000000000000  0.00000000000000  0.00000000000000  0.00000000000000  0.00000000000000  0.00000000000000  0.00000000000000  0.00000000000000  0.00000000000000  0.00000000000000  0.00000000000000  0.948677857146887 -118.800000000000  0.00227191997845983  151.005950411037  0.00227191997845983  151.005950411037  0.948677857146887 -28.7999999999995  0.948677857146887 -28.8000000000004  0.00227191997845983 -118.994049588963  0.00227191997845983 -118.994049588964  0.00227191997845983 -118.994049588963  0.00227191997845983 -118.994049588964 
 122.400000000000  0.00000000000000  0.00000000000000  0.00000000000000  0.00000000000000  0.00000000000000  0.00000000000000  0.00000000000000  0.00000000000000  0.00000000000000  0.00000000000000  0.00000000000000  0.00000000000000  0.00000000000000  0.00000000000000  0.00000000000000  0.00000000000000  0.00000000000000  0.00000000000000  0.948677857146887 -115.200000000000  0.00227191997845983  154.605950411037  0.00227191997845983  154.605950411037  0.948677857146887 -25.1999999999996  0.948677857146887 -25.2000000000004  0.00227191997845983 -115.394049588963  0.00227191997845983 -115.394049588964  0.00227191997845983 -115.394049588963  0.00227191997845983 -115.394049588964 
 124.200000000000  0.00000000000000  0.00000000000000  0.00000000000000  0.00000000000000  0.00000000000000  0.00000000000000  0.00000000000000  0.00000000000000  0.00000000000000  0.00000000000000  0.00000000000000  0.00000000000000  0.00000000000000  0.00000000000000  0.00000000000000  0.00000000000000  0.00000000000000  0.00000000000000  0.948677857146887 -111.600000000000  0.00227191997845983  158.205950411037  0.00227191997845983  158.205950411037  0.948677857146887 -21.5999999999996  0.948677857146887 -21.6000000000005  0.00227191997845983 -111.794049588963  0.00227191997845983 -111.794049588964  0.00227191997845983 -111.794049588963  0.00227191997845983 -111.794049588964 
 126.000000000000  0.00000000000000  0.00000000000000  0.00000000000000  0.00000000000000  0.00000000000000  0.00000000000000  0.00000000000000  0.00000000000000  0.00000000000000  0.00000000000000  0.00000000000000  0.00000000000000  0.00000000000000  0.00000000000000  0.00000000000000  0.00000000000000  0.00000000000000  0.00000000000000  0.948677857146887 -108.000000000000  0.00227191997845983  161.805950411037  0.00227191997845983  161.805950411037  0.948677857146887 -17.9999999999996  0.948677857146887 -18.0000000000005  0.00227191997845983 -108.194049588963  0.00227191997845983 -108.194049588964  0.00227191997845983 -108.194049588963  0.00227191997845983 -108.194049588964 
 127.800000000000  0.00000000000000  0.00000000000000  0.00000000000000  0.00000000000000  0.00000000000000  0.00000000000000  0.00000000000000  0.00000000000000  0.00000000000000  0.00000000000000  0.00000000000000  0.00000000000000  0.00000000000000  0.00000000000000  0.00000000000000  0.00000000000000  0.00000000000000  0.00000000000000  0.948677857146887 -104.400000000000  0.00227191997845983  165.405950411036  0.00227191997845983  165.405950411036  0.948677857146887 -14.3999999999995  0.948677857146887 -14.4000000000004  0.00227191997845983 -104.594049588963  0.00227191997845983 -104.594049588964  0.00227191997845983 -104.594049588963  0.00227191997845983 -104.594049588964 
 129.600000000000  0.00000000000000  0.00000000000000  0.00000000000000  0.00000000000000  0.00000000000000  0.00000000000000  0.00000000000000  0.00000000000000  0.00000000000000  0.00000000000000  0.00000000000000  0.00000000000000  0.00000000000000  0.00000000000000  0.00000000000000  0.00000000000000  0.00000000000000  0.00000000000000  0.948677857146887 -100.800000000000  0.00227191997845983  169.005950411037  0.00227191997845983  169.005950411037  0.948677857146887 -10.7999999999995  0.948677857146887 -10.8000000000005  0.00227191997845983 -100.994049588963  0.00227191997845983 -100.994049588964  0.00227191997845983 -100.994049588963  0.00227191997845983 -100.994049588964 
 131.400000000000  0.00000000000000  0.00000000000000  0.00000000000000  0.00000000000000  0.00000000000000  0.00000000000000  0.00000000000000  0.00000000000000  0.00000000000000  0.00000000000000  0.00000000000000  0.00000000000000  0.00000000000000  0.00000000000000  0.00000000000000  0.00000000000000  0.00000000000000  0.00000000000000  0.948677857146887 -97.2000000000000  0.00227191997845983  172.605950411037  0.00227191997845983  172.605950411037  0.948677857146887 -7.19999999999952  0.948677857146887 -7.20000000000043  0.00227191997845983 -97.3940495889630  0.00227191997845983 -97.3940495889639  0.00227191997845983 -97.3940495889630  0.00227191997845983 -97.3940495889639 
 133.200000000000  0.00000000000000  0.00000000000000  0.00000000000000  0.00000000000000  0.00000000000000  0.00000000000000  0.00000000000000  0.00000000000000  0.00000000000000  0.00000000000000  0.00000000000000  0.00000000000000  0.00000000000000  0.00000000000000  0.00000000000000  0.00000000000000  0.00000000000000  0.00000000000000  0.948677857146887 -93.6000000000000  0.00227191997845983  176.205950411037  0.00227191997845983  176.205950411037  0.948677857146887 -3.59999999999954  0.948677857146887 -3.60000000000045  0.00227191997845983 -93.7940495889630  0.00227191997845983 -93.7940495889639  0.00227191997845983 -93.7940495889630  0.00227191997845983 -93.7940495889639 
 135.000000000000  0.00000000000000  0.00000000000000  0.00000000000000  0.00000000000000  0.00000000000000  0.00000000000000  0.00000000000000  0.00000000000000  0.00000000000000  0.00000000000000  0.00000000000000  0.00000000000000  0.00000000000000  0.00000000000000  0.00000000000000  0.00000000000000  0.00000000000000  0.00000000000000  0.948677857146887 -90.0000000000000  0.00227191997845983  179.805950411037  0.00227191997845983  179.805950411037  0.948677857146887  4.43988072734131e-13  0.948677857146887 -4.72011675527362e-13  0.00227191997845983 -90.1940495889631  0.00227191997845983 -90.1940495889640  0.00227191997845983 -90.1940495889631  0.00227191997845983 -90.1940495889640 
 136.800000000000  0.00000000000000  0.00000000000000  0.00000000000000  0.00000000000000  0.00000000000000  0.00000000000000  0.00000000000000  0.00000000000000  0.00000000000000  0.00000000000000  0.00000000000000  0.00000000000000  0.00000000000000  0.00000000000000  0.00000000000000  0.00000000000000  0.00000000000000  0.00000000000000  0.948677857146887 -86.4000000000000  0.00227191997845983 -176.594049588963  0.00227191997845983 -176.594049588963  0.948677857146887  3.60000000000052  0.948677857146887  3.59999999999951  0.00227191997845983 -86.5940495889630  0.00227191997845983 -86.5940495889640  0.00227191997845983 -86.5940495889630  0.00227191997845983 -86.5940495889640 
 138.600000000000  0.00000000000000  0.00000000000000  0.00000000000000  0.00000000000000  0.00000000000000  0.00000000000000  0.00000000000000  0.00000000000000  0.00000000000000  0.00000000000000  0.00000000000000  0.00000000000000  0.00000000000000  0.00000000000000  0.00000000000000  0.00000000000000  0.00000000000000  0.00000000000000  0.948677857146887 -82.8000000000000  0.00227191997845983 -172.994049588963  0.00227191997845983 -172.994049588963  0.948677857146887  7.20000000000050  0.948677857146887  7.19999999999949  0.00227191997845983 -82.9940495889630  0.00227191997845983 -82.9940495889640  0.00227191997845983 -82.9940495889630  0.00227191997845983 -82.9940495889640 
 140.400000000000  0.00000000000000  0.00000000000000  0.00000000000000  0.00000000000000  0.00000000000000  0.00000000000000  0.00000000000000  0.00000000000000  0.00000000000000  0.00000000000000  0.00000000000000  0.00000000000000  0.00000000000000  0.00000000000000  0.00000000000000  0.00000000000000  0.00000000000000  0.00000000000000  0.948677857146887 -79.2000000000000  0.00227191997845983 -169.394049588963  0.00227191997845983 -169.394049588963  0.948677857146887  10.8000000000005  0.948677857146887  10.7999999999995  0.00227191997845983 -79.3940495889630  0.00227191997845983 -79.3940495889640  0.00227191997845983 -79.3940495889630  0.00227191997845983 -79.3940495889640 
 142.200000000000  0.00000000000000  0.00000000000000  0.00000000000000  0.00000000000000  0.00000000000000  0.00000000000000  0.00000000000000  0.00000000000000  0.00000000000000  0.00000000000000  0.00000000000000  0.00000000000000  0.00000000000000  0.00000000000000  0.00000000000000  0.00000000000000  0.00000000000000  0.00000000000000  0.948677857146887 -75.6000000000000  0.00227191997845983 -165.794049588963  0.00227191997845983 -165.794049588963  0.948677857146887  14.4000000000005  0.948677857146887  14.3999999999995  0.00227191997845983 -75.7940495889630  0.00227191997845983 -75.7940495889640  0.00227191997845983 -75.7940495889630  0.00227191997845983 -75.7940495889640 
 144.000000000000  0.00000000000000  0.00000000000000  0.00000000000000  0.00000000000000  0.00000000000000  0.00000000000000  0.00000000000000  0.00000000000000  0.00000000000000  0.00000000000000  0.00000000000000  0.00000000000000  0.00000000000000  0.00000000000000  0.00000000000000  0.00000000000000  0.00000000000000  0.00000000000000  0.948677857146887 -72.0000000000000  0.00227191997845983 -162.194049588964  0.00227191997845983 -162.194049588964  0.948677857146887  18.0000000000005  0.948677857146887  17.9999999999995  0.00227191997845983 -72.1940495889630  0.00227191997845983 -72.1940495889640  0.00227191997845983 -72.1940495889630  0.00227191997845983 -72.1940495889640 
 145.800000000000  0.00000000000000  0.00000000000000  0.00000000000000  0.00000000000000  0.00000000000000  0.00000000000000  0.00000000000000  0.00000000000000  0.00000000000000  0.00000000000000  0.00000000000000  0.00000000000000  0.00000000000000  0.00000000000000  0.00000000000000  0.00000000000000  0.00000000000000  0.00000000000000  0.948677857146887 -68.4000000000000  0.00227191997845983 -158.594049588963  0.00227191997845983 -158.594049588963  0.948677857146887  21.6000000000005  0.948677857146887  21.5999999999995  0.00227191997845983 -68.5940495889630  0.00227191997845983 -68.5940495889640  0.00227191997845983 -68.5940495889630  0.00227191997845983 -68.5940495889640 
 147.600000000000  0.00000000000000  0.00000000000000  0.00000000000000  0.00000000000000  0.00000000000000  0.00000000000000  0.00000000000000  0.00000000000000  0.00000000000000  0.00000000000000  0.00000000000000  0.00000000000000  0.00000000000000  0.00000000000000  0.00000000000000  0.00000000000000  0.00000000000000  0.00000000000000  0.948677857146887 -64.8000000000000  0.00227191997845983 -154.994049588963  0.00227191997845983 -154.994049588963  0.948677857146887  25.2000000000005  0.948677857146887  25.1999999999995  0.00227191997845983 -64.9940495889630  0.00227191997845983 -64.9940495889640  0.00227191997845983 -64.9940495889630  0.00227191997845983 -64.9940495889640 
 149.400000000000  0.00000000000000  0.00000000000000  0.00000000000000  0.00000000000000  0.00000000000000  0.00000000000000  0.00000000000000  0.00000000000000  0.00000000000000  0.00000000000000  0.00000000000000  0.00000000000000  0.00000000000000  0.00000000000000  0.00000000000000  0.00000000000000  0.00000000000000  0.00000000000000  0.948677857146887 -61.2000000000000  0.00227191997845983 -151.394049588963  0.00227191997845983 -151.394049588963  0.948677857146887  28.8000000000005  0.948677857146887  28.7999999999995  0.00227191997845983 -61.3940495889630  0.00227191997845983 -61.3940495889640  0.00227191997845983 -61.3940495889630  0.00227191997845983 -61.3940495889640 
 151.200000000000  0.00000000000000  0.00000000000000  0.00000000000000  0.00000000000000  0.00000000000000  0.00000000000000  0.00000000000000  0.00000000000000  0.00000000000000  0.00000000000000  0.00000000000000  0.00000000000000  0.00000000000000  0.00000000000000  0.00000000000000  0.00000000000000  0.00000000000000  0.00000000000000  0.948677857146887 -57.6000000000000  0.00227191997845983 -147.794049588963  0.00227191997845983 -147.794049588963  0.948677857146887  32.4000000000005  0.948677857146887  32.3999999999995  0.00227191997845983 -57.7940495889630  0.00227191997845983 -57.7940495889640  0.00227191997845983 -57.7940495889630  0.00227191997845983 -57.7940495889640 
 153.000000000000  0.00000000000000  0.00000000000000  0.00000000000000  0.00000000000000  0.00000000000000  0.00000000000000  0.00000000000000  0.00000000000000  0.00000000000000  0.00000000000000  0.00000000000000  0.00000000000000  0.00000000000000  0.00000000000000  0.00000000000000  0.00000000000000  0.00000000000000  0.00000000000000  0.948677857146887 -54.0000000000000  0.00227191997845983 -144.194049588964  0.00227191997845983 -144.194049588964  0.948677857146887  36.0000000000006  0.948677857146887  35.9999999999994  0.00227191997845983 -54.1940495889629  0.00227191997845983 -54.1940495889641  0.00227191997845983 -54.1940495889629  0.00227191997845983 -54.1940495889641 
 154.800000000000  0.00000000000000  0.00000000000000  0.00000000000000  0.00000000000000  0.00000000000000  0.00000000000000  0.00000000000000  0.00000000000000  0.00000000000000  0.00000000000000  0.00000000000000  0.00000000000000  0.00000000000000  0.00000000000000  0.00000000000000  0.00000000000000  0.00000000000000  0.00000000000000  0.948677857146887 -50.4000000000000  0.00227191997845983 -140.594049588963  0.00227191997845983 -140.594049588963  0.948677857146887  39.6000000000006  0.948677857146887  39.5999999999995  0.00227191997845983 -50.5940495889629  0.00227191997845983 -50.5940495889640  0.00227191997845983 -50.5940495889629  0.00227191997845983 -50.5940495889640 
 156.600000000000  0.00000000000000  0.00000000000000  0.00000000000000  0.00000000000000  0.00000000000000  0.00000000000000  0.00000000000000  0.00000000000000  0.00000000000000  0.00000000000000  0.00000000000000  0.00000000000000  0.00000000000000  0.00000000000000  0.00000000000000  0.00000000000000  0.00000000000000  0.00000000000000  0.948677857146887 -46.8000000000000  0.00227191997845983 -136.994049588963  0.00227191997845983 -136.994049588963  0.948677857146887  43.2000000000005  0.948677857146887  43.1999999999994  0.00227191997845983 -46.9940495889629  0.00227191997845983 -46.9940495889641  0.00227191997845983 -46.9940495889629  0.00227191997845983 -46.9940495889641 
 158.400000000000  0.00000000000000  0.00000000000000  0.00000000000000  0.00000000000000  0.00000000000000  0.00000000000000  0.00000000000000  0.00000000000000  0.00000000000000  0.00000000000000  0.00000000000000  0.00000000000000  0.00000000000000  0.00000000000000  0.00000000000000  0.00000000000000  0.00000000000000  0.00000000000000  0.948677857146887 -43.2000000000000  0.00227191997845983 -133.394049588963  0.00227191997845983 -133.394049588963  0.948677857146887  46.8000000000006  0.948677857146887  46.7999999999994  0.00227191997845983 -43.3940495889629  0.00227191997845983 -43.3940495889641  0.00227191997845983 -43.3940495889629  0.00227191997845983 -43.3940495889641 
 160.200000000000  0.00000000000000  0.00000000000000  0.00000000000000  0.00000000000000  0.00000000000000  0.00000000000000  0.00000000000000  0.00000000000000  0.00000000000000  0.00000000000000  0.00000000000000  0.00000000000000  0.00000000000000  0.00000000000000  0.00000000000000  0.00000000000000  0.00000000000000  0.00000000000000  0.948677857146887 -39.6000000000000  0.00227191997845983 -129.794049588963  0.00227191997845983 -129.794049588963  0.948677857146887  50.4000000000006  0.948677857146887  50.3999999999994  0.00227191997845983 -39.7940495889629  0.00227191997845983 -39.7940495889641  0.00227191997845983 -39.7940495889629  0.00227191997845983 -39.7940495889641 
 162.000000000000  0.00000000000000  0.00000000000000  0.00000000000000  0.00000000000000  0.00000000000000  0.00000000000000  0.00000000000000  0.00000000000000  0.00000000000000  0.00000000000000  0.00000000000000  0.00000000000000  0.00000000000000  0.00000000000000  0.00000000000000  0.00000000000000  0.00000000000000  0.00000000000000  0.948677857146887 -36.0000000000000  0.00227191997845983 -126.194049588964  0.00227191997845983 -126.194049588964  0.948677857146887  54.0000000000005  0.948677857146887  53.9999999999994  0.00227191997845983 -36.1940495889629  0.00227191997845983 -36.1940495889641  0.00227191997845983 -36.1940495889629  0.00227191997845983 -36.1940495889641 
 163.800000000000  0.00000000000000  0.00000000000000  0.00000000000000  0.00000000000000  0.00000000000000  0.00000000000000  0.00000000000000  0.00000000000000  0.00000000000000  0.00000000000000  0.00000000000000  0.00000000000000  0.00000000000000  0.00000000000000  0.00000000000000  0.00000000000000  0.00000000000000  0.00000000000000  0.948677857146887 -32.4000000000000  0.00227191997845983 -122.594049588963  0.00227191997845983 -122.594049588963  0.948677857146887  57.6000000000006  0.948677857146887  57.5999999999995  0.00227191997845983 -32.5940495889629  0.00227191997845983 -32.5940495889640  0.00227191997845983 -32.5940495889629  0.00227191997845983 -32.5940495889640 
 165.600000000000  0.00000000000000  0.00000000000000  0.00000000000000  0.00000000000000  0.00000000000000  0.00000000000000  0.00000000000000  0.00000000000000  0.00000000000000  0.00000000000000  0.00000000000000  0.00000000000000  0.00000000000000  0.00000000000000  0.00000000000000  0.00000000000000  0.00000000000000  0.00000000000000  0.948677857146887 -28.8000000000000  0.00227191997845983 -118.994049588963  0.00227191997845983 -118.994049588963  0.948677857146887  61.2000000000006  0.948677857146887  61.1999999999994  0.00227191997845983 -28.9940495889629  0.00227191997845983 -28.9940495889641  0.00227191997845983 -28.9940495889629  0.00227191997845983 -28.9940495889641 
 167.400000000000  0.00000000000000  0.00000000000000  0.00000000000000  0.00000000000000  0.00000000000000  0.00000000000000  0.00000000000000  0.00000000000000  0.00000000000000  0.00000000000000  0.00000000000000  0.00000000000000  0.00000000000000  0.00000000000000  0.00000000000000  0.00000000000000  0.00000000000000  0.00000000000000  0.948677857146887 -25.2000000000000  0.00227191997845983 -115.394049588963  0.00227191997845983 -115.394049588963  0.948677857146887  64.8000000000006  0.948677857146887  64.7999999999994  0.00227191997845983 -25.3940495889629  0.00227191997845983 -25.3940495889641  0.00227191997845983 -25.3940495889629  0.00227191997845983 -25.3940495889641 
 169.200000000000  0.00000000000000  0.00000000000000  0.00000000000000  0.00000000000000  0.00000000000000  0.00000000000000  0.00000000000000  0.00000000000000  0.00000000000000  0.00000000000000  0.00000000000000  0.00000000000000  0.00000000000000  0.00000000000000  0.00000000000000  0.00000000000000  0.00000000000000  0.00000000000000  0.948677857146887 -21.6000000000000  0.00227191997845983 -111.794049588963  0.00227191997845983 -111.794049588963  0.948677857146887  68.4000000000007  0.948677857146887  68.3999999999994  0.00227191997845983 -21.7940495889628  0.00227191997845983 -21.7940495889641  0.00227191997845983 -21.7940495889628  0.00227191997845983 -21.7940495889641 
 171.000000000000  0.00000000000000  0.00000000000000  0.00000000000000  0.00000000000000  0.00000000000000  0.00000000000000  0.00000000000000  0.00000000000000  0.00000000000000  0.00000000000000  0.00000000000000  0.00000000000000  0.00000000000000  0.00000000000000  0.00000000000000  0.00000000000000  0.00000000000000  0.00000000000000  0.948677857146887 -18.0000000000000  0.00227191997845983 -108.194049588964  0.00227191997845983 -108.194049588964  0.948677857146887  72.0000000000006  0.948677857146887  71.9999999999994  0.00227191997845983 -18.1940495889629  0.00227191997845983 -18.1940495889641  0.00227191997845983 -18.1940495889629  0.00227191997845983 -18.1940495889641 
 172.800000000000  0.00000000000000  0.00000000000000  0.00000000000000  0.00000000000000  0.00000000000000  0.00000000000000  0.00000000000000  0.00000000000000  0.00000000000000  0.00000000000000  0.00000000000000  0.00000000000000  0.00000000000000  0.00000000000000  0.00000000000000  0.00000000000000  0.00000000000000  0.00000000000000  0.948677857146887 -14.4000000000000  0.00227191997845983 -104.594049588963  0.00227191997845983 -104.594049588963  0.948677857146887  75.6000000000006  0.948677857146887  75.5999999999994  0.00227191997845983 -14.5940495889629  0.00227191997845983 -14.5940495889641  0.00227191997845983 -14.5940495889629  0.00227191997845983 -14.5940495889641 
 174.600000000000  0.00000000000000  0.00000000000000  0.00000000000000  0.00000000000000  0.00000000000000  0.00000000000000  0.00000000000000  0.00000000000000  0.00000000000000  0.00000000000000  0.00000000000000  0.00000000000000  0.00000000000000  0.00000000000000  0.00000000000000  0.00000000000000  0.00000000000000  0.00000000000000  0.948677857146887 -10.8000000000000  0.00227191997845983 -100.994049588963  0.00227191997845983 -100.994049588963  0.948677857146887  79.2000000000006  0.948677857146887  79.1999999999993  0.00227191997845983 -10.9940495889629  0.00227191997845983 -10.9940495889642  0.00227191997845983 -10.9940495889629  0.00227191997845983 -10.9940495889642 
 176.400000000000  0.00000000000000  0.00000000000000  0.00000000000000  0.00000000000000  0.00000000000000  0.00000000000000  0.00000000000000  0.00000000000000  0.00000000000000  0.00000000000000  0.00000000000000  0.00000000000000  0.00000000000000  0.00000000000000  0.00000000000000  0.00000000000000  0.00000000000000  0.00000000000000  0.948677857146887 -7.19999999999997  0.00227191997845983 -97.3940495889635  0.00227191997845983 -97.3940495889635  0.948677857146887  82.8000000000006  0.948677857146887  82.7999999999994  0.00227191997845983 -7.39404958896285  0.00227191997845983 -7.39404958896413  0.00227191997845983 -7.39404958896285  0.00227191997845983 -7.39404958896413 
 178.200000000000  0.00000000000000  0.00000000000000  0.00000000000000  0.00000000000000  0.00000000000000  0.00000000000000  0.00000000000000  0.00000000000000  0.00000000000000  0.00000000000000  0.00000000000000  0.00000000000000  0.00000000000000  0.00000000000000  0.00000000000000  0.00000000000000  0.00000000000000  0.00000000000000  0.948677857146887 -3.59999999999999  0.00227191997845983 -93.7940495889635  0.00227191997845983 -93.7940495889635  0.948677857146887  86.4000000000007  0.948677857146887  86.3999999999994  0.00227191997845983 -3.79404958896282  0.00227191997845983 -3.79404958896410  0.00227191997845983 -3.79404958896282  0.00227191997845983 -3.79404958896410 
 180.000000000000  0.00000000000000  0.00000000000000  0.00000000000000  0.00000000000000  0.00000000000000  0.00000000000000  0.00000000000000  0.00000000000000  0.00000000000000  0.00000000000000  0.00000000000000  0.00000000000000  0.00000000000000  0.00000000000000  0.00000000000000  0.00000000000000  0.00000000000000  0.00000000000000  0.948677857146887 -1.40118013966156e-14  0.00227191997845983 -90.1940495889635  0.00227191997845983 -90.1940495889635  0.948677857146887  90.0000000000006  0.948677857146887  89.9999999999994  0.00227191997845983 -0.194049588962894  0.00227191997845983 -0.194049588964116  0.00227191997845983 -0.194049588962894  0.00227191997845983 -0.194049588964116 
