-2.00000000000000e-12  2089.99086999652 
-1.80000000000000e-12  2090.05278255319 
-1.60000000000000e-12  2090.11469511854 
-1.40000000000000e-12  2090.17660767522 
-1.20000000000000e-12  2090.23852020589 
-1.00000000000000e-12  2090.30043280595 
-8.00000000000000e-13  2090.36234535398 
-6.00000000000000e-13  2090.42425791936 
-4.00000000000000e-13  2090.48617046740 
-2.00000000000000e-13  2090.54808303279 
 0.00000000000000  2090.60999559819 
