-2.00000000000000e-12 -2094.76387138925 
-1.80000000000000e-12 -2094.34849080874 
-1.60000000000000e-12 -2093.93311015883 
-1.40000000000000e-12 -2093.51772959566 
-1.20000000000000e-12 -2093.10234899779 
-1.00000000000000e-12 -2092.68696838257 
-8.00000000000000e-13 -2092.27158780205 
-6.00000000000000e-13 -2091.85620720418 
-4.00000000000000e-13 -2091.44082658895 
-2.00000000000000e-13 -2091.02544601710 
 0.00000000000000 -2090.61006538453 
