 10.0000000000000  1.05708857827809e-12  7.73472624813425e-29  1.28912104135571e-31 
 10.2329299228075  1.05710480989867e-12  7.73484501504211e-29  1.28914083584035e-31 
 10.4712854805090  1.05712164718728e-12  7.73496821362809e-29  1.28916136893802e-31 
 10.7151930523761  1.05713907970386e-12  7.73509576750236e-29  1.28918262791706e-31 
 10.9647819614319  1.05715709080185e-12  7.73522755486174e-29  1.28920459247696e-31 
 11.2201845430196  1.05717565671602e-12  7.73536340181590e-29  1.28922723363598e-31 
 11.4815362149688  1.05719474557423e-12  7.73550307515616e-29  1.28925051252603e-31 
 11.7489755493953  1.05721431630902e-12  7.73564627439147e-29  1.28927437906525e-31 
 12.0226443461741  1.05723431750930e-12  7.73579262334646e-29  1.28929877055774e-31 
 12.3026877081238  1.05725468615351e-12  7.73594166089189e-29  1.28932361014865e-31 
 12.5892541179417  1.05727534628586e-12  7.73609283125855e-29  1.28934880520976e-31 
 12.8824955169313  1.05729620758955e-12  7.73624547359771e-29  1.28937424559962e-31 
 13.1825673855641  1.05731716390195e-12  7.73639881111631e-29  1.28939980185272e-31 
 13.4896288259165  1.05733809165653e-12  7.73655193967713e-29  1.28942532327952e-31 
 13.8038426460289  1.05735884825443e-12  7.73670381588308e-29  1.28945063598051e-31 
 14.1253754462275  1.05737927042488e-12  7.73685324508046e-29  1.28947554084674e-31 
 14.4543977074593  1.05739917252484e-12  7.73699886891760e-29  1.28949981148627e-31 
 14.7910838816821  1.05741834486235e-12  7.73713915307658e-29  1.28952319217943e-31 
 15.1356124843621  1.05743655203493e-12  7.73727237511548e-29  1.28954539585258e-31 
 15.4881661891248  1.05745353130640e-12  7.73739661259127e-29  1.28956610209855e-31 
 15.8489319246111  1.05746899109550e-12  7.73750973200156e-29  1.28958495533359e-31 
 16.2181009735893  1.05748260955673e-12  7.73760937839990e-29  1.28960156306665e-31 
 16.5958690743756  1.05749403334943e-12  7.73769296638963e-29  1.28961549439827e-31 
 16.9824365246174  1.05750287660578e-12  7.73775767257261e-29  1.28962627876210e-31 
 17.3780082874938  1.05750872015349e-12  7.73780042986167e-29  1.28963340497695e-31 
 17.7827941003892  1.05751111104622e-12  7.73781792404440e-29  1.28963632067407e-31 
 18.1970085860998  1.05750956244466e-12  7.73780659291341e-29  1.28963443215224e-31 
 18.6208713666287  1.05750355389782e-12  7.73776262832430e-29  1.28962710472072e-31 
 19.0546071796325  1.05749253206877e-12  7.73768198150606e-29  1.28961366358434e-31 
 19.4984459975805  1.05747591193485e-12  7.73756037184279e-29  1.28959339530713e-31 
 19.9526231496888  1.05745307849791e-12  7.73739329938770e-29  1.28956554989795e-31 
 20.4173794466953  1.05742338902651e-12  7.73717606126926e-29  1.28952934354488e-31 
 20.8929613085404  1.05738617581333e-12  7.73690377186739e-29  1.28948396197790e-31 
 21.3796208950223  1.05734074946176e-12  7.73657138686096e-29  1.28942856447683e-31 
 21.8776162394955  1.05728640264908e-12  7.73617373076363e-29  1.28936228846061e-31 
 22.3872113856834  1.05722241431265e-12  7.73570552755389e-29  1.28928425459231e-31 
 22.9086765276777  1.05714805419836e-12  7.73516143395601e-29  1.28919357232600e-31 
 23.4422881531992  1.05706258765611e-12  7.73453607452897e-29  1.28908934575483e-31 
 23.9883291901949  1.05696528054950e-12  7.73382407759032e-29  1.28897067959839e-31 
 24.5470891568503  1.05685540416094e-12  7.73302011110719e-29  1.28883668518453e-31 
 25.1188643150958  1.05673223988849e-12  7.73211891706295e-29  1.28868648617716e-31 
 25.7039578276886  1.05659508357595e-12  7.73111534314067e-29  1.28851922385678e-31 
 26.3026799189538  1.05644324926125e-12  7.73000437014991e-29  1.28833406169165e-31 
 26.9153480392692  1.05627607213448e-12  7.72878113367092e-29  1.28813018894515e-31 
 27.5422870333817  1.05609291050744e-12  7.72744093846547e-29  1.28790682307758e-31 
 28.1838293126445  1.05589314657262e-12  7.72597926403076e-29  1.28766321067179e-31 
 28.8403150312661  1.05567618575720e-12  7.72439175987233e-29  1.28739862664539e-31 
 29.5120922666639  1.05544145449713e-12  7.72267422921710e-29  1.28711237153618e-31 
 30.1995172040202  1.05518839625445e-12  7.72082259987193e-29  1.28680376664532e-31 
 30.9029543251359  1.05491646565621e-12  7.71883288133833e-29  1.28647214688972e-31 
 31.6227766016838  1.05462512063162e-12  7.71670110727959e-29  1.28611685121326e-31 
 32.3593656929628  1.05431381249817e-12  7.71442326298107e-29  1.28573721049685e-31 
 33.1131121482591  1.05398197393984e-12  7.71199519738654e-29  1.28533253289776e-31 
 33.8844156139203  1.05362900491365e-12  7.70941251997640e-29  1.28490208666273e-31 
 34.6736850452532  1.05325425654035e-12  7.70667048289555e-29  1.28444508048259e-31 
 35.4813389233576  1.05285701312031e-12  7.70376384936360e-29  1.28396064156060e-31 
 36.3078054770101  1.05243647249710e-12  7.70068674999498e-29  1.28344779166583e-31 
 37.1535229097173  1.05199172508750e-12  7.69743252936157e-29  1.28290542156026e-31 
 38.0189396320561  1.05152173206378e-12  7.69399358635175e-29  1.28233226439196e-31 
 38.9045144994281  1.05102530330778e-12  7.69036121286076e-29  1.28172686881013e-31 
 39.8107170553497  1.05050107601886e-12  7.68652543726456e-29  1.28108757287743e-31 
 40.7380277804113  1.04994749509845e-12  7.68247488089344e-29  1.28041248014891e-31 
 41.6869383470336  1.04936279673113e-12  7.67819663789484e-29  1.27969943964914e-31 
 42.6579518801593  1.04874499692482e-12  7.67367619138144e-29  1.27894603189691e-31 
 43.6515832240166  1.04809188703636e-12  7.66889738069239e-29  1.27814956344873e-31 
 44.6683592150963  1.04740103855308e-12  7.66384243637936e-29  1.27730707272989e-31 
 45.7088189614875  1.04666981941926e-12  7.65849209966802e-29  1.27641534994467e-31 
 46.7735141287198  1.04589542398232e-12  7.65282584157423e-29  1.27547097359571e-31 
 47.8630092322639  1.04507491796134e-12  7.64682219193915e-29  1.27447036532319e-31 
 48.9778819368446  1.04420529872036e-12  7.64045918044956e-29  1.27340986340826e-31 
 50.1187233627273  1.04328356938934e-12  7.63371487898158e-29  1.27228581316360e-31 
 51.2861383991365  1.04230682317811e-12  7.62656801852632e-29  1.27109466975439e-31 
 52.4807460249773  1.04127233171894e-12  7.61899863559366e-29  1.26983310593228e-31 
 53.7031796370253  1.04017762888710e-12  7.61098868552766e-29  1.26849811425461e-31 
 54.9540873857625  1.03902057983164e-12  7.60252254760550e-29  1.26708709126758e-31 
 56.2341325190349  1.03779942451177e-12  7.59358734359358e-29  1.26559789059893e-31 
 57.5439937337157  1.03651278644568e-12  7.58417300176250e-29  1.26402883362708e-31 
 58.8843655355589  1.03515964070180e-12  7.57427202267914e-29  1.26237867044652e-31 
 60.2559586074358  1.03373924035388e-12  7.56387894107781e-29  1.26064649017963e-31 
 61.6595001861483  1.03225100662879e-12  7.55298952207035e-29  1.25883158701173e-31 
 63.0957344480194  1.03069439392203e-12  7.54159977346410e-29  1.25693329557735e-31 
 64.5654229034656  1.02906874533129e-12  7.52970488869906e-29  1.25495081478318e-31 
 66.0693448007596  1.02737315651027e-12  7.51729825066567e-29  1.25288304177761e-31 
 67.6082975391982  1.02560636507616e-12  7.50437062249782e-29  1.25072843708297e-31 
 69.1830970918937  1.02376667973069e-12  7.49090962895170e-29  1.24848493815862e-31 
 70.7945784384138  1.02185195834134e-12  7.47689959602502e-29  1.24614993267084e-31 
 72.4435960074990  1.01985963848895e-12  7.46232177447475e-29  1.24372029574579e-31 
 74.1310241300917  1.01778681815249e-12  7.44715493018797e-29  1.24119248836466e-31 
 75.8577575029184  1.01563037891736e-12  7.43137624569815e-29  1.23856270761636e-31 
 77.6247116628691  1.01338713967307e-12  7.41496244479238e-29  1.23582707413206e-31 
 79.4328234724282  1.01105402520488e-12  7.39789102609782e-29  1.23298183768297e-31 
 81.2830516164100  1.00862823161927e-12  7.38014147350140e-29  1.23002357891690e-31 
 83.1763771102671  1.00610736918502e-12  7.36169630131929e-29  1.22694938355321e-31 
 85.1138038202377  1.00348956345183e-12  7.34254179418230e-29  1.22375696569705e-31 
 87.0963589956082  1.00077349774048e-12  7.32266831793736e-29  1.22044471965623e-31 
 89.1250938133746  9.97958384852457e-13  7.30207011264606e-29  1.21701168544101e-31 
 91.2010839355910  9.95043863158935e-13  7.28074453226720e-29  1.21345742204453e-31 
 93.3254300796992  9.92029821914579e-13  7.25869076647621e-29  1.20978179441270e-31 
 95.4992586021437  9.88916171802771e-13  7.23590816174261e-29  1.20598469362377e-31 
 97.7237220955811  9.85702588052895e-13  7.21239434171701e-29  1.20206572361950e-31 
 100.000000000000  9.82388263163407e-13  7.18814339790365e-29  1.19802389965061e-31 
 102.329299228075  9.78971712316972e-13  7.16314446588128e-29  1.19385741098021e-31 
 104.712854805090  9.75450674627077e-13  7.13738100272376e-29  1.18956350045396e-31 
 107.151930523761  9.71822145019977e-13  7.11083102028058e-29  1.18513850338010e-31 
 109.647819614319  9.68082552288633e-13  7.08346838799902e-29  1.18057806466650e-31 
 112.201845430196  9.64228067600771e-13  7.05526509028030e-29  1.17587751504672e-31 
 114.815362149688  9.60254987326867e-13  7.02619402763523e-29  1.17103233793920e-31 
 117.489755493953  9.56160094892425e-13  6.99623166436047e-29  1.16603861072675e-31 
 120.226443461741  9.51940886793432e-13  6.96535968229557e-29  1.16089328038259e-31 
 123.026877081238  9.47595567395403e-13  6.93356494276749e-29  1.15559415712791e-31 
 125.892541179417  9.43122781862281e-13  6.90083753242911e-29  1.15013958873818e-31 
 128.824955169313  9.38521146704064e-13  6.86716732827216e-29  1.14452788804536e-31 
 131.825673855641  9.33788711939457e-13  6.83254006226668e-29  1.13875667704445e-31 
 134.896288259165  9.28922509306745e-13  6.79693401561610e-29  1.13282233593602e-31 
 138.038426460289  9.23918299205029e-13  6.76031816712403e-29  1.12671969452067e-31 
 141.253754462276  9.18770551548706e-13  6.72265205310642e-29  1.12044200885107e-31 
 144.543977074593  9.13472623151442e-13  6.68388706531155e-29  1.11398117755192e-31 
 147.910838816821  9.08017054301471e-13  6.64396862096405e-29  1.10732810349401e-31 
 151.356124843621  9.02395903642202e-13  6.60283861308922e-29  1.10047310218154e-31 
 154.881661891248  8.96601060212332e-13  6.56043769371324e-29  1.09340628228554e-31 
 158.489319246111  8.90624498262843e-13  6.51670713836128e-29  1.08611785639355e-31 
 162.181009735893  8.84458463856688e-13  6.47159021140907e-29  1.07859836856818e-31 
 165.958690743756  8.78095598639724e-13  6.42503307171586e-29  1.07083884528598e-31 
 169.824365246174  8.71529015369861e-13  6.37698532527184e-29  1.06283088754531e-31 
 173.780082874938  8.64752342298113e-13  6.32740034993472e-29  1.05456672498912e-31 
 177.827941003892  8.57759750798610e-13  6.27623549759870e-29  1.04603924959978e-31 
 181.970085860998  8.50545975703800e-13  6.22345224298739e-29  1.03724204049790e-31 
 186.208713666287  8.43106333545478e-13  6.16901631712351e-29  1.02816938618725e-31 
 190.546071796325  8.35436741498377e-13  6.11289784593936e-29  1.01881630765656e-31 
 194.984459975805  8.27533738820137e-13  6.05507150715323e-29  1.00917858452554e-31 
 199.526231496888  8.19394512144084e-13  5.99551671533689e-29  9.99252785889481e-32 
 204.173794466953  8.11016925643076e-13  5.93421784262472e-29  9.89036307104120e-32 
 208.929613085404  8.02399556748939e-13  5.87116448007310e-29  9.78527413345517e-32 
 213.796208950223  7.93541737826713e-13  5.80635174259129e-29  9.67725290431882e-32 
 218.776162394955  7.84443604006291e-13  5.73978061892587e-29  9.56630103154311e-32 
 223.872113856834  7.75106147272654e-13  5.67145836743950e-29  9.45243061239917e-32 
 229.086765276777  7.65531276891457e-13  5.60139895824546e-29  9.33566493040911e-32 
 234.422881531992  7.55721886279391e-13  5.52962356249865e-29  9.21603927083108e-32 
 239.883291901949  7.45681926498919e-13  5.45616109015719e-29  9.09360181692865e-32 
 245.470891568503  7.35416486651911e-13  5.38104877822338e-29  8.96841463037229e-32 
 251.188643150958  7.24931881558703e-13  5.30433283229209e-29  8.84055472048682e-32 
 257.039578276886  7.14235747230483e-13  5.22606912512309e-29  8.71011520853848e-32 
 263.026799189538  7.03337144772313e-13  5.14632395690029e-29  8.57720659483382e-32 
 269.153480392692  6.92246673483835e-13  5.06517488279062e-29  8.44195813798437e-32 
 275.422870333817  6.80976594051764e-13  4.98271161434457e-29  8.30451935724096e-32 
 281.838293126446  6.69540962843187e-13  4.89903700212141e-29  8.16506167020234e-32 
 288.403150312661  6.57955778400383e-13  4.81426810759301e-29  8.02378017932168e-32 
 295.120922666639  6.46239141290060e-13  4.72853737276215e-29  7.88089562127025e-32 
 301.995172040202  6.34411428449998e-13  4.64199389585841e-29  7.73665649309734e-32 
 309.029543251359  6.22495483072564e-13  4.55480482071742e-29  7.59134136786236e-32 
 316.227766016838  6.10516820826706e-13  4.46715684570903e-29  7.44526140951505e-32 
 323.593656929629  5.98503852792280e-13  4.37925785494968e-29  7.29876309158281e-32 
 331.131121482591  5.86488124794720e-13  4.29133866951628e-29  7.15223111586047e-32 
 338.844156139203  5.74504571795886e-13  4.20365490882616e-29  7.00609151471027e-32 
 346.736850452532  5.62591784514340e-13  4.11648894150003e-29  6.86081490250005e-32 
 354.813389233576  5.50792283395073e-13  4.03015189000076e-29  6.71691981666794e-32 
 363.078054770102  5.39152792295816e-13  3.94498563319852e-29  6.57497605533087e-32 
 371.535229097173  5.27724500680516e-13  3.86136472484269e-29  6.43560787473782e-32 
 380.189396320561  5.16563298623461e-13  3.77969811308906e-29  6.29949685514843e-32 
 389.045144994281  5.05729963512536e-13  3.70043050660919e-29  6.16738417768199e-32 
 398.107170553497  4.95290271130279e-13  3.62404318737146e-29  6.04007197895243e-32 
 407.380277804113  4.85314997137594e-13  3.55105402149736e-29  5.91842336916227e-32 
 416.869383470335  4.75879768577392e-13  3.48201637271242e-29  5.80336062118736e-32 
 426.579518801593  4.67064719971038e-13  3.41751658600087e-29  5.69586097666812e-32 
 436.515832240166  4.58953906513262e-13  3.35816969394782e-29  5.59694948991304e-32 
 446.683592150963  4.51634429846398e-13  3.30461302002177e-29  5.50768836670295e-32 
 457.088189614875  4.45195242203963e-13  3.25749742848285e-29  5.42916238080476e-32 
 467.735141287199  4.39725614384999e-13  3.21747611453792e-29  5.36246019089654e-32 
 478.630092322639  4.35313283045576e-13  3.18519104805647e-29  5.30865174676078e-32 
 489.778819368447  4.32042332157521e-13  3.16125747218584e-29  5.26876245364306e-32 
 501.187233627273  4.29990908315721e-13  3.14624718623509e-29  5.24374531039182e-32 
 512.861383991365  4.29228912850689e-13  3.14067165884273e-29  5.23445276473788e-32 
 524.807460249773  4.29815846028974e-13  3.14496625397247e-29  5.24161042328745e-32 
 537.031796370253  4.31798990341206e-13  3.15947693801623e-29  5.26579489669372e-32 
 549.540873857625  4.35212104103335e-13  3.18445072086308e-29  5.30741786810514e-32 
 562.341325190349  4.40074752218463e-13  3.22003075907784e-29  5.36671793179640e-32 
 575.439937337157  4.46392334117332e-13  3.26625656034184e-29  5.44376093390306e-32 
 588.843655355589  4.54156792054699e-13  3.32306916606360e-29  5.53844861010599e-32 
 602.559586074358  4.63347911403436e-13  3.39032066564200e-29  5.65053444273667e-32 
 616.595001861483  4.73935072031389e-13  3.46778701130590e-29  5.77964501884317e-32 
 630.957344480194  4.85879284531914e-13  3.55518291723044e-29  5.92530486205073e-32 
 645.654229034656  4.99135348280437e-13  3.65217765005563e-29  6.08696275009272e-32 
 660.693448007596  5.13653995130275e-13  3.75841071432708e-29  6.26401785721180e-32 
 676.082975391982  5.29383924327809e-13  3.87350674198793e-29  6.45584456997988e-32 
 691.830970918937  5.46273680675293e-13  3.99708923491229e-29  6.66181539152049e-32 
 707.945784384138  5.64273368304113e-13  4.12879310459901e-29  6.88132184099834e-32 
 724.435960074990  5.83336214460084e-13  4.26827611440213e-29  7.11379352400355e-32 
 741.310241300918  6.03419986103009e-13  4.41522924480214e-29  7.35871540800357e-32 
 758.577575029184  6.24488199212339e-13  4.56938554190590e-29  7.61564256984317e-32 
 776.247116628692  6.46510937365080e-13  4.73052610698821e-29  7.88421017831369e-32 
 794.328234724282  6.69464941731648e-13  4.89848075499234e-29  8.16413459165391e-32 
 812.830516164100  6.93332559353971e-13  5.07312031907175e-29  8.45520053178626e-32 
 831.763771102671  7.18099332348023e-13  5.25433901076429e-29  8.75723168460715e-32 
 851.138038202377  7.43750609367307e-13  5.44202962604121e-29  9.07004937673535e-32 
 870.963589956081  7.70268351688185e-13  5.63606017540601e-29  9.39343362567668e-32 
 891.250938133746  7.97629645004581e-13  5.83626299468342e-29  9.72710499113904e-32 
 912.010839355910  8.25807759099882e-13  6.04244249864786e-29  1.00707374977464e-31 
 933.254300796992  8.54775231930316e-13  6.25439774728808e-29  1.04239962454801e-31 
 954.992586021437  8.84507462491138e-13  6.47194873484011e-29  1.07865812247335e-31 
 977.237220955811  9.14985387483482e-13  6.69495597498166e-29  1.11582599583028e-31 
 1000.00000000000  9.46196666017386e-13  6.92332916931439e-29  1.15388819488573e-31 
 1023.29299228075  9.78135610641363e-13  7.15702670270671e-29  1.19283778378445e-31 
 1047.12854805090  1.01080244573918e-12  7.39605021697655e-29  1.23267503616276e-31 
 1071.51930523761  1.04420241595556e-12  7.64043808723464e-29  1.27340634787244e-31 
 1096.47819614319  1.07834505986190e-12  7.89026010729022e-29  1.31504335121504e-31 
 1122.01845430196  1.11324378263270e-12  8.14561436292064e-29  1.35760239382011e-31 
 1148.15362149688  1.14891576029496e-12  8.40662653126379e-29  1.40110442187730e-31 
 1174.89755493953  1.18538217564935e-12  8.67345160705492e-29  1.44557526784249e-31 
 1202.26443461741  1.22266879601111e-12  8.94627812996194e-29  1.49104635499366e-31 
 1230.26877081238  1.26080693655797e-12  9.22533523341047e-29  1.53755587223508e-31 
 1258.92541179417  1.29983490215665e-12  9.51090319444090e-29  1.58515053240682e-31 
 1288.24955169313  1.33980006496829e-12  9.80332863556487e-29  1.63388810592748e-31 
 1318.25673855641  1.38076181902339e-12  1.01030461434163e-28  1.68384102390271e-31 
 1348.96288259165  1.42279576004703e-12  1.04106088525675e-28  1.73510147542792e-31 
 1380.38426460289  1.46599956272623e-12  1.07267314495464e-28  1.78778857492440e-31 
 1412.53754462276  1.51050112607680e-12  1.10523497725552e-28  1.84205829542586e-31 
 1445.43977074593  1.55646948249269e-12  1.13887006330788e-28  1.89811677217981e-31 
 1479.10838816821  1.60412828162350e-12  1.17374204775333e-28  1.95623674625555e-31 
 1513.56124843621  1.65376919870406e-12  1.21006434961282e-28  2.01677391602137e-31 
 1548.81661891248  1.70575552735646e-12  1.24810279114313e-28  2.08017131857188e-31 
 1584.89319246111  1.76048856126446e-12  1.28815099927890e-28  2.14691833213150e-31 
 1621.81009735893  1.81827320614028e-12  1.33043207379284e-28  2.21738678965473e-31 
 1659.58690743756  1.87897359748400e-12  1.37484660251314e-28  2.29141100418856e-31 
 1698.24365246174  1.94139574118815e-12  1.42052093892114e-28  2.36753489820190e-31 
 1737.80082874938  2.00275556825988e-12  1.46541797733260e-28  2.44236329555433e-31 
 1778.27941003892  2.05937538887019e-12  1.50684674892642e-28  2.51141124821070e-31 
 1819.70085860999  2.10918487718976e-12  1.54329239450695e-28  2.57215399084492e-31 
 1862.08713666287  2.15355427250583e-12  1.57575751934295e-28  2.62626253223825e-31 
 1905.46071796325  2.19591507482819e-12  1.60675295495238e-28  2.67792159158730e-31 
 1949.84459975805  2.23925794582100e-12  1.63846697105533e-28  2.73077828509221e-31 
 1995.26231496888  2.28524503764380e-12  1.67211576582110e-28  2.78685960970183e-31 
 2041.73794466953  2.33466346866851e-12  1.70827527444156e-28  2.84712545740260e-31 
 2089.29613085404  2.38795676844584e-12  1.74727002787167e-28  2.91211671311945e-31 
 2137.96208950223  2.44512350900427e-12  1.78909898126344e-28  2.98183163543906e-31 
 2187.76162394955  2.50531758737776e-12  1.83314304034655e-28  3.05523840057759e-31 
 2238.72113856834  2.56730863814749e-12  1.87850194568248e-28  3.13083657613747e-31 
 2290.86765276777  2.63037845436998e-12  1.92465018463098e-28  3.20775030771830e-31 
 2344.22881531992  2.69440286373763e-12  1.97149690020745e-28  3.28582816701242e-31 
 2398.83291901949  2.75947573420043e-12  2.01911077567188e-28  3.36518462611980e-31 
 2454.70891568503  2.82568229820746e-12  2.06755417568081e-28  3.44592362613468e-31 
 2511.88643150958  2.89304532682901e-12  2.11684376184601e-28  3.52807293641002e-31 
 2570.39578276886  2.96153288094091e-12  2.16695616428278e-28  3.61159360713796e-31 
 2630.26799189538  3.03108171761348e-12  2.21784510808490e-28  3.69640851347483e-31 
 2691.53480392692  3.10164362087710e-12  2.26947531358579e-28  3.78245885597631e-31 
 2754.22870333817  3.17331097089550e-12  2.32191437543096e-28  3.86985729238494e-31 
 2818.38293126446  3.24668034254667e-12  2.37559880797339e-28  3.95933134662232e-31 
 2884.03150312661  3.32381087245226e-12  2.43203528325582e-28  4.05339213875970e-31 
 2951.20922666639  3.40995188330127e-12  2.49506473521906e-28  4.15844122536510e-31 
 3019.95172040202  3.51265857070251e-12  2.57021530700891e-28  4.28369217834819e-31 
 3090.29543251359  3.62964309801485e-12  2.65581298658107e-28  4.42635497763512e-31 
 3162.27766016838  3.74348356942238e-12  2.73911015773489e-28  4.56518359622482e-31 
 3235.93656929628  3.84552595556220e-12  2.81377465971860e-28  4.68962443286433e-31 
 3311.31121482592  3.94028305614805e-12  2.88310851197649e-28  4.80518085329416e-31 
 3388.44156139203  4.03312465770165e-12  2.95104079193975e-28  4.91840131989958e-31 
 3467.36850452532  4.12681730706593e-12  3.01959578432039e-28  5.03265964053398e-31 
 3548.13389233576  4.22247166963624e-12  3.08958616394650e-28  5.14931027324417e-31 
 3630.78054770102  4.32050639091967e-12  3.16131825409685e-28  5.26886375682809e-31 
 3715.35229097173  4.42108461453204e-12  3.23491142709589e-28  5.39151904515981e-31 
 3801.89396320562  4.52426883488520e-12  3.31041141015870e-28  5.51735235026451e-31 
 3890.45144994281  4.63008500021180e-12  3.38783718962950e-28  5.64639531604917e-31 
 3981.07170553498  4.73854960026535e-12  3.46720083107515e-28  5.77866805179192e-31 
 4073.80277804113  4.84968147663508e-12  3.54851612090276e-28  5.91419353483793e-31 
 4168.69383470336  4.96351535567432e-12  3.63180846841501e-28  6.05301411402502e-31 
 4265.79518801593  5.08014102224830e-12  3.71714356927528e-28  6.19523928212546e-31 
 4365.15832240166  5.19968824421527e-12  3.80461637473739e-28  6.34102729122899e-31 
 4466.83592150963  5.32207225934164e-12  3.89416486420191e-28  6.49027477366985e-31 
 4570.88189614875  5.44721538437307e-12  3.98573219676460e-28  6.64288699460767e-31 
 4677.35141287198  5.57521442521989e-12  4.07938920539359e-28  6.79898200898932e-31 
 4786.30092322638  5.70616267942698e-12  4.17520415598295e-28  6.95867359330491e-31 
 4897.78819368446  5.84013069422329e-12  4.27322866800098e-28  7.12204778000163e-31 
 5011.87233627272  5.97718203469007e-12  4.37350925207248e-28  7.28918208678747e-31 
 5128.61383991365  6.11737974290401e-12  4.47609203613936e-28  7.46015339356559e-31 
 5248.07460249773  6.26078823360427e-12  4.58102415252183e-28  7.63504025420306e-31 
 5370.31796370253  6.40747378612919e-12  4.68835409786896e-28  7.81392349644826e-31 
 5495.40873857624  6.55750462736521e-12  4.79813179385241e-28  7.99688632308735e-31 
 5623.41325190349  6.71095089943552e-12  4.91040856352425e-28  8.18401427254041e-31 
 5754.39937337157  6.86788460050919e-12  5.02523708800690e-28  8.37539514667816e-31 
 5888.43655355589  7.02837952526277e-12  5.14267136292887e-28  8.57111893821478e-31 
 6025.59586074357  7.19251121211371e-12  5.26276665981539e-28  8.77127776635898e-31 
 6165.95001861483  7.36035689815116e-12  5.38557949311121e-28  8.97596582185202e-31 
 6309.57344480194  7.53199548080178e-12  5.51116759213153e-28  9.18527932021922e-31 
 6456.54229034656  7.70750748481674e-12  5.63958987690623e-28  9.39931646151038e-31 
 6606.93448007597  7.88697503317969e-12  5.77090643689332e-28  9.61817739482220e-31 
 6760.82975391982  8.07048182068720e-12  5.90517851164766e-28  9.84196418607943e-31 
 6918.30970918937  8.25811308911465e-12  6.04246847264984e-28  1.00707807877497e-30 
 7079.45784384138  8.44995560303042e-12  6.18283980560941e-28  1.03047330093490e-30 
 7244.35960074990  8.64609762543994e-12  6.32635709264361e-28  1.05439284877393e-30 
 7413.10241300918  8.84662889253131e-12  6.47308599379869e-28  1.07884766563311e-30 
 7585.77575029185  9.05164058686614e-12  6.62309322743365e-28  1.10384887123894e-30 
 7762.47116628693  9.26122530840722e-12  6.77644654902116e-28  1.12940775817019e-30 
 7943.28234724283  9.47547704281035e-12  6.93321472794668e-28  1.15553578799111e-30 
 8128.30516164101  9.69449112642907e-12  7.09346752190233e-28  1.18224458698372e-30 
 8317.63771102672  9.91836420749194e-12  7.25727564848036e-28  1.20954594141339e-30 
 8511.38038202378  1.01471942029158e-11  7.42471075357331e-28  1.23745179226222e-30 
 8709.63589956082  1.03810802502128e-11  7.59584537618430e-28  1.26597422936405e-30 
 8912.50938133747  1.06201226539390e-11  7.77075290924368e-28  1.29512548487395e-30 
 9120.10839355911  1.08644228261163e-11  7.94950755601522e-28  1.32491792600254e-30 
 9332.54300796992  1.11140832200361e-11  8.13218428166069e-28  1.35536404694345e-30 
 9549.92586021437  1.13692072568310e-11  8.31885875951214e-28  1.38647645991869e-30 
 9772.37220955812  1.16298992441685e-11  8.50960731157976e-28  1.41826788526329e-30 
 10000.0000000000  1.18962642863857e-11  8.70450684279768e-28  1.45075114046628e-30 
