 10.0000000000000  1.43152320356151e-12  4.04025616022339e-22 
 10.2329299228075  1.43149140236196e-12  4.04016640618233e-22 
 10.4712854805090  1.43145779937928e-12  4.04007156688289e-22 
 10.7151930523761  1.43142226182527e-12  4.03997126755056e-22 
 10.9647819614319  1.43138464501371e-12  4.03986509983059e-22 
 11.2201845430196  1.43134479134257e-12  4.03975261891520e-22 
 11.4815362149688  1.43130252922266e-12  4.03963334052006e-22 
 11.7489755493953  1.43125767194854e-12  4.03950673769754e-22 
 12.0226443461741  1.43121001654913e-12  4.03937223759264e-22 
 12.3026877081238  1.43115934257687e-12  4.03922921802574e-22 
 12.5892541179417  1.43110541089579e-12  4.03907700407198e-22 
 12.8824955169313  1.43104796244269e-12  4.03891486456494e-22 
 13.1825673855641  1.43098671700453e-12  4.03874200864603e-22 
 13.4896288259165  1.43092137202010e-12  4.03855758238230e-22 
 13.8038426460289  1.43085160141063e-12  4.03836066546608e-22 
 14.1253754462275  1.43077705451279e-12  4.03815026820360e-22 
 14.4543977074593  1.43069735507781e-12  4.03792532868997e-22 
 14.7910838816821  1.43061210042762e-12  4.03768471042773e-22 
 15.1356124843621  1.43052086076906e-12  4.03742720039112e-22 
 15.4881661891248  1.43042317870656e-12  4.03715150765083e-22 
 15.8489319246111  1.43031856901587e-12  4.03685626273536e-22 
 16.2181009735893  1.43020651868300e-12  4.03654001774087e-22 
 16.5958690743756  1.43008648728843e-12  4.03620124741558e-22 
 16.9824365246174  1.42995790774728e-12  4.03583835124880e-22 
 17.3780082874938  1.42982018746541e-12  4.03544965673389e-22 
 17.7827941003892  1.42967270992559e-12  4.03503342384484e-22 
 18.1970085860998  1.42951483675318e-12  4.03458785086650e-22 
 18.6208713666287  1.42934591025572e-12  4.03411108156212e-22 
 19.0546071796325  1.42916525647076e-12  4.03360121377533e-22 
 19.4984459975805  1.42897218868827e-12  4.03305630937165e-22 
 19.9526231496888  1.42876601144589e-12  4.03247440551460e-22 
 20.4173794466953  1.42854602494791e-12  4.03185352713734e-22 
 20.8929613085404  1.42831152983955e-12  4.03119170041759e-22 
 21.3796208950223  1.42806183226068e-12  4.03048696704076e-22 
 21.8776162394955  1.42779624906781e-12  4.02973739893851e-22 
 22.3872113856834  1.42751411308474e-12  4.02894111310758e-22 
 22.9086765276777  1.42721477823585e-12  4.02809628609801e-22 
 23.4422881531992  1.42689762438258e-12  4.02720116766317e-22 
 23.9883291901949  1.42656206165972e-12  4.02625409299838e-22 
 24.5470891568503  1.42620753412197e-12  4.02525349303268e-22 
 25.1188643150958  1.42583352246768e-12  4.02419790211633e-22 
 25.7039578276886  1.42543954562556e-12  4.02308596249886e-22 
 26.3026799189538  1.42502516099897e-12  4.02191642501870e-22 
 26.9153480392692  1.42458996315328e-12  4.02068814539837e-22 
 27.5422870333817  1.42413358077217e-12  4.01940007565412e-22 
 28.1838293126445  1.42365567171476e-12  4.01805125014544e-22 
 28.8403150312661  1.42315591606461e-12  4.01664076595693e-22 
 29.5120922666639  1.42263400705480e-12  4.01516775728565e-22 
 30.1995172040202  1.42208963984124e-12  4.01363136375566e-22 
 30.9029543251359  1.42152249810371e-12  4.01203069260127e-22 
 31.6227766016838  1.42093223851445e-12  4.01036477483219e-22 
 32.3593656929628  1.42031847317179e-12  4.00863251565509e-22 
 33.1131121482591  1.41968075012121e-12  4.00683263949715e-22 
 33.8844156139203  1.41901853218352e-12  4.00496363025196e-22 
 34.6736850452532  1.41833117434207e-12  4.00302366745828e-22 
 35.4813389233576  1.41761790005759e-12  4.00101055945233e-22 
 36.3078054770101  1.41687777695914e-12  3.99892167475917e-22 
 37.1535229097173  1.41610969250449e-12  3.99675387339783e-22 
 38.0189396320561  1.41531233039264e-12  3.99450344030925e-22 
 38.9045144994281  1.41448414867188e-12  3.99216602356970e-22 
 39.8107170553497  1.41362336078574e-12  3.98973658089566e-22 
 40.7380277804113  1.41272792107526e-12  3.98720933872635e-22 
 41.6869383470336  1.41179551650588e-12  3.98457776887413e-22 
 42.6579518801593  1.41082356674657e-12  3.98183458874772e-22 
 43.6515832240166  1.40980923483585e-12  3.97897179145557e-22 
 44.6683592150963  1.40874945076220e-12  3.97598071235786e-22 
 45.7088189614875  1.40764094997172e-12  3.97285213774852e-22 
 46.7735141287198  1.40648032822461e-12  3.96957645967933e-22 
 47.8630092322639  1.40526411297408e-12  3.96614387741597e-22 
 48.9778819368446  1.40398884972823e-12  3.96254464118137e-22 
 50.1187233627273  1.40265119947801e-12  3.95876932713111e-22 
 51.2861383991365  1.40124804058363e-12  3.95480912491245e-22 
 52.4807460249773  1.39977656575700e-12  3.95065611138245e-22 
 53.7031796370253  1.39823436263110e-12  3.94630347800268e-22 
 54.9540873857625  1.39661946549026e-12  3.94174567684014e-22 
 56.2341325190349  1.39493036674513e-12  3.93697845295353e-22 
 57.5439937337157  1.39316598014664e-12  3.93199874057038e-22 
 58.8843655355589  1.39132555322689e-12  3.92680441596463e-22 
 60.2559586074358  1.38940853376721e-12  3.92139392058322e-22 
 61.6595001861483  1.38741440247144e-12  3.91576578879188e-22 
 63.0957344480194  1.38534249044146e-12  3.90991813272750e-22 
 64.5654229034656  1.38319180377153e-12  3.90384814724262e-22 
 66.0693448007596  1.38096087792932e-12  3.89755169891781e-22 
 67.6082975391982  1.37864768150107e-12  3.89102305439721e-22 
 69.1830970918937  1.37624958302971e-12  3.88425478679412e-22 
 70.7945784384138  1.37376338714870e-12  3.87723787767328e-22 
 72.4435960074990  1.37118543840441e-12  3.86996201007370e-22 
 74.1310241300917  1.36851178386045e-12  3.86241602743459e-22 
 75.8577575029184  1.36573837945654e-12  3.85458851601194e-22 
 77.6247116628691  1.36286132036746e-12  3.84646845503139e-22 
 79.4328234724282  1.35987707217263e-12  3.83804586912932e-22 
 81.2830516164100  1.35678267777378e-12  3.82931241234634e-22 
 83.1763771102671  1.35357591477762e-12  3.82026181231600e-22 
 85.1138038202377  1.35025538020438e-12  3.81089010934158e-22 
 87.0963589956082  1.34682048428145e-12  3.80119563887976e-22 
 89.1250938133746  1.34327134335154e-12  3.79117872929009e-22 
 91.2010839355910  1.33960857330535e-12  3.78084111883028e-22 
 93.3254300796992  1.33583299880910e-12  3.77018513499509e-22 
 95.4992586021437  1.33194530831279e-12  3.75921272082975e-22 
 97.7237220955811  1.32794569825835e-12  3.74792443076172e-22 
 100.000000000000  1.32383355942076e-12  3.73631854534613e-22 
 102.329299228075  1.31960726124610e-12  3.72439046259302e-22 
 104.712854805090  1.31526408362139e-12  3.71213250539781e-22 
 107.151930523761  1.31080032740431e-12  3.69953423349491e-22 
 109.647819614319  1.30621160347426e-12  3.68658325926002e-22 
 112.201845430196  1.30149325616957e-12  3.67326644279739e-22 
 114.815362149688  1.29664082764948e-12  3.65957120253055e-22 
 117.489755493953  1.29165043113302e-12  3.64548656861234e-22 
 120.226443461741  1.28651889636274e-12  3.63100359347408e-22 
 123.026877081238  1.28124359907891e-12  3.61611487054247e-22 
 125.892541179417  1.27582198472100e-12  3.60081318995957e-22 
 128.824955169313  1.27025090906713e-12  3.58508967763815e-22 
 131.825673855641  1.26452599053661e-12  3.56893196723417e-22 
 134.896288259165  1.25864116135584e-12  3.55232293338105e-22 
 138.038426460289  1.25258852383599e-12  3.53524028605523e-22 
 141.253754462276  1.24635850937279e-12  3.51765701932885e-22 
 144.543977074593  1.23994025396835e-12  3.49954247122291e-22 
 147.910838816821  1.23332207183037e-12  3.48086366036889e-22 
 151.356124843621  1.22649192248200e-12  3.46158660435518e-22 
 154.881661891248  1.21943780395852e-12  3.44167742946472e-22 
 158.489319246111  1.21214804350239e-12  3.42110319111767e-22 
 162.181009735893  1.20461148654704e-12  3.39983240724914e-22 
 165.958690743756  1.19681760255790e-12  3.37783535702959e-22 
 169.824365246174  1.18875653384559e-12  3.35508421863250e-22 
 173.780082874938  1.18041911254023e-12  3.33155311714174e-22 
 177.827941003892  1.17179686443183e-12  3.30721813539066e-22 
 181.970085860998  1.16288201063505e-12  3.28205731866040e-22 
 186.208713666287  1.15366747243376e-12  3.25605068835307e-22 
 190.546071796325  1.14414688193760e-12  3.22918027206825e-22 
 194.984459975805  1.13431460022160e-12  3.20143015479925e-22 
 199.526231496888  1.12416574422261e-12  3.17278655484426e-22 
 204.173794466953  1.11369622330837e-12  3.14323792701684e-22 
 208.929613085404  1.10290278606397e-12  3.11277509469375e-22 
 213.796208950223  1.09178307755410e-12  3.08139141142889e-22 
 218.776162394955  1.08033570715094e-12  3.04908295238705e-22 
 223.872113856834  1.06856032697494e-12  3.01584873573118e-22 
 229.086765276777  1.05645772103838e-12  2.98169097421654e-22 
 234.422881531992  1.04402990528604e-12  2.94661535754013e-22 
 239.883291901949  1.03128023886644e-12  2.91063136638689e-22 
 245.470891568503  1.01821354712491e-12  2.87375261955896e-22 
 251.188643150958  1.00483625698330e-12  2.83599725606416e-22 
 257.039578276886  9.91156545546543e-13  2.79738835453539e-22 
 263.026799189538  9.77184502958247e-13  2.75795439286587e-22 
 269.153480392692  9.62932310705448e-13  2.71772975144700e-22 
 275.422870333817  9.48414436741906e-13  2.67675526387417e-22 
 281.838293126446  9.33647848950673e-13  2.63507881941237e-22 
 288.403150312661  9.18652248583186e-13  2.59275602184244e-22 
 295.120922666639  9.03450325370636e-13  2.54985090947406e-22 
 301.995172040202  8.88068035974972e-13  2.50643674103128e-22 
 309.029543251359  8.72534907283826e-13  2.46259685165624e-22 
 316.227766016838  8.56884365699236e-13  2.41842558227642e-22 
 323.593656929629  8.41154092943875e-13  2.37402928381355e-22 
 331.131121482591  8.25386407910604e-13  2.32952739489576e-22 
 338.844156139203  8.09628672583829e-13  2.28505358750879e-22 
 346.736850452532  7.93933717909587e-13  2.24075696894943e-22 
 354.813389233576  7.78360282508431e-13  2.19680332002581e-22 
 363.078054770102  7.62973453116675e-13  2.15337633813569e-22 
 371.535229097173  7.47845090418905e-13  2.11067883911389e-22 
 380.189396320561  7.33054217359657e-13  2.06893385318279e-22 
 389.045144994281  7.18687339053351e-13  2.02838552784946e-22 
 398.107170553497  7.04838654223778e-13  1.98929972466131e-22 
 407.380277804113  6.91610108185944e-13  1.95196416873935e-22 
 416.869383470335  6.79111227716761e-13  1.91668798272582e-22 
 426.579518801593  6.67458670357293e-13  1.88380041475849e-22 
 436.515832240166  6.56775417093818e-13  1.85364855993588e-22 
 446.683592150963  6.47189541008558e-13  1.82659388502160e-22 
 457.088189614875  6.38832498769361e-13  1.80300740643420e-22 
 467.735141287199  6.31836919803679e-13  1.78326345052758e-22 
 478.630092322639  6.26333911279223e-13  1.76773204730940e-22 
 489.778819368447  6.22449954308588e-13  1.75677017045151e-22 
 501.187233627273  6.20303532663592e-13  1.75071222234975e-22 
 512.861383991365  6.20001699624469e-13  1.74986034457883e-22 
 524.807460249773  6.21636837707855e-13  1.75447527271816e-22 
 537.031796370253  6.25283885641018e-13  1.76476850990910e-22 
 549.540873857625  6.30998286648713e-13  1.78089653620716e-22 
 562.341325190349  6.38814849740863e-13  1.80295759473996e-22 
 575.439937337157  6.48747619674829e-13  1.83099132469554e-22 
 588.843655355589  6.60790739394424e-13  1.86498119542509e-22 
 602.559586074358  6.74920183296319e-13  1.90485939832332e-22 
 616.595001861483  6.91096160881146e-13  1.95051363076757e-22 
 630.957344480194  7.09265950886211e-13  2.00179509502557e-22 
 645.654229034656  7.29366928598114e-13  2.05852704238414e-22 
 660.693448007596  7.51329587679362e-13  2.12051330179449e-22 
 676.082975391982  7.75080421132020e-13  2.18754641095318e-22 
 691.830970918937  8.00544600651391e-13  2.25941517836975e-22 
 707.945784384138  8.27648465629619e-13  2.33591170820014e-22 
 724.435960074990  8.56321885688956e-13  2.41683806813702e-22 
 741.310241300918  8.86500569046249e-13  2.50201280441680e-22 
 758.577575029184  9.18128316242902e-13  2.59127730262916e-22 
 776.247116628692  9.51159024749148e-13  2.68450144540720e-22 
 794.328234724282  9.85557935037733e-13  2.78158712928062e-22 
 812.830516164100  1.02130130141867e-12  2.88246733565688e-22 
 831.763771102671  1.05837369567541e-12  2.98709852074518e-22 
 851.138038202377  1.09676288848940e-12  3.09544616915690e-22 
 870.963589956081  1.13645365681007e-12  3.20746731615097e-22 
 891.250938133746  1.17742303601593e-12  3.32309714758172e-22 
 912.010839355910  1.21963924061661e-12  3.44224595374482e-22 
 933.254300796992  1.26306456825120e-12  3.56480732547032e-22 
 954.992586021437  1.30766052828938e-12  3.69067262881787e-22 
 977.237220955811  1.35339277329817e-12  3.81974492339047e-22 
 1000.00000000000  1.40023426771094e-12  3.95194790541997e-22 
 1023.29299228075  1.44816643340707e-12  4.08722914099119e-22 
 1047.12854805090  1.49717884273372e-12  4.22555919964250e-22 
 1071.51930523761  1.54726821421509e-12  4.36692881990842e-22 
 1096.47819614319  1.59843728448025e-12  4.51134572550754e-22 
 1122.01845430196  1.65069387508715e-12  4.65883199159568e-22 
 1148.15362149688  1.70405028688801e-12  4.80942233545425e-22 
 1174.89755493953  1.75852306136808e-12  4.96316344290537e-22 
 1202.26443461741  1.81413312564231e-12  5.12011437754298e-22 
 1230.26877081238  1.87090636003707e-12  5.28034818264551e-22 
 1258.92541179417  1.92887468041299e-12  5.44395493586748e-22 
 1288.24955169313  1.98807781058572e-12  5.61104675162693e-22 
 1318.25673855641  2.04856604372805e-12  5.78176557474229e-22 
 1348.96288259165  2.11040447632987e-12  5.95629513013927e-22 
 1380.38426460289  2.17367947399433e-12  6.13487917157563e-22 
 1412.53754462276  2.23850852502379e-12  6.31784929188633e-22 
 1445.43977074593  2.30505514663331e-12  6.50566699350027e-22 
 1479.10838816821  2.37355094723407e-12  6.69898595587414e-22 
 1513.56124843621  2.44432654511860e-12  6.89873929877145e-22 
 1548.81661891248  2.51784929509341e-12  7.10624605993553e-22 
 1584.89319246111  2.59475180094941e-12  7.32329166719383e-22 
 1621.81009735893  2.67579603658710e-12  7.55202667579943e-22 
 1659.58690743756  2.76163733407257e-12  7.79430066067400e-22 
 1698.24365246174  2.85218231664449e-12  8.04985008013388e-22 
 1737.80082874938  2.94558721169356e-12  8.31347116687431e-22 
 1778.27941003892  3.03794246517427e-12  8.57412980019306e-22 
 1819.70085860999  3.12520747421732e-12  8.82042199404710e-22 
 1862.08713666287  3.20617714123157e-12  9.04894654407304e-22 
 1905.46071796325  3.28281948835307e-12  9.26525789293642e-22 
 1949.84459975805  3.35809066762557e-12  9.47769932943314e-22 
 1995.26231496888  3.43431318510877e-12  9.69282577310031e-22 
 2041.73794466953  3.51306965388973e-12  9.91510390827695e-22 
 2089.29613085404  3.59564783156349e-12  1.01481682345948e-21 
 2137.96208950223  3.68291678812975e-12  1.03944715697317e-21 
 2187.76162394955  3.77453839798128e-12  1.06530596056722e-21 
 2238.72113856834  3.86913553348521e-12  1.09200456094676e-21 
 2290.86765276777  3.96556909650205e-12  1.11922146501522e-21 
 2344.22881531992  4.06344196780220e-12  1.14684459191986e-21 
 2398.83291901949  4.16275644571636e-12  1.17487459032951e-21 
 2454.70891568503  4.26357826057535e-12  1.20333001162869e-21 
 2511.88643150958  4.36590542429691e-12  1.23221029471147e-21 
 2570.39578276886  4.46963666238682e-12  1.26148685639469e-21 
 2630.26799189538  4.57456680413348e-12  1.29110179037063e-21 
 2691.53480392692  4.68040007069626e-12  1.32097161756750e-21 
 2754.22870333817  4.78683841692442e-12  1.35101221928198e-21 
 2818.38293126446  4.89395615905410e-12  1.38124457013958e-21 
 2884.03150312661  5.00346687582196e-12  1.41215230163363e-21 
 2951.20922666639  5.12180464940425e-12  1.44555133543996e-21 
 3019.95172040202  5.26188903998146e-12  1.48508802059970e-21 
 3090.29543251359  5.42846250511067e-12  1.53210084351055e-21 
 3162.27766016838  5.60125577930740e-12  1.58086911277657e-21 
 3235.93656929628  5.76260850852064e-12  1.62640846250913e-21 
 3311.31121482592  5.91356842723438e-12  1.66901459980489e-21 
 3388.44156139203  6.06020897740251e-12  1.71040166113099e-21 
 3467.36850452532  6.20660370851043e-12  1.75171934377221e-21 
 3548.13389233576  6.35477639345897e-12  1.79353882679916e-21 
 3630.78054770102  6.50568450886463e-12  1.83613034340039e-21 
 3715.35229097173  6.65981485619523e-12  1.87963128587415e-21 
 3801.89396320562  6.81743213174609e-12  1.92411636071734e-21 
 3890.45144994281  6.97869374303989e-12  1.96962999380526e-21 
 3981.07170553498  7.14370568860385e-12  2.01620210160739e-21 
 4073.80277804113  7.31254963242293e-12  2.06385573253941e-21 
 4168.69383470336  7.48530527914265e-12  2.11261338202328e-21 
 4265.79518801593  7.66211322923560e-12  2.16251473240043e-21 
 4365.15832240166  7.84322282363988e-12  2.21363015635214e-21 
 4466.83592150963  8.02862536681002e-12  2.26595719969314e-21 
 4570.88189614875  8.21818565781118e-12  2.31945770401929e-21 
 4677.35141287198  8.41200815209129e-12  2.37416115028944e-21 
 4786.30092322638  8.61023250197403e-12  2.43010695324447e-21 
 4897.78819368446  8.81297378697594e-12  2.48732759232476e-21 
 5011.87233627272  9.02033584775293e-12  2.54585237497352e-21 
 5128.61383991365  9.23241995258593e-12  2.60570988262028e-21 
 5248.07460249773  9.44932803283427e-12  2.66692888383837e-21 
 5370.31796370253  9.67116382756490e-12  2.72953865739905e-21 
 5495.40873857624  9.89803329076506e-12  2.79356910720110e-21 
 5623.41325190349  1.01300447313619e-11  2.85905080178918e-21 
 5754.39937337157  1.03673088526332e-11  2.92601498547699e-21 
 5888.43655355589  1.06099387529780e-11  2.99449357856465e-21 
 6025.59586074357  1.08580499120928e-11  3.06451917343728e-21 
 6165.95001861483  1.11117601720493e-11  3.13612502922437e-21 
 6309.57344480194  1.13711897168949e-11  3.20934506604241e-21 
 6456.54229034656  1.16364610519341e-11  3.28421385914728e-21 
 6606.93448007597  1.19076989827850e-11  3.36076663302341e-21 
 6760.82975391982  1.21850305938556e-11  3.43903925530888e-21 
 6918.30970918937  1.24685852256840e-11  3.51906823040018e-21 
 7079.45784384138  1.27584944505187e-11  3.60089069256006e-21 
 7244.35960074990  1.30548920454886e-11  3.68454439834516e-21 
 7413.10241300918  1.33579139627050e-11  3.77006771816771e-21 
 7585.77575029185  1.36676982956420e-11  3.85749962680711e-21 
 7762.47116628693  1.39843852411403e-11  3.94687969268580e-21 
 7943.28234724283  1.43081170563722e-11  4.03824806572348e-21 
 8128.30516164101  1.46390380100991e-11  4.13164546358022e-21 
 8317.63771102672  1.49772943275341e-11  4.22711315609481e-21 
 8511.38038202378  1.53230341281035e-11  4.32469294771884e-21 
 8709.63589956082  1.56764073553717e-11  4.42442715773909e-21 
 8912.50938133747  1.60375656983652e-11  4.52635859807236e-21 
 9120.10839355911  1.64066625034902e-11  4.63053054840576e-21 
 9332.54300796992  1.67838526762020e-11  4.73698672844415e-21 
 9549.92586021437  1.71692925715313e-11  4.84577126701297e-21 
 9772.37220955812  1.75631398725262e-11  4.95692866775039e-21 
 10000.0000000000  1.79655534556087e-11  5.07050377110615e-21 
