-3.00000000000000  0.00301896818891209  122.713283527922 
-2.97000000000000  0.00350260835430271  122.997924175444 
-2.94000000000000  0.00405437046104832  123.294315824719 
-2.91000000000000  0.00468216400319296  123.603195226545 
-2.88000000000000  0.00539452644628627  123.925360995937 
-2.85000000000000  0.00620062298830758  124.261680095305 
-2.82000000000000  0.00711023565775830  124.613095126637 
-2.79000000000000  0.00813373984813184  124.980632548622 
-2.76000000000000  0.00928206629174450  125.365411953073 
-2.73000000000000  0.0105666464148530  125.768656556607 
-2.70000000000000  0.0119993390014118  126.191705088761 
-2.67000000000000  0.0135923361378618  126.636025287304 
-2.64000000000000  0.0153580465311332  127.103229245943 
-2.61000000000000  0.0173089545039961  127.595090899938 
-2.58000000000000  0.0194574532959781  128.113565981891 
-2.55000000000000  0.0218156517572547  128.660814834231 
-2.52000000000000  0.0243951541436388  129.239228527312 
-2.49000000000000  0.0272068135336992  129.851458803342 
-2.46000000000000  0.0302604604298519  130.500452446667 
-2.43000000000000  0.0335646094160415  131.189490769976 
-2.40000000000000  0.0371261483753315  131.922235001927 
-2.37000000000000  0.0409500167812761  132.702778460871 
-2.34000000000000  0.0450388820398885  133.535706494558 
-2.31000000000000  0.0493928258626469  134.426165244405 
-2.28000000000000  0.0540090563031167  135.379940333971 
-2.25000000000000  0.0588816655216248  136.403546550382 
-2.22000000000000  0.0640014587120160  137.504329429876 
-2.19000000000000  0.0693558861177744  138.690579288975 
-2.16000000000000  0.0749291178913276  139.971657529609 
-2.13000000000000  0.0807023109277738  141.358133791387 
-2.10000000000000  0.0866541279204785  142.861930432909 
-2.07000000000000  0.0927615818207839  144.496467471235 
-2.04000000000000  0.0990012934599652  146.276795900275 
-2.01000000000000  0.105351265605721  148.219699456157 
-1.98000000000000  0.111793291494017  150.343733438258 
-1.95000000000000  0.118316126504651  152.669153133992 
-1.92000000000000  0.124919551945844  155.217663104373 
-1.89000000000000  0.131619439476363  158.011892682800 
-1.86000000000000  0.138453867458327  161.074476045298 
-1.83000000000000  0.145490224277226  164.426596224152 
-1.80000000000000  0.152833032671574  168.085859475407 
-1.77000000000000  0.160631923823918  172.063428553312 
-1.74000000000000  0.169088788133099  176.360496929707 
-1.71000000000000  0.178462699665530 -179.035543749283 
-1.68000000000000  0.189070915043205 -174.154527179787 
-1.65000000000000  0.201284334638260 -169.045474331772 
-1.62000000000000  0.215516525576952 -163.775958283973 
-1.59000000000000  0.232206774632183 -158.428145880293 
-1.56000000000000  0.251799296256165 -153.091730202165 
-1.53000000000000  0.274721942455268 -147.855101543981 
-1.50000000000000  0.301367869758265 -142.796828746557 
-1.47000000000000  0.332082495822000 -137.979391316941 
-1.44000000000000  0.367156300381978 -133.446199454425 
-1.41000000000000  0.406822450280803 -129.221804860718 
-1.38000000000000  0.451257422803267 -125.314400275296 
-1.35000000000000  0.500582802215455 -121.719454462220 
-1.32000000000000  0.554866913174278 -118.423512073028 
-1.29000000000000  0.614125565440354 -115.407551363902 
-1.26000000000000  0.678321686964140 -112.649636795231 
-1.23000000000000  0.747363942683611 -110.126839706486 
-1.20000000000000  0.821104595203459 -107.816523979789 
-1.17000000000000  0.899336914017834 -105.697136393938 
-1.14000000000000  0.981792431451484 -103.748638466085 
-1.11000000000000  1.06813830982325 -101.952693897921 
-1.08000000000000  1.15797504441764 -100.292698418091 
-1.05000000000000  1.25083468935337 -98.7537140147714 
-1.02000000000000  1.34617976115607 -97.3223497452850 
-0.990000000000000  1.44340294772807 -95.9866166222262 
-0.960000000000000  1.54182772732460 -94.7357737079664 
-0.930000000000000  1.64070998175631 -93.5601754872195 
-0.900000000000000  1.73924066918079 -92.4511259063850 
-0.870000000000000  1.83654960366241 -91.4007414306746 
-0.840000000000000  1.93171037061899 -90.4018235252238 
-0.810000000000000  2.02374638905872 -89.4477397193671 
-0.780000000000000  2.11163811309580 -88.5323115845983 
-0.750000000000000  2.19433134677171 -87.6497073469173 
-0.720000000000000  2.27074662802873 -86.7943363139337 
-0.690000000000000  2.33978962028453 -85.9607417026041 
-0.660000000000000  2.40036243413334 -85.1434876851154 
-0.630000000000000  2.45137578817766 -84.3370353902328 
-0.600000000000000  2.49176190813692 -83.5356010219204 
-0.570000000000000  2.52048805894528 -82.7329869185071 
-0.540000000000000  2.53657060810284 -81.9223728611654 
-0.510000000000000  2.53908953397510 -81.0960495898087 
-0.480000000000000  2.52720332622171 -80.2450682125239 
-0.450000000000000  2.50016428728831 -79.3587661717246 
-0.420000000000000  2.45733435144835 -78.4241094906234 
-0.390000000000000  2.39820172247603 -77.4247565368226 
-0.360000000000000  2.32239895039848 -76.3396901872632 
-0.330000000000000  2.22972363276859 -75.1411635247883 
-0.300000000000000  2.12016395824308 -73.7915207222818 
-0.270000000000000  1.99393327377798 -72.2381114927018 
-0.240000000000000  1.85152177102424 -70.4048487704859 
-0.210000000000000  1.69378161968528 -68.1775994236875 
-0.180000000000000  1.52208025834860 -65.3777111181640 
-0.150000000000000  1.33860036785033 -61.7116330632560 
-0.120000000000000  1.14697652106919 -56.6706213591354 
-0.0900000000000003  0.953755353599950 -49.3277389553527 
-0.0600000000000001  0.771915917517629 -37.9716129216953 
-0.0300000000000002  0.628620769705472 -19.9232737429776 
 0.00000000000000  0.572008726022066  5.76770209812724 
 0.0299999999999998  0.639950099216191  31.9560396748033 
 0.0600000000000001  0.810646675026278  50.7670117255436 
 0.0899999999999999  1.04009378149862  62.6069854611705 
 0.120000000000000  1.30060326514861  70.1951535558376 
 0.150000000000000  1.57813195416083  75.3413811601516 
 0.180000000000000  1.86501604364981  79.0297245634769 
 0.210000000000000  2.15641565272430  81.7980129471153 
 0.240000000000000  2.44882183591323  83.9547546944487 
 0.270000000000000  2.73941339256582  85.6865430633123 
 0.300000000000000  3.02576470216649  87.1118139553956 
 0.330000000000000  3.30570741353472  88.3089581627498 
 0.360000000000000  3.57726406224465  89.3317596930023 
 0.390000000000000  3.83861721391967  90.2182755863629 
 0.420000000000000  4.08809684293710  90.9961607317406 
 0.450000000000000  4.32417720875157  91.6859809824605 
 0.480000000000000  4.54547855770624  92.3033428379122 
 0.510000000000000  4.75077102243896  92.8603023783656 
 0.540000000000000  4.93897917474072  93.3663214635997 
 0.570000000000000  5.10918629270899  93.8289315887933 
 0.600000000000000  5.26063775884187  94.2542042443652 
 0.630000000000000  5.39274322655825  94.6470903275452 
 0.660000000000000  5.50507733750950  95.0116691400660 
 0.690000000000000  5.59737887245520  95.3513338145224 
 0.720000000000000  5.66954829167854  95.6689312977804 
 0.750000000000000  5.72164367660248  95.9668693561347 
 0.780000000000000  5.75387512796735  96.2471993145193 
 0.810000000000000  5.76659771085233  96.5116807118127 
 0.840000000000000  5.76030306485112  96.7618323202160 
 0.870000000000000  5.73560981997705  96.9989727703688 
 0.900000000000000  5.69325297607549  97.2242531729715 
 0.930000000000000  5.63407241612520  97.4386835197366 
 0.960000000000000  5.55900073215729  97.6431542068850 
 0.990000000000000  5.46905054689610  97.8384537029738 
 1.02000000000000  5.36530151490240  98.0252831453450 
 1.05000000000000  5.24888718425583  98.2042684722899 
 1.08000000000000  5.12098189394796  98.3759705646005 
 1.11000000000000  4.98278787349392  98.5408937688429 
 1.14000000000000  4.83552270015296  98.6994930970990 
 1.17000000000000  4.68040725594319  98.8521803380550 
 1.20000000000000  4.51865431172096  98.9993292677917 
 1.23000000000000  4.35145784935856  99.1412801122178 
 1.26000000000000  4.17998321588095  99.2783433844189 
 1.29000000000000  4.00535818569292  99.4108031974630 
 1.32000000000000  3.82866498910835  99.5389201350915 
 1.35000000000000  3.65093334762670  99.6629337482016 
 1.38000000000000  3.47313453910851  99.7830647333229 
 1.41000000000000  3.29617649946652  99.8995168398118 
 1.44000000000000  3.12089995196537  100.012478544772 
 1.47000000000000  2.94807554092392  100.122124528399 
 1.50000000000000  2.77840193371246  100.228616977269 
 1.53000000000000  2.61250484356758  100.332106738810 
 1.56000000000000  2.45093691600006  100.432734346661 
 1.59000000000000  2.29417841350089  100.530630933683 
 1.62000000000000  2.14263862687101  100.625919046912 
 1.65000000000000  1.99665793679370  100.718713376717 
 1.68000000000000  1.85651044618213  100.809121410667 
 1.71000000000000  1.72240710229097  100.897244021159 
 1.74000000000000  1.59449922747626  100.983175994655 
 1.77000000000000  1.47288237870024  101.067006509273 
 1.80000000000000  1.35760045826963  101.148819566643 
 1.83000000000000  1.24865000171899  101.228694383128 
 1.86000000000000  1.14598457304912  101.306705744907 
 1.89000000000000  1.04951920254686  101.382924330810 
 1.92000000000000  0.959134807989488  101.457417006346 
 1.95000000000000  0.874682546020825  101.530247091942 
 1.98000000000000  0.795988046731522  101.601474608042 
 2.01000000000000  0.722855490845773  101.671156499417 
 2.04000000000000  0.655071495285447  101.739346840750 
 2.07000000000000  0.592408779137877  101.806097025344 
 2.10000000000000  0.534629588096886  101.871455938585 
 2.13000000000000  0.481488861193553  101.935470117594 
 2.16000000000000  0.432737129014778  101.998183898391 
 2.19000000000000  0.388123137569060  102.059639551693 
 2.22000000000000  0.347396196459485  102.119877408408 
 2.25000000000000  0.310308254036790  102.178935975732 
 2.28000000000000  0.276615705715716  102.236852044686 
 2.31000000000000  0.246080944642752  102.293660789836 
 2.34000000000000  0.218473666409372  102.349395861876 
 2.37000000000000  0.193571941527800  102.404089473663 
 2.40000000000000  0.171163070949232  102.457772480266 
 2.43000000000000  0.151044241036227  102.510474453523 
 2.46000000000000  0.133022995135508  102.562223751533 
 2.49000000000000  0.116917539271638  102.613047583520 
 2.52000000000000  0.102556899535414  102.662972070403 
 2.55000000000000  0.0897809485134820  102.712022301440 
 2.58000000000000  0.0784403176383632  102.760222387221 
 2.61000000000000  0.0683962116702820  102.807595509304 
 2.64000000000000  0.0595201406923207  102.854163966749 
 2.67000000000000  0.0516935840446082  102.899949219766 
 2.70000000000000  0.0448075995751464  102.944971930703 
 2.73000000000000  0.0387623904752709  102.989252002559 
 2.76000000000000  0.0334668408242736  103.032808615204 
 2.79000000000000  0.0288380298147904  103.075660259466 
 2.82000000000000  0.0248007334892647  103.117824769231 
 2.85000000000000  0.0212869217060239  103.159319351704 
 2.88000000000000  0.0182352569859133  103.200160615943 
 2.91000000000000  0.0155906008787496  103.240364599793 
 2.94000000000000  0.0133035325420062  103.279946795323 
 2.97000000000000  0.0113298833484787  103.318922172863 
 3.00000000000000  0.00963029053928138  103.357305203740 
