-3.00000000000000  0.00374143175048688  126.030490897357 
-2.97000000000000  0.00435447511752388  126.363293804923 
-2.94000000000000  0.00505696024169239  126.707745858035 
-2.91000000000000  0.00585996344781030  127.064450174314 
-2.88000000000000  0.00677559908840567  127.434050527582 
-2.85000000000000  0.00781706255038955  127.817234650337 
-2.82000000000000  0.00899866564214832  128.214737840008 
-2.79000000000000  0.0103358624398207  128.627346898471 
-2.76000000000000  0.0118452635275308  129.055904436917 
-2.73000000000000  0.0135446364483086  129.501313580897 
-2.70000000000000  0.0154528901000533  129.964543113138 
-2.67000000000000  0.0175900407752178  130.446633094507 
-2.64000000000000  0.0199771575662831  130.948701006095 
-2.61000000000000  0.0226362849552652  131.471948457745 
-2.58000000000000  0.0255903405894229  132.017668510189 
-2.55000000000000  0.0288629865332142  132.587253658960 
-2.52000000000000  0.0324784726956242  133.182204528121 
-2.49000000000000  0.0364614516804250  133.804139319873 
-2.46000000000000  0.0408367650135159  134.454804061745 
-2.43000000000000  0.0456292015853977  135.136083685181 
-2.40000000000000  0.0508632302271164  135.850013956795 
-2.37000000000000  0.0565627096331607  136.598794264545 
-2.34000000000000  0.0627505803719877  137.384801233534 
-2.31000000000000  0.0694485454990059  138.210603107172 
-2.28000000000000  0.0766767483194339  139.078974775434 
-2.25000000000000  0.0844534581456453  139.992913258372 
-2.22000000000000  0.0927947774540225  140.955653354101 
-2.19000000000000  0.101714386657559  141.970683029149 
-2.16000000000000  0.111223345744467  143.041757956707 
-2.13000000000000  0.121329975239709  144.172914384958 
-2.10000000000000  0.132039842244473  145.368479231844 
-2.07000000000000  0.143355880573635  146.633075942240 
-2.04000000000000  0.155278677059048  147.971624196908 
-2.01000000000000  0.167806958652206  149.389331020787 
-1.98000000000000  0.180938316670953  150.891670198680 
-1.95000000000000  0.194670204880106  152.484346179046 
-1.92000000000000  0.209001246390712  154.173237862319 
-1.89000000000000  0.223932879718002  155.964316893144 
-1.86000000000000  0.239471365643528  157.863534419263 
-1.83000000000000  0.255630162465038  159.876669923415 
-1.80000000000000  0.272432656342584  162.009135942389 
-1.77000000000000  0.289915204365500  164.265733614921 
-1.74000000000000  0.308130409657642  166.650356482788 
-1.71000000000000  0.327150500194353  169.165644269198 
-1.68000000000000  0.347070627532814  171.812594851354 
-1.65000000000000  0.368011842334260  174.590151428614 
-1.62000000000000  0.390123447587773  177.494792524924 
-1.59000000000000  0.413584388553844 -179.479836301637 
-1.56000000000000  0.438603324144033 -176.343200584089 
-1.53000000000000  0.465417051779306 -173.108011633080 
-1.50000000000000  0.494287037324645 -169.790167870928 
-1.47000000000000  0.525493935621404 -166.408467005533 
-1.44000000000000  0.559330164719801 -162.984078415522 
-1.41000000000000  0.596090793256319 -159.539798339515 
-1.38000000000000  0.636063180215583 -156.099145280673 
-1.35000000000000  0.679515932837722 -152.685381069033 
-1.32000000000000  0.726687795045451 -149.320556680629 
-1.29000000000000  0.777777038149819 -146.024677277605 
-1.26000000000000  0.832931812281431 -142.815059349746 
-1.23000000000000  0.892241761889300 -139.705920354829 
-1.20000000000000  0.955731048184515 -136.708206240630 
-1.17000000000000  1.02335278633760 -133.829632386275 
-1.14000000000000  1.09498481351223 -131.074893658087 
-1.11000000000000  1.17042665920871 -128.445990706881 
-1.08000000000000  1.24939758476792 -125.942620722199 
-1.05000000000000  1.33153558149052 -123.562588449618 
-1.02000000000000  1.41639725313389 -121.302203996462 
-0.990000000000000  1.50345854742021 -119.156645070416 
-0.960000000000000  1.59211633512948 -117.120271067049 
-0.930000000000000  1.68169086039835 -115.186884024810 
-0.900000000000000  1.77142910075653 -113.349936759425 
-0.870000000000000  1.86050908070860 -111.602691733343 
-0.840000000000000  1.94804517972643 -109.938335839431 
-0.810000000000000  2.03309446610796 -108.350056729104 
-0.780000000000000  2.11466407403189 -106.831085977132 
-0.750000000000000  2.19171962389521 -105.374713536113 
-0.720000000000000  2.26319466707540 -103.974276781154 
-0.690000000000000  2.32800111688624 -102.623126076866 
-0.660000000000000  2.38504060890383 -101.314567231056 
-0.630000000000000  2.43321671728496 -100.041779373068 
-0.600000000000000  2.47144794063109 -98.7977045678338 
-0.570000000000000  2.49868136321264 -97.5749026021890 
-0.540000000000000  2.51390689752453 -96.3653604561232 
-0.510000000000000  2.51617202600631 -95.1602403498710 
-0.480000000000000  2.50459698932394 -93.9495418754311 
-0.450000000000000  2.47839042573719 -92.7216407956137 
-0.420000000000000  2.43686556765385 -91.4626465546684 
-0.390000000000000  2.37945727751590 -90.1554869500238 
-0.360000000000000  2.30574051101990 -88.7785718202151 
-0.330000000000000  2.21545133735960 -87.3037892296799 
-0.300000000000000  2.10851263520596 -85.6934107294641 
-0.270000000000000  1.98506846073757 -83.8951521466718 
-0.240000000000000  1.84553481709675 -81.8339949447887 
-0.210000000000000  1.69068238051271 -79.3980723073974 
-0.180000000000000  1.52178415013150 -76.4131693907014 
-0.150000000000000  1.34090232843387 -72.5943408687242 
-0.120000000000000  1.15149354585101 -67.4498114518442 
-0.0900000000000003  0.959790388145307 -60.0862674385053 
-0.0600000000000001  0.778129254095766 -48.8517041232776 
-0.0300000000000002  0.632394903577096 -31.1016461558059 
 0.00000000000000  0.569579513348415 -5.58411717402463 
 0.0299999999999998  0.630096153466871  21.0540058642556 
 0.0600000000000001  0.795786979349535  40.5298801939609 
 0.0899999999999999  1.02258104579584  52.8690331417574 
 0.120000000000000  1.28184008444451  60.8048214701653 
 0.150000000000000  1.55901151377070  66.2112349688697 
 0.180000000000000  1.84620999688359  70.1105408175610 
 0.210000000000000  2.13849397365391  73.0602632732414 
 0.240000000000000  2.43229982978259  75.3792509856009 
 0.270000000000000  2.72476949594264  77.2598251206496 
 0.300000000000000  3.01344617402232  78.8237889451227 
 0.330000000000000  3.29613080828059  80.1516302157854 
 0.360000000000000  3.57081345276841  81.2985108735076 
 0.390000000000000  3.83564154064794  82.3034393438913 
 0.420000000000000  4.08890707396010  83.1947577331666 
 0.450000000000000  4.32904367444374  83.9935489364146 
 0.480000000000000  4.55462866237576  84.7158228231335 
 0.510000000000000  4.76438744859009  85.3739603225286 
 0.540000000000000  4.95719864446107  85.9776921803440 
 0.570000000000000  5.13209891797145  86.5347777105168 
 0.600000000000000  5.28828698972860  87.0514852535722 
 0.630000000000000  5.42512638940207  87.5329386044702 
 0.660000000000000  5.54214674158510  87.9833709985340 
 0.690000000000000  5.63904345304162  88.4063141620715 
 0.720000000000000  5.71567574848052  88.8047409838217 
 0.750000000000000  5.77206305935823  89.1811745531665 
 0.780000000000000  5.80837981541817  89.5377724658781 
 0.810000000000000  5.82494872500732  89.8763927079838 
 0.840000000000000  5.82223265957900  90.1986456548601 
 0.870000000000000  5.80082528133552  90.5059354899850 
 0.900000000000000  5.76144057138122  90.7994934789752 
 0.930000000000000  5.70490142950020  91.0804049142291 
 0.960000000000000  5.63212752607395  91.3496310972590 
 0.990000000000000  5.54412259198467  91.6080273982409 
 1.02000000000000  5.44196133387281  91.8563581904342 
 1.05000000000000  5.32677616010150  92.0953092767368 
 1.08000000000000  5.19974389751865  92.3254982898883 
 1.11000000000000  5.06207267091802  92.5474834447578 
 1.14000000000000  4.91498910632803  92.7617709422729 
 1.17000000000000  4.75972600626765  92.9688212636886 
 1.20000000000000  4.59751063028560  93.1690545466242 
 1.23000000000000  4.42955369783591  93.3628551973033 
 1.26000000000000  4.25703921323405  93.5505758643071 
 1.29000000000000  4.08111519447328  93.7325408760722 
 1.32000000000000  3.90288536943822  93.9090492259658 
 1.35000000000000  3.72340188488871  94.0803771740260 
 1.38000000000000  3.54365905583414  94.2467805225710 
 1.41000000000000  3.36458816587684  94.4084966132551 
 1.44000000000000  3.18705331303833  94.5657460853138 
 1.47000000000000  3.01184828072187  94.7187344283312 
 1.50000000000000  2.83969439999419  94.8676533576006 
 1.53000000000000  2.67123935743429  95.0126820358057 
 1.56000000000000  2.50705689250007  95.1539881611494 
 1.59000000000000  2.34764731976817  95.2917289390692 
 1.62000000000000  2.19343880453021  95.4260519521763 
 1.65000000000000  2.04478931506992  95.5570959409628 
 1.68000000000000  1.90198917145190  95.6849915060625 
 1.71000000000000  1.76526410875147  95.8098617413628 
 1.74000000000000  1.63477877224391  95.9318228060099 
 1.77000000000000  1.51064056303135  96.0509844422812 
 1.80000000000000  1.39290375477704  96.1674504453866 
 1.83000000000000  1.28157380549141  96.2813190904886 
 1.86000000000000  1.17661179251459  96.3926835215586 
 1.89000000000000  1.07793890380413  96.5016321061209 
 1.92000000000000  0.985440924204748  96.6082487594385 
 1.95000000000000  0.898972661390922  96.7126132412719 
 1.98000000000000  0.818362262482204  96.8148014279720 
 2.01000000000000  0.743415378794636  96.9148855623499 
 2.04000000000000  0.673919142678010  97.0129344834862 
 2.07000000000000  0.609645926781276  97.1090138384012 
 2.10000000000000  0.550356862283639  97.2031862772950 
 2.13000000000000  0.495805098537841  97.2955116338802 
 2.16000000000000  0.445738792121506  97.3860470921678 
 2.19000000000000  0.399903818423564  97.4748473409217 
 2.22000000000000  0.358046203561534  97.5619647168746 
 2.25000000000000  0.319914278601888  97.6474493376812 
 2.28000000000000  0.285260561722456  97.7313492254914 
 2.31000000000000  0.253843377107715  97.8137104219339 
 2.34000000000000  0.225428222009858  97.8945770952277 
 2.37000000000000  0.199788895555206  97.9739916400648 
 2.40000000000000  0.176708404549128  98.0519947708516 
 2.43000000000000  0.155979662761541  98.1286256088357 
 2.46000000000000  0.137406000993128  98.2039217636013 
 2.49000000000000  0.120801505666640  98.2779194093675 
 2.52000000000000  0.105991203798046  98.3506533564896 
 2.55000000000000  0.0928111120195951  98.4221571185226 
 2.58000000000000  0.0811081668925923  98.4924629751789 
 2.61000000000000  0.0707400531023438  98.5616020314821 
 2.64000000000000  0.0615749453107240  98.6296042733909 
 2.67000000000000  0.0534911784903611  98.6964986201478 
 2.70000000000000  0.0463768605133058  98.7623129735828 
 2.73000000000000  0.0401294396481293  98.8270742645850 
 2.76000000000000  0.0346552384613997  98.8908084969371 
 2.79000000000000  0.0298689644478456  98.9535407886926 
 2.82000000000000  0.0256932065502887  99.0152954112611 
 2.85000000000000  0.0220579255943652  99.0760958263529 
 2.88000000000000  0.0188999455696434  99.1359647209246 
 2.91000000000000  0.0161624516504114  99.1949240402560 
 2.94000000000000  0.0137944998756935  99.2529950192752 
 2.97000000000000  0.0117505425058530  99.3101982122475 
 3.00000000000000  0.00998997224695704  99.3665535209261 
