-3.00000000000000  0.00227175436041630  115.002628309402 
-2.97000000000000  0.00262197467849638  115.132168599307 
-2.94000000000000  0.00301840645417474  115.268241132653 
-2.91000000000000  0.00346571277868292  115.411369997403 
-2.88000000000000  0.00396876376434264  115.562137590819 
-2.85000000000000  0.00453259106198661  115.721192985860 
-2.82000000000000  0.00516232812478778  115.889261779491 
-2.79000000000000  0.00586313416700302  116.067157737693 
-2.76000000000000  0.00664009966699274  116.255796630538 
-2.73000000000000  0.00749813119542455  116.456212751910 
-2.70000000000000  0.00844181332136522  116.669578749864 
-2.67000000000000  0.00947524537214010  116.897229565484 
-2.64000000000000  0.0106018509103980  117.140691504642 
-2.61000000000000  0.0118241579590920  117.401717768264 
-2.58000000000000  0.0131435482704327  117.682332170780 
-2.55000000000000  0.0145599743207667  117.984883323606 
-2.52000000000000  0.0160716432481275  118.312112309105 
-2.49000000000000  0.0176746676699179  118.667237905628 
-2.46000000000000  0.0193626842750415  119.054064872119 
-2.43000000000000  0.0211264423487673  119.477122850885 
-2.40000000000000  0.0229533660637324  119.941846387964 
-2.37000000000000  0.0248270966149165  120.454810848148 
-2.34000000000000  0.0267270233382449  121.024045316876 
-2.31000000000000  0.0286278172324064  121.659453053043 
-2.28000000000000  0.0304989864665323  122.373384504616 
-2.25000000000000  0.0323044826355664  123.181430333262 
-2.22000000000000  0.0340024007023198  124.103537388955 
-2.19000000000000  0.0355448383023512  125.165607833971 
-2.16000000000000  0.0368780179716761  126.401835805561 
-2.13000000000000  0.0379428414364193  127.858193864365 
-2.10000000000000  0.0386761630332302  129.597750198312 
-2.07000000000000  0.0390132895580805  131.708958695068 
-2.04000000000000  0.0388926403730604  134.318847492121 
-2.01000000000000  0.0382643547930262  137.614289734607 
-1.98000000000000  0.0371063758553366  141.876173815976 
-1.95000000000000  0.0354550560704023  147.531495733565 
-1.92000000000000  0.0334637034442833  155.217392737504 
-1.89000000000000  0.0315090720173314  165.790451363797 
-1.86000000000000  0.0303451876426263 -179.982073912852 
-1.83000000000000  0.0311650949049536 -162.484523844042 
-1.80000000000000  0.0352253294611129 -144.291849892531 
-1.77000000000000  0.0431656219460773 -128.586444571182 
-1.74000000000000  0.0549394153286851 -116.602557696643 
-1.71000000000000  0.0702978298831832 -107.861926309250 
-1.68000000000000  0.0890867678387027 -101.472692416339 
-1.65000000000000  0.111284271355029 -96.7020516428623 
-1.62000000000000  0.136961067523817 -93.0459790224415 
-1.59000000000000  0.166241989654334 -90.1722238800652 
-1.56000000000000  0.199279831420073 -87.8611427485860 
-1.53000000000000  0.236238380880499 -85.9647767915863 
-1.50000000000000  0.277280826274699 -84.3810671373319 
-1.47000000000000  0.322561116378534 -83.0378922429488 
-1.44000000000000  0.372216923374862 -81.8831006110765 
-1.41000000000000  0.426363480813185 -80.8781715712039 
-1.38000000000000  0.485087914912852 -79.9940951539232 
-1.35000000000000  0.548443879011108 -79.2086341871272 
-1.32000000000000  0.616446409809176 -78.5044654174200 
-1.29000000000000  0.689066988215436 -77.8678915851219 
-1.26000000000000  0.766228826930605 -77.2879320152144 
-1.23000000000000  0.847802431953448 -76.7556690401122 
-1.20000000000000  0.933601501498618 -76.2637704678553 
-1.17000000000000  1.02337923642603 -75.8061352094423 
-1.14000000000000  1.11682514282251 -75.3776263692076 
-1.11000000000000  1.21356241074370 -74.9738672861044 
-1.08000000000000  1.31314595380351 -74.5910834128281 
-1.05000000000000  1.41506119255595 -74.2259778902177 
-1.02000000000000  1.51872366060586 -73.8756320589028 
-0.990000000000000  1.62347950621555 -73.5374244806942 
-0.960000000000000  1.72860695393984 -73.2089636594503 
-0.930000000000000  1.83331878063047 -72.8880307758864 
-0.900000000000000  1.93676584814177 -72.5725295270786 
-0.870000000000000  2.03804172142246 -72.2604406829834 
-0.840000000000000  2.13618838562203 -71.9497792988018 
-0.810000000000000  2.23020305966153 -71.6385526887910 
-0.780000000000000  2.31904608676709 -71.3247172906220 
-0.750000000000000  2.40164986516378 -71.0061324295791 
-0.720000000000000  2.47692876498995 -70.6805087118558 
-0.690000000000000  2.54378996113781 -70.3453482989496 
-0.660000000000000  2.60114509692389 -69.9978735767803 
-0.630000000000000  2.64792268121865 -69.6349396306511 
-0.600000000000000  2.68308111320932 -69.2529243077834 
-0.570000000000000  2.70562222611670 -68.8475872354453 
-0.540000000000000  2.71460524652560 -68.4138855532245 
-0.510000000000000  2.70916108346271 -67.9457286444217 
-0.480000000000000  2.68850689724838 -67.4356457066131 
-0.450000000000000  2.65196096289308 -66.8743267089848 
-0.420000000000000  2.59895795440288 -66.2499758841891 
-0.390000000000000  2.52906496701517 -65.5473815721582 
-0.360000000000000  2.44199892392115 -64.7465462497406 
-0.330000000000000  2.33764659787983 -63.8206155284288 
-0.300000000000000  2.21608954850891 -62.7326544736859 
-0.270000000000000  2.07763832196786 -61.4304609971647 
-0.240000000000000  1.92288436467843 -59.8379019349120 
-0.210000000000000  1.75278680652278 -57.8398112305485 
-0.180000000000000  1.56883090561080 -55.2543803461424 
-0.150000000000000  1.37334236933809 -51.7800190741305 
-0.120000000000000  1.17016450603062 -46.8879868751585 
-0.0900000000000003  0.966239585022614 -39.6007646722981 
-0.0600000000000001  0.775506101591834 -28.0823920666821 
-0.0300000000000002  0.627639847362989 -9.43668820152264 
 0.00000000000000  0.575093239025646  17.1120646520228 
 0.0299999999999998  0.654971991922765  43.3806211690313 
 0.0600000000000001  0.838396450150453  61.5999148685723 
 0.0899999999999999  1.07851762529040  72.8377072229288 
 0.120000000000000  1.34782139613198  79.9603263222768 
 0.150000000000000  1.63268012064904  84.7492997849308 
 0.180000000000000  1.92567415852568  88.1517450702539 
 0.210000000000000  2.22209330517157  90.6810860744969 
 0.240000000000000  2.51850250796557  92.6309667032124 
 0.270000000000000  2.81212969524796  94.1788303607830 
 0.300000000000000  3.10058883770176  95.4372918985241 
 0.330000000000000  3.38174914270195  96.4808975581444 
 0.360000000000000  3.65367238171628  97.3607979470532 
 0.390000000000000  3.91458379562902  98.1131842573486 
 0.420000000000000  4.16286018146742  98.7643479547566 
 0.450000000000000  4.39702687597624  99.3338303740691 
 0.480000000000000  4.61575920650107  99.8364484780160 
 0.510000000000000  4.81788591908551  100.283635882101 
 0.540000000000000  5.00239312310392  100.684353528299 
 0.570000000000000  5.16842786735342  101.045722300649 
 0.600000000000000  5.31530080171509  101.373471483666 
 0.630000000000000  5.44248758944220  101.672262515212 
 0.660000000000000  5.54962887375660  101.945926584662 
 0.690000000000000  5.63652869858433  102.197641620663 
 0.720000000000000  5.70315135332552  102.430065930333 
 0.750000000000000  5.74961666473468  102.645440365542 
 0.780000000000000  5.77619380054779  102.845667321406 
 0.810000000000000  5.78329368249672  103.032372463154 
 0.840000000000000  5.77146013260471  103.206953425678 
 0.870000000000000  5.74135989725517  103.370618580392 
 0.900000000000000  5.69377170915652  103.524418152655 
 0.930000000000000  5.62957455845184  103.669269393024 
 0.960000000000000  5.54973535119349  103.805977086042 
 0.990000000000000  5.45529613651431  103.935250373365 
 1.02000000000000  5.34736108336239  104.057716641152 
 1.05000000000000  5.22708338391496  104.173933052367 
 1.08000000000000  5.09565225405554  104.284396177058 
 1.11000000000000  4.95428019191597  104.389550076838 
 1.14000000000000  4.80419064379941  104.489793125541 
 1.17000000000000  4.64660621317763  104.585483790793 
 1.20000000000000  4.48273753327217  104.676945556686 
 1.23000000000000  4.31377290736471  104.764471132935 
 1.26000000000000  4.14086880381779  104.848326068415 
 1.29000000000000  3.96514127518975  104.928751865252 
 1.32000000000000  3.78765835315333  105.005968672281 
 1.35000000000000  3.60943345350563  105.080177622785 
 1.38000000000000  3.43141980869207  105.151562870227 
 1.41000000000000  3.25450592923152  105.220293366609 
 1.44000000000000  3.07951208045833  105.286524420711 
 1.47000000000000  2.90718774728983  105.350399067412 
 1.50000000000000  2.73821004744221  105.412049274350 
 1.53000000000000  2.57318304277324  105.471597008077 
 1.56000000000000  2.41263788930533  105.529155178481 
 1.59000000000000  2.25703375901911  105.584828477440 
 1.62000000000000  2.10675946070943  105.638714125300 
 1.65000000000000  1.96213568303508  105.690902536838 
 1.68000000000000  1.82341778031150  105.741477916682 
 1.71000000000000  1.69079902050767  105.790518792793 
 1.74000000000000  1.56441421520698  105.838098495422 
 1.77000000000000  1.44434365285222  105.884285587963 
 1.80000000000000  1.33061725927832  105.929144255263 
 1.83000000000000  1.22321891319359  105.972734654236 
 1.86000000000000  1.12209084874832  106.015113230999 
 1.89000000000000  1.02713808247165  106.056333008218 
 1.92000000000000  0.938232807510402  106.096443845899 
 1.95000000000000  0.855218704117185  106.135492678444 
 1.98000000000000  0.777915121568271  106.173523730488 
 2.01000000000000  0.706121093012407  106.210578713692 
 2.04000000000000  0.639619151039519  106.246697006450 
 2.07000000000000  0.578178917905754  106.281915818214 
 2.10000000000000  0.521560450265327  106.316270339972 
 2.13000000000000  0.469517323860756  106.349793882217 
 2.16000000000000  0.421799448846950  106.382518001625 
 2.19000000000000  0.378155611220994  106.414472617498 
 2.22000000000000  0.338335740161895  106.445686118945 
 2.25000000000000  0.302092904929552  106.476185463639 
 2.28000000000000  0.269185048318440  106.505996268933 
 2.31000000000000  0.239376466508450  106.535142896012 
 2.34000000000000  0.212439047512094  106.563648527699 
 2.37000000000000  0.188153282301229  106.591535240474 
 2.40000000000000  0.166309064132164  106.618824071204 
 2.43000000000000  0.146706292605113  106.645535079034 
 2.46000000000000  0.129155299627034  106.671687402848 
 2.49000000000000  0.113477114732957  106.697299314672 
 2.52000000000000  0.0995035871993153  106.722388269340 
 2.55000000000000  0.0870773820933712  106.746970950746 
 2.58000000000000  0.0760518668856484  106.771063314937 
 2.61000000000000  0.0662909045460957  106.794680630308 
 2.64000000000000  0.0576685681870656  106.817837515126 
 2.67000000000000  0.0500687913421795  106.840547972583 
 2.70000000000000  0.0433849669124173  106.862825423576 
 2.73000000000000  0.0375195066990219  106.884682737376 
 2.76000000000000  0.0323833723036187  106.906132260352 
 2.79000000000000  0.0278955870326794  106.927185842897 
 2.82000000000000  0.0239827373162120  106.947854864671 
 2.85000000000000  0.0205784710562671  106.968150258303 
 2.88000000000000  0.0176229992733282  106.988082531648 
 2.91000000000000  0.0150626064288365  107.007661788710 
 2.94000000000000  0.0128491738782234  107.026897749318 
 2.97000000000000  0.0109397200566099  107.045799767645 
 3.00000000000000  0.00929596022236365  107.064376849655 
