-3.00000000000000  0.00301278827236457  122.431158099454 
-2.97000000000000  0.00349527703253030  122.713559516528 
-2.94000000000000  0.00404568800368876  123.007645344173 
-2.91000000000000  0.00467189880744970  123.314150183339 
-2.88000000000000  0.00538241043342021  123.633870524695 
-2.85000000000000  0.00618634641146910  123.967671260524 
-2.82000000000000  0.00709344125636686  124.316493013205 
-2.79000000000000  0.00811401627799734  124.681360397980 
-2.76000000000000  0.00925894075360588  125.063391356624 
-2.73000000000000  0.0105395763969344  125.463807720737 
-2.70000000000000  0.0119677030439098  125.883947189342 
-2.67000000000000  0.0135554235189244  126.325276935843 
-2.64000000000000  0.0153150457648195  126.789409095024 
-2.61000000000000  0.0172589405308885  127.278118422385 
-2.58000000000000  0.0193993732365474  127.793362466661 
-2.55000000000000  0.0217483090868212  128.337304652836 
-2.52000000000000  0.0243171911359860  128.912340738176 
-2.49000000000000  0.0271166918084173  129.521129178650 
-2.46000000000000  0.0301564394269029  130.166626028001 
-2.43000000000000  0.0334447226108671  130.852125086446 
-2.40000000000000  0.0369881770406972  131.581304119200 
-2.37000000000000  0.0407914611005747  132.358278073303 
-2.34000000000000  0.0448569293848546  133.187660327782 
-2.31000000000000  0.0491843160725595  134.074633104967 
-2.28000000000000  0.0537704438519865  135.025028228888 
-2.25000000000000  0.0586089785486290  136.045419406068 
-2.22000000000000  0.0636902550394525  137.143227069557 
-2.19000000000000  0.0690012066207115  138.326836482057 
-2.16000000000000  0.0745254379584793  139.605729103861 
-2.13000000000000  0.0802434913276876  140.990625991173 
-2.10000000000000  0.0861333672504112  142.493639893604 
-2.07000000000000  0.0921713739900277  144.128429319251 
-2.04000000000000  0.0983333955054612  145.910342500166 
-2.01000000000000  0.104596683752947  147.856531071172 
-1.98000000000000  0.110942296975563  149.986001316022 
-1.95000000000000  0.117358317408636  152.319553911390 
-1.92000000000000  0.123843983293816  154.879540421445 
-1.89000000000000  0.130414850411498  157.689336835661 
-1.86000000000000  0.137109040592866  160.772404724621 
-1.83000000000000  0.143994515162591  164.150788628405 
-1.80000000000000  0.151177102147438  167.842903398076 
-1.77000000000000  0.158808685539140  171.860529146602 
-1.74000000000000  0.167094539955789  176.205094603318 
-1.71000000000000  0.176298337262857 -179.136378558139 
-1.68000000000000  0.186743037646090 -174.194901601820 
-1.65000000000000  0.198805977524092 -169.021577225976 
-1.62000000000000  0.212907241636526 -163.686864544095 
-1.59000000000000  0.229491884738107 -158.276281294914 
-1.56000000000000  0.249008334259420 -152.882812763257 
-1.53000000000000  0.271886561357510 -147.597530412867 
-1.50000000000000  0.298519634311401 -142.500676787946 
-1.47000000000000  0.329250983919807 -137.655271938496 
-1.44000000000000  0.364367786702712 -133.104271014934 
-1.41000000000000  0.404099241842597 -128.871073726903 
-1.38000000000000  0.448617752198135 -124.962358364021 
-1.35000000000000  0.498041104689856 -121.371996846725 
-1.32000000000000  0.552434309794202 -118.085042833194 
-1.29000000000000  0.611810413105799 -115.081188933764 
-1.26000000000000  0.676130105865527 -112.337452400561 
-1.23000000000000  0.745300274779837 -109.830087858691 
-1.20000000000000  0.819171777292138 -107.535844421517 
-1.17000000000000  0.897536766700886 -105.432720444107 
-1.14000000000000  0.980125874029462 -103.500360388255 
-1.11000000000000  1.06660551423334 -101.720211527839 
-1.08000000000000  1.15657554131753 -100.075528461847 
-1.05000000000000  1.24956743800302 -98.5512873254091 
-1.02000000000000  1.34504319281690 -97.1340512188860 
-0.990000000000000  1.44239499037303 -95.8118135210738 
-0.960000000000000  1.54094581774689 -94.5738354140631 
-0.930000000000000  1.63995106974269 -93.4104869946288 
-0.900000000000000  1.73860121726892 -92.3130967962468 
-0.870000000000000  1.83602558509234 -91.2738116309276 
-0.840000000000000  1.93129726737028 -90.2854668200386 
-0.810000000000000  2.02343919129148 -89.3414657209629 
-0.780000000000000  2.11143132084915 -88.4356666941148 
-0.750000000000000  2.19421897438220 -87.5622750961008 
-0.720000000000000  2.27072221138821 -86.7157373835937 
-0.690000000000000  2.33984622673771 -85.8906338481447 
-0.660000000000000  2.40049267449652 -85.0815657575764 
-0.630000000000000  2.45157183001930 -84.2830316190425 
-0.600000000000000  2.49201548906843 -83.4892857208284 
-0.570000000000000  2.52079049818982 -82.6941697887177 
-0.540000000000000  2.53691281398739 -81.8909050974789 
-0.510000000000000  2.53946200414563 -81.0718270511789 
-0.480000000000000  2.52759613618740 -80.2280360061157 
-0.450000000000000  2.50056706115581 -79.3489251329310 
-0.420000000000000  2.45773620607800 -78.4215252424077 
-0.390000000000000  2.39859117221415 -77.4295721146316 
-0.360000000000000  2.32276375303671 -76.3521436740862 
-0.330000000000000  2.23005054670906 -75.1616128348493 
-0.300000000000000  2.12043836281822 -73.8204787104517 
-0.270000000000000  1.99413857328312 -72.2762960559179 
-0.240000000000000  1.85163844673030 -70.4532544671677 
-0.210000000000000  1.69378569051062 -68.2375983125267 
-0.180000000000000  1.52194071783533 -65.4511857586976 
-0.150000000000000  1.33827481602948 -61.8011111781963 
-0.120000000000000  1.14640369276468 -56.7792225183324 
-0.0900000000000003  0.952843337041124 -49.4580447955076 
-0.0600000000000001  0.770532075661622 -38.1197651274525 
-0.0300000000000002  0.626637920792184 -20.0581143162741 
 0.00000000000000  0.569563283401003  5.72213128517414 
 0.0299999999999998  0.637575830111996  32.0175013880178 
 0.0600000000000001  0.808666851971241  50.8660417198348 
 0.0899999999999999  1.03850417983336  62.7022204729707 
 0.120000000000000  1.29932477565324  70.2762843185755 
 0.150000000000000  1.57709754139733  75.4080199141150 
 0.180000000000000  1.86417829896767  79.0836432141404 
 0.210000000000000  2.15574140338773  81.8411269572859 
 0.240000000000000  2.44828714454107  83.9886916575757 
 0.270000000000000  2.73900024270621  85.7126085954876 
 0.300000000000000  3.02545892604292  87.1310440485938 
 0.330000000000000  3.30549739787193  88.3221789719157 
 0.360000000000000  3.57713992891347  89.3396371630055 
 0.390000000000000  3.83857029313563  90.2213533371008 
 0.420000000000000  4.08811933039990  90.9948882607285 
 0.450000000000000  4.32426194103309  91.6807345788451 
 0.480000000000000  4.54561886523101  92.2944411710903 
 0.510000000000000  4.75096063424793  92.8480182228128 
 0.540000000000000  4.93921215823084  93.3508906122307 
 0.570000000000000  5.10945701713281  93.8105597051993 
 0.600000000000000  5.26094087491103  94.2330721894656 
 0.630000000000000  5.39307365681772  94.6233583452003 
 0.660000000000000  5.50543027370230  94.9854801801525 
 0.690000000000000  5.59774977716157  95.3228161971325 
 0.720000000000000  5.66993290226006  95.6382008689930 
 0.750000000000000  5.72203801001797  95.9340312476253 
 0.780000000000000  5.75427548542196  96.2123493916209 
 0.810000000000000  5.76700068153724  96.4749067744094 
 0.840000000000000  5.76070552825794  96.7232151059127 
 0.870000000000000  5.73600894644771  96.9585867982394 
 0.900000000000000  5.69364622538685  97.1821674578110 
 0.930000000000000  5.63445753401845  97.3949621803802 
 0.960000000000000  5.55937574480961  97.5978569872913 
 0.990000000000000  5.46941375340184  97.7916364210122 
 1.02000000000000  5.36565147788564  97.9769980813102 
 1.05000000000000  5.24922271877784  98.1545647068783 
 1.08000000000000  5.12130205490443  98.3248942742825 
 1.11000000000000  4.98309194171824  98.4884884851331 
 1.14000000000000  4.83581016745529  98.6457999350838 
 1.17000000000000  4.68067780932158  98.7972381986203 
 1.20000000000000  4.51890781698077  98.9431750172473 
 1.23000000000000  4.35169433437156  99.0839487424172 
 1.26000000000000  4.18020285370575  99.2198681559760 
 1.29000000000000  4.00556127776535  99.3512157682650 
 1.32000000000000  3.82885194869410  99.4782506759732 
 1.35000000000000  3.65110468371021  99.6012110473693 
 1.38000000000000  3.47329084087193  99.7203162908861 
 1.41000000000000  3.29631842149138  99.8357689535886 
 1.44000000000000  3.12102820026831  99.9477563883715 
 1.47000000000000  2.94819085991569  100.056452222451 
 1.50000000000000  2.77850509414869  100.162017654548 
 1.53000000000000  2.61259663153903  100.264602603918 
 1.56000000000000  2.45101812299106  100.364346730832 
 1.59000000000000  2.29424982752647  100.461380345212 
 1.62000000000000  2.14270102468715  100.555825217652 
 1.65000000000000  1.99671207716026  100.647795305025 
 1.68000000000000  1.85655706414538  100.737397401141 
 1.71000000000000  1.72244690444160  100.824731721477 
 1.74000000000000  1.59453288812973  100.909892429770 
 1.77000000000000  1.47291053693899  100.992968113217 
 1.80000000000000  1.35762371578144  101.074042212136 
 1.83000000000000  1.24866892136165  101.153193409204 
 1.86000000000000  1.14599967806963  101.230495982702 
 1.89000000000000  1.04953097638240  101.306020127686 
 1.92000000000000  0.959143694577937  101.379832248479 
 1.95000000000000  0.874688950550071  101.451995225493 
 1.98000000000000  0.795992336759455  101.522568659034 
 2.01000000000000  0.722857997726072  101.591609092409 
 2.04000000000000  0.655072515838252  101.659170216407 
 2.07000000000000  0.592408577508890  101.725303056982 
 2.10000000000000  0.534628397753205  101.790056147764 
 2.13000000000000  0.481486887009553  101.853475688838 
 2.16000000000000  0.432734549406443  101.915605693081 
 2.19000000000000  0.388120106640267  101.976488121210 
 2.22000000000000  0.347392846128734  102.036163006567 
 2.25000000000000  0.310304696117676  102.094668570549 
 2.28000000000000  0.276612033929052  102.152041329540 
 2.31000000000000  0.246077236542512  102.208316194051 
 2.34000000000000  0.218469985208620  102.263526560764 
 2.37000000000000  0.193568337814386  102.317704398070 
 2.40000000000000  0.171159584284283  102.370880325646 
 2.43000000000000  0.151040901431359  102.423083688562 
 2.46000000000000  0.133019824407188  102.474342626369 
 2.49000000000000  0.116914552273308  102.524684137565 
 2.52000000000000  0.102554105269761  102.574134139805 
 2.55000000000000  0.0897783511287713  102.622717526194 
 2.58000000000000  0.0784379173139027  102.670458217957 
 2.61000000000000  0.0683940053970186  102.717379213775 
 2.64000000000000  0.0595181229552134  102.763502636019 
 2.67000000000000  0.0516917474138730  102.808849774132 
 2.70000000000000  0.0448059352137041  102.853441125357 
 2.73000000000000  0.0387608885698107  102.897296433007 
 2.76000000000000  0.0334654909472803  102.940434722456 
 2.79000000000000  0.0288368212247024  102.982874335001 
 2.82000000000000  0.0247996553756592  103.024632959764 
 2.85000000000000  0.0212859633863782  103.065727663749 
 2.88000000000000  0.0182344080600935  103.106174920195 
 2.91000000000000  0.0155898513469420  103.145990635328 
 2.94000000000000  0.0133028728913492  103.185190173638 
 2.97000000000000  0.0113293046131863  103.223788381748 
 3.00000000000000  0.00962978433858260  103.261799611004 
