 1.00000000000000  2.26936974101433e-10  179.971338468595 
 1.00693166885180  2.26937131640368e-10  179.971139776526 
 1.01391138573668  2.26937291371111e-10  179.970939706774 
 1.02093948370768  2.26937453324159e-10  179.970738249780 
 1.02801629812647  2.26937617530433e-10  179.970535395920 
 1.03514216667934  2.26937784021287e-10  179.970331135503 
 1.04231742939330  2.26937952828507e-10  179.970125458769 
 1.04954242865232  2.26938123984326e-10  179.969918355890 
 1.05681750921366  2.26938297521423e-10  179.969709816975 
 1.06414301822432  2.26938473472931e-10  179.969499832056 
 1.07151930523761  2.26938651872446e-10  179.969288391101 
 1.07894672222983  2.26938832754032e-10  179.969075484007 
 1.08642562361707  2.26939016152224e-10  179.968861100601 
 1.09395636627209  2.26939202102042e-10  179.968645230639 
 1.10153930954141  2.26939390638989e-10  179.968427863805 
 1.10917481526240  2.26939581799066e-10  179.968208989712 
 1.11686324778056  2.26939775618773e-10  179.967988597902 
 1.12460497396693  2.26939972135117e-10  179.967766677843 
 1.13240036323556  2.26940171385622e-10  179.967543218928 
 1.14024978756117  2.26940373408335e-10  179.967318210481 
 1.14815362149688  2.26940578241830e-10  179.967091641747 
 1.15611224219210  2.26940785925219e-10  179.966863501896 
 1.16412602941049  2.26940996498159e-10  179.966633780027 
 1.17219536554813  2.26941210000858e-10  179.966402465162 
 1.18032063565173  2.26941426474085e-10  179.966169546242 
 1.18850222743702  2.26941645959175e-10  179.965935012138 
 1.19674053130724  2.26941868498039e-10  179.965698851638 
 1.20503594037180  2.26942094133172e-10  179.965461053455 
 1.21338885046498  2.26942322907659e-10  179.965221606222 
 1.22179966016487  2.26942554865185e-10  179.964980498492 
 1.23026877081238  2.26942790050046e-10  179.964737718744 
 1.23879658653037  2.26943028507150e-10  179.964493255368 
 1.24738351424294  2.26943270282033e-10  179.964247096680 
 1.25602996369487  2.26943515420865e-10  179.963999230913 
 1.26473634747115  2.26943763970457e-10  179.963749646217 
 1.27350308101666  2.26944015978272e-10  179.963498330658 
 1.28233058265602  2.26944271492436e-10  179.963245272226 
 1.29121927361353  2.26944530561741e-10  179.962990458816 
 1.30016957803329  2.26944793235662e-10  179.962733878248 
 1.30918192299941  2.26945059564361e-10  179.962475518257 
 1.31825673855641  2.26945329598697e-10  179.962215366487 
 1.32739445772974  2.26945603390240e-10  179.961953410498 
 1.33659551654644  2.26945880991275e-10  179.961689637767 
 1.34586035405595  2.26946162454817e-10  179.961424035679 
 1.35518941235104  2.26946447834618e-10  179.961156591534 
 1.36458313658892  2.26946737185178e-10  179.960887292543 
 1.37404197501252  2.26947030561757e-10  179.960616125826 
 1.38356637897178  2.26947328020384e-10  179.960343078416 
 1.39315680294530  2.26947629617866e-10  179.960068137255 
 1.40281370456196  2.26947935411804e-10  179.959791289193 
 1.41253754462275  2.26948245460598e-10  179.959512520990 
 1.42232878712282  2.26948559823463e-10  179.959231819312 
 1.43218789927354  2.26948878560439e-10  179.958949170732 
 1.44211535152487  2.26949201732399e-10  179.958664561731 
 1.45211161758774  2.26949529401066e-10  179.958377978695 
 1.46217717445672  2.26949861629023e-10  179.958089407915 
 1.47231250243272  2.26950198479721e-10  179.957798835586 
 1.48251808514595  2.26950540017498e-10  179.957506247806 
 1.49279440957900  2.26950886307585e-10  179.957211630583 
 1.50314196609002  2.26951237416123e-10  179.956914969816 
 1.51356124843621  2.26951593410175e-10  179.956616251313 
 1.52405275379729  2.26951954357734e-10  179.956315460782 
 1.53461698279929  2.26952320327743e-10  179.956012583832 
 1.54525443953841  2.26952691390105e-10  179.955707605969 
 1.55596563160507  2.26953067615694e-10  179.955400512597 
 1.56675107010815  2.26953449076372e-10  179.955091289025 
 1.57761126969935  2.26953835845003e-10  179.954779920454 
 1.58854674859778  2.26954227995464e-10  179.954466391982 
 1.59955802861467  2.26954625602662e-10  179.954150688603 
 1.61064563517827  2.26955028742546e-10  179.953832795209 
 1.62181009735893  2.26955437492123e-10  179.953512696584 
 1.63305194789433  2.26955851929472e-10  179.953190377405 
 1.64437172321493  2.26956272133761e-10  179.952865822244 
 1.65576996346953  2.26956698185258e-10  179.952539015568 
 1.66724721255106  2.26957130165352e-10  179.952209941728 
 1.67880401812256  2.26957568156561e-10  179.951878584973 
 1.69044093164326  2.26958012242558e-10  179.951544929438 
 1.70215850839495  2.26958462508175e-10  179.951208959147 
 1.71395730750843  2.26958919039431e-10  179.950870658016 
 1.72583789199020  2.26959381923540e-10  179.950530009846 
 1.73780082874938  2.26959851248931e-10  179.950186998323 
 1.74984668862466  2.26960327105266e-10  179.949841607025 
 1.76197604641163  2.26960809583454e-10  179.949493819409 
 1.77418948089017  2.26961298775671e-10  179.949143618818 
 1.78648757485205  2.26961794775378e-10  179.948790988481 
 1.79887091512879  2.26962297677336e-10  179.948435911508 
 1.81134009261960  2.26962807577627e-10  179.948078370891 
 1.82389570231964  2.26963324573670e-10  179.947718349505 
 1.83653834334835  2.26963848764244e-10  179.947355830098 
 1.84926861897808  2.26964380249502e-10  179.946990795309 
 1.86208713666287  2.26964919130990e-10  179.946623227646 
 1.87499450806742  2.26965465511674e-10  179.946253109502 
 1.88799134909629  2.26966019495949e-10  179.945880423136 
 1.90107827992330  2.26966581189667e-10  179.945505150696 
 1.91425592502109  2.26967150700155e-10  179.945127274197 
 1.92752491319094  2.26967728136233e-10  179.944746775527 
 1.94088587759278  2.26968313608240e-10  179.944363636454 
 1.95433945577539  2.26968907228050e-10  179.943977838614 
 1.96788628970684  2.26969509109097e-10  179.943589363513 
 1.98152702580510  2.26970119366394e-10  179.943198192532 
 1.99526231496888  2.26970738116558e-10  179.942804306918 
 2.00909281260873  2.26971365477830e-10  179.942407687786 
 2.02301917867827  2.26972001570099e-10  179.942008316124 
 2.03704207770572  2.26972646514924e-10  179.941606172780 
 2.05116217882557  2.26973300435559e-10  179.941201238474 
 2.06538015581053  2.26973963456972e-10  179.940793493784 
 2.07969668710370  2.26974635705878e-10  179.940382919160 
 2.09411245585089  2.26975317310753e-10  179.939969494907 
 2.10862814993329  2.26976008401866e-10  179.939553201199 
 2.12324446200022  2.26976709111300e-10  179.939134018066 
 2.13796208950223  2.26977419572979e-10  179.938711925400 
 2.15278173472437  2.26978139922695e-10  179.938286902950 
 2.16770410481969  2.26978870298129e-10  179.937858930326 
 2.18272991184300  2.26979610838886e-10  179.937427986993 
 2.19785987278482  2.26980361686512e-10  179.936994052273 
 2.21309470960564  2.26981122984529e-10  179.936557105339 
 2.22843514927030  2.26981894878457e-10  179.936117125224 
 2.24388192378277  2.26982677515845e-10  179.935674090810 
 2.25943577022098  2.26983471046302e-10  179.935227980831 
 2.27509743077207  2.26984275621517e-10  179.934778773870 
 2.29086765276777  2.26985091395298e-10  179.934326448365 
 2.30674718872007  2.26985918523594e-10  179.933870982595 
 2.32273679635711  2.26986757164531e-10  179.933412354694 
 2.33883723865935  2.26987607478436e-10  179.932950542637 
 2.35504928389601  2.26988469627874e-10  179.932485524242 
 2.37137370566166  2.26989343777677e-10  179.932017277181 
 2.38781128291318  2.26990230094971e-10  179.931545778960 
 2.40436280000693  2.26991128749216e-10  179.931071006925 
 2.42102904673618  2.26992039912235e-10  179.930592938275 
 2.43781081836875  2.26992963758243e-10  179.930111550033 
 2.45470891568503  2.26993900463888e-10  179.929626819072 
 2.47172414501613  2.26994850208281e-10  179.929138722098 
 2.48885731828239  2.26995813173028e-10  179.928647235651 
 2.50610925303211  2.26996789542271e-10  179.928152336107 
 2.52348077248057  2.26997779502716e-10  179.927653999677 
 2.54097270554930  2.26998783243678e-10  179.927152202405 
 2.55858588690565  2.26999800957108e-10  179.926646920162 
 2.57632115700258  2.27000832837636e-10  179.926138128651 
 2.59417936211881  2.27001879082606e-10  179.925625803408 
 2.61216135439921  2.27002939892117e-10  179.925109919788 
 2.63026799189538  2.27004015469055e-10  179.924590452980 
 2.64850013860670  2.27005106019139e-10  179.924067377991 
 2.66685866452148  2.27006211750958e-10  179.923540669659 
 2.68534444565851  2.27007332876010e-10  179.923010302639 
 2.70395836410884  2.27008469608743e-10  179.922476251407 
 2.72270130807791  2.27009622166598e-10  179.921938490261 
 2.74157417192788  2.27010790770049e-10  179.921396993315 
 2.76057785622035  2.27011975642648e-10  179.920851734506 
 2.77971326775929  2.27013177011063e-10  179.920302687577 
 2.79898131963436  2.27014395105128e-10  179.919749826092 
 2.81838293126445  2.27015630157883e-10  179.919193123428 
 2.83791902844156  2.27016882405620e-10  179.918632552770 
 2.85759054337495  2.27018152087928e-10  179.918068087119 
 2.87739841473567  2.27019439447741e-10  179.917499699276 
 2.89734358770132  2.27020744731383e-10  179.916927361861 
 2.91742701400117  2.27022068188616e-10  179.916351047287 
 2.93764965196153  2.27023410072689e-10  179.915770727781 
 2.95801246655155  2.27024770640385e-10  179.915186375371 
 2.97851642942919  2.27026150152072e-10  179.914597961886 
 2.99916251898765  2.27027548871753e-10  179.914005458952 
 3.01995172040202  2.27028967067116e-10  179.913408838000 
 3.04088502567628  2.27030405009588e-10  179.912808070255 
 3.06196343369068  2.27031862974383e-10  179.912203126736 
 3.08318795024935  2.27033341240560e-10  179.911593978259 
 3.10455958812835  2.27034840091075e-10  179.910980595430 
 3.12607936712395  2.27036359812833e-10  179.910362948651 
 3.14774831410132  2.27037900696748e-10  179.909741008105 
 3.16956746304349  2.27039463037795e-10  179.909114743775 
 3.19153785510076  2.27041047135071e-10  179.908484125417 
 3.21366053864032  2.27042653291848e-10  179.907849122581 
 3.23593656929628  2.27044281815636e-10  179.907209704602 
 3.25836701002009  2.27045933018240e-10  179.906565840586 
 3.28095293113119  2.27047607215820e-10  179.905917499429 
 3.30369541036815  2.27049304728956e-10  179.905264649799 
 3.32659553294005  2.27051025882703e-10  179.904607260145 
 3.34965439157828  2.27052771006660e-10  179.903945298689 
 3.37287308658869  2.27054540435031e-10  179.903278733426 
 3.39625272590408  2.27056334506690e-10  179.902607532124 
 3.41979442513709  2.27058153565247e-10  179.901931662316 
 3.44349930763338  2.27059997959114e-10  179.901251091312 
 3.46736850452532  2.27061868041573e-10  179.900565786181 
 3.49140315478586  2.27063764170844e-10  179.899875713757 
 3.51560440528298  2.27065686710153e-10  179.899180840642 
 3.53997341083435  2.27067636027805e-10  179.898481133192 
 3.56451133426244  2.27069612497254e-10  179.897776557529 
 3.58921934645005  2.27071616497175e-10  179.897067079531 
 3.61409862639613  2.27073648411538e-10  179.896352664822 
 3.63915036127207  2.27075708629680e-10  179.895633278795 
 3.66437574647833  2.27077797546387e-10  179.894908886582 
 3.68977598570150  2.27079915561963e-10  179.894179453073 
 3.71535229097173  2.27082063082310e-10  179.893444942901 
 3.74110588272053  2.27084240519010e-10  179.892705320450 
 3.76703798983909  2.27086448289400e-10  179.891960549839 
 3.79314984973682  2.27088686816658e-10  179.891210594942 
 3.81944270840046  2.27090956529879e-10  179.890455419364 
 3.84591782045354  2.27093257864166e-10  179.889694986448 
 3.87257644921617  2.27095591260706e-10  179.888929259279 
 3.89941986676543  2.27097957166862e-10  179.888158200669 
 3.92644935399600  2.27100356036259e-10  179.887381773170 
 3.95366620068128  2.27102788328868e-10  179.886599939056 
 3.98107170553497  2.27105254511100e-10  179.885812660335 
 4.00866717627303  2.27107755055896e-10  179.885019898739 
 4.03645392967605  2.27110290442816e-10  179.884221615718 
 4.06443329165213  2.27112861158137e-10  179.883417772454 
 4.09260659730011  2.27115467694941e-10  179.882608329840 
 4.12097519097330  2.27118110553219e-10  179.881793248489 
 4.14954042634363  2.27120790239962e-10  179.880972488730 
 4.17830366646622  2.27123507269261e-10  179.880146010604 
 4.20726628384444  2.27126262162411e-10  179.879313773858 
 4.23642966049541  2.27129055448007e-10  179.878475737955 
 4.26579518801593  2.27131887662051e-10  179.877631862059 
 4.29536426764887  2.27134759348055e-10  179.876782105038 
 4.32513831035009  2.27137671057146e-10  179.875926425464 
 4.35511873685568  2.27140623348176e-10  179.875064781602 
 4.38530697774986  2.27143616787830e-10  179.874197131420 
 4.41570447353312  2.27146651950734e-10  179.873323432576 
 4.44631267469109  2.27149729419572e-10  179.872443642420 
 4.47713304176362  2.27152849785195e-10  179.871557717993 
 4.50816704541460  2.27156013646740e-10  179.870665616021 
 4.53941616650203  2.27159221611746e-10  179.869767292917 
 4.57088189614875  2.27162474296272e-10  179.868862704773 
 4.60256573581356  2.27165772325017e-10  179.867951807359 
 4.63446919736288  2.27169116331444e-10  179.867034556125 
 4.66659380314289  2.27172506957905e-10  179.866110906194 
 4.69894108605215  2.27175944855761e-10  179.865180812358 
 4.73151258961480  2.27179430685517e-10  179.864244229081 
 4.76430986805416  2.27182965116945e-10  179.863301110491 
 4.79733448636689  2.27186548829219e-10  179.862351410378 
 4.83058802039773  2.27190182511049e-10  179.861395082200 
 4.86407205691462  2.27193866860811e-10  179.860432079063 
 4.89778819368446  2.27197602586689e-10  179.859462353732 
 4.93173803954936  2.27201390406812e-10  179.858485858626 
 4.96592321450336  2.27205231049395e-10  179.857502545813 
 5.00034534976978  2.27209125252882e-10  179.856512367006 
 5.03500608787905  2.27213073766092e-10  179.855515273563 
 5.06990708274704  2.27217077348364e-10  179.854511216480 
 5.10504999975406  2.27221136769708e-10  179.853500146397 
 5.14043651582426  2.27225252810957e-10  179.852482013581 
 5.17606831950568  2.27229426263920e-10  179.851456767936 
 5.21194711105080  2.27233657931537e-10  179.850424358995 
 5.24807460249773  2.27237948628037e-10  179.849384735910 
 5.28445251775180  2.27242299179100e-10  179.848337847464 
 5.32108259266794  2.27246710422020e-10  179.847283642058 
 5.35796657513342  2.27251183205869e-10  179.846222067702 
 5.39510622515128  2.27255718391661e-10  179.845153072027 
 5.43250331492433  2.27260316852532e-10  179.844076602268 
 5.47015962893972  2.27264979473900e-10  179.842992605275 
 5.50807696405403  2.27269707153649e-10  179.841901027489 
 5.54625712957911  2.27274500802304e-10  179.840801814963 
 5.58470194736831  2.27279361343207e-10  179.839694913337 
 5.62341325190349  2.27284289712708e-10  179.838580267850 
 5.66239289038253  2.27289286860342e-10  179.837457823324 
 5.70164272280747  2.27294353749021e-10  179.836327524178 
 5.74116462207327  2.27299491355225e-10  179.835189314398 
 5.78096047405718  2.27304700669195e-10  179.834043137566 
 5.82103217770871  2.27309982695130e-10  179.832888936828 
 5.86138164514029  2.27315338451383e-10  179.831726654905 
 5.90201080171844  2.27320768970669e-10  179.830556234084 
 5.94292158615573  2.27326275300265e-10  179.829377616218 
 5.98411595060320  2.27331858502220e-10  179.828190742723 
 6.02559586074358  2.27337519653569e-10  179.826995554569 
 6.06736329588505  2.27343259846541e-10  179.825791992277 
 6.10942024905572  2.27349080188784e-10  179.824579995917 
 6.15176872709868  2.27354981803577e-10  179.823359505109 
 6.19441075076781  2.27360965830065e-10  179.822130459011 
 6.23734835482419  2.27367033423474e-10  179.820892796315 
 6.28058358813318  2.27373185755351e-10  179.819646455249 
 6.32411851376219  2.27379424013795e-10  179.818391373570 
 6.36795520907916  2.27385749403691e-10  179.817127488557 
 6.41209576585162  2.27392163146956e-10  179.815854737010 
 6.45654229034655  2.27398666482780e-10  179.814573055249 
 6.50129690343091  2.27405260667877e-10  179.813282379100 
 6.54636174067275  2.27411946976734e-10  179.811982643898 
 6.59173895244321  2.27418726701868e-10  179.810673784484 
 6.63743070401909  2.27425601154084e-10  179.809355735193 
 6.68343917568615  2.27432571662741e-10  179.808028429854 
 6.72976656284318  2.27439639576015e-10  179.806691801790 
 6.77641507610675  2.27446806261174e-10  179.805345783803 
 6.82338694141670  2.27454073104848e-10  179.803990308180 
 6.87068440014232  2.27461441513315e-10  179.802625306679 
 6.91830970918936  2.27468912912777e-10  179.801250710528 
 6.96626514110769  2.27476488749655e-10  179.799866450424 
 7.01455298419971  2.27484170490872e-10  179.798472456524 
 7.06317554262962  2.27491959624159e-10  179.797068658438 
 7.11213513653329  2.27499857658345e-10  179.795654985226 
 7.16143410212902  2.27507866123673e-10  179.794231365397 
 7.21107479182900  2.27515986572101e-10  179.792797726896 
 7.26105957435155  2.27524220577619e-10  179.791353997107 
 7.31139083483417  2.27532569736572e-10  179.789900102841 
 7.36207097494736  2.27541035667977e-10  179.788435970332 
 7.41310241300917  2.27549620013857e-10  179.786961525236 
 7.46448758410066  2.27558324439572e-10  179.785476692621 
 7.51622894018205  2.27567150634158e-10  179.783981396961 
 7.56832895020974  2.27576100310671e-10  179.782475562133 
 7.62079010025412  2.27585175206538e-10  179.780959111413 
 7.67361489361819  2.27594377083906e-10  179.779431967465 
 7.72680585095702  2.27603707730008e-10  179.777894052334 
 7.78036551039804  2.27613168957523e-10  179.776345287448 
 7.83429642766212  2.27622762604949e-10  179.774785593607 
 7.88860117618554  2.27632490536979e-10  179.773214890980 
 7.94328234724281  2.27642354644881e-10  179.771633099091 
 7.99834255007028  2.27652356846891e-10  179.770040136820 
 8.05378441199067  2.27662499088598e-10  179.768435922396 
 8.10961057853841  2.27672783343352e-10  179.766820373385 
 8.16582371358592  2.27683211612666e-10  179.765193406695 
 8.22242649947071  2.27693785926626e-10  179.763554938554 
 8.27942163712334  2.27704508344315e-10  179.761904884518 
 8.33681184619634  2.27715380954232e-10  179.760243159453 
 8.39459986519397  2.27726405874724e-10  179.758569677535 
 8.45278845160290  2.27737585254428e-10  179.756884352238 
 8.51138038202376  2.27748921272712e-10  179.755187096334 
 8.57037845230369  2.27760416140125e-10  179.753477821875 
 8.62978547766970  2.27772072098859e-10  179.751756440199 
 8.68960429286302  2.27783891423212e-10  179.750022861912 
 8.74983775227436  2.27795876420063e-10  179.748276996882 
 8.81048873008014  2.27808029429348e-10  179.746518754240 
 8.87156012037961  2.27820352824551e-10  179.744748042359 
 8.93305483733295  2.27832849013197e-10  179.742964768858 
 8.99497581530035  2.27845520437355e-10  179.741168840586 
 9.05732600898200  2.27858369574149e-10  179.739360163621 
 9.12010839355909  2.27871398936276e-10  179.737538643255 
 9.18332596483581  2.27884611072533e-10  179.735704183989 
 9.24698173938222  2.27898008568348e-10  179.733856689524 
 9.31107875467830  2.27911594046331e-10  179.731996062756 
 9.37562006925880  2.27925370166816e-10  179.730122205759 
 9.44060876285923  2.27939339628430e-10  179.728235019788 
 9.50604793656281  2.27953505168656e-10  179.726334405261 
 9.57194071294844  2.27967869564414e-10  179.724420261746 
 9.63829023623970  2.27982435632645e-10  179.722492487968 
 9.70509967245490  2.27997206230913e-10  179.720550981790 
 9.77237220955810  2.28012184258004e-10  179.718595640196 
 9.84011105761133  2.28027372654549e-10  179.716626359295 
 9.90831944892768  2.28042774403640e-10  179.714643034304 
 9.97700063822553  2.28058392531474e-10  179.712645559543 
 10.0461579027839  2.28074230107993e-10  179.710633828414 
 10.1157945425990  2.28090290247541e-10  179.708607733407 
 10.1859138805412  2.28106576109530e-10  179.706567166077 
 10.2565192625141  2.28123090899115e-10  179.704512017037 
 10.3276140576140  2.28139837867887e-10  179.702442175952 
 10.3992016582906  2.28156820314562e-10  179.700357531519 
 10.4712854805090  2.28174041585700e-10  179.698257971468 
 10.5438689639126  2.28191505076423e-10  179.696143382538 
 10.6169555719872  2.28209214231143e-10  179.694013650476 
 10.6905487922266  2.28227172544316e-10  179.691868660023 
 10.7646521362983  2.28245383561190e-10  179.689708294895 
 10.8392691402120  2.28263850878578e-10  179.687532437784 
 10.9144033644876  2.28282578145640e-10  179.685340970334 
 10.9900583943252  2.28301569064676e-10  179.683133773134 
 11.0662378397767  2.28320827391933e-10  179.680910725710 
 11.1429453359173  2.28340356938426e-10  179.678671706503 
 11.2201845430196  2.28360161570770e-10  179.676416592866 
 11.2979591467280  2.28380245212031e-10  179.674145261041 
 11.3762728582343  2.28400611842584e-10  179.671857586150 
 11.4551294144554  2.28421265500990e-10  179.669553442191 
 11.5345325782109  2.28442210284886e-10  179.667232702006 
 11.6144861384034  2.28463450351888e-10  179.664895237283 
 11.6949939101987  2.28484989920514e-10  179.662540918533 
 11.7760597352081  2.28506833271117e-10  179.660169615077 
 11.8576874816716  2.28528984746833e-10  179.657781195036 
 11.9398810446427  2.28551448754554e-10  179.655375525310 
 12.0226443461741  2.28574229765902e-10  179.652952471569 
 12.1059813355048  2.28597332318235e-10  179.650511898231 
 12.1898959892487  2.28620761015660e-10  179.648053668454 
 12.2743923115841  2.28644520530065e-10  179.645577644113 
 12.3594743344451  2.28668615602169e-10  179.643083685786 
 12.4451461177138  2.28693051042591e-10  179.640571652741 
 12.5314117494142  2.28717831732938e-10  179.638041402916 
 12.6182753459067  2.28742962626903e-10  179.635492792902 
 12.7057410520854  2.28768448751395e-10  179.632925677927 
 12.7938130415752  2.28794295207677e-10  179.630339911843 
 12.8824955169313  2.28820507172528e-10  179.627735347092 
 12.9717927098396  2.28847089899428e-10  179.625111834708 
 13.0617088813184  2.28874048719756e-10  179.622469224288 
 13.1522483219224  2.28901389044013e-10  179.619807363973 
 13.2434153519466  2.28929116363068e-10  179.617126100431 
 13.3352143216332  2.28957236249420e-10  179.614425278838 
 13.4276496113786  2.28985754358487e-10  179.611704742854 
 13.5207256319428  2.29014676429917e-10  179.608964334611 
 13.6144468246595  2.29044008288913e-10  179.606203894685 
 13.7088176616485  2.29073755847598e-10  179.603423262073 
 13.8038426460288  2.29103925106385e-10  179.600622274185 
 13.8995263121335  2.29134522155386e-10  179.597800766807 
 13.9958732257262  2.29165553175839e-10  179.594958574087 
 14.0928879842187  2.29197024441559e-10  179.592095528511 
 14.1905752168909  2.29228942320415e-10  179.589211460884 
 14.2889395851110  2.29261313275840e-10  179.586306200292 
 14.3879857825585  2.29294143868360e-10  179.583379574105 
 14.4877185354476  2.29327440757151e-10  179.580431407921 
 14.5881426027535  2.29361210701628e-10  179.577461525566 
 14.6892627764387  2.29395460563057e-10  179.574469749058 
 14.7910838816821  2.29430197306203e-10  179.571455898586 
 14.8936107771091  2.29465428001000e-10  179.568419792475 
 14.9968483550237  2.29501159824258e-10  179.565361247174 
 15.1008015416415  2.29537400061392e-10  179.562280077215 
 15.2054752973250  2.29574156108194e-10  179.559176095195 
 15.3108746168203  2.29611435472629e-10  179.556049111740 
 15.4170045294956  2.29649245776662e-10  179.552898935487 
 15.5238700995808  2.29687594758129e-10  179.549725373042 
 15.6314764264095  2.29726490272630e-10  179.546528228963 
 15.7398286446622  2.29765940295467e-10  179.543307305719 
 15.8489319246111  2.29805952923608e-10  179.540062403666 
 15.9587914723673  2.29846536377697e-10  179.536793321012 
 16.0694125301288  2.29887699004095e-10  179.533499853786 
 16.1808003764307  2.29929449276961e-10  179.530181795805 
 16.2929603263972  2.29971795800371e-10  179.526838938647 
 16.4058977319954  2.30014747310478e-10  179.523471071601 
 16.5196179822901  2.30058312677713e-10  179.520077981652 
 16.6341265037017  2.30102500909024e-10  179.516659453432 
 16.7494287602644  2.30147321150163e-10  179.513215269185 
 16.8655302538874  2.30192782688007e-10  179.509745208738 
 16.9824365246174  2.30238894952937e-10  179.506249049457 
 17.1001531509029  2.30285667521248e-10  179.502726566210 
 17.2186857498601  2.30333110117617e-10  179.499177531327 
 17.3380399775414  2.30381232617608e-10  179.495601714565 
 17.4582215292050  2.30430045050233e-10  179.491998883062 
 17.5792361395869  2.30479557600560e-10  179.488368801297 
 17.7010895831742  2.30529780612370e-10  179.484711231048 
 17.8237876744809  2.30580724590868e-10  179.481025931349 
 17.9473362683253  2.30632400205444e-10  179.477312658447 
 18.0717412601093  2.30684818292492e-10  179.473571165753 
 18.1970085860998  2.30737989858283e-10  179.469801203803 
 18.3231442237121  2.30791926081889e-10  179.466002520203 
 18.4501541917947  2.30846638318175e-10  179.462174859586 
 18.5780445509170  2.30902138100842e-10  179.458317963560 
 18.7068214036580  2.30958437145534e-10  179.454431570669 
 18.8364908948980  2.31015547353006e-10  179.450515416324 
 18.9670592121115  2.31073480812360e-10  179.446569232764 
 19.0985325856624  2.31132249804335e-10  179.442592748997 
 19.2309172891016  2.31191866804677e-10  179.438585690751 
 19.3642196394661  2.31252344487568e-10  179.434547780413 
 19.4984459975804  2.31313695729126e-10  179.430478736977 
 19.6336027683605  2.31375933610982e-10  179.426378275982 
 19.7696964011186  2.31439071423921e-10  179.422246109455 
 19.9067333898719  2.31503122671607e-10  179.418081945853 
 20.0447202736516  2.31568101074379e-10  179.413885489994 
 20.1836636368156  2.31634020573125e-10  179.409656443005 
 20.3235701093622  2.31700895333243e-10  179.405394502247 
 20.4644463672467  2.31768739748677e-10  179.401099361251 
 20.6062991327000  2.31837568446040e-10  179.396770709661 
 20.7491351745491  2.31907396288827e-10  179.392408233152 
 20.8929613085404  2.31978238381711e-10  179.388011613366 
 21.0377843976647  2.32050110074935e-10  179.383580527841 
 21.1836113524850  2.32123026968792e-10  179.379114649932 
 21.3304491314658  2.32197004918208e-10  179.374613648745 
 21.4783047413053  2.32272060037414e-10  179.370077189047 
 21.6271852372702  2.32348208704726e-10  179.365504931206 
 21.7770977235316  2.32425467567423e-10  179.360896531090 
 21.9280493535045  2.32503853546732e-10  179.356251639999 
 22.0800473301890  2.32583383842924e-10  179.351569904579 
 22.2330989065140  2.32664075940519e-10  179.346850966726 
 22.3872113856834  2.32745947613601e-10  179.342094463517 
 22.5423921215243  2.32829016931257e-10  179.337300027095 
 22.6986485188382  2.32913302263134e-10  179.332467284606 
 22.8559880337543  2.32998822285113e-10  179.327595858074 
 23.0144181740851  2.33085595985120e-10  179.322685364333 
 23.1739464996848  2.33173642669053e-10  179.317735414903 
 23.3345806228100  2.33262981966860e-10  179.312745615915 
 23.4963282084831  2.33353633838734e-10  179.307715567982 
 23.6591969748576  2.33445618581464e-10  179.302644866110 
 23.8231946935869  2.33538956834920e-10  179.297533099582 
 23.9883291901949  2.33633669588694e-10  179.292379851857 
 24.1546083444494  2.33729778188883e-10  179.287184700437 
 24.3220400907381  2.33827304345037e-10  179.281947216772 
 24.4906324184475  2.33926270137266e-10  179.276666966130 
 24.6603933723434  2.34026698023503e-10  179.271343507472 
 24.8313310529557  2.34128610846949e-10  179.265976393338 
 25.0034536169643  2.34232031843684e-10  179.260565169708 
 25.1767692775885  2.34336984650454e-10  179.255109375873 
 25.3512863049791  2.34443493312654e-10  179.249608544311 
 25.5270130266125  2.34551582292483e-10  179.244062200531 
 25.7039578276886  2.34661276477307e-10  179.238469862949 
 25.8821291515309  2.34772601188217e-10  179.232831042732 
 26.0615354999889  2.34885582188787e-10  179.227145243657 
 26.2421854338444  2.35000245694050e-10  179.221411961954 
 26.4240875732195  2.35116618379690e-10  179.215630686154 
 26.6072505979881  2.35234727391454e-10  179.209800896923 
 26.7916832481903  2.35354600354797e-10  179.203922066908 
 26.9773943244492  2.35476265384757e-10  179.197993660558 
 27.1643926883908  2.35599751096087e-10  179.192015133964 
 27.3526872630671  2.35725086613621e-10  179.185985934667 
 27.5422870333817  2.35852301582908e-10  179.179905501494 
 27.7332010465184  2.35981426181109e-10  179.173773264356 
 27.9254384123734  2.36112491128167e-10  179.167588644070 
 28.1190083039894  2.36245527698253e-10  179.161351052153 
 28.3139199579938  2.36380567731514e-10  179.155059890630 
 28.5101826750391  2.36517643646107e-10  179.148714551826 
 28.7078058202469  2.36656788450544e-10  179.142314418142 
 28.9067988236547  2.36798035756360e-10  179.135858861862 
 29.1071711806661  2.36941419791095e-10  179.129347244906 
 29.3089324525032  2.37086975411625e-10  179.122778918614 
 29.5120922666638  2.37234738117830e-10  179.116153223509 
 29.7166603173802  2.37384744066623e-10  179.109469489059 
 29.9226463660819  2.37537030086350e-10  179.102727033416 
 30.1300602418612  2.37691633691562e-10  179.095925163178 
 30.3389118419427  2.37848593098187e-10  179.089063173117 
 30.5492111321551  2.38007947239096e-10  179.082140345912 
 30.7609681474071  2.38169735780103e-10  179.075155951878 
 30.9741929921658  2.38333999136368e-10  179.068109248673 
 31.1888958409394  2.38500778489271e-10  179.060999481017 
 31.4050869387622  2.38670115803726e-10  179.053825880380 
 31.6227766016838  2.38842053845971e-10  179.046587664692 
 31.8419752172612  2.39016636201851e-10  179.039284038001 
 32.0626932450546  2.39193907295598e-10  179.031914190173 
 32.2849412171264  2.39373912409132e-10  179.024477296542 
 32.5087297385434  2.39556697701904e-10  179.016972517564 
 32.7340694878838  2.39742310231283e-10  179.009398998473 
 32.9609712177458  2.39930797973529e-10  179.001755868910 
 33.1894457552610  2.40122209845346e-10  178.994042242549 
 33.4195040026114  2.40316595726053e-10  178.986257216709 
 33.6511569375491  2.40514006480386e-10  178.978399871961 
 33.8844156139202  2.40714493981952e-10  178.970469271719 
 34.1192911621929  2.40918111137358e-10  178.962464461813 
 34.3557947899875  2.41124911911042e-10  178.954384470063 
 34.5939377826122  2.41334951350825e-10  178.946228305831 
 34.8337315036012  2.41548285614206e-10  178.937994959557 
 35.0751873952568  2.41764971995436e-10  178.929683402296 
 35.3183169791957  2.41985068953387e-10  178.921292585219 
 35.5631318568985  2.42208636140254e-10  178.912821439119 
 35.8096437102636  2.42435734431111e-10  178.904268873889 
 36.0578643021642  2.42666425954349e-10  178.895633777996 
 36.3078054770101  2.42900774123043e-10  178.886915017918 
 36.5594791613125  2.43138843667263e-10  178.878111437596 
 36.8128973642531  2.43380700667370e-10  178.869221857831 
 37.0680721782576  2.43626412588338e-10  178.860245075701 
 37.3250157795720  2.43876048315131e-10  178.851179863925 
 37.5837404288444  2.44129678189169e-10  178.842024970222 
 37.8442584717093  2.44387374045942e-10  178.832779116667 
 38.1065823393773  2.44649209253797e-10  178.823440998994 
 38.3707245492279  2.44915258753945e-10  178.814009285895 
 38.6366977054069  2.45185599101735e-10  178.804482618300 
 38.9045144994281  2.45460308509244e-10  178.794859608622 
 39.1741877107783  2.45739466889230e-10  178.785138839986 
 39.4457302075278  2.46023155900497e-10  178.775318865425 
 39.7191549469440  2.46311458994737e-10  178.765398207068 
 39.9944749761097  2.46604461464885e-10  178.755375355270 
 40.2717034325459  2.46902250495068e-10  178.745248767750 
 40.5508535448384  2.47204915212188e-10  178.735016868661 
 40.8319386332692  2.47512546739225e-10  178.724678047672 
 41.1149721104522  2.47825238250303e-10  178.714230658979 
 41.3999674819730  2.48143085027609e-10  178.703673020308 
 41.6869383470335  2.48466184520225e-10  178.693003411874 
 41.9758983991007  2.48794636404952e-10  178.682220075306 
 42.2668614265603  2.49128542649213e-10  178.671321212546 
 42.5598413133743  2.49468007576104e-10  178.660304984681 
 42.8548520397439  2.49813137931695e-10  178.649169510765 
 43.1519076827765  2.50164042954655e-10  178.637912866588 
 43.4510224171571  2.50520834448320e-10  178.626533083403 
 43.7522105158252  2.50883626855279e-10  178.615028146591 
 44.0554863506553  2.51252537334602e-10  178.603395994320 
 44.3608643931432  2.51627685841796e-10  178.591634516106 
 44.6683592150963  2.52009195211643e-10  178.579741551363 
 44.9779854893288  2.52397191243987e-10  178.567714887868 
 45.2897579903621  2.52791802792655e-10  178.555552260208 
 45.6036915951296  2.53193161857583e-10  178.543251348121 
 45.9198012836869  2.53601403680345e-10  178.530809774826 
 46.2381021399260  2.54016666843180e-10  178.518225105255 
 46.5586093522959  2.54439093371708e-10  178.505494844235 
 46.8813382145265  2.54868828841462e-10  178.492616434605 
 47.2063041263590  2.55306022488436e-10  178.479587255238 
 47.5335225942805  2.55750827323806e-10  178.466404619029 
 47.8630092322638  2.56203400253007e-10  178.453065770767 
 48.1947797625127  2.56663902199379e-10  178.439567884940 
 48.5288500162121  2.57132498232572e-10  178.425908063464 
 48.8652359342833  2.57609357701928e-10  178.412083333314 
 49.2039535681451  2.58094654375073e-10  178.398090644053 
 49.5450190804790  2.58588566581957e-10  178.383926865286 
 49.8884487460012  2.59091277364585e-10  178.369588783993 
 50.2342589522387  2.59602974632713e-10  178.355073101765 
 50.5824662003114  2.60123851325788e-10  178.340376431929 
 50.9330871057195  2.60654105581420e-10  178.325495296550 
 51.2861383991365  2.61193940910700e-10  178.310426123316 
 51.6416369272071  2.61743566380689e-10  178.295165242291 
 51.9995996533516  2.62303196804429e-10  178.279708882548 
 52.3600436585750  2.62873052938835e-10  178.264053168633 
 52.7229861422823  2.63453361690844e-10  178.248194116912 
 53.0884444230988  2.64044356332248e-10  178.232127631738 
 53.4564359396972  2.64646276723618e-10  178.215849501478 
 53.8269782516288  2.65259369547787e-10  178.199355394355 
 54.2000890401624  2.65883888553358e-10  178.182640854107 
 54.5757861091271  2.66520094808770e-10  178.165701295478 
 54.9540873857624  2.67168256967410e-10  178.148531999481 
 55.3350109215737  2.67828651544396e-10  178.131128108492 
 55.7185748931930  2.68501563205585e-10  178.113484621083 
 56.1047976032470  2.69187285069475e-10  178.095596386659 
 56.4936974812302  2.69886119022650e-10  178.077458099833 
 56.8852930843842  2.70598376049505e-10  178.059064294550 
 57.2796030985829  2.71324376577001e-10  178.040409337956 
 57.6766463392251  2.72064450835247e-10  178.021487423954 
 58.0764417521312  2.72818939234770e-10  178.002292566500 
 58.4790084144481  2.73588192761403e-10  177.982818592552 
 58.8843655355589  2.74372573389716e-10  177.963059134702 
 59.2925324579999  2.75172454516034e-10  177.943007623456 
 59.7035286583837  2.75988221412152e-10  177.922657279145 
 60.1173737483278  2.76820271700872e-10  177.902001103441 
 60.5340874753913  2.77669015854629e-10  177.881031870467 
 60.9536897240169  2.78534877718503e-10  177.859742117460 
 61.3762005164794  2.79418295059028e-10  177.838124134986 
 61.8016400138416  2.80319720140290e-10  177.816169956654 
 62.2300285169159  2.81239620328916e-10  177.793871348319 
 62.6613864672335  2.82178478729656e-10  177.771219796745 
 63.0957344480193  2.83136794853363e-10  177.748206497664 
 63.5330931851744  2.84115085319314e-10  177.724822343245 
 63.9734835482648  2.85113884594005e-10  177.701057908900 
 64.4169265515177  2.86133745768545e-10  177.676903439396 
 64.8634433548238  2.87175241377093e-10  177.652348834232 
 65.3130552647472  2.88238964258903e-10  177.627383632242 
 65.7657837355420  2.89325528466597e-10  177.601996995358 
 66.2216503701762  2.90435570223764e-10  177.576177691492 
 66.6806769213622  2.91569748934829e-10  177.549914076493 
 67.1428852925952  2.92728748250715e-10  177.523194075079 
 67.6082975391981  2.93913277193844e-10  177.496005160726 
 68.0769358693741  2.95124071346366e-10  177.468334334417 
 68.5488226452662  2.96361894105820e-10  177.440168102166 
 69.0239803840242  2.97627538012699e-10  177.411492451271 
 69.5024317588797  2.98921826154840e-10  177.382292825184 
 69.9841996002274  3.00245613653722e-10  177.352554096890 
 70.4693068967147  3.01599789238449e-10  177.322260540733 
 70.9577767963389  3.02985276913427e-10  177.291395802552 
 71.4496326075513  3.04403037726302e-10  177.259942868004 
 71.9448978003699  3.05854071643245e-10  177.227884028967 
 72.4435960074990  3.07339419539314e-10  177.195200847877 
 72.9457510254568  3.08860165312112e-10  177.161874119828 
 73.4513868157115  3.10417438127840e-10  177.127883832303 
 73.9605275058238  3.12012414809378e-10  177.093209122355 
 74.4731973905989  3.13646322377099e-10  177.057828231001 
 74.9894209332456  3.15320440753833e-10  177.021718454713 
 75.5092227665434  3.17036105646481e-10  176.984856093667 
 76.0326276940182  3.18794711617892e-10  176.947216396607 
 76.5596606911256  3.20597715363755e-10  176.908773501988 
 77.0903469064430  3.22446639210670e-10  176.869500375117 
 77.6247116628691  3.24343074852937e-10  176.829368741019 
 78.1627804588330  3.26288687347264e-10  176.788349012608 
 78.7045789695098  3.28285219386397e-10  176.746410213841 
 79.2501330480472  3.30334495874545e-10  176.703519897403 
 79.7994687267977  3.32438428829814e-10  176.659644056484 
 80.3526122185617  3.34599022641071e-10  176.614747030147 
 80.9095899178382  3.36818379709509e-10  176.568791401709 
 81.4704284020839  3.39098706508110e-10  176.521737889582 
 82.0351544329818  3.41442320095415e-10  176.473545229864 
 82.6037949577179  3.43851655123790e-10  176.424170049957 
 83.1763771102671  3.46329271386467e-10  176.373566732420 
 83.7529282126882  3.48877861952177e-10  176.321687268154 
 84.3334757764275  3.51500261941261e-10  176.268481097924 
 84.9180475036313  3.54199458002988e-10  176.213894941145 
 85.5066712884683  3.56978598560120e-10  176.157872610697 
 86.0993752184601  3.59841004893977e-10  176.100354812461 
 86.6961875758216  3.62790183151310e-10  176.041278928034 
 87.2971368388112  3.65829837363549e-10  175.980578779020 
 87.9022516830884  3.68963883578862e-10  175.918184370989 
 88.5115609830835  3.72196465219577e-10  175.854021615075 
 89.1250938133746  3.75531969790103e-10  175.788012024900 
 89.7428794500748  3.78975047075609e-10  175.720072386204 
 90.3649473722301  3.82530628988460e-10  175.650114396338 
 90.9913272632252  3.86203951238437e-10  175.578044270305 
 91.6220490121999  3.90000577024724e-10  175.503762309723 
 92.2571427154763  3.93926422972295e-10  175.427162430583 
 92.8966386779936  3.97987787563632e-10  175.348131645093 
 93.5405674147552  4.02191382349618e-10  175.266549492407 
 94.1889596522841  4.06544366260086e-10  175.182287412193 
 94.8418463300897  4.11054383377863e-10  175.095208054318 
 95.4992586021436  4.15729604589278e-10  175.005164516884 
 96.1612278383665  4.20578773580983e-10  174.911999503842 
 96.8277856261249  4.25611257719289e-10  174.815544392127 
 97.4989637717387  4.30837104424049e-10  174.715618196801 
 98.1747943019985  4.36267103738575e-10  174.612026421013 
 98.8553094656938  4.41912857900428e-10  174.504559775541 
 99.5405417351527  4.47786858838869e-10  174.392992750464 
 100.230523807790  4.53902574666636e-10  174.277082018651 
 100.925288607668  4.60274546400017e-10  174.156564647634 
 101.624869287070  4.66918496337337e-10  174.031156092588 
 102.329299228075  4.73851449757242e-10  173.900547938631 
 103.038612044162  4.81091871872303e-10  173.764405355274 
 103.752841581801  4.88659822299332e-10  173.622364219561 
 104.472021922080  4.96577129695095e-10  173.474027856601 
 105.196187382322  5.04867589670627e-10  173.318963337186 
 105.925372517729  5.13557189652431e-10  173.156697260974 
 106.659612123026  5.22674365029271e-10  172.986710940372 
 107.398941234124  5.32250291729566e-10  172.808434883891 
 108.143395129794  5.42319221354669e-10  172.621242457972 
 108.893009333343  5.52918866183580e-10  172.424442581800 
 109.647819614319  5.64090842817786e-10  172.217271279762 
 110.407861990207  5.75881185016401e-10  171.998881879138 
 111.173172728159  5.88340938464722e-10  171.768333594579 
 111.943788346715  6.01526852924281e-10  171.524578183637 
 112.719745617551  6.15502190574141e-10  171.266444285494 
 113.501081567231  6.30337673534038e-10  170.992618964257 
 114.287833478977  6.46112598793569e-10  170.701625863071 
 115.080038894444  6.62916155344168e-10  170.391799228280 
 115.877735615513  6.80848986597590e-10  170.061252874416 
 116.680961706096  7.00025051671798e-10  169.707842917185 
 117.489755493953  7.20573852462241e-10  169.329122785325 
 118.304155572516  7.42643110427911e-10  168.922288607925 
 119.124200802737  7.66401998775184e-10  168.484112528263 
 119.949930314938  7.92045063601852e-10  168.010860771218 
 120.781383510678  8.19797003309974e-10  167.498192323466 
 121.618600064637  8.49918521390968e-10  166.941032782596 
 122.461619926505  8.82713526098876e-10  166.333416163718 
 123.310483322891  9.18538024405462e-10  165.668285037225 
 124.165230759241  9.57811149532749e-10  164.937236049253 
 125.025903021772  1.00102887231235e-09  164.130193278427 
 125.892541179417  1.04878107308790e-09  163.234985486562 
 126.765186585785  1.10177277827259e-09  162.236794398783 
 127.643880881134  1.16085045428136e-09  161.117428708070 
 128.528665994361  1.22703420682044e-09  159.854361264056 
 129.419584144999  1.30155634333008e-09  158.419443426251 
 130.316677845230  1.38590555947153e-09  156.777179738748 
 131.219989901920  1.48187302275859e-09  154.882408810501 
 132.129563418658  1.59158978084974e-09  152.677199972833 
 133.045441797809  1.71752996914986e-09  150.086765540030 
 133.967668742593  1.86242283434392e-09  147.014277747977 
 134.896288259165  2.02895338560276e-09  143.334852814300 
 135.831344658715  2.21901432021740e-09  138.890054639286 
 136.772882559585  2.43209043105678e-09  133.486960685855 
 137.720946889395  2.66220600033804e-09  126.911440211668 
 138.675582887189  2.89322429045391e-09  118.973888295445 
 139.636836105594  3.09437070293035e-09  109.609013944648 
 140.604752412991  3.22240841488755e-09  99.0213431734119 
 141.579377995708  3.23838084049974e-09  87.7790619143981 
 142.560759360219  3.13267548930671e-09  76.6997417090272 
 143.548943335366  2.93296410786679e-09  66.5351859439005 
 144.543977074593  2.68483501843223e-09  57.7130202126331 
 145.545908058197  2.42768543070802e-09  50.3166325636142 
 146.554784095591  2.18513771799911e-09  44.2172534274727 
 147.570653327589  1.96738054991379e-09  39.2073730774236 
 148.593564228701  1.77660460414776e-09  35.0778833843653 
 149.623565609443  1.61120880643686e-09  31.6486313220497 
 150.660706618674  1.46819943525788e-09  28.7745796709928 
 151.705036745934  1.34434726282735e-09  26.3423625292769 
 152.756605823807  1.23666886698527e-09  24.2643072139232 
 153.815464030303  1.14258247240876e-09  22.4726615002238 
 154.881661891248  1.05992144284627e-09  20.9148307633830 
 155.955250282695  9.86893101354925e-10  19.5496903425091 
 157.036280433355  9.22022208040752e-10  18.3448080151387 
 158.124803927038  8.64095410771947e-10  17.2743739516118 
 159.220872705117  8.12112507685530e-10  16.3176605582684 
 160.324539069004  7.65245823987046e-10  15.4578729473587 
 161.435855682649  7.22807199466683e-10  14.6812859317907 
 162.554875575048  6.84221491357590e-10  13.9765913814038 
 163.681652142781  6.49005418149900e-10  13.3344006870993 
 164.816239152551  6.16750686046669e-10  12.7468623033496 
 165.958690743756  5.87110511676922e-10  12.2073652911702 
 167.109061431071  5.59788825213038e-10  11.7103076325887 
 168.267406107047  5.34531586674030e-10  11.2509137185764 
 169.433780044733  5.11119770314735e-10  10.8250894674368 
 170.608238900312  4.89363669331521e-10  10.4293064670404 
 171.790838715759  4.69098249422822e-10  10.0605086743868 
 172.981635921510  4.50179339060998e-10  9.71603677660423 
 174.180687339161  4.32480490277821e-10  9.39356647879155 
 175.388050184176  4.15890379315291e-10  9.09105784890278 
 176.603782068616  4.00310644036310e-10  8.80671349874394 
 177.827941003892  3.85654076376557e-10  8.53894387046736 
 179.060585403529  3.71843104776243e-10  8.28633827104923 
 180.301774085957  3.58808514558139e-10  8.04764058316821 
 181.551566277314  3.46488364442097e-10  7.82172880139321 
 182.810021614274  3.34827065449824e-10  7.60759771378754 
 184.077200146896  3.23774594836517e-10  7.40434418272041 
 185.353162341481  3.13285822764606e-10  7.21115458373099 
 186.637969083467  3.03319933491014e-10  7.02729404429937 
 187.931681680327  2.93839926094672e-10  6.85209719032555 
 189.234361864498  2.84812182394251e-10  6.68496016080049 
 190.546071796325  2.76206091828904e-10  6.52533369344460 
 191.866874067029  2.67993724800120e-10  6.37271711820217 
 193.196831701692  2.60149547380723e-10  6.22665312313186 
 194.536008162266  2.52650171449603e-10  6.08672317974884 
 195.884467350599  2.45474135259635e-10  5.95254353327843 
 197.242273611485  2.38601710228677e-10  5.82376167839650 
 198.609491735737  2.32014730391227e-10  5.70005325349391 
 199.986186963274  2.25696441488469e-10  5.58111929681801 
 201.372424986239  2.19631367122542e-10  5.46668381639632 
 202.768271952128  2.13805189777892e-10  5.35649163281005 
 204.173794466953  2.08204644828117e-10  5.25030645983956 
 205.589059598414  2.02817425912504e-10  5.14790919302633 
 207.014134879104  1.97632100291002e-10  5.04909638042517 
 208.449088309729  1.92638032976920e-10  4.95367885336869 
 209.893988362352  1.87825318608090e-10  4.86148049810037 
 211.348903983665  1.83184720154730e-10  4.77233715171007 
 212.813904598271  1.78707613680146e-10  4.68609560795272 
 214.289060112006  1.74385938470748e-10  4.60261272045823 
 215.774440915267  1.70212151938739e-10  4.52175459238810 
 217.270117886374  1.66179188774670e-10  4.44339584299400 
 218.776162394955  1.62280423891477e-10  4.36741894273254 
 220.292646305345  1.58509638757251e-10  4.29371360956578 
 221.819641980022  1.54860990761611e-10  4.22217626001263 
 223.357222283053  1.51328985302531e-10  4.15270950923676 
 224.905460583578  1.47908450316843e-10  4.08522171516958 
 226.464430759306  1.44594513009036e-10  4.01962656218851 
 228.034207200042  1.41382578560819e-10  3.95584268043776 
 229.614864811236  1.38268310628038e-10  3.89379329726773 
 231.206479017559  1.35247613452840e-10  3.83340591768779 
 232.809125766501  1.32316615437328e-10  3.77461203106818 
 234.422881531992  1.29471654042008e-10  3.71734684159339 
 236.047823318058  1.26709261885865e-10  3.66154902027360 
 237.684028662487  1.24026153938694e-10  3.60716047652101 
 239.331575640539  1.21419215706773e-10  3.55412614753146 
 240.990542868659  1.18885492323440e-10  3.50239380385063 
 242.661009508241  1.16422178464988e-10  3.45191386971774 
 244.343055269397  1.14026609019941e-10  3.40263925688658 
 246.036760414763  1.11696250447186e-10  3.35452521075010 
 247.742205763328  1.09428692764262e-10  3.30752916774102 
 249.459472694295  1.07221642113086e-10  3.26161062303689 
 251.188643150958  1.05072913855271e-10  3.21673100772300 
 252.929799644614  1.02980426153364e-10  3.17285357463665 
 254.683025258504  1.00942193999057e-10  3.12994329217974 
 256.448403651772  9.89563236521057e-11  3.08796674545338 
 258.226019063460  9.70210074577617e-11  3.04689204415783 
 260.015956316527  9.51345190128775e-11  3.00668873668968 
 261.818300821898  9.32952086537044e-11  2.96732772998718 
 263.633138582538  9.15014992407518e-11  2.92878121465379 
 265.460556197554  8.97518822181492e-11  2.89102259498413 
 267.300640866331  8.80449139269046e-11  2.85402642350243 
 269.153480392692  8.63792121532154e-11  2.81776833968841 
 271.019163189084  8.47534528945855e-11  2.78222501257672 
 272.897778280804  8.31663673278273e-11  2.74737408695450 
 274.789415310240  8.16167389645434e-11  2.71319413288337 
 276.694164541151  8.01034009805482e-11  2.67966459832868 
 278.612116862977  7.86252337071435e-11  2.64676576465641 
 280.543363795171  7.71811622728170e-11  2.61447870480292 
 282.487997491571  7.57701543849587e-11  2.58278524394890 
 284.446110744791  7.43912182421047e-11  2.55166792248692 
 286.417796990658  7.30434005676968e-11  2.52110996117820 
 288.403150312661  7.17257847573452e-11  2.49109522829648 
 290.402265446445  7.04374891319239e-11  2.46160820867195 
 292.415237784333  6.91776652895644e-11  2.43263397448876 
 294.442163379876  6.79454965500677e-11  2.40415815771174 
 296.483138952434  6.67401964858160e-11  2.37616692405732 
 298.538261891796  6.55610075334888e-11  2.34864694840577 
 300.607630262823  6.44071996816058e-11  2.32158539154114 
 302.691342810131  6.32780692290298e-11  2.29496987816737 
 304.789498962798  6.21729376099820e-11  2.26878847609362 
 306.902198839116  6.10911502815272e-11  2.24302967653620 
 309.029543251359  6.00320756696154e-11  2.21768237545024 
 311.171633710602  5.89951041701741e-11  2.19273585584524 
 313.328572431559  5.79796472018841e-11  2.16817977101457 
 315.500462337462  5.69851363075967e-11  2.14400412862406 
 317.687407064977  5.60110223014562e-11  2.12019927562033 
 319.889510969140  5.50567744590769e-11  2.09675588388674 
 322.106879128343  5.41218797482370e-11  2.07366493663763 
 324.339617349349  5.32058420977664e-11  2.05091771547202 
 326.587832172336  5.23081817024257e-11  2.02850578807463 
 328.851630875983  5.14284343617119e-11  2.00642099651423 
 331.131121482591  5.05661508507276e-11  1.98465544611324 
 333.426412763235  4.97208963212329e-11  1.96320149485165 
 335.737614242955  4.88922497312987e-11  1.94205174327262 
 338.064836205982  4.80798033018877e-11  1.92119902487259 
 340.408189701001  4.72831619989899e-11  1.90063639693734 
 342.767786546450  4.65019430398250e-11  1.88035713181312 
 345.143739335856  4.57357754218861e-11  1.86035470856955 
 347.536161443206  4.49842994735866e-11  1.84062280505970 
 349.945167028357  4.42471664253372e-11  1.82115529032763 
 352.370871042487  4.35240380000094e-11  1.80194621737293 
 354.813389233575  4.28145860217562e-11  1.78298981623010 
 357.272838151929  4.21184920422425e-11  1.76428048735827 
 359.749335155742  4.14354469833739e-11  1.74581279533011 
 362.242998416699  4.07651507957064e-11  1.72758146278726 
 364.753946925608  4.01073121317224e-11  1.70958136466937 
 367.282300498084  3.94616480332175e-11  1.69180752268427 
 369.828179780266  3.88278836321122e-11  1.67425510002164 
 372.391706254568  3.82057518640142e-11  1.65691939628901 
 374.973002245483  3.75949931938719e-11  1.63979584266961 
 377.572190925416  3.69953553531918e-11  1.62287999726389 
 380.189396320561  3.64065930881820e-11  1.60616754066031 
 382.824743316823  3.58284679183558e-11  1.58965427165013 
 385.478357665772  3.52607479050462e-11  1.57333610314954 
 388.150365990648  3.47032074293962e-11  1.55720905827206 
 390.840895792402  3.41556269793418e-11  1.54126926656924 
 393.550075455778  3.36177929452064e-11  1.52551296041675 
 396.278034255439  3.30894974234455e-11  1.50993647155259 
 399.024902362142  3.25705380282359e-11  1.49453622774233 
 401.790810848940  3.20607177104738e-11  1.47930874959024 
 404.575891697443  3.15598445838969e-11  1.46425064746562 
 407.380277804113  3.10677317579945e-11  1.44935861855120 
 410.204102986607  3.05841971773586e-11  1.43462944401026 
 413.047501990161  3.01090634672580e-11  1.42005998625782 
 415.910610494022  2.96421577850861e-11  1.40564718633787 
 418.793565117918  2.91833116774756e-11  1.39138806140791 
 421.696503428582  2.87323609427925e-11  1.37727970230041 
 424.619563946313  2.82891454988026e-11  1.36331927120142 
 427.562886151586  2.78535092552561e-11  1.34950399939149 
 430.526610491711  2.74252999912147e-11  1.33583118508527 
 433.510878387529  2.70043692368745e-11  1.32229819135037 
 436.515832240166  2.65905721597267e-11  1.30890244409095 
 439.541615437824  2.61837674548559e-11  1.29564143012338 
 442.588372362626  2.57838172391979e-11  1.28251269530237 
 445.656248397503  2.53905869496100e-11  1.26951384272976 
 448.745389933132  2.50039452445624e-11  1.25664253101749 
 451.855944374922  2.46237639093397e-11  1.24389647261914 
 454.988060150049  2.42499177645745e-11  1.23127343221615 
 458.141886714533  2.38822845779905e-11  1.21877122516174 
 461.317574560379  2.35207449792297e-11  1.20638771598602 
 464.515275222749  2.31651823776226e-11  1.19412081693800 
 467.735141287198  2.28154828828017e-11  1.18196848659359 
 470.977326396953  2.24715352280281e-11  1.16992872850254 
 474.241985260245  2.21332306961308e-11  1.15799958988869 
 477.529273657691  2.18004630479597e-11  1.14617916037953 
 480.839348449728  2.14731284532360e-11  1.13446557080337 
 484.172367584099  2.11511254237330e-11  1.12285699200234 
 487.528490103386  2.08343547486689e-11  1.11135163369746 
 490.907876152603  2.05227194322419e-11  1.09994774339382 
 494.310686986835  2.02161246332259e-11  1.08864360531305 
 497.737084978936  1.99144776065349e-11  1.07743753936841 
 501.187233627272  1.96176876466989e-11  1.06632790017104 
 504.661297563528  1.93256660331594e-11  1.05531307606146 
 508.159442560560  1.90383259773354e-11  1.04439148819224 
 511.681835540308  1.87555825713757e-11  1.03356158961483 
 515.228644581756  1.84773527385483e-11  1.02282186441356 
 518.800038928961  1.82035551852032e-11  1.01217082685867 
 522.396188999119  1.79341103542329e-11  1.00160702059470 
 526.017266390706  1.76689403800136e-11  0.991129017842989 
 529.663443891658  1.74079690447303e-11  0.980735418636926 
 533.334895487621  1.71511217360670e-11  0.970424850081316 
 537.031796370253  1.68983254061956e-11  0.960195965629039 
 540.754322945581  1.66495085320232e-11  0.950047444386832 
 544.502652842421  1.64046010766530e-11  0.939977990438774 
 548.276964920854  1.61635344520162e-11  0.929986332187145 
 552.077439280757  1.59262414826237e-11  0.920071221723223 
 555.904257270403  1.56926563704173e-11  0.910231434208142 
 559.757601495110  1.54627146606586e-11  0.900465767271460 
 563.637655825954  1.52363532088445e-11  0.890773040438051 
 567.544605408547  1.50135101485884e-11  0.881152094562351 
 571.478636671867  1.47941248604514e-11  0.871601791281499 
 575.439937337157  1.45781379416904e-11  0.862121012488394 
 579.428696426881  1.43654911768741e-11  0.852708659816349 
 583.445104273745  1.41561275093632e-11  0.843363654138531 
 587.489352529776  1.39499910136038e-11  0.834084935087016 
 591.561634175474  1.37470268682194e-11  0.824871460578465 
 595.662143529010  1.35471813298671e-11  0.815722206358101 
 599.791076255509  1.33504017078403e-11  0.806636165560020 
 603.948629376380  1.31566363393843e-11  0.797612348268245 
 608.135001278717  1.29658345657070e-11  0.788649781104930 
 612.350391724773  1.27779467086639e-11  0.779747506818418 
 616.595001861482  1.25929240480863e-11  0.770904583892361 
 620.869034230063  1.24107187997405e-11  0.762120086154869 
 625.172692775686  1.22312840938958e-11  0.753393102409331 
 629.506182857198  1.20545739544754e-11  0.744722736068939 
 633.869711256927  1.18805432787802e-11  0.736108104804071 
 638.263486190549  1.17091478177648e-11  0.727548340199905 
 642.687717317019  1.15403441568408e-11  0.719042587416464 
 647.142615748583  1.13740896972008e-11  0.710590004869295 
 651.628394060843  1.12103426376441e-11  0.702189763910832 
 656.145266302905  1.10490619568798e-11  0.693841048522151 
 660.693448007596  1.08902073963063e-11  0.685543055014075 
 665.273156201741  1.07337394432425e-11  0.677294991732985 
 669.884609416526  1.05796193145981e-11  0.669096078779531 
 674.528027697922  1.04278089409734e-11  0.660945547732354 
 679.203632617184  1.02782709511726e-11  0.652842641375946 
 683.911647281429  1.01309686571159e-11  0.644786613441340 
 688.652296344276  9.98586603914445e-12  0.636776728349876 
 693.425806016569  9.84292773169821e-12  0.628812260964422 
 698.232404077171  9.70211900936387e-12  0.620892496348351 
 703.072319883833  9.56340577327558e-12  0.613016729528153 
 707.945784384137  9.42675453785994e-12  0.605184265260471 
 712.853030126519  9.29213241791556e-12  0.597394417813717 
 717.794291271362  9.15950711601592e-12  0.589646510749666 
 722.769803602170  9.02884691022925e-12  0.581939876704158 
 727.779804536824  8.90012064214108e-12  0.574273857184103 
 732.824533138904  8.77329770517352e-12  0.566647802366448 
 737.904230129101  8.64834803319645e-12  0.559061070895635 
 743.019137896701  8.52524208941150e-12  0.551513029698593 
 748.169500511154  8.40395085551270e-12  0.544003053787954 
 753.355563733717  8.28444582110992e-12  0.536530526085826 
 758.577575029184  8.16669897340632e-12  0.529094837244952 
 763.835783577690  8.05068278712713e-12  0.521695385468727 
 769.130440286609  7.93637021468858e-12  0.514331576347258 
 774.461797802518  7.82373467660264e-12  0.507002822689881 
 779.830110523258  7.71275005210879e-12  0.499708544359447 
 785.235634610072  7.60339067003239e-12  0.492448168118889 
 790.678627999825  7.49563129984981e-12  0.485221127476760 
 796.159350417318  7.38944714297386e-12  0.478026862530083 
 801.678063387679  7.28481382423581e-12  0.470864819827110 
 807.235030248838  7.18170738356849e-12  0.463734452213019 
 812.830516164099  7.08010426788232e-12  0.456635218698964 
 818.464788134790  6.97998132312954e-12  0.449566584320053 
 824.138115013002  6.88131578654905e-12  0.442528020000381 
 829.850767514422  6.78408527909086e-12  0.435519002424529 
 835.603018231247  6.68826779801321e-12  0.428539013910725 
 841.395141645195  6.59384170964628e-12  0.421587542281149 
 847.227414140596  6.50078574232264e-12  0.414664080744848 
 853.100114017589  6.40907897946330e-12  0.407768127775522 
 859.013521505395  6.31870085282192e-12  0.400899186993989 
 864.967918775693  6.22963113587965e-12  0.394056767057042 
 870.963589956080  6.14184993738491e-12  0.387240381544436 
 877.000821143635  6.05533769503877e-12  0.380449548848685 
 883.079900418562  5.97007516932011e-12  0.373683792068445 
 889.201117857948  5.88604343744337e-12  0.366942638903341 
 895.364765549594  5.80322388745290e-12  0.360225621558292 
 901.571137605956  5.72159821244272e-12  0.353532276633911 
 907.820530178185  5.64114840490484e-12  0.346862145033262 
 914.113241470250  5.56185675119756e-12  0.340214771867970 
 920.449571753171  5.48370582613453e-12  0.333589706360337 
 926.829823379349  5.40667848769018e-12  0.326986501754540 
 933.254300796991  5.33075787181702e-12  0.320404715228500 
 939.723310564637  5.25592738737598e-12  0.313843907799934 
 946.237161365793  5.18217071117144e-12  0.307303644245230 
 952.796164023651  5.10947178309480e-12  0.300783493013603 
 959.400631515933  5.03781480136650e-12  0.294283026144521 
 966.050878989813  4.96718421788124e-12  0.287801819188208 
 972.747223776964  4.89756473364965e-12  0.281339451124269 
 979.489985408699  4.82894129433395e-12  0.274895504283595 
 986.279485631210  4.76129908587813e-12  0.268469564274461 
 993.116048420933  4.69462353022686e-12  0.262061219909080 
 1000.00000000000  4.62890028113399e-12  0.255670063123929 
