-0.0905264721939774  1.16580915093657  0.00000000000000 
-0.0903454192495894  1.17010809492230  0.00000000000000 
-0.0901643663052014  1.17441616210142  0.00000000000000 
-0.0899833133608135  1.17873328281013  0.00000000000000 
-0.0898022604164255  1.18305938611451  0.00000000000000 
-0.0896212074720376  1.18739439979962  0.00000000000000 
-0.0894401545276496  1.19173825035938  0.00000000000000 
-0.0892591015832617  1.19609086298644  0.00000000000000 
-0.0890780486388737  1.20045216156120  0.00000000000000 
-0.0888969956944858  1.20482206864189  0.00000000000000 
-0.0887159427500978  1.20920050545392  0.00000000000000 
-0.0885348898057099  1.21358739187931  0.00000000000000 
-0.0883538368613219  1.21798264644651  0.00000000000000 
-0.0881727839169340  1.22238618631995  0.00000000000000 
-0.0879917309725460  1.22679792728956  0.00000000000000 
-0.0878106780281580  1.23121778376028  0.00000000000000 
-0.0876296250837701  1.23564566874156  0.00000000000000 
-0.0874485721393821  1.24008149383745  0.00000000000000 
-0.0872675191949942  1.24452516923542  0.00000000000000 
-0.0870864662506062  1.24897660369653  0.00000000000000 
-0.0869054133062183  1.25343570454511  0.00000000000000 
-0.0867243603618303  1.25790237765775  0.00000000000000 
-0.0865433074174424  1.26237652745366  0.00000000000000 
-0.0863622544730544  1.26685805688378  0.00000000000000 
-0.0861812015286664  1.27134686742101  0.00000000000000 
-0.0860001485842785  1.27584285904919  0.00000000000000 
-0.0858190956398905  1.28034593025353  0.00000000000000 
-0.0856380426955026  1.28485597800992  0.00000000000000 
-0.0854569897511146  1.28937289777456  0.00000000000000 
-0.0852759368067267  1.29389658347436  0.00000000000000 
-0.0850948838623387  1.29842692749635  0.00000000000000 
-0.0849138309179508  1.30296382067704  0.00000000000000 
-0.0847327779735628  1.30750715229356  0.00000000000000 
-0.0845517250291749  1.31205681005239  0.00000000000000 
-0.0843706720847869  1.31661268007967  0.00000000000000 
-0.0841896191403989  1.32117464691161  0.00000000000000 
-0.0840085661960110  1.32574259348397  0.00000000000000 
-0.0838275132516230  1.33031640112235  0.00000000000000 
-0.0836464603072351  1.33489594953241  0.00000000000000 
-0.0834654073628471  1.33948111678969  0.00000000000000 
-0.0832843544184592  1.34407177933027  0.00000000000000 
-0.0831033014740712  1.34866781194090  0.00000000000000 
-0.0829222485296833  1.35326908774884  0.00000000000000 
-0.0827411955852953  1.35787547821305  0.00000000000000 
-0.0825601426409074  1.36248685311389  0.00000000000000 
-0.0823790896965194  1.36710308054402  0.00000000000000 
-0.0821980367521314  1.37172402689895  0.00000000000000 
-0.0820169838077435  1.37634955686737  0.00000000000000 
-0.0818359308633555  1.38097953342218  0.00000000000000 
-0.0816548779189676  1.38561381781092  0.00000000000000 
-0.0814738249745796  1.39025226954680  0.00000000000000 
-0.0812927720301917  1.39489474639965  0.00000000000000 
-0.0811117190858037  1.39954110438665  0.00000000000000 
-0.0809306661414158  1.40419119776371  0.00000000000000 
-0.0807496131970278  1.40884487901627  0.00000000000000 
-0.0805685602526399  1.41350199885070  0.00000000000000 
-0.0803875073082519  1.41816240618572  0.00000000000000 
-0.0802064543638639  1.42282594814345  0.00000000000000 
-0.0800254014194760  1.42749247004144  0.00000000000000 
-0.0798443484750880  1.43216181538368  0.00000000000000 
-0.0796632955307001  1.43683382585246  0.00000000000000 
-0.0794822425863121  1.44150834130043  0.00000000000000 
-0.0793011896419242  1.44618519974225  0.00000000000000 
-0.0791201366975362  1.45086423734684  0.00000000000000 
-0.0789390837531483  1.45554528842860  0.00000000000000 
-0.0787580308087603  1.46022818544110  0.00000000000000 
-0.0785769778643723  1.46491275896798  0.00000000000000 
-0.0783959249199844  1.46959883771629  0.00000000000000 
-0.0782148719755964  1.47428624850864  0.00000000000000 
-0.0780338190312085  1.47897481627632  0.00000000000000 
-0.0778527660868205  1.48366436405117  0.00000000000000 
-0.0776717131424326  1.48835471295970  0.00000000000000 
-0.0774906601980446  1.49304568221569  0.00000000000000 
-0.0773096072536567  1.49773708911286  0.00000000000000 
-0.0771285543092687  1.50242874901895  0.00000000000000 
-0.0769475013648808  1.50712047536903  0.00000000000000 
-0.0767664484204928  1.51181207965869  0.00000000000000 
-0.0765853954761049  1.51650337143862  0.00000000000000 
-0.0764043425317169  1.52119415830759  0.00000000000000 
-0.0762232895873289  1.52588424590749  0.00000000000000 
-0.0760422366429410  1.53057343791669  0.00000000000000 
-0.0758611836985530  1.53526153604514  0.00000000000000 
-0.0756801307541651  1.53994834002843  0.00000000000000 
-0.0754990778097771  1.54463364762259  0.00000000000000 
-0.0753180248653892  1.54931725459955  0.00000000000000 
-0.0751369719210012  1.55399895474128  0.00000000000000 
-0.0749559189766133  1.55867853983575  0.00000000000000 
-0.0747748660322253  1.56335579967206  0.00000000000000 
-0.0745938130878373  1.56803052203583  0.00000000000000 
-0.0744127601434494  1.57270249270555  0.00000000000000 
-0.0742317071990614  1.57737149544827  0.00000000000000 
-0.0740506542546735  1.58203731201518  0.00000000000000 
-0.0738696013102855  1.58669972213925  0.00000000000000 
-0.0736885483658976  1.59135850353076  0.00000000000000 
-0.0735074954215096  1.59601343187395  0.00000000000000 
-0.0733264424771217  1.60066428082481  0.00000000000000 
-0.0731453895327337  1.60531082200807  0.00000000000000 
-0.0729643365883458  1.60995282501378  0.00000000000000 
-0.0727832836439578  1.61459005739563  0.00000000000000 
-0.0726022306995698  1.61922228466897  0.00000000000000 
-0.0724211777551819  1.62384927030818  0.00000000000000 
-0.0722401248107939  1.62847077574521  0.00000000000000 
-0.0720590718664060  1.63308656036824  0.00000000000000 
-0.0718780189220180  1.63769638152052  0.00000000000000 
-0.0716969659776301  1.64229999449849  0.00000000000000 
-0.0715159130332421  1.64689715255225  0.00000000000000 
-0.0713348600888542  1.65148760688403  0.00000000000000 
-0.0711538071444662  1.65607110664829  0.00000000000000 
-0.0709727542000783  1.66064739895145  0.00000000000000 
-0.0707917012556903  1.66521622885253  0.00000000000000 
-0.0706106483113023  1.66977733936273  0.00000000000000 
-0.0704295953669144  1.67433047144717  0.00000000000000 
-0.0702485424225264  1.67887536402564  0.00000000000000 
-0.0700674894781385  1.68341175397266  0.00000000000000 
-0.0698864365337505  1.68793937612101  0.00000000000000 
-0.0697053835893626  1.69245796326162  0.00000000000000 
-0.0695243306449746  1.69696724614691  0.00000000000000 
-0.0693432777005867  1.70146695349229  0.00000000000000 
-0.0691622247561987  1.70595681197962  0.00000000000000 
-0.0689811718118108  1.71043654625950  0.00000000000000 
-0.0688001188674228  1.71490587895448  0.00000000000000 
-0.0686190659230348  1.71936453066313  0.00000000000000 
-0.0684380129786469  1.72381221996292  0.00000000000000 
-0.0682569600342589  1.72824866341516  0.00000000000000 
-0.0680759070898710  1.73267357556953  0.00000000000000 
-0.0678948541454830  1.73708666896746  0.00000000000000 
-0.0677138012010951  1.74148765414855  0.00000000000000 
-0.0675327482567071  1.74587623965535  0.00000000000000 
-0.0673516953123192  1.75025213203927  0.00000000000000 
-0.0671706423679312  1.75461503586621  0.00000000000000 
-0.0669895894235432  1.75896465372265  0.00000000000000 
-0.0668085364791553  1.76330068622344  0.00000000000000 
-0.0666274835347673  1.76762283201736  0.00000000000000 
-0.0664464305903794  1.77193078779502  0.00000000000000 
-0.0662653776459914  1.77622424829691  0.00000000000000 
-0.0660843247016035  1.78050290632086  0.00000000000000 
-0.0659032717572155  1.78476645273006  0.00000000000000 
-0.0657222188128276  1.78901457646261  0.00000000000000 
-0.0655411658684396  1.79324696453973  0.00000000000000 
-0.0653601129240517  1.79746330207578  0.00000000000000 
-0.0651790599796637  1.80166327228707  0.00000000000000 
-0.0649980070352758  1.80584655650318  0.00000000000000 
-0.0648169540908878  1.81001283417666  0.00000000000000 
-0.0646359011464998  1.81416178289319  0.00000000000000 
-0.0644548482021119  1.81829307838429  0.00000000000000 
-0.0642737952577239  1.82240639453821  0.00000000000000 
-0.0640927423133360  1.82650140341081  0.00000000000000 
-0.0639116893689480  1.83057777523961  0.00000000000000 
-0.0637306364245601  1.83463517845509  0.00000000000000 
-0.0635495834801721  1.83867327969437  0.00000000000000 
-0.0633685305357841  1.84269174381506  0.00000000000000 
-0.0631874775913962  1.84669023390803  0.00000000000000 
-0.0630064246470082  1.85066841131214  0.00000000000000 
-0.0628253717026203  1.85462593562935  0.00000000000000 
-0.0626443187582323  1.85856246473905  0.00000000000000 
-0.0624632658138444  1.86247765481358  0.00000000000000 
-0.0622822128694564  1.86637116033437  0.00000000000000 
-0.0621011599250685  1.87024263410793  0.00000000000000 
-0.0619201069806805  1.87409172728208  0.00000000000000 
-0.0617390540362926  1.87791808936385  0.00000000000000 
-0.0615580010919046  1.88172136823588  0.00000000000000 
-0.0613769481475167  1.88550121017524  0.00000000000000 
-0.0611958952031287  1.88925725987097  0.00000000000000 
-0.0610148422587407  1.89298916044319  0.00000000000000 
-0.0608337893143528  1.89669655346140  0.00000000000000 
-0.0606527363699648  1.90037907896509  0.00000000000000 
-0.0604716834255769  1.90403637548305  0.00000000000000 
-0.0602906304811889  1.90766808005369  0.00000000000000 
-0.0601095775368010  1.91127382824601  0.00000000000000 
-0.0599285245924130  1.91485325418011  0.00000000000000 
-0.0597474716480251  1.91840599055023  0.00000000000000 
-0.0595664187036371  1.92193166864532  0.00000000000000 
-0.0593853657592491  1.92542991837252  0.00000000000000 
-0.0592043128148612  1.92890036827910  0.00000000000000 
-0.0590232598704732  1.93234264557713  0.00000000000000 
-0.0588422069260853  1.93575637616585  0.00000000000000 
-0.0586611539816973  1.93914118465655  0.00000000000000 
-0.0584801010373094  1.94249669439795  0.00000000000000 
-0.0582990480929214  1.94582252749968  0.00000000000000 
-0.0581179951485335  1.94911830485890  0.00000000000000 
-0.0579369422041455  1.95238364618614  0.00000000000000 
-0.0577558892597576  1.95561817003151  0.00000000000000 
-0.0575748363153696  1.95882149381103  0.00000000000000 
-0.0573937833709816  1.96199323383522  0.00000000000000 
-0.0572127304265937  1.96513300533582  0.00000000000000 
-0.0570316774822057  1.96824042249372  0.00000000000000 
-0.0568506245378178  1.97131509846853  0.00000000000000 
-0.0566695715934298  1.97435664542693  0.00000000000000 
-0.0564885186490419  1.97736467457218  0.00000000000000 
-0.0563074657046539  1.98033879617423  0.00000000000000 
-0.0561264127602660  1.98327861960014  0.00000000000000 
-0.0559453598158780  1.98618375334484  0.00000000000000 
-0.0557643068714901  1.98905380506231  0.00000000000000 
-0.0555832539271021  1.99188838159668  0.00000000000000 
-0.0554022009827141  1.99468708901598  0.00000000000000 
-0.0552211480383262  1.99744953264294  0.00000000000000 
-0.0550400950939382  2.00017531708889  0.00000000000000 
-0.0548590421495503  2.00286404628734  0.00000000000000 
-0.0546779892051623  2.00551532352693  0.00000000000000 
-0.0544969362607744  2.00812875148754  0.00000000000000 
-0.0543158833163864  2.01070393227263  0.00000000000000 
-0.0541348303719985  2.01324046744691  0.00000000000000 
-0.0539537774276105  2.01573795806930  0.00000000000000 
-0.0537727244832226  2.01819600473213  0.00000000000000 
-0.0535916715388346  2.02061420759440  0.00000000000000 
-0.0534106185944466  2.02299216642133  0.00000000000000 
-0.0532295656500587  2.02532948062045  0.00000000000000 
-0.0530485127056707  2.02762574927840  0.00000000000000 
-0.0528674597612828  2.02988057120182  0.00000000000000 
-0.0526864068168948  2.03209354495375  0.00000000000000 
-0.0525053538725069  2.03426426889245  0.00000000000000 
-0.0523243009281189  2.03639234121296  0.00000000000000 
-0.0521432479837310  2.03847735998465  0.00000000000000 
-0.0519621950393430  2.04051892319324  0.00000000000000 
-0.0517811420949551  2.04251662878035  0.00000000000000 
-0.0516000891505671  2.04447007468494  0.00000000000000 
-0.0514190362061791  2.04637885888457  0.00000000000000 
-0.0512379832617912  2.04824257943850  0.00000000000000 
-0.0510569303174032  2.05006083452797  0.00000000000000 
-0.0508758773730153  2.05183322250038  0.00000000000000 
-0.0506948244286273  2.05355934191174  0.00000000000000 
-0.0505137714842394  2.05523879157047  0.00000000000000 
-0.0503327185398514  2.05687117058050  0.00000000000000 
-0.0501516655954635  2.05845607838702  0.00000000000000 
-0.0499706126510755  2.05999311481881  0.00000000000000 
-0.0497895597066876  2.06148188013569  0.00000000000000 
-0.0496085067622996  2.06292197507161  0.00000000000000 
-0.0494274538179116  2.06431300088216  0.00000000000000 
-0.0492464008735237  2.06565455938886  0.00000000000000 
-0.0490653479291357  2.06694625302770  0.00000000000000 
-0.0488842949847478  2.06818768489362  0.00000000000000 
-0.0487032420403598  2.06937845878992  0.00000000000000 
-0.0485221890959719  2.07051817927313  0.00000000000000 
-0.0483411361515839  2.07160645170325  0.00000000000000 
-0.0481600832071960  2.07264288229017  0.00000000000000 
-0.0479790302628080  2.07362707814319  0.00000000000000 
-0.0477979773184200  2.07455864731856  0.00000000000000 
-0.0476169243740321  2.07543719887000  0.00000000000000 
-0.0474358714296441  2.07626234289704  0.00000000000000 
-0.0472548184852562  2.07703369059543  0.00000000000000 
-0.0470737655408682  2.07775085430587  0.00000000000000 
-0.0468927125964803  2.07841344756597  0.00000000000000 
-0.0467116596520923  2.07902108515924  0.00000000000000 
-0.0465306067077044  2.07957338316747  0.00000000000000 
-0.0463495537633164  2.08006995902055  0.00000000000000 
-0.0461685008189285  2.08051043154814  0.00000000000000 
-0.0459874478745405  2.08089442103195  0.00000000000000 
-0.0458063949301525  2.08122154925696  0.00000000000000 
-0.0456253419857646  2.08149143956360  0.00000000000000 
-0.0454442890413766  2.08170371690072  0.00000000000000 
-0.0452632360969887  2.08185800787734  0.00000000000000 
-0.0450821831526007  2.08195394081604  0.00000000000000 
-0.0449011302082128  2.08199114580587  0.00000000000000 
-0.0447200772638248  2.08196925475635  0.00000000000000 
-0.0445390243194369  2.08188790144937  0.00000000000000 
-0.0443579713750489  2.08174672159372  0.00000000000000 
-0.0441769184306610  2.08154535287937  0.00000000000000 
-0.0439958654862730  2.08128343503101  0.00000000000000 
-0.0438148125418850  2.08096060986217  0.00000000000000 
-0.0436337595974971  2.08057652133013  0.00000000000000 
-0.0434527066531091  2.08013081558919  0.00000000000000 
-0.0432716537087212  2.07962314104754  0.00000000000000 
-0.0430906007643332  2.07905314841953  0.00000000000000 
-0.0429095478199453  2.07842049078268  0.00000000000000 
-0.0427284948755573  2.07772482363134  0.00000000000000 
-0.0425474419311694  2.07696580493285  0.00000000000000 
-0.0423663889867814  2.07614309518237  0.00000000000000 
-0.0421853360423935  2.07525635745865  0.00000000000000 
-0.0420042830980055  2.07430525747780  0.00000000000000 
-0.0418232301536175  2.07328946365204  0.00000000000000 
-0.0416421772092296  2.07220864714284  0.00000000000000 
-0.0414611242648416  2.07106248191618  0.00000000000000 
-0.0412800713204537  2.06985064480122  0.00000000000000 
-0.0410990183760657  2.06857281554296  0.00000000000000 
-0.0409179654316778  2.06722867685948  0.00000000000000 
-0.0407369124872898  2.06581791449829  0.00000000000000 
-0.0405558595429019  2.06434021729049  0.00000000000000 
-0.0403748065985139  2.06279527720748  0.00000000000000 
-0.0401937536541260  2.06118278941837  0.00000000000000 
-0.0400127007097380  2.05950245234295  0.00000000000000 
-0.0398316477653500  2.05775396770885  0.00000000000000 
-0.0396505948209621  2.05593704060801  0.00000000000000 
-0.0394695418765741  2.05405137955114  0.00000000000000 
-0.0392884889321862  2.05209669652351  0.00000000000000 
-0.0391074359877982  2.05007270704196  0.00000000000000 
-0.0389263830434103  2.04797913020871  0.00000000000000 
-0.0387453300990223  2.04581568876654  0.00000000000000 
-0.0385642771546344  2.04358210915578  0.00000000000000 
-0.0383832242102464  2.04127812156878  0.00000000000000 
-0.0382021712658584  2.03890346000392  0.00000000000000 
-0.0380211183214705  2.03645786232209  0.00000000000000 
-0.0378400653770825  2.03394107030096  0.00000000000000 
-0.0376590124326946  2.03135282968891  0.00000000000000 
-0.0374779594883066  2.02869289026013  0.00000000000000 
-0.0372969065439187  2.02596100586907  0.00000000000000 
-0.0371158535995307  2.02315693450455  0.00000000000000 
-0.0369348006551428  2.02028043834267  0.00000000000000 
-0.0367537477107548  2.01733128380152  0.00000000000000 
-0.0365726947663669  2.01430924159517  0.00000000000000 
-0.0363916418219789  2.01121408678504  0.00000000000000 
-0.0362105888775909  2.00804559883486  0.00000000000000 
-0.0360295359332030  2.00480356166144  0.00000000000000 
-0.0358484829888150  2.00148776368987  0.00000000000000 
-0.0356674300444271  1.99809799790277  0.00000000000000 
-0.0354863771000391  1.99463406189388  0.00000000000000 
-0.0353053241556512  1.99109575791962  0.00000000000000 
-0.0351242712112632  1.98748289295006  0.00000000000000 
-0.0349432182668753  1.98379527871961  0.00000000000000 
-0.0347621653224873  1.98003273177833  0.00000000000000 
-0.0345811123780994  1.97619507354121  0.00000000000000 
-0.0344000594337114  1.97228213034044  0.00000000000000 
-0.0342190064893234  1.96829373347156  0.00000000000000 
-0.0340379535449355  1.96422971924477  0.00000000000000 
-0.0338569006005475  1.96008992903430  0.00000000000000 
-0.0336758476561596  1.95587420932512  0.00000000000000 
-0.0334947947117716  1.95158241176209  0.00000000000000 
-0.0333137417673837  1.94721439319648  0.00000000000000 
-0.0331326888229957  1.94277001573447  0.00000000000000 
-0.0329516358786078  1.93824914678288  0.00000000000000 
-0.0327705829342198  1.93365165909509  0.00000000000000 
-0.0325895299898319  1.92897743081800  0.00000000000000 
-0.0324084770454439  1.92422634553574  0.00000000000000 
-0.0322274241010559  1.91939829231651  0.00000000000000 
-0.0320463711566680  1.91449316575406  0.00000000000000 
-0.0318653182122800  1.90951086601357  0.00000000000000 
-0.0316842652678921  1.90445129887476  0.00000000000000 
-0.0315032123235041  1.89931437577306  0.00000000000000 
-0.0313221593791162  1.89410001384336  0.00000000000000 
-0.0311411064347282  1.88880813596069  0.00000000000000 
-0.0309600534903403  1.88343867078145  0.00000000000000 
-0.0307790005459523  1.87799155278377  0.00000000000000 
-0.0305979476015644  1.87246672230723  0.00000000000000 
-0.0304168946571764  1.86686412559232  0.00000000000000 
-0.0302358417127884  1.86118371481834  0.00000000000000 
-0.0300547887684005  1.85542544814308  0.00000000000000 
-0.0298737358240125  1.84958928973768  0.00000000000000 
-0.0296926828796246  1.84367520982488  0.00000000000000 
-0.0295116299352366  1.83768318471541  0.00000000000000 
-0.0293305769908487  1.83161319684161  0.00000000000000 
-0.0291495240464607  1.82546523479465  0.00000000000000 
-0.0289684711020728  1.81923929335502  0.00000000000000 
-0.0287874181576848  1.81293537352922  0.00000000000000 
-0.0286063652132968  1.80655348258034  0.00000000000000 
-0.0284253122689089  1.80009363406050  0.00000000000000 
-0.0282442593245209  1.79355584784208  0.00000000000000 
-0.0280632063801330  1.78694015014768  0.00000000000000 
-0.0278821534357450  1.78024657358056  0.00000000000000 
-0.0277011004913571  1.77347515715186  0.00000000000000 
-0.0275200475469691  1.76662594631125  0.00000000000000 
-0.0273389946025812  1.75969899297128  0.00000000000000 
-0.0271579416581932  1.75269435553618  0.00000000000000 
-0.0269768887138053  1.74561209892748  0.00000000000000 
-0.0267958357694173  1.73845229460677  0.00000000000000 
-0.0266147828250294  1.73121502060248  0.00000000000000 
-0.0264337298806414  1.72390036153231  0.00000000000000 
-0.0262526769362534  1.71650840862418  0.00000000000000 
-0.0260716239918655  1.70903925973967  0.00000000000000 
-0.0258905710474775  1.70149301939434  0.00000000000000 
-0.0257095181030896  1.69386979877794  0.00000000000000 
-0.0255284651587016  1.68616971577207  0.00000000000000 
-0.0253474122143137  1.67839289497007  0.00000000000000 
-0.0251663592699257  1.67053946769278  0.00000000000000 
-0.0249853063255377  1.66260957200673  0.00000000000000 
-0.0248042533811498  1.65460335273837  0.00000000000000 
-0.0246232004367618  1.64652096148826  0.00000000000000 
-0.0244421474923739  1.63836255664645  0.00000000000000 
-0.0242610945479859  1.63012830340314  0.00000000000000 
-0.0240800416035980  1.62181837376270  0.00000000000000 
-0.0238989886592100  1.61343294655335  0.00000000000000 
-0.0237179357148221  1.60497220743708  0.00000000000000 
-0.0235368827704341  1.59643634891904  0.00000000000000 
-0.0233558298260462  1.58782557035575  0.00000000000000 
-0.0231747768816582  1.57914007796118  0.00000000000000 
-0.0229937239372703  1.57038008481561  0.00000000000000 
-0.0228126709928823  1.56154581086700  0.00000000000000 
-0.0226316180484943  1.55263748293853  0.00000000000000 
-0.0224505651041064  1.54365533472994  0.00000000000000 
-0.0222695121597184  1.53459960682094  0.00000000000000 
-0.0220884592153305  1.52547054667137  0.00000000000000 
-0.0219074062709425  1.51626840862268  0.00000000000000 
-0.0217263533265546  1.50699345389539  0.00000000000000 
-0.0215453003821666  1.49764595059030  0.00000000000000 
-0.0213642474377787  1.48822617368325  0.00000000000000 
-0.0211831944933907  1.47873440502197  0.00000000000000 
-0.0210021415490027  1.46917093332183  0.00000000000000 
-0.0208210886046148  1.45953605415950  0.00000000000000 
-0.0206400356602268  1.44983006996697  0.00000000000000 
-0.0204589827158389  1.44005329002332  0.00000000000000 
-0.0202779297714509  1.43020603044546  0.00000000000000 
-0.0200968768270630  1.42028861417879  0.00000000000000 
-0.0199158238826750  1.41030137098563  0.00000000000000 
-0.0197347709382871  1.40024463743458  0.00000000000000 
-0.0195537179938991  1.39011875688655  0.00000000000000 
-0.0193726650495112  1.37992407948107  0.00000000000000 
-0.0191916121051232  1.36966096212071  0.00000000000000 
-0.0190105591607353  1.35932976845536  0.00000000000000 
-0.0188295062163473  1.34893086886634  0.00000000000000 
-0.0186484532719593  1.33846464044581  0.00000000000000 
-0.0184674003275714  1.32793146697901  0.00000000000000 
-0.0182863473831834  1.31733173892438  0.00000000000000 
-0.0181052944387955  1.30666585339176  0.00000000000000 
-0.0179242414944075  1.29593421411839  0.00000000000000 
-0.0177431885500196  1.28513723144942  0.00000000000000 
-0.0175621356056316  1.27427532230991  0.00000000000000 
-0.0173810826612437  1.26334891017991  0.00000000000000 
-0.0172000297168557  1.25235842506992  0.00000000000000 
-0.0170189767724677  1.24130430349082  0.00000000000000 
-0.0168379238280798  1.23018698842753  0.00000000000000 
-0.0166568708836918  1.21900692930756  0.00000000000000 
-0.0164758179393039  1.20776458197118  0.00000000000000 
-0.0162947649949159  1.19646040863947  0.00000000000000 
-0.0161137120505280  1.18509487788258  0.00000000000000 
-0.0159326591061400  1.17366846458354  0.00000000000000 
-0.0157516061617521  1.16218164990587  0.00000000000000 
-0.0155705532173641  1.15063492125653  0.00000000000000 
-0.0153895002729762  1.13902877224902  0.00000000000000 
-0.0152084473285882  1.12736370266690  0.00000000000000 
-0.0150273943842002  1.11564021842287  0.00000000000000 
-0.0148463414398123  1.10385883151953  0.00000000000000 
-0.0146652884954243  1.09202006001075  0.00000000000000 
-0.0144842355510364  1.08012442795438  0.00000000000000 
-0.0143031826066484  1.06817246537637  0.00000000000000 
-0.0141221296622605  1.05616470822142  0.00000000000000 
-0.0139410767178725  1.04410169830894  0.00000000000000 
-0.0137600237734846  1.03198398329071  0.00000000000000 
-0.0135789708290966  1.01981211659957  0.00000000000000 
-0.0133979178847086  1.00758665740443  0.00000000000000 
-0.0132168649403207  0.995308170559457  0.00000000000000 
-0.0130358119959327  0.982977226556514  0.00000000000000 
-0.0128547590515448  0.970594401473929  0.00000000000000 
-0.0126737061071568  0.958160276922410  0.00000000000000 
-0.0124926531627689  0.945675439995732  0.00000000000000 
-0.0123116002183809  0.933140483216465  0.00000000000000 
-0.0121305472739930  0.920556004479443  0.00000000000000 
-0.0119494943296050  0.907922606998310  0.00000000000000 
-0.0117684413852171  0.895240899250068  0.00000000000000 
-0.0115873884408291  0.882511494915573  0.00000000000000 
-0.0114063354964412  0.869735012822375  0.00000000000000 
-0.0112252825520532  0.856912076886632  0.00000000000000 
-0.0110442296076652  0.844043316053079  0.00000000000000 
-0.0108631766632773  0.831129364232230  0.00000000000000 
-0.0106821237188893  0.818170860243181  0.00000000000000 
-0.0105010707745014  0.805168447745617  0.00000000000000 
-0.0103200178301134  0.792122775181846  0.00000000000000 
-0.0101389648857255  0.779034495709589  0.00000000000000 
-0.00995791194133751  0.765904267137695  0.00000000000000 
-0.00977685899694956  0.752732751860459  0.00000000000000 
-0.00959580605256161  0.739520616792573  0.00000000000000 
-0.00941475310817365  0.726268533298018  0.00000000000000 
-0.00923370016378569  0.712977177128183  0.00000000000000 
-0.00905264721939775  0.699647228346549  0.00000000000000 
-0.00887159427500979  0.686279371263069  0.00000000000000 
-0.00869054133062183  0.672874294362591  0.00000000000000 
-0.00850948838623387  0.659432690233613  0.00000000000000 
-0.00832843544184592  0.645955255497876  0.00000000000000 
-0.00814738249745797  0.632442690735493  0.00000000000000 
-0.00796632955307001  0.618895700413418  0.00000000000000 
-0.00778527660868206  0.605314992811169  0.00000000000000 
-0.00760422366429410  0.591701279947446  0.00000000000000 
-0.00742317071990616  0.578055277500712  0.00000000000000 
-0.00724211777551820  0.564377704740353  0.00000000000000 
-0.00706106483113024  0.550669284442578  0.00000000000000 
-0.00688001188674228  0.536930742818930  0.00000000000000 
-0.00669895894235432  0.523162809435309  0.00000000000000 
-0.00651790599796638  0.509366217135242  0.00000000000000 
-0.00633685305357842  0.495541701959629  0.00000000000000 
-0.00615580010919047  0.481690003069903  0.00000000000000 
-0.00597474716480251  0.467811862664035  0.00000000000000 
-0.00579369422041455  0.453908025899529  0.00000000000000 
-0.00561264127602661  0.439979240809189  0.00000000000000 
-0.00543158833163865  0.426026258222158  0.00000000000000 
-0.00525053538725069  0.412049831680929  0.00000000000000 
-0.00506948244286273  0.398050717357021  0.00000000000000 
-0.00488842949847479  0.384029673970794  0.00000000000000 
-0.00470737655408683  0.369987462704922  0.00000000000000 
-0.00452632360969887  0.355924847122384  0.00000000000000 
-0.00434527066531092  0.341842593081802  0.00000000000000 
-0.00416421772092296  0.327741468651709  0.00000000000000 
-0.00398316477653501  0.313622244025568  0.00000000000000 
-0.00380211183214706  0.299485691437062  0.00000000000000 
-0.00362105888775910  0.285332585073212  0.00000000000000 
-0.00344000594337114  0.271163700987436  0.00000000000000 
-0.00325895299898318  0.256979817013125  0.00000000000000 
-0.00307790005459524  0.242781712679833  0.00000000000000 
-0.00289684711020728  0.228570169120107  0.00000000000000 
-0.00271579416581932  0.214345968986800  0.00000000000000 
-0.00253474122143137  0.200109896362294  0.00000000000000 
-0.00235368827704342  0.185862736673247  0.00000000000000 
-0.00217263533265546  0.171605276597167  0.00000000000000 
-0.00199158238826751  0.157338303979792  0.00000000000000 
-0.00181052944387955  0.143062607743065  0.00000000000000 
-0.00162947649949159  0.128778977794257  0.00000000000000 
-0.00144842355510365  0.114488204941840  0.00000000000000 
-0.00126737061071569  0.100191080801361  0.00000000000000 
-0.00108631766632773  0.0858883977094986  0.00000000000000 
-0.000905264721939775  0.0715809486308937  0.00000000000000 
-0.000724211777551831  0.0572695270706903  0.00000000000000 
-0.000543158833163873  0.0429549269853409  0.00000000000000 
-0.000362105888775915  0.0286379426914747  0.00000000000000 
-0.000181052944387958  0.0143193687741210  0.00000000000000 
 0.00000000000000  2.39808173319034e-14  0.00000000000000 
 0.000181052944387944 -0.0143193687740022  0.00000000000000 
 0.000362105888775902 -0.0286379426906942  0.00000000000000 
 0.000543158833163859 -0.0429549269856322  0.00000000000000 
 0.000724211777551817 -0.0572695270707477  0.00000000000000 
 0.000905264721939775 -0.0715809486300349  0.00000000000000 
 0.00108631766632772 -0.0858883977086762  0.00000000000000 
 0.00126737061071568 -0.100191080801142  0.00000000000000 
 0.00144842355510363 -0.114488204941374  0.00000000000000 
 0.00162947649949159 -0.128778977793350  0.00000000000000 
 0.00181052944387954 -0.143062607741844  0.00000000000000 
 0.00199158238826749 -0.157338303978622  0.00000000000000 
 0.00217263533265545 -0.171605276596046  0.00000000000000 
 0.00235368827704341 -0.185862736671977  0.00000000000000 
 0.00253474122143137 -0.200109896361250  0.00000000000000 
 0.00271579416581931 -0.214345968984803  0.00000000000000 
 0.00289684711020727 -0.228570169117350  0.00000000000000 
 0.00307790005459523 -0.242781712676979  0.00000000000000 
 0.00325895299898318 -0.256979817010470  0.00000000000000 
 0.00344000594337113 -0.271163700984023  0.00000000000000 
 0.00362105888775908 -0.285332585069691  0.00000000000000 
 0.00380211183214704 -0.299485691433994  0.00000000000000 
 0.00398316477653500 -0.313622244021231  0.00000000000000 
 0.00416421772092296 -0.327741468647240  0.00000000000000 
 0.00434527066531090 -0.341842593077095  0.00000000000000 
 0.00452632360969886 -0.355924847117383  0.00000000000000 
 0.00470737655408682 -0.369987462699132  0.00000000000000 
 0.00488842949847478 -0.384029673964794  0.00000000000000 
 0.00506948244286273 -0.398050717350762  0.00000000000000 
 0.00525053538725068 -0.412049831673938  0.00000000000000 
 0.00543158833163863 -0.426026258214761  0.00000000000000 
 0.00561264127602659 -0.439979240801698  0.00000000000000 
 0.00579369422041455 -0.453908025891245  0.00000000000000 
 0.00597474716480249 -0.467811862654986  0.00000000000000 
 0.00615580010919045 -0.481690003060715  0.00000000000000 
 0.00633685305357841 -0.495541701950180  0.00000000000000 
 0.00651790599796637 -0.509366217124893  0.00000000000000 
 0.00669895894235432 -0.523162809424784  0.00000000000000 
 0.00688001188674227 -0.536930742807363  0.00000000000000 
 0.00706106483113023 -0.550669284431100  0.00000000000000 
 0.00724211777551818 -0.564377704727896  0.00000000000000 
 0.00742317071990614 -0.578055277487835  0.00000000000000 
 0.00760422366429409 -0.591701279933130  0.00000000000000 
 0.00778527660868204 -0.605314992797059  0.00000000000000 
 0.00796632955307000 -0.618895700398187  0.00000000000000 
 0.00814738249745796 -0.632442690719955  0.00000000000000 
 0.00832843544184592 -0.645955255481373  0.00000000000000 
 0.00850948838623386 -0.659432690216265  0.00000000000000 
 0.00869054133062182 -0.672874294344120  0.00000000000000 
 0.00887159427500978 -0.686279371244332  0.00000000000000 
 0.00905264721939773 -0.699647228326668  0.00000000000000 
 0.00923370016378569 -0.712977177107916  0.00000000000000 
 0.00941475310817363 -0.726268533277317  0.00000000000000 
 0.00959580605256159 -0.739520616770445  0.00000000000000 
 0.00977685899694955 -0.752732751837642  0.00000000000000 
 0.00995791194133751 -0.765904267114190  0.00000000000000 
 0.0101389648857255 -0.779034495685075  0.00000000000000 
 0.0103200178301134 -0.792122775156497  0.00000000000000 
 0.0105010707745014 -0.805168447719294  0.00000000000000 
 0.0106821237188893 -0.818170860215462  0.00000000000000 
 0.0108631766632773 -0.831129364204026  0.00000000000000 
 0.0110442296076652 -0.844043316023135  0.00000000000000 
 0.0112252825520532 -0.856912076856952  0.00000000000000 
 0.0114063354964411 -0.869735012790807  0.00000000000000 
 0.0115873884408291 -0.882511494882973  0.00000000000000 
 0.0117684413852171 -0.895240899216755  0.00000000000000 
 0.0119494943296050 -0.907922606963960  0.00000000000000 
 0.0121305472739930 -0.920556004444282  0.00000000000000 
 0.0123116002183809 -0.933140483180307  0.00000000000000 
 0.0124926531627689 -0.945675439958970  0.00000000000000 
 0.0126737061071568 -0.958160276884033  0.00000000000000 
 0.0128547590515448 -0.970594401434723  0.00000000000000 
 0.0130358119959327 -0.982977226515486  0.00000000000000 
 0.0132168649403207 -0.995308170517388  0.00000000000000 
 0.0133979178847086 -1.00758665736095  0.00000000000000 
 0.0135789708290966 -1.01981211655612  0.00000000000000 
 0.0137600237734846 -1.03198398324598  0.00000000000000 
 0.0139410767178725 -1.04410169826288  0.00000000000000 
 0.0141221296622605 -1.05616470817405  0.00000000000000 
 0.0143031826066484 -1.06817246532792  0.00000000000000 
 0.0144842355510364 -1.08012442790477  0.00000000000000 
 0.0146652884954243 -1.09202005995962  0.00000000000000 
 0.0148463414398123 -1.10385883146742  0.00000000000000 
 0.0150273943842002 -1.11564021836909  0.00000000000000 
 0.0152084473285882 -1.12736370261266  0.00000000000000 
 0.0153895002729761 -1.13902877219217  0.00000000000000 
 0.0155705532173641 -1.15063492119908  0.00000000000000 
 0.0157516061617521 -1.16218164984690  0.00000000000000 
 0.0159326591061400 -1.17366846452311  0.00000000000000 
 0.0161137120505280 -1.18509487782119  0.00000000000000 
 0.0162947649949159 -1.19646040857693  0.00000000000000 
 0.0164758179393039 -1.20776458190728  0.00000000000000 
 0.0166568708836918 -1.21900692924158  0.00000000000000 
 0.0168379238280798 -1.23018698836130  0.00000000000000 
 0.0170189767724677 -1.24130430342194  0.00000000000000 
 0.0172000297168557 -1.25235842500006  0.00000000000000 
 0.0173810826612436 -1.26334891010824  0.00000000000000 
 0.0175621356056316 -1.27427532223654  0.00000000000000 
 0.0177431885500196 -1.28513723137553  0.00000000000000 
 0.0179242414944075 -1.29593421404251  0.00000000000000 
 0.0181052944387955 -1.30666585331432  0.00000000000000 
 0.0182863473831834 -1.31733173884538  0.00000000000000 
 0.0184674003275714 -1.32793146689859  0.00000000000000 
 0.0186484532719593 -1.33846464036377  0.00000000000000 
 0.0188295062163473 -1.34893086878262  0.00000000000000 
 0.0190105591607352 -1.35932976837068  0.00000000000000 
 0.0191916121051232 -1.36966096203342  0.00000000000000 
 0.0193726650495111 -1.37992407939276  0.00000000000000 
 0.0195537179938991 -1.39011875679721  0.00000000000000 
 0.0197347709382871 -1.40024463734318  0.00000000000000 
 0.0199158238826750 -1.41030137089209  0.00000000000000 
 0.0200968768270630 -1.42028861408363  0.00000000000000 
 0.0202779297714509 -1.43020603034853  0.00000000000000 
 0.0204589827158389 -1.44005328992473  0.00000000000000 
 0.0206400356602268 -1.44983006986760  0.00000000000000 
 0.0208210886046148 -1.45953605405823  0.00000000000000 
 0.0210021415490027 -1.46917093321786  0.00000000000000 
 0.0211831944933907 -1.47873440491615  0.00000000000000 
 0.0213642474377786 -1.48822617357660  0.00000000000000 
 0.0215453003821666 -1.49764595048130  0.00000000000000 
 0.0217263533265546 -1.50699345378499  0.00000000000000 
 0.0219074062709425 -1.51626840850954  0.00000000000000 
 0.0220884592153305 -1.52547054655739  0.00000000000000 
 0.0222695121597184 -1.53459960670483  0.00000000000000 
 0.0224505651041064 -1.54365533461206  0.00000000000000 
 0.0226316180484943 -1.55263748281920  0.00000000000000 
 0.0228126709928823 -1.56154581074555  0.00000000000000 
 0.0229937239372702 -1.57038008469213  0.00000000000000 
 0.0231747768816582 -1.57914007783645  0.00000000000000 
 0.0233558298260462 -1.58782557022900  0.00000000000000 
 0.0235368827704341 -1.59643634878976  0.00000000000000 
 0.0237179357148221 -1.60497220730685  0.00000000000000 
 0.0238989886592100 -1.61343294642136  0.00000000000000 
 0.0240800416035980 -1.62181837362847  0.00000000000000 
 0.0242610945479859 -1.63012830326703  0.00000000000000 
 0.0244421474923739 -1.63836255650775  0.00000000000000 
 0.0246232004367618 -1.64652096134795  0.00000000000000 
 0.0248042533811498 -1.65460335259598  0.00000000000000 
 0.0249853063255377 -1.66260957186224  0.00000000000000 
 0.0251663592699257 -1.67053946754641  0.00000000000000 
 0.0253474122143136 -1.67839289482148  0.00000000000000 
 0.0255284651587016 -1.68616971562131  0.00000000000000 
 0.0257095181030896 -1.69386979862532  0.00000000000000 
 0.0258905710474775 -1.70149301924030  0.00000000000000 
 0.0260716239918655 -1.70903925958243  0.00000000000000 
 0.0262526769362534 -1.71650840846526  0.00000000000000 
 0.0264337298806414 -1.72390036137149  0.00000000000000 
 0.0266147828250293 -1.73121502043990  0.00000000000000 
 0.0267958357694173 -1.73845229444218  0.00000000000000 
 0.0269768887138052 -1.74561209876095  0.00000000000000 
 0.0271579416581932 -1.75269435536726  0.00000000000000 
 0.0273389946025812 -1.75969899280003  0.00000000000000 
 0.0275200475469691 -1.76662594613774  0.00000000000000 
 0.0277011004913571 -1.77347515697642  0.00000000000000 
 0.0278821534357450 -1.78024657340291  0.00000000000000 
 0.0280632063801330 -1.78694014996860  0.00000000000000 
 0.0282442593245209 -1.79355584765986  0.00000000000000 
 0.0284253122689089 -1.80009363387658  0.00000000000000 
 0.0286063652132968 -1.80655348239458  0.00000000000000 
 0.0287874181576848 -1.81293537334075  0.00000000000000 
 0.0289684711020727 -1.81923929316437  0.00000000000000 
 0.0291495240464607 -1.82546523460202  0.00000000000000 
 0.0293305769908487 -1.83161319664705  0.00000000000000 
 0.0295116299352366 -1.83768318451872  0.00000000000000 
 0.0296926828796246 -1.84367520962588  0.00000000000000 
 0.0298737358240125 -1.84958928953562  0.00000000000000 
 0.0300547887684005 -1.85542544793906  0.00000000000000 
 0.0302358417127884 -1.86118371461261  0.00000000000000 
 0.0304168946571764 -1.86686412538384  0.00000000000000 
 0.0305979476015643 -1.87246672209681  0.00000000000000 
 0.0307790005459523 -1.87799155257095  0.00000000000000 
 0.0309600534903403 -1.88343867056597  0.00000000000000 
 0.0311411064347282 -1.88880813574330  0.00000000000000 
 0.0313221593791162 -1.89410001362343  0.00000000000000 
 0.0315032123235041 -1.89931437555115  0.00000000000000 
 0.0316842652678921 -1.90445129865032  0.00000000000000 
 0.0318653182122800 -1.90951086578721  0.00000000000000 
 0.0320463711566680 -1.91449316552534  0.00000000000000 
 0.0322274241010559 -1.91939829208483  0.00000000000000 
 0.0324084770454439 -1.92422634530272  0.00000000000000 
 0.0325895299898318 -1.92897743058215  0.00000000000000 
 0.0327705829342198 -1.93365165885698  0.00000000000000 
 0.0329516358786077 -1.93824914654218  0.00000000000000 
 0.0331326888229957 -1.94277001549152  0.00000000000000 
 0.0333137417673837 -1.94721439295090  0.00000000000000 
 0.0334947947117716 -1.95158241151411  0.00000000000000 
 0.0336758476561596 -1.95587420907539  0.00000000000000 
 0.0338569006005475 -1.96008992878176  0.00000000000000 
 0.0340379535449355 -1.96422971899085  0.00000000000000 
 0.0342190064893234 -1.96829373321423  0.00000000000000 
 0.0344000594337114 -1.97228213008087  0.00000000000000 
 0.0345811123780994 -1.97619507327995  0.00000000000000 
 0.0347621653224873 -1.98003273151353  0.00000000000000 
 0.0349432182668752 -1.98379527845287  0.00000000000000 
 0.0351242712112632 -1.98748289268120  0.00000000000000 
 0.0353053241556512 -1.99109575764838  0.00000000000000 
 0.0354863771000391 -1.99463406162048  0.00000000000000 
 0.0356674300444271 -1.99809799762677  0.00000000000000 
 0.0358484829888150 -2.00148776341116  0.00000000000000 
 0.0360295359332030 -2.00480356138084  0.00000000000000 
 0.0362105888775909 -2.00804559855154  0.00000000000000 
 0.0363916418219789 -2.01121408649939  0.00000000000000 
 0.0365726947663668 -2.01430924130728  0.00000000000000 
 0.0367537477107548 -2.01733128351018  0.00000000000000 
 0.0369348006551428 -2.02028043804986  0.00000000000000 
 0.0371158535995307 -2.02315693420889  0.00000000000000 
 0.0372969065439187 -2.02596100557171  0.00000000000000 
 0.0374779594883066 -2.02869288996043  0.00000000000000 
 0.0376590124326946 -2.03135282938670  0.00000000000000 
 0.0378400653770825 -2.03394106999659  0.00000000000000 
 0.0380211183214705 -2.03645786201429  0.00000000000000 
 0.0382021712658584 -2.03890345969437  0.00000000000000 
 0.0383832242102464 -2.04127812125603  0.00000000000000 
 0.0385642771546343 -2.04358210884083  0.00000000000000 
 0.0387453300990223 -2.04581568844913  0.00000000000000 
 0.0389263830434103 -2.04797912988930  0.00000000000000 
 0.0391074359877982 -2.05007270672020  0.00000000000000 
 0.0392884889321862 -2.05209669619935  0.00000000000000 
 0.0394695418765741 -2.05405137922420  0.00000000000000 
 0.0396505948209621 -2.05593704027945  0.00000000000000 
 0.0398316477653500 -2.05775396737672  0.00000000000000 
 0.0400127007097380 -2.05950245200888  0.00000000000000 
 0.0401937536541259 -2.06118278908205  0.00000000000000 
 0.0403748065985139 -2.06279527686840  0.00000000000000 
 0.0405558595429019 -2.06434021694933  0.00000000000000 
 0.0407369124872898 -2.06581791415457  0.00000000000000 
 0.0409179654316777 -2.06722867651349  0.00000000000000 
 0.0410990183760657 -2.06857281519453  0.00000000000000 
 0.0412800713204537 -2.06985064445067  0.00000000000000 
 0.0414611242648416 -2.07106248156319  0.00000000000000 
 0.0416421772092296 -2.07220864678712  0.00000000000000 
 0.0418232301536175 -2.07328946329371  0.00000000000000 
 0.0420042830980055 -2.07430525711743  0.00000000000000 
 0.0421853360423934 -2.07525635709617  0.00000000000000 
 0.0423663889867814 -2.07614309481700  0.00000000000000 
 0.0425474419311694 -2.07696580456519  0.00000000000000 
 0.0427284948755573 -2.07772482326114  0.00000000000000 
 0.0429095478199453 -2.07842049040984  0.00000000000000 
 0.0430906007643332 -2.07905314804520  0.00000000000000 
 0.0432716537087212 -2.07962314067021  0.00000000000000 
 0.0434527066531091 -2.08013081520930  0.00000000000000 
 0.0436337595974971 -2.08057652094846  0.00000000000000 
 0.0438148125418850 -2.08096060947821  0.00000000000000 
 0.0439958654862730 -2.08128343464422  0.00000000000000 
 0.0441769184306609 -2.08154535249040  0.00000000000000 
 0.0443579713750489 -2.08174672120251  0.00000000000000 
 0.0445390243194368 -2.08188790105540  0.00000000000000 
 0.0447200772638248 -2.08196925436053  0.00000000000000 
 0.0449011302082128 -2.08199114540736  0.00000000000000 
 0.0450821831526007 -2.08195394041610  0.00000000000000 
 0.0452632360969887 -2.08185800747476  0.00000000000000 
 0.0454442890413766 -2.08170371649548  0.00000000000000 
 0.0456253419857646 -2.08149143915630  0.00000000000000 
 0.0458063949301525 -2.08122154884696  0.00000000000000 
 0.0459874478745405 -2.08089442062077  0.00000000000000 
 0.0461685008189285 -2.08051043113393  0.00000000000000 
 0.0463495537633164 -2.08006995860402  0.00000000000000 
 0.0465306067077043 -2.07957338274859  0.00000000000000 
 0.0467116596520923 -2.07902108473829  0.00000000000000 
 0.0468927125964803 -2.07841344714244  0.00000000000000 
 0.0470737655408682 -2.07775085388037  0.00000000000000 
 0.0472548184852562 -2.07703369016765  0.00000000000000 
 0.0474358714296441 -2.07626234246704  0.00000000000000 
 0.0476169243740321 -2.07543719843743  0.00000000000000 
 0.0477979773184200 -2.07455864688397  0.00000000000000 
 0.0479790302628080 -2.07362707770597  0.00000000000000 
 0.0481600832071959 -2.07264288185123  0.00000000000000 
 0.0483411361515839 -2.07160645126210  0.00000000000000 
 0.0485221890959719 -2.07051817882980  0.00000000000000 
 0.0487032420403598 -2.06937845834432  0.00000000000000 
 0.0488842949847478 -2.06818768444602  0.00000000000000 
 0.0490653479291357 -2.06694625257780  0.00000000000000 
 0.0492464008735237 -2.06565455893645  0.00000000000000 
 0.0494274538179116 -2.06431300042765  0.00000000000000 
 0.0496085067622996 -2.06292197461496  0.00000000000000 
 0.0497895597066875 -2.06148187967737  0.00000000000000 
 0.0499706126510755 -2.05999311435863  0.00000000000000 
 0.0501516655954634 -2.05845607792420  0.00000000000000 
 0.0503327185398514 -2.05687117011575  0.00000000000000 
 0.0505137714842394 -2.05523879110420  0.00000000000000 
 0.0506948244286273 -2.05355934144259  0.00000000000000 
 0.0508758773730153 -2.05183322202917  0.00000000000000 
 0.0510569303174032 -2.05006083405457  0.00000000000000 
 0.0512379832617912 -2.04824257896360  0.00000000000000 
 0.0514190362061791 -2.04637885840754  0.00000000000000 
 0.0516000891505671 -2.04447007420588  0.00000000000000 
 0.0517811420949550 -2.04251662829945  0.00000000000000 
 0.0519621950393430 -2.04051892271031  0.00000000000000 
 0.0521432479837310 -2.03847735949947  0.00000000000000 
 0.0523243009281189 -2.03639234072592  0.00000000000000 
 0.0525053538725068 -2.03426426840317  0.00000000000000 
 0.0526864068168948 -2.03209354446274  0.00000000000000 
 0.0528674597612828 -2.02988057070897  0.00000000000000 
 0.0530485127056707 -2.02762574878300  0.00000000000000 
 0.0532295656500587 -2.02532948012358  0.00000000000000 
 0.0534106185944466 -2.02299216592238  0.00000000000000 
 0.0535916715388346 -2.02061420709373  0.00000000000000 
 0.0537727244832225 -2.01819600422929  0.00000000000000 
 0.0539537774276105 -2.01573795756492  0.00000000000000 
 0.0541348303719985 -2.01324046694041  0.00000000000000 
 0.0543158833163864 -2.01070393176465  0.00000000000000 
 0.0544969362607744 -2.00812875097746  0.00000000000000 
 0.0546779892051623 -2.00551532301499  0.00000000000000 
 0.0548590421495503 -2.00286404577343  0.00000000000000 
 0.0550400950939382 -2.00017531657317  0.00000000000000 
 0.0552211480383262 -1.99744953212547  0.00000000000000 
 0.0554022009827141 -1.99468708849716  0.00000000000000 
 0.0555832539271021 -1.99188838107577  0.00000000000000 
 0.0557643068714900 -1.98905380453911  0.00000000000000 
 0.0559453598158780 -1.98618375282050  0.00000000000000 
 0.0561264127602659 -1.98327861907377  0.00000000000000 
 0.0563074657046539 -1.98033879564604  0.00000000000000 
 0.0564885186490419 -1.97736467404243  0.00000000000000 
 0.0566695715934298 -1.97435664489542  0.00000000000000 
 0.0568506245378178 -1.97131509793556  0.00000000000000 
 0.0570316774822057 -1.96824042195898  0.00000000000000 
 0.0572127304265937 -1.96513300479944  0.00000000000000 
 0.0573937833709816 -1.96199323329696  0.00000000000000 
 0.0575748363153696 -1.95882149327115  0.00000000000000 
 0.0577558892597576 -1.95561816949009  0.00000000000000 
 0.0579369422041455 -1.95238364564317  0.00000000000000 
 0.0581179951485335 -1.94911830431435  0.00000000000000 
 0.0582990480929214 -1.94582252695384  0.00000000000000 
 0.0584801010373094 -1.94249669385052  0.00000000000000 
 0.0586611539816973 -1.93914118410706  0.00000000000000 
 0.0588422069260853 -1.93575637561522  0.00000000000000 
 0.0590232598704732 -1.93234264502463  0.00000000000000 
 0.0592043128148612 -1.92890036772518  0.00000000000000 
 0.0593853657592491 -1.92542991781694  0.00000000000000 
 0.0595664187036371 -1.92193166808831  0.00000000000000 
 0.0597474716480250 -1.91840598999182  0.00000000000000 
 0.0599285245924130 -1.91485325362059  0.00000000000000 
 0.0601095775368010 -1.91127382768465  0.00000000000000 
 0.0602906304811889 -1.90766807949085  0.00000000000000 
 0.0604716834255769 -1.90403637491877  0.00000000000000 
 0.0606527363699648 -1.90037907839964  0.00000000000000 
 0.0608337893143528 -1.89669655289476  0.00000000000000 
 0.0610148422587407 -1.89298915987485  0.00000000000000 
 0.0611958952031287 -1.88925725930128  0.00000000000000 
 0.0613769481475167 -1.88550120960425  0.00000000000000 
 0.0615580010919046 -1.88172136766356  0.00000000000000 
 0.0617390540362925 -1.87791808879026  0.00000000000000 
 0.0619201069806805 -1.87409172670708  0.00000000000000 
 0.0621011599250685 -1.87024263353195  0.00000000000000 
 0.0622822128694564 -1.86637115975654  0.00000000000000 
 0.0624632658138444 -1.86247765423462  0.00000000000000 
 0.0626443187582323 -1.85856246415903  0.00000000000000 
 0.0628253717026203 -1.85462593504818  0.00000000000000 
 0.0630064246470082 -1.85066841072950  0.00000000000000 
 0.0631874775913962 -1.84669023332430  0.00000000000000 
 0.0633685305357841 -1.84269174323017  0.00000000000000 
 0.0635495834801721 -1.83867327910842  0.00000000000000 
 0.0637306364245601 -1.83463517786802  0.00000000000000 
 0.0639116893689480 -1.83057777465102  0.00000000000000 
 0.0640927423133359 -1.82650140282148  0.00000000000000 
 0.0642737952577239 -1.82240639394762  0.00000000000000 
 0.0644548482021119 -1.81829307779264  0.00000000000000 
 0.0646359011464998 -1.81416178230039  0.00000000000000 
 0.0648169540908878 -1.81001283358294  0.00000000000000 
 0.0649980070352757 -1.80584655590827  0.00000000000000 
 0.0651790599796637 -1.80166327169130  0.00000000000000 
 0.0653601129240516 -1.79746330147877  0.00000000000000 
 0.0655411658684396 -1.79324696394202  0.00000000000000 
 0.0657222188128276 -1.78901457586367  0.00000000000000 
 0.0659032717572155 -1.78476645213021  0.00000000000000 
 0.0660843247016035 -1.78050290572001  0.00000000000000 
 0.0662653776459914 -1.77622424769504  0.00000000000000 
 0.0664464305903794 -1.77193078719213  0.00000000000000 
 0.0666274835347673 -1.76762283141353  0.00000000000000 
 0.0668085364791553 -1.76330068561873  0.00000000000000 
 0.0669895894235432 -1.75896465311717  0.00000000000000 
 0.0671706423679312 -1.75461503525954  0.00000000000000 
 0.0673516953123191 -1.75025213143179  0.00000000000000 
 0.0675327482567071 -1.74587623904710  0.00000000000000 
 0.0677138012010950 -1.74148765353928  0.00000000000000 
 0.0678948541454830 -1.73708666835764  0.00000000000000 
 0.0680759070898710 -1.73267357495875  0.00000000000000 
 0.0682569600342589 -1.72824866280388  0.00000000000000 
 0.0684380129786469 -1.72381221935064  0.00000000000000 
 0.0686190659230348 -1.71936453005028  0.00000000000000 
 0.0688001188674228 -1.71490587834082  0.00000000000000 
 0.0689811718118107 -1.71043654564496  0.00000000000000 
 0.0691622247561987 -1.70595681136431  0.00000000000000 
 0.0693432777005867 -1.70146695287622  0.00000000000000 
 0.0695243306449746 -1.69696724553027  0.00000000000000 
 0.0697053835893626 -1.69245796264424  0.00000000000000 
 0.0698864365337505 -1.68793937550300  0.00000000000000 
 0.0700674894781385 -1.68341175335417  0.00000000000000 
 0.0702485424225264 -1.67887536340631  0.00000000000000 
 0.0704295953669144 -1.67433047082721  0.00000000000000 
 0.0706106483113023 -1.66977733874224  0.00000000000000 
 0.0707917012556903 -1.66521622823157  0.00000000000000 
 0.0709727542000782 -1.66064739833001  0.00000000000000 
 0.0711538071444662 -1.65607110602607  0.00000000000000 
 0.0713348600888541 -1.65148760626119  0.00000000000000 
 0.0715159130332421 -1.64689715192918  0.00000000000000 
 0.0716969659776301 -1.64229999387487  0.00000000000000 
 0.0718780189220180 -1.63769638089617  0.00000000000000 
 0.0720590718664060 -1.63308655974346  0.00000000000000 
 0.0722401248107939 -1.62847077512002  0.00000000000000 
 0.0724211777551819 -1.62384926968239  0.00000000000000 
 0.0726022306995698 -1.61922228404295  0.00000000000000 
 0.0727832836439578 -1.61459005676917  0.00000000000000 
 0.0729643365883458 -1.60995282438665  0.00000000000000 
 0.0731453895327337 -1.60531082138067  0.00000000000000 
 0.0733264424771216 -1.60066428019713  0.00000000000000 
 0.0735074954215096 -1.59601343124589  0.00000000000000 
 0.0736885483658976 -1.59135850290216  0.00000000000000 
 0.0738696013102855 -1.58669972151031  0.00000000000000 
 0.0740506542546735 -1.58203731138594  0.00000000000000 
 0.0742317071990614 -1.57737149481857  0.00000000000000 
 0.0744127601434494 -1.57270249207568  0.00000000000000 
 0.0745938130878373 -1.56803052140546  0.00000000000000 
 0.0747748660322253 -1.56335579904155  0.00000000000000 
 0.0749559189766132 -1.55867853920478  0.00000000000000 
 0.0751369719210012 -1.55399895411040  0.00000000000000 
 0.0753180248653892 -1.54931725396826  0.00000000000000 
 0.0754990778097771 -1.54463364699109  0.00000000000000 
 0.0756801307541650 -1.53994833939672  0.00000000000000 
 0.0758611836985530 -1.53526153541320  0.00000000000000 
 0.0760422366429410 -1.53057343728454  0.00000000000000 
 0.0762232895873289 -1.52588424527525  0.00000000000000 
 0.0764043425317169 -1.52119415767520  0.00000000000000 
 0.0765853954761048 -1.51650337080588  0.00000000000000 
 0.0767664484204928 -1.51181207902583  0.00000000000000 
 0.0769475013648807 -1.50712047473612  0.00000000000000 
 0.0771285543092687 -1.50242874838593  0.00000000000000 
 0.0773096072536567 -1.49773708847991  0.00000000000000 
 0.0774906601980446 -1.49304568158246  0.00000000000000 
 0.0776717131424326 -1.48835471232633  0.00000000000000 
 0.0778527660868205 -1.48366436341797  0.00000000000000 
 0.0780338190312085 -1.47897481564280  0.00000000000000 
 0.0782148719755964 -1.47428624787523  0.00000000000000 
 0.0783959249199844 -1.46959883708286  0.00000000000000 
 0.0785769778643723 -1.46491275833449  0.00000000000000 
 0.0787580308087603 -1.46022818480757  0.00000000000000 
 0.0789390837531483 -1.45554528779526  0.00000000000000 
 0.0791201366975362 -1.45086423671338  0.00000000000000 
 0.0793011896419241 -1.44618519910885  0.00000000000000 
 0.0794822425863121 -1.44150834066683  0.00000000000000 
 0.0796632955307001 -1.43683382521914  0.00000000000000 
 0.0798443484750880 -1.43216181475036  0.00000000000000 
 0.0800254014194760 -1.42749246940816  0.00000000000000 
 0.0802064543638639 -1.42282594751023  0.00000000000000 
 0.0803875073082519 -1.41816240555255  0.00000000000000 
 0.0805685602526398 -1.41350199821762  0.00000000000000 
 0.0807496131970278 -1.40884487838336  0.00000000000000 
 0.0809306661414158 -1.40419119713099  0.00000000000000 
 0.0811117190858037 -1.39954110375404  0.00000000000000 
 0.0812927720301917 -1.39489474576722  0.00000000000000 
 0.0814738249745796 -1.39025226891453  0.00000000000000 
 0.0816548779189676 -1.38561381717871  0.00000000000000 
 0.0818359308633555 -1.38097953279013  0.00000000000000 
 0.0820169838077435 -1.37634955623567  0.00000000000000 
 0.0821980367521314 -1.37172402626755  0.00000000000000 
 0.0823790896965194 -1.36710307991284  0.00000000000000 
 0.0825601426409073 -1.36248685248284  0.00000000000000 
 0.0827411955852953 -1.35787547758227  0.00000000000000 
 0.0829222485296832 -1.35326908711831  0.00000000000000 
 0.0831033014740712 -1.34866781131065  0.00000000000000 
 0.0832843544184592 -1.34407177870029  0.00000000000000 
 0.0834654073628471 -1.33948111615994  0.00000000000000 
 0.0836464603072351 -1.33489594890288  0.00000000000000 
 0.0838275132516230 -1.33031640049334  0.00000000000000 
 0.0840085661960110 -1.32574259285509  0.00000000000000 
 0.0841896191403989 -1.32117464628318  0.00000000000000 
 0.0843706720847869 -1.31661267945155  0.00000000000000 
 0.0845517250291749 -1.31205680942468  0.00000000000000 
 0.0847327779735628 -1.30750715166601  0.00000000000000 
 0.0849138309179507 -1.30296382005009  0.00000000000000 
 0.0850948838623387 -1.29842692686960  0.00000000000000 
 0.0852759368067267 -1.29389658284814  0.00000000000000 
 0.0854569897511146 -1.28937289714862  0.00000000000000 
 0.0856380426955026 -1.28485597738449  0.00000000000000 
 0.0858190956398905 -1.28034592962842  0.00000000000000 
 0.0860001485842785 -1.27584285842444  0.00000000000000 
 0.0861812015286664 -1.27134686679685  0.00000000000000 
 0.0863622544730544 -1.26685805626004  0.00000000000000 
 0.0865433074174423 -1.26237652683027  0.00000000000000 
 0.0867243603618303 -1.25790237703503  0.00000000000000 
 0.0869054133062183 -1.25343570392273  0.00000000000000 
 0.0870864662506062 -1.24897660307463  0.00000000000000 
 0.0872675191949942 -1.24452516861392  0.00000000000000 
 0.0874485721393821 -1.24008149321641  0.00000000000000 
 0.0876296250837701 -1.23564566812100  0.00000000000000 
 0.0878106780281580 -1.23121778314028  0.00000000000000 
 0.0879917309725460 -1.22679792667013  0.00000000000000 
 0.0881727839169340 -1.22238618570113  0.00000000000000 
 0.0883538368613219 -1.21798264582812  0.00000000000000 
 0.0885348898057098 -1.21358739126153  0.00000000000000 
 0.0887159427500978 -1.20920050483670  0.00000000000000 
 0.0888969956944858 -1.20482206802530  0.00000000000000 
 0.0890780486388737 -1.20045216094516  0.00000000000000 
 0.0892591015832617 -1.19609086237093  0.00000000000000 
 0.0894401545276496 -1.19173824974446  0.00000000000000 
 0.0896212074720376 -1.18739439918528  0.00000000000000 
 0.0898022604164255 -1.18305938550078  0.00000000000000 
 0.0899833133608135 -1.17873328219704  0.00000000000000 
 0.0901643663052014 -1.17441616148889  0.00000000000000 
 0.0903454192495894 -1.17010809431041  0.00000000000000 
 0.0905264721939774 -1.16580915032531  0.00000000000000 
