 0.100000000000000  40.3317894187259  89.9565016472558  40.3317894187259  89.9565040489173 
 0.104712854805090  36.7830312644413  89.9523050657616  36.7830312644413  89.9523075806100 
 0.109647819614319  33.5465255683248  89.9477036090377  33.5465255683248  89.9477062424071 
 0.114815362149688  30.5947975186288  89.9426582157713  30.5947975186288  89.9426609732477 
 0.120226443461741  27.9027897911559  89.9371260561511  27.9027897911559  89.9371289435833 
 0.125892541179417  25.4476498367435  89.9310601683078  25.4476498367435  89.9310631918205 
 0.131825673855641  23.2085358851632  89.9244090596863  23.2085358851632  89.9244122256927 
 0.138038426460289  21.1664400185936  89.9171162699667  21.1664400185936  89.9171195851825 
 0.144543977074593  19.3040268127304  89.9091198918272  19.3040268127304  89.9091233632843 
 0.151356124843621  17.6054861757550  89.9003520454849  17.6054861757550  89.9003556805466 
 0.158489319246111  16.0563991359030  89.8907383025594  16.0563991359030  89.8907421089363 
 0.165958690743756  14.6436154383015  89.8801970543765  14.6436154383015  89.8802010401424 
 0.173780082874938  13.3551419119884  89.8686388193579  13.3551419119884  89.8686429929673 
 0.181970085860998  12.1800406594585  89.8559654836320  12.1800406594585  89.8559698539375 
 0.190546071796325  11.1083362044630  89.8420694684341  11.1083362044630  89.8420740447058 
 0.199526231496888  10.1309308098376  89.8268328172530  10.1309308098376  89.8268376091977 
 0.208929613085404  9.23952724648856  89.8101261950020  9.23952724648856  89.8101312127841 
 0.218776162394955  8.42655835792030  89.7918077907588  8.42655835792030  89.7918130450217 
 0.229086765276777  7.68512282237506  89.7717221148103  7.68512282237506  89.7717276166989 
 0.239883291901949  7.00892656726732  89.7496986798575  7.00892656726732  89.7497044410421 
 0.251188643150958  6.39222933857785  89.7255505552761  6.39222933857785  89.7255565879770 
 0.263026799189538  5.82979597163318  89.6990727822755  5.82979597163319  89.6990790992889 
 0.275422870333817  5.31685194960629  89.6700406366591  5.31685194960629  89.6700472513841 
 0.288403150312661  4.84904287247308  89.6382077246412  4.84904287247308  89.6382146511086 
 0.301995172040202  4.42239749235507  89.6033038958276  4.42239749235507  89.6033111487293 
 0.316227766016838  4.03329400145396  89.5650329559944  4.03329400145396  89.5650405507149 
 0.331131121482591  3.67842928639503  89.5230701607216  3.67842928639503  89.5230781133702 
 0.346736850452532  3.35479088797837  89.4770594692166  3.35479088797836  89.4770677966620 
 0.363078054770101  3.05963142830292  89.4266105358323  3.05963142830292  89.4266192557381 
 0.380189396320561  2.79044528817433  89.3712954148095  2.79044528817433  89.3713045456718 
 0.398107170553497  2.54494733680976  89.3106449516830  2.54494733680976  89.3106545128695 
 0.416869383470336  2.32105353327516  89.2441448325788  2.32105353327516  89.2441548443703 
 0.436515832240166  2.11686323497934  89.1712312603159  2.11686323497934  89.1712417439485 
 0.457088189614875  1.93064306304043  89.0912862238368  1.93064306304043  89.0912972015478 
 0.478630092322639  1.76081218755636  89.0036323250657  1.76081218755636  89.0036438201403 
 0.501187233627272  1.60592890786431  88.9075271248832  1.60592890786431  88.9075391617040 
 0.524807460249773  1.46467841386723  88.8021569676045  1.46467841386723  88.8021695717031 
 0.549540873857625  1.33586162453059  88.6866302412565  1.33586162453059  88.6866434393680 
 0.575439937337157  1.21838500879674  88.5599700292402  1.21838500879674  88.5599838493596 
 0.602559586074358  1.11125130250265  88.4211061078391  1.11125130250265  88.4211205792806 
 0.630957344480193  1.01355104249227  88.2688662438037  1.01355104249227  88.2688813972632 
 0.660693448007596  0.924454846050387  88.1019667472807  0.924454846050387  88.1019826149008 
 0.691830970918937  0.843206370110167  87.9190022382047  0.843206370110167  87.9190188536426 
 0.724435960074990  0.769115890454683  87.7184345896131  0.769115890454683  87.7184519881126 
 0.758577575029184  0.701554446392763  87.4985810201090  0.701554446392763  87.4985992385745 
 0.794328234724282  0.639948501185646  87.2576013210751  0.639948501185646  87.2576203981504 
 0.831763771102671  0.583775072873710  86.9934842238140  0.583775072873710  86.9935041999641 
 0.870963589956081  0.532557294138689  86.7040329395750  0.532557294138689  86.7040538571721 
 0.912010839355910  0.485860363469608  86.3868499440496  0.485860363469608  86.3868718474627 
 0.954992586021436  0.443287853210399  86.0393211307062  0.443287853210399  86.0393440663954 
 1.00000000000000  0.404478343081116  85.6585995285051  0.404478343081116  85.6586235451199 
 1.04712854805090  0.369102350507399  85.2415888743453  0.369102350507399  85.2416140228283 
 1.09647819614319  0.336859531586427  84.7849274555176  0.336859531586427  84.7849537892121 
 1.14815362149688  0.307476128781715  84.2849728002519  0.307476128781715  84.2850003750152 
 1.20226443461741  0.280702643491192  83.7377880042967  0.280702643491192  83.7378168786186 
 1.25892541179417  0.256311713488383  83.1391307486364  0.256311713488383  83.1391609837632 
 1.31825673855641  0.234096176908746  82.4844463988785  0.234096176908746  82.4844780589429 
 1.38038426460289  0.213867305954117  81.7688669910091  0.213867305954117  81.7689001431663 
 1.44543977074593  0.195453194828485  80.9872184091296  0.195453194828485  80.9872531236998 
 1.51356124843621  0.178697287608038  80.1340386507114  0.178697287608038  80.1340750013289 
 1.58489319246111  0.163457032798049  79.2036107450584  0.163457032798049  79.2036488088278 
 1.65958690743756  0.149602652250841  78.1900146135895  0.149602652250841  78.1900544712491 
 1.73780082874938  0.137016012928909  77.0872028793393  0.137016012928909  77.0872446154326 
 1.81970085860998  0.125589590717568  75.8891062476260  0.125589590717568  75.8891499506807 
 1.90546071796325  0.115225516154793  74.5897744309019  0.115225516154793  74.5898201936180 
 1.99526231496888  0.105834692598277  73.1835584448974  0.105834692598277  73.1836063643439 
 2.08929613085404  0.0973359780546764  71.6653391443028  0.0973359780546764  71.6653893221233 
 2.18776162394955  0.0896554227358481  70.0308047053514  0.0896554227358482  70.0308572479797 
 2.29086765276777  0.0827255554801476  68.2767759803071  0.0827255554801476  68.2768309991932 
 2.39883291901949  0.0764847135873212  66.4015728898466  0.0764847135873212  66.4016305016929 
 2.51188643150958  0.0708764124494006  64.4054071545564  0.0708764124494006  64.4054674815654 
 2.63026799189538  0.0658487536486990  62.2907770194351  0.0658487536486990  62.2908401895684 
 2.75422870333817  0.0613538728639294  60.0628292209839  0.0613538728639294  60.0628953682339 
 2.88403150312661  0.0573474317464017  57.7296441890508  0.0573474317464017  57.7297134537246 
 3.01995172040202  0.0537881604820136  55.3023950933027  0.0537881604820135  55.3024676223201 
 3.16227766016838  0.0506374594565767  52.7953329381254  0.0506374594565767  52.7954088853300 
 3.31131121482591  0.0478590686443110  50.2255610301198  0.0478590686443110  50.2256405566059 
 3.46736850452532  0.0454188115234895  47.6125835497560  0.0454188115234895  47.6126668242100 
 3.63078054770101  0.0432844163378218  44.9776425347934  0.0432844163378218  44.9777297338514 
 3.80189396320561  0.0414254117738065  42.3428900498604  0.0414254117738065  42.3429813584834 
 3.98107170553497  0.0398130876058804  39.7304702671691  0.0398130876058804  39.7305658790349 
 4.16869383470336  0.0384205049476567  37.1616023395343  0.0384205049476566  37.1617024574485 
 4.36515832240166  0.0372225367964184  34.6557548022203  0.0372225367964184  34.6558596385465 
 4.57088189614875  0.0361959184672335  32.2299858358625  0.0361959184672335  32.2300956129726 
 4.78630092322639  0.0353192894320469  29.8984956310536  0.0353192894320469  29.8986105817995 
 5.01187233627272  0.0345732124008086  27.6724046191047  0.0345732124008086  27.6725249873123 
 5.24807460249773  0.0339401611016339  25.5597418599927  0.0339401611016339  25.5598679009792 
 5.49540873857625  0.0334044739217571  23.5656066366474  0.0334044739217571  23.5657386177625 
 5.75439937337157  0.0329522753837434  21.6924553586318  0.0329522753837434  21.6925935598252 
 6.02559586074358  0.0325713707990834  19.9404644267432  0.0325713707990834  19.9406091411583 
 6.30957344480194  0.0322511212452175  18.3079251836574  0.0322511212452175  18.3080767182527 
 6.60693448007596  0.0319823064558922  16.7916363732774  0.0319823064558922  16.7917950494782 
 6.91830970918937  0.0317569826693191  15.3872699362049  0.0317569826693191  15.3874360905846 
 7.24435960074990  0.0315683413453255  14.0896955921505  0.0315683413453255  14.0898695771449 
 7.58577575029184  0.0314105732855251  12.8932574903135  0.0314105732855251  12.8934396749680 
 7.94328234724282  0.0312787413176582  11.7920019323421  0.0312787413176581  11.7921927030949 
 8.31763771102671  0.0311686634870806  10.7798589241057  0.0311686634870806  10.7800586856071 
 8.70963589956081  0.0310768077053296  9.85078244955912  0.0310768077053296  9.85099162553004 
 9.12010839355910  0.0310001980522558  8.99885530202899  0.0310001980522558  8.99907433615971 
 9.54992586021437  0.0309363323954277  8.21836444336298  0.0309363323954277  8.21859380025425 
 10.0000000000000  0.0308831106432329  7.50385250413947  0.0308831106432329  7.50409267028802 
 10.4712854805090  0.0308387727465768  6.85015042069096  0.0308387727465768  6.85040190552138 
 10.9647819614319  0.0308018454707192  6.25239548514763  0.0308018454707192  6.25265882209295 
 11.4815362149688  0.0307710969414004  5.70603836230705  0.0307710969414004  5.70631410994025 
 12.0226443461741  0.0307454980022489  5.20684195817434  0.0307454980022489  5.20713070139313 
 12.5892541179417  0.0307241894839739  4.75087443657045  0.0307241894839740  4.75117678783790 
 13.1825673855641  0.0307064545658454  4.33449818079488  0.0307064545658454  4.33481478143857 
 13.8038426460289  0.0306916954965933  3.95435608457604  0.0306916954965933  3.95468760614838 
 14.4543977074593  0.0306794140285773  3.60735622235987  0.0306794140285773  3.60770336806256 
 15.1356124843621  0.0306691950018230  3.29065568287736  0.0306691950018230  3.29101918905298 
 15.8489319246111  0.0306606925909562  3.00164414096371  0.0306606925909562  3.00202477865760 
 16.5958690743756  0.0306536187970694  2.73792758049773  0.0306536187970694  2.73832615709346 
 17.3780082874938  0.0306477338278035  2.49731245698001  0.0306477338278035  2.49772981791199 
 18.1970085860998  0.0306428380625826  2.27779049390681  0.0306428380625826  2.27822752445352 
 19.0546071796325  0.0306387653464906  2.07752423627733  0.0306387653464906  2.07798186343917 
 19.9526231496888  0.0306353773963328  1.89483343205606  0.0306353773963328  1.89531262652157 
 20.8929613085404  0.0306325591366831  1.72818227399940  0.0306325591366831  1.72868405220431 
 21.8776162394955  0.0306302148128705  1.57616750662741  0.0306302148128705  1.57669293291056 
 22.9086765276777  0.0306282647525607  1.43750738367220  0.0306282647525607  1.43805757253318 
 23.9883291901949  0.0306266426684554  1.31103144804397  0.0306266426684554  1.31160756650712 
 25.1188643150958  0.0306252934122135  1.19567109766032  0.0306252934122135  1.19627436775015 
 26.3026799189538  0.0306241711044676  1.09045089518868  0.0306241711044676  1.09108259652192 
 27.5422870333817  0.0306232375782108  0.994480576941064  0.0306232375782108  0.995142049440950 
 28.8403150312661  0.0306224610832113  0.906947715143513  0.0306224610832113  0.907640361881895 
 30.1995172040202  0.0306218152078025  0.827110988055709  0.0306218152078025  0.827836278229182 
 31.6227766016838  0.0306212779816588  0.754294013549807  0.0306212779816588  0.755053485596072 
 33.1131121482591  0.0306208311292354  0.687879703478035  0.0306208311292354  0.688674968339126 
 34.6736850452532  0.0306204594486108  0.627305098251919  0.0306204594486108  0.628137842791229 
 36.3078054770102  0.0306201502946960  0.572056643363626  0.0306201502946960  0.572928633943971 
 38.0189396320561  0.0306198931492921  0.521665871987904  0.0306198931492921  0.522578958218215 
 39.8107170553497  0.0306196792634161  0.475705460229774  0.0306196792634161  0.476661578888364 
 41.6869383470336  0.0306195013597551  0.433785623971669  0.0306195013597551  0.434786803114404 
 43.6515832240166  0.0306193533851477  0.395550828585284  0.0306193533851477  0.396599191847354 
 45.7088189614875  0.0306192303046855  0.360676784982714  0.0306192303046855  0.361774556083156 
 47.8630092322639  0.0306191279304391  0.328867707573364  0.0306191279304391  0.330017215031862 
 50.1187233627273  0.0306190427789892  0.299853811659109  0.0306190427789892  0.301057493735099 
 52.4807460249773  0.0306189719529177  0.273389029637692  0.0306189719529177  0.274649439502239 
 54.9540873857625  0.0306189130422326  0.249248927093660  0.0306189130422326  0.250568738245071 
 57.5439937337157  0.0306188640423726  0.227228801440631  0.0306188640423726  0.228610813375310 
 60.2559586074358  0.0306188232860045  0.207141947243146  0.0306188232860045  0.208589091393695 
 63.0957344480194  0.0306187893862928  0.188818073696598  0.0306187893862928  0.190333419649783 
 66.0693448007596  0.0306187611897122  0.172101860986386  0.0306187611897122  0.173688622994139 
 69.1830970918937  0.0306187377367981  0.156851643389166  0.0306187377367981  0.158513187186447 
 72.4435960074990  0.0306187182295002  0.142938208026799  0.0306187182295002  0.144678057970769 
 75.8577575029185  0.0306187020040271  0.130243699143949  0.0306187020040271  0.132065545689605 
 79.4328234724283  0.0306186885082598  0.118660618659910  0.0306186885082598  0.120568326188035 
 83.1763771102672  0.0306186772829650  0.108090914550179  0.0306186772829650  0.110088529564209 
 87.0963589956082  0.0306186679461683  0.0984451493496181  0.0306186679461683  0.100536909058825 
 91.2010839355910  0.0306186601801569  0.0896417417421397  0.0306186601801569  0.0918320830493125 
 95.4992586021437  0.0306186537206685  0.0816062748169431  0.0306186537206685  0.0838998437296588 
 100.000000000000  0.0306186483478990  0.0742708651332686  0.0306186483478990  0.0766725266186953 
 104.712854805090  0.0306186438790233  0.0675735872487808  0.0306186438790233  0.0700884355529254 
 109.647819614319  0.0306186401619739  0.0614579488352523  0.0306186401619739  0.0640913182885395 
 114.815362149688  0.0306186370702665  0.0558724119329382  0.0306186370702665  0.0586298882650405 
 120.226443461741  0.0306186344986961  0.0507699562854277  0.0306186344986961  0.0536573884733467 
 125.892541179417  0.0306186323597568  0.0461076810530287  0.0306186323597568  0.0491311937275597 
 131.825673855641  0.0306186305806644  0.0418464415278398  0.0306186305806645  0.0450124479647349 
 138.038426460289  0.0306186291008798  0.0379505177702918  0.0306186291008798  0.0412657334936775 
 144.543977074593  0.0306186278700485  0.0343873123575564  0.0306186278700485  0.0378587693844609 
 151.356124843621  0.0306186268462876  0.0311270746811094  0.0306186268462876  0.0347621364373130 
 158.489319246111  0.0306186259947604  0.0281426494559462  0.0306186259947604  0.0319490263947950 
 165.958690743756  0.0306186252864908  0.0254092473093904  0.0306186252864908  0.0293950132667016 
 173.780082874938  0.0306186246973779  0.0229042355048234  0.0306186246973779  0.0270778448245733 
 181.970085860999  0.0306186242073750  0.0206069470265907  0.0306186242073750  0.0249772524937122 
 190.546071796325  0.0306186237998084  0.0184985064082381  0.0306186237998084  0.0230747780265639 
 199.526231496888  0.0306186234608093  0.0165616708284193  0.0306186234608093  0.0213536154836034 
 208.929613085404  0.0306186231788421  0.0147806851285087  0.0306186231788421  0.0197984671776319 
 218.776162394955  0.0306186229443120  0.0131411495242229  0.0306186229443120  0.0183954123557571 
 229.086765276777  0.0306186227492383  0.0116298988914300  0.0306186227492383  0.0171317875012922 
 239.883291901949  0.0306186225869831  0.0102348926047023  0.0306186225869831  0.0159960772362851 
 251.188643150958  0.0306186224520252  0.00894511399688642  0.0306186224520251  0.0149778148952089 
 263.026799189538  0.0306186223397720  0.00775047858978573  0.0306186223397720  0.0140674919222715 
 275.422870333817  0.0306186222464039  0.00664175032066569  0.0306186222464039  0.0132564753195297 
 288.403150312661  0.0306186221687436  0.00561046505733856  0.0306186221687436  0.0125369324411550 
 301.995172040202  0.0306186221041487  0.00464886075663317  0.0306186221041487  0.0119017624913708 
 316.227766016838  0.0306186220504209  0.00374981367764082  0.0306186220504209  0.0113445341402925 
 331.131121482591  0.0306186220057321  0.00290678011272465  0.0306186220057321  0.0108594287236335 
 346.736850452532  0.0306186219685616  0.00211374314632838  0.0306186219685616  0.0104411885394284 
 363.078054770102  0.0306186219376445  0.00136516399452054  0.0306186219376445  0.0100850697979705 
 380.189396320562  0.0306186219119288  0.000655937517325486  0.0306186219119288  0.00978679982043268 
 398.107170553498  0.0306186218905394 -1.86484684438810e-05  0.0306186218905394  0.00954253811746144 
 416.869383470336  0.0306186218727485 -0.000662950415622294  0.0306186218727485  0.00934884101172048 
 436.515832240167  0.0306186218579506 -0.00128100312252422  0.0306186218579506  0.00920262949817766 
 457.088189614876  0.0306186218456423 -0.00187655094127743  0.0306186218456423  0.00910116006313718 
 478.630092322639  0.0306186218354047 -0.00245307637713033  0.0306186218354047  0.00904199820784472 
 501.187233627273  0.0306186218268894 -0.00301382631475364  0.0306186218268894  0.00902299444514808 
 524.807460249773  0.0306186218198067 -0.00356183608709392  0.0306186218198067  0.00904226255837089 
 549.540873857625  0.0306186218139156 -0.00409995158368855  0.0306186218139156  0.00909815993042732 
 575.439937337158  0.0306186218090156 -0.00463084957835938  0.0306186218090156  0.00918926976843065 
 602.559586074359  0.0306186218049399 -0.00515705644072082  0.0306186218049399  0.00931438506477357 
 630.957344480194  0.0306186218015499 -0.00568096538183565  0.0306186218015499  0.00947249415001620 
 660.693448007597  0.0306186217987302 -0.00620485237150669  0.0306186217987302  0.00966276770602941 
 691.830970918937  0.0306186217963849 -0.00673089085299645  0.0306186217963849  0.00988454711981723 
 724.435960074991  0.0306186217944342 -0.00726116537031838  0.0306186217944342  0.0101373340693838 
 758.577575029184  0.0306186217928117 -0.00779768421355160  0.0306186217928117  0.0104207812430081 
 794.328234724282  0.0306186217914621 -0.00834239117881296  0.0306186217914621  0.0107346841024299 
 831.763771102671  0.0306186217903395 -0.00889717653149956  0.0306186217903395  0.0110789736088060 
 870.963589956083  0.0306186217894059 -0.00946388725412300  0.0306186217894059  0.0114537098379419 
 912.010839355911  0.0306186217886293 -0.0100443366534295  0.0306186217886293  0.0118590764182982 
 954.992586021438  0.0306186217879833 -0.0106403133954818  0.0306186217879833  0.0122953757316755 
 1000.00000000000  0.0306186217874460 -0.0112535900319155  0.0306186217874460  0.0127630248223515 
 1047.12854805090  0.0306186217869991 -0.0118859310756271  0.0306186217869991  0.0132625519658191 
 1096.47819614319  0.0306186217866274 -0.0125391006796616  0.0306186217866274  0.0137945938532107 
 1148.15362149688  0.0306186217863183 -0.0132148699690003  0.0306186217863183  0.0143598933520221 
 1202.26443461741  0.0306186217860611 -0.0139150240712759  0.0306186217860611  0.0149592978079136 
 1258.92541179417  0.0306186217858472 -0.0146413688891186  0.0306186217858472  0.0155937578561913 
 1318.25673855641  0.0306186217856693 -0.0153957376538474  0.0306186217856693  0.0162643267151040 
 1380.38426460289  0.0306186217855213 -0.0161799972975217  0.0306186217855213  0.0169721599363363 
 1445.43977074593  0.0306186217853983 -0.0169960546779556  0.0306186217853982  0.0177185155910893 
 1513.56124843621  0.0306186217852959 -0.0178458626891228  0.0306186217852959  0.0185047548729131 
 1584.89319246112  0.0306186217852107 -0.0187314262874517  0.0306186217852107  0.0193323431010365 
 1659.58690743756  0.0306186217851399 -0.0196548084627853  0.0306186217851399  0.0202028511103266 
 1737.80082874938  0.0306186217850810 -0.0206181361812560  0.0306186217850810  0.0211179570162437 
 1819.70085860999  0.0306186217850320 -0.0216236063259849  0.0306186217850320  0.0220794483452300 
 1905.46071796325  0.0306186217849912 -0.0226734916603362  0.0306186217849912  0.0230892245229221 
 1995.26231496888  0.0306186217849573 -0.0237701468374429  0.0306186217849573  0.0241492997143979 
 2089.29613085404  0.0306186217849291 -0.0249160144788378  0.0306186217849291  0.0252618060123939 
 2187.76162394956  0.0306186217849057 -0.0261136313442906  0.0306186217849057  0.0264289969710515 
 2290.86765276778  0.0306186217848862 -0.0273656346143280  0.0306186217848862  0.0276532514842943 
 2398.83291901949  0.0306186217848699 -0.0286747683064186  0.0306186217848699  0.0289370780094096 
 2511.88643150958  0.0306186217848564 -0.0300438898454143  0.0306186217848564  0.0302831191378104 
 2630.26799189538  0.0306186217848452 -0.0314759768085504  0.0306186217848452  0.0316941565163072 
 2754.22870333817  0.0306186217848359 -0.0329741338651191  0.0306186217848359  0.0331731161235208 
 2884.03150312661  0.0306186217848281 -0.0345415999308312  0.0306186217848281  0.0347230739073331 
 3019.95172040202  0.0306186217848217 -0.0361817555568727  0.0306186217848217  0.0363472617905034 
 3162.27766016839  0.0306186217848163 -0.0378981305737322  0.0306186217848163  0.0380490740527844 
 3311.31121482592  0.0306186217848118 -0.0396944120100315  0.0306186217848118  0.0398320740990573 
 3467.36850452532  0.0306186217848081 -0.0415744523068202  0.0306186217848081  0.0417000016241800 
 3630.78054770102  0.0306186217848050 -0.0435422778480969  0.0306186217848050  0.0436567801864029 
 3801.89396320562  0.0306186217848024 -0.0456020978287026  0.0306186217848024  0.0457065252023693 
 3981.07170553498  0.0306186217848003 -0.0477583134811719  0.0306186217848003  0.0478535523778813 
 4168.69383470336  0.0306186217847985 -0.0500155276836502  0.0306186217847985  0.0501023865897775 
 4365.15832240166  0.0306186217847970 -0.0523785549715680  0.0306186217847970  0.0524577712354507 
 4570.88189614875  0.0306186217847958 -0.0548524319764159  0.0306186217847958  0.0549246780677302 
 4786.30092322639  0.0306186217847948 -0.0574424283156854  0.0306186217847948  0.0575083175340652 
 5011.87233627273  0.0306186217847939 -0.0601540579588291  0.0306186217847939  0.0602141496401882 
 5248.07460249774  0.0306186217847932 -0.0629930910949468  0.0306186217847932  0.0630478953597014 
 5495.40873857625  0.0306186217847926 -0.0659655665288299  0.0306186217847926  0.0660155486123290 
 5754.39937337158  0.0306186217847922 -0.0690778046329877  0.0306186217847922  0.0691233888349125 
 6025.59586074359  0.0306186217847917 -0.0723364208843425  0.0306186217847917  0.0723779941706013 
 6309.57344480194  0.0306186217847914 -0.0757483400154114  0.0306186217847914  0.0757862553031071 
 6606.93448007597  0.0306186217847911 -0.0793208108110026  0.0306186217847911  0.0793553899643583 
 6918.30970918937  0.0306186217847909 -0.0830614215827302  0.0306186217847909  0.0830929581454064 
 7244.35960074992  0.0306186217847907 -0.0869781163550125  0.0306186217847907  0.0870068780420093 
 7585.77575029185  0.0306186217847905 -0.0910792117976491  0.0306186217847905  0.0911054427679482 
 7943.28234724283  0.0306186217847904 -0.0953734149415945  0.0306186217847904  0.0953973378708341 
 8317.63771102672  0.0306186217847903 -0.0998698417161398  0.0306186217847903  0.0998916596869155 
 8709.63589956082  0.0306186217847902 -0.104578036347404  0.0306186217847902  0.104597934573245 
 9120.10839355911  0.0306186217847901 -0.109507991659813  0.0306186217847901  0.109526139057463 
 9549.92586021437  0.0306186217847901 -0.114670170324105  0.0306186217847900  0.114686720947468 
 10000.0000000000  0.0306186217847900 -0.120075527097382  0.0306186217847900  0.120090621445287 
 10471.2854805090  0.0306186217847899 -0.125735532102780  0.0306186217847899  0.125749298311682 
 10964.7819614319  0.0306186217847899 -0.131662195198493  0.0306186217847899  0.131674750130229 
 11481.5362149689  0.0306186217847899 -0.137868091488197  0.0306186217847899  0.137879541722028 
 12022.6443461742  0.0306186217847898 -0.144366388027264  0.0306186217847899  0.144376830764631 
 12589.2541179417  0.0306186217847898 -0.151170871781714  0.0306186217847898  0.151180395671385 
 13182.5673855641  0.0306186217847898 -0.158295978899450  0.0306186217847898  0.158304664790063 
 13803.8426460289  0.0306186217847898 -0.165756825356096  0.0306186217847898  0.165764746982484 
 14454.3977074593  0.0306186217847898 -0.173569239040659  0.0306186217847898  0.173576463649790 
 15135.6124843621  0.0306186217847898 -0.181749793349261  0.0306186217847898  0.181756382271098 
 15848.9319246111  0.0306186217847898 -0.190315842358373  0.0306186217847898  0.190321851526509 
 16595.8690743756  0.0306186217847898 -0.199285557652322  0.0306186217847898  0.199291038078797 
 17378.0082874938  0.0306186217847898 -0.208677966883324  0.0306186217847897  0.208682965091674 
 18197.0085860999  0.0306186217847897 -0.218512994145978  0.0306186217847897  0.218517552566171 
 19054.6071796325  0.0306186217847897 -0.228811502251979  0.0306186217847897  0.228815659580605 
 19952.6231496888  0.0306186217847897 -0.239595336994819  0.0306186217847897  0.239599128523588 
 20892.9613085404  0.0306186217847897 -0.250887373498490  0.0306186217847897  0.250890831413826 
 21877.6162394955  0.0306186217847897 -0.262711564748577  0.0306186217847897  0.262714718404844 
 22908.6765276778  0.0306186217847897 -0.275092992408761  0.0306186217847897  0.275095868577461 
 23988.3291901949  0.0306186217847897 -0.288057920030625  0.0306186217847897  0.288060543127655 
 25118.8643150959  0.0306186217847897 -0.301633848769662  0.0306186217847897  0.301636241062586 
 26302.6799189539  0.0306186217847897 -0.315849575725749  0.0306186217847897  0.315851757522827 
 27542.2870333817  0.0306186217847897 -0.330735255031908  0.0306186217847897  0.330737244854492 
 28840.3150312661  0.0306186217847897 -0.346322461820940  0.0306186217847897  0.346324276560704 
 30199.5172040202  0.0306186217847897 -0.362644259205713  0.0306186217847897  0.362645914268049 
 31622.7766016838  0.0306186217847897 -0.379735268415187  0.0306186217847897  0.379736777849978 
 33113.1121482591  0.0306186217847897 -0.397631742234999  0.0306186217847897  0.397633118855889 
 34673.6850452532  0.0306186217847897 -0.416371641908414  0.0306186217847897  0.416372897401588 
 36307.8054770102  0.0306186217847897 -0.435994717660807  0.0306186217847897  0.435995862684190 
 38018.9396320562  0.0306186217847897 -0.456542593018491  0.0306186217847897  0.456543637292228 
 39810.7170553498  0.0306186217847897 -0.478058853100783  0.0306186217847897  0.478059805489750 
 41686.9383470336  0.0306186217847897 -0.500589137072609  0.0306186217847897  0.500590005661670 
 43651.5832240167  0.0306186217847897 -0.524181234953775  0.0306186217847897  0.524182027116414 
 45708.8189614876  0.0306186217847897 -0.548885188990274  0.0306186217847897  0.548885911451187 
 47863.0092322639  0.0306186217847897 -0.574753399802661  0.0306186217847897  0.574754058694845 
 50118.7233627273  0.0306186217847897 -0.601840737536679  0.0306186217847897  0.601841338453493 
 52480.7460249773  0.0306186217847897 -0.630204658251917  0.0306186217847897  0.630205206294564 
 54954.0873857625  0.0306186217847897 -0.659905325795376  0.0306186217847897  0.659905825616212 
 57543.9937337158  0.0306186217847897 -0.691005739418492  0.0306186217847897  0.691006195260512 
 60255.9586074359  0.0306186217847897 -0.723571867408289  0.0306186217847897  0.723572283141151 
 63095.7344480195  0.0306186217847897 -0.757672787016155  0.0306186217847897  0.757673166169032 
 66069.3448007597  0.0306186217847897 -0.793380830981039  0.0306186217847897  0.793381176772572 
 69183.0970918938  0.0306186217847897 -0.830771740957871  0.0306186217847897  0.830772056323498 
 72443.5960074991  0.0306186217847897 -0.869924828176674  0.0306186217847897  0.869925115793544 
 75857.7575029185  0.0306186217847897 -0.910923141673134  0.0306186217847897  0.910923403982837 
 79432.8234724282  0.0306186217847897 -0.953853644447496  0.0306186217847897  0.953853883676788 
 83176.3771102672  0.0306186217847897 -0.998807397925422  0.0306186217847897  0.998807616105130 
 87096.3589956081  0.0306186217847897 -1.04587975511212  0.0306186217847897  1.04587995409437 
 91201.0839355912  0.0306186217847897 -1.09517056284939  0.0306186217847897  1.09517074432337 
 95499.2586021438  0.0306186217847897 -1.14678437360475  0.0306186217847897  1.14678453911098 
 100000.000000000  0.0306186217847897 -1.20083066724161  0.0306186217847897  1.20083081818509 
 104712.854805090  0.0306186217847897 -1.25742408324127  0.0306186217847897  1.25742422090336 
 109647.819614319  0.0306186217847897 -1.31668466386896  0.0306186217847897  1.31668478941827 
 114815.362149688  0.0306186217847897 -1.37873810879995  0.0306186217847897  1.37873822330229 
 120226.443461741  0.0306186217847897 -1.44371604174579  0.0306186217847897  1.44371614617316 
 125892.541179417  0.0306186217847897 -1.51175628964605  0.0306186217847897  1.51175638488495 
 131825.673855641  0.0306186217847897 -1.58300317501811  0.0306186217847897  1.58300326187702 
 138038.426460289  0.0306186217847897 -1.65760782208477  0.0306186217847897  1.65760790130104 
 144543.977074593  0.0306186217847897 -1.73572847732920  0.0306186217847897  1.73572854957529 
 151356.124843621  0.0306186217847897 -1.81753084515719  0.0306186217847897  1.81753091104641 
 158489.319246112  0.0306186217847897 -1.90318843937857  0.0306186217847897  1.90318849947025 
 165958.690743756  0.0306186217847897 -1.99288295125346  0.0306186217847897  1.99288300605773 
 173780.082874938  0.0306186217847897 -2.08680463488394  0.0306186217847897  2.08680468486603 
 181970.085860999  0.0306186217847897 -2.18515271076864  0.0306186217847897  2.18515275635285 
 190546.071796325  0.0306186217847897 -2.28813578837627  0.0306186217847897  2.28813582994956 
 199526.231496888  0.0306186217847897 -2.39597230863439  0.0306186217847897  2.39597234654968 
 208929.613085404  0.0306186217847897 -2.50889100727201  0.0306186217847897  2.50889104185116 
 218776.162394956  0.0306186217847897 -2.62713139999883  0.0306186217847897  2.62713143153539 
 229086.765276778  0.0306186217847897 -2.75094429055027  0.0306186217847897  2.75094431931196 
 239883.291901950  0.0306186217847897 -2.88059230267592  0.0306186217847897  2.88059232890689 
 251188.643150958  0.0306186217847897 -3.01635043719977  0.0306186217847897  3.01635046112270 
 263026.799189539  0.0306186217847897 -3.15850665533390  0.0306186217847897  3.15850667715187 
 275422.870333817  0.0306186217847897 -3.30736248948288  0.0306186217847897  3.30736250938111 
 288403.150312661  0.0306186217847897 -3.46323368283452  0.0306186217847897  3.46323370098192 
 301995.172040202  0.0306186217847897 -3.62645085909350  0.0306186217847897  3.62645087564412 
 316227.766016839  0.0306186217847897 -3.79736022377866  0.0306186217847897  3.79736023887301 
 331131.121482592  0.0306186217847897 -3.97632429857134  0.0306186217847897  3.97632431233755 
 346736.850452532  0.0306186217847897 -4.16372269027255  0.0306186217847897  4.16372270282748 
 363078.054770102  0.0306186217847897 -4.35995289599987  0.0306186217847897  4.35995290745011 
 380189.396320562  0.0306186217847897 -4.56543114633223  0.0306186217847897  4.56543115677496 
 398107.170553498  0.0306186217847897 -4.78059328819072  0.0306186217847897  4.78059329771461 
 416869.383470336  0.0306186217847897 -5.00589570932844  0.0306186217847897  5.00589571801433 
 436515.832240166  0.0306186217847897 -5.24181630639013  0.0306186217847897  5.24181631431175 
 457088.189614875  0.0306186217847897 -5.48885549859500  0.0306186217847897  5.48885550581961 
 478630.092322640  0.0306186217847897 -5.74753728919307  0.0306186217847897  5.74753729578199 
 501187.233627273  0.0306186217847897 -6.01841037694628  0.0306186217847897  6.01841038295545 
 524807.460249774  0.0306186217847897 -6.30204931999220  0.0306186217847897  6.30204932547263 
 549540.873857626  0.0306186217847897 -6.59905575455884  0.0306186217847897  6.59905575955705 
 575439.937337158  0.0306186217847897 -6.91005967111581  0.0306186217847897  6.91005967567423 
 602559.586074359  0.0306186217847897 -7.23572075066853  0.0306186217847897  7.23572075482586 
 630957.344480194  0.0306186217847897 -7.57672976403017  0.0306186217847897  7.57672976782169 
 660693.448007597  0.0306186217847897 -7.93381003703909  0.0306186217847897  7.93381004049701 
 691830.970918937  0.0306186217847897 -8.30771898483001  0.0306186217847897  8.30771898798366 
 724435.960074992  0.0306186217847897 -8.69924971841301  0.0306186217847897  8.69924972128918 
 758577.575029186  0.0306186217847897 -9.10923272696832  0.0306186217847897  9.10923272959142 
 794328.234724283  0.0306186217847897 -9.53853763942528  0.0306186217847897  9.53853764181758 
 831763.771102673  0.0306186217847897 -9.98807506906187  0.0306186217847897  9.98807507124367 
 870963.589956082  0.0306186217847897 -10.4587985450375  0.0306186217847897  10.4587985470274 
 912010.839355911  0.0306186217847897 -10.9517065349565  0.0306186217847897  10.9517065367712 
 954992.586021437  0.0306186217847897 -11.4678445627511  0.0306186217847897  11.4678445644062 
 1000000.00000000  0.0306186217847897 -12.0083074263788  0.0306186217847897  12.0083074278882 
 1047128.54805090  0.0306186217847897 -12.5742415200348  0.0306186217847897  12.5742415214114 
 1096478.19614319  0.0306186217847897 -13.1668472658084  0.0306186217847897  13.1668472670639 
 1148153.62149688  0.0306186217847897 -13.7873816599387  0.0306186217847897  13.7873816610837 
 1202264.43461741  0.0306186217847897 -14.4371609390726  0.0306186217847897  14.4371609401168 
 1258925.41179417  0.0306186217847897 -15.1175633721788  0.0306186217847897  15.1175633731312 
 1318256.73855641  0.0306186217847897 -15.8300321840414  0.0306186217847897  15.8300321849100 
 1380384.26460289  0.0306186217847897 -16.5760786165330  0.0306186217847897  16.5760786173251 
 1445439.77074593  0.0306186217847897 -17.3572851341613  0.0306186217847897  17.3572851348837 
 1513561.24843621  0.0306186217847897 -18.1753087806885  0.0306186217847897  18.1753087813474 
 1584893.19246112  0.0306186217847897 -19.0318846939437  0.0306186217847897  19.0318846945446 
 1659586.90743757  0.0306186217847897 -19.9288297862820  0.0306186217847897  19.9288297868300 
 1737800.82874938  0.0306186217847897 -20.8680465985000  0.0306186217847897  20.8680465989998 
 1819700.85860999  0.0306186217847897 -21.8515273353795  0.0306186217847897  21.8515273358354 
 1905460.71796325  0.0306186217847897 -22.8813580914213  0.0306186217847897  22.8813580918371 
 1995262.31496888  0.0306186217847897 -23.9597232757308  0.0306186217847897  23.9597232761099 
 2089296.13085404  0.0306186217847897 -25.0889102454429  0.0306186217847897  25.0889102457887 
 2187761.62394956  0.0306186217847897 -26.2713141575134  0.0306186217847897  26.2713141578287 
 2290867.65276778  0.0306186217847897 -27.5094430491673  0.0306186217847897  27.5094430494549 
 2398832.91901949  0.0306186217847897 -28.8059231577829  0.0306186217847897  28.8059231580452 
 2511886.43150958  0.0306186217847897 -30.1635044914927  0.0306186217847897  30.1635044917319 
 2630267.99189538  0.0306186217847897 -31.5850666623197  0.0306186217847897  31.5850666625379 
 2754228.70333817  0.0306186217847897 -33.0736249942204  0.0306186217847897  33.0736249944194 
 2884031.50312661  0.0306186217847897 -34.6323369189914  0.0306186217847897  34.6323369191729 
 3019951.72040202  0.0306186217847897 -36.2645086736053  0.0306186217847897  36.2645086737708 
 3162277.66016839  0.0306186217847897 -37.9736023131829  0.0306186217847897  37.9736023133338 
 3311311.21482592  0.0306186217847897 -39.7632430544757  0.0306186217847897  39.7632430546133 
 3467368.50452533  0.0306186217847897 -41.6372269654374  0.0306186217847897  41.6372269655629 
 3630780.54770102  0.0306186217847897 -43.5995290171927  0.0306186217847897  43.5995290173072 
 3801893.96320562  0.0306186217847897 -45.6543115154838  0.0306186217847897  45.6543115155882 
 3981071.70553498  0.0306186217847897 -47.8059329294790  0.0306186217847897  47.8059329295743 
 4168693.83470336  0.0306186217847897 -50.0589571366705  0.0306186217847897  50.0589571367573 
 4365158.32240167  0.0306186217847897 -52.4181631034699  0.0306186217847897  52.4181631035491 
 4570881.89614876  0.0306186217847897 -54.8885550220370  0.0306186217847897  54.8885550221092 
 4786300.92322639  0.0306186217847897 -57.4753729248424  0.0306186217847897  57.4753729249082 
 5011872.33627273  0.0306186217847897 -60.1841037994786  0.0306186217847897  60.1841037995387 
 5248074.60249773  0.0306186217847897 -63.0204932272967  0.0306186217847897  63.0204932273515 
 5495408.73857625  0.0306186217847897 -65.9905575705544  0.0306186217847897  65.9905575706044 
 5754399.37337158  0.0306186217847897 -69.1005967339273  0.0306186217847897  69.1005967339729 
 6025595.86074358  0.0306186217847897 -72.3572075274511  0.0306186217847897  72.3572075274927 
 6309573.44480194  0.0306186217847897 -75.7672976592403  0.0306186217847897  75.7672976592782 
 6606934.48007596  0.0306186217847897 -79.3381003876631  0.0306186217847897  79.3381003876977 
 6918309.70918937  0.0306186217847897 -83.0771898640525  0.0306186217847897  83.0771898640841 
 7244359.60074990  0.0306186217847897 -86.9924971984964  0.0306186217847897  86.9924971985251 
 7585775.75029186  0.0306186217847897 -91.0923272827857  0.0306186217847897  91.0923272828119 
 7943282.34724284  0.0306186217847897 -95.3853764062025  0.0306186217847897  95.3853764062264 
 8317637.71102674  0.0306186217847897 -99.8807507015169  0.0306186217847897  99.8807507015387 
 8709635.89956083  0.0306186217847897 -104.587985460315  0.0306186217847897  104.587985460335 
 9120108.39355911  0.0306186217847897 -109.517065358629  0.0306186217847897  109.517065358647 
 9549925.86021437  0.0306186217847897 -114.678445635778  0.0306186217847897  114.678445635794 
 10000000.0000000  0.0306186217847897 -120.083074271327  0.0306186217847897  120.083074271342 
