% Finesse 2.3.1  (2.3.1.7-g955fbf2c), 27.02.2020
% 2D plot, y1axis: Abs , y2axis: Phase [Deg] 
% f [Hz] (AmpMod), ao_p Abs , ao_p Phase [Deg] , ao_m Abs , ao_m Phase [Deg] 

 0.100000000000000  69.2574335774146 -14.4067984867288  69.1735577266439 -165.575354238860 
 0.104712854805090  63.1672203661822 -14.4059386998080  63.0833445156173 -165.574492151519 
 0.109647819614319  57.6128799184602 -14.4049960748667  57.5290040681426 -165.573546778422 
 0.114815362149688  52.5472612410107 -14.4039626430388  52.4633853909905 -165.572510060972 
 0.120226443461741  47.9273621170521 -14.4028296713398  47.8434862673895 -165.571373158338 
 0.125892541179417  43.7139640589144 -14.4015875898965  43.6300882096817 -165.570126371031 
 0.131825673855641  39.8712993809048 -14.4002259123464  39.7874235321889 -165.568759056898 
 0.138038426460289  36.3667475661538 -14.3987331487871  36.2828717180594 -165.567259538779 
 0.144543977074593  33.1705583498899 -14.3970967106032  33.0866825025426 -165.565615002972 
 0.151356124843621  30.2555991683848 -14.3953028064425  30.1717233219357 -165.563811387560 
 0.158489319246111  27.5971248296570 -14.3933363285537  27.5132489842876 -165.561833259553 
 0.165958690743756  25.1725674506577 -14.3911807286347  25.0886916065866 -165.559663679677 
 0.173780082874938  22.9613448777106 -14.3888178822765  22.8774690352004 -165.557284053527 
 0.181970085860998  20.9446859638778 -14.3862279410156  20.8608101232442 -165.554673967638 
 0.190546071796325  19.1054712200264 -14.3833891709369  19.0215953816489 -165.551811008871 
 0.199526231496888  17.4280874868768 -14.3802777766940  17.3442116512118 -165.548670565332 
 0.208929613085404  15.8982953943383 -14.3768677097367  15.8144195619345 -165.545225606828 
 0.218776162394955  14.5031084829900 -14.3731304594574  14.4192326545070 -165.541446442618 
 0.229086765276777  13.2306829615641 -14.3690348258909  13.1468071377948 -165.537300453964 
 0.239883291901949  12.0702171645796 -14.3645466725247  11.9863413464776 -165.532751798672 
 0.251188643150958  11.0118598566191 -14.3596286577045  10.9279840453307 -165.527761084460 
 0.263026799189538  10.0466266048389 -14.3542399430510  9.96275080174225 -165.522285007594 
 0.275422870333817  9.16632350979661 -14.3483358772465  9.08244771654874 -165.516275952780 
 0.288403150312661  8.36347764714500 -14.3418676535005  8.27960186573801 -165.509681549747 
 0.301995172040202  7.63127362970731 -14.3347819389747  7.54739786253632 -165.502444181384 
 0.316227766016838  6.96349575140890 -14.3270204744370  6.87962000135352 -165.494500437552 
 0.331131121482591  6.35447522192178 -14.3185196424346  6.27059949244416 -165.485780507885 
 0.346736850452532  5.79904204409519 -14.3092100023303  5.71516633935786 -165.476207505963 
 0.363078054770101  5.29248112565784 -14.2990157906451  5.20860545066544 -165.465696716069 
 0.380189396320561  4.83049225262212 -14.2878543853099  4.74661661339179 -165.454154752506 
 0.398107170553497  4.40915358460284 -14.2756357326499  4.32527798836914 -165.441478619846 
 0.416869383470336  4.02488836216055 -14.2622617362394  3.94101281762185 -165.427554660726 
 0.436515832240166  3.67443454354649 -14.2476256071731  3.59055906116128 -165.412257375611 
 0.457088189614875  3.35481711309386 -14.2316111758383  3.27094170543708 -165.395448096434 
 0.478630092322639  3.06332282617973 -14.2140921659507  2.97944750837136 -165.376973492939 
 0.501187233627272  2.79747717636599 -14.1949314324740  2.71360196658650 -165.356663886954 
 0.524807460249773  2.55502338919170 -14.1739801660984  2.47114830930209 -165.334331345388 
 0.549540873857625  2.33390326429338 -14.1510770682495  2.25002834058105 -165.309767517512 
 0.575439937337157  2.13223970322011 -14.1260475021678  2.04836496729633 -165.282741175636 
 0.602559586074358  1.94832077462018 -14.0987026274792  1.86444626449991 -165.252995410536 
 0.630957344480193  1.78058518152636 -14.0688385279106  1.69671094292792 -165.220244423421 
 0.660693448007596  1.62760900736934 -14.0362353444391  1.54373509527884 -165.184169844580 
 0.691830970918937  1.48809362820346 -14.0006564292282  1.40422010875861 -165.144416494373 
 0.724435960074990  1.36085468852902 -13.9618475392481  1.27698164128798 -165.100587484394 
 0.758577575029184  1.24481204712342 -13.9195360925241  1.16093956779856 -165.052238534307 
 0.794328234724282  1.13898060752804 -13.8734305145224  1.05510881128123 -164.998871351977 
 0.831763771102671  1.04246195534675 -13.8232197072796  0.958590980763616 -164.939925889327 
 0.870963589956081  0.954436731360904 -13.7685726794661  0.870566745247041 -164.874771241807 
 0.912010839355910  0.874157675711435 -13.7091383816037  0.790288878884833 -164.802694902533 
 0.954992586021436  0.800943284094974 -13.6445457970226  0.717075918388002 -164.722890009228 
 1.00000000000000  0.734172022115994 -13.5744043456732  0.650306378848650 -164.634440127858 
 1.04712854805090  0.673277048674720 -13.4983046643842  0.589413478921586 -164.536300994185 
 1.09647819614319  0.617741403591580 -13.4158198332469  0.533880330641459 -164.427278473478 
 1.14815362149688  0.567093618609723 -13.3265071230958  0.483235553114206 -164.306001785814 
 1.20226443461741  0.520903714511246 -13.2299103430028  0.437049272943084 -164.170890760336 
 1.25892541179417  0.478779550360816 -13.1255628686599  0.394929477564237 -164.020115499437 
 1.31825673855641  0.440363493880181 -13.0129914317094  0.356518690706099 -163.851546313761 
 1.38038426460289  0.405329384684224 -12.8917207455914  0.321490941981977 -163.662691074207 
 1.44543977074593  0.373379764596802 -12.7612790343464  0.289549005207042 -163.450616133882 
 1.51356124843621  0.344243351533973 -12.6212045159861  0.260421882433098 -163.211845575923 
 1.58489319246111  0.317672735512633 -12.4710528705418  0.233862512954574 -162.942231552724 
 1.65958690743756  0.293442277231691 -12.3104056938122  0.209645688703373 -162.636785606972 
 1.73780082874938  0.271346191396808 -12.1388799005434  0.187566159579544 -162.289456649595 
 1.81970085860998  0.251196798533019 -11.9561379950387  0.167436914445748 -161.892834990140 
 1.90546071796325  0.232822930465547 -11.7618990733811  0.149087625877124 -161.437752298199 
 1.99526231496888  0.216068475959844 -11.5559503606877  0.132363249512909 -160.912732681466 
 2.08929613085404  0.200791054208197 -11.3381590211784  0.117122772348568 -160.303226924844 
 2.18776162394955  0.186860804942058 -11.1084839114953  0.103238109135259 -159.590524698956 
 2.29086765276777  0.174159284945228 -10.8669868829283  0.0905931532851476 -158.750178243000 
 2.39883291901949  0.162578461651240 -10.6138431813283  0.0790830002880227 -157.749667627492 
 2.51188643150958  0.152019795335751 -10.3493504506606  0.0686133813899187 -156.544858870411 
 2.63026799189538  0.142393402167847 -10.0739358238920  0.0591003805954999 -155.074489083004 
 2.75422870333817  0.133617291068737 -9.78816058953440  0.0504705740849219 -153.251337818500 
 2.88403150312661  0.125616667947689 -9.49272195895789  0.0426618597187540 -150.947685878329 
 3.01995172040202  0.118323301448136 -9.18845153198026  0.0356255035768179 -147.970729682848 
 3.16227766016838  0.111674944846540 -8.87631016693146  0.0293304643300012 -144.020321592933 
 3.31131121482591  0.105614809207410 -8.55737910370094  0.0237721351617434 -138.617328084647 
 3.46736850452532  0.100091083314443 -8.23284735775816  0.0189895111183140 -130.995178823026 
 3.63078054770101  0.0950564962746951 -7.90399558968990  0.0150957025869447 -120.013394771509 
 3.80189396320561  0.0904679190345131 -7.57217684529128  0.0123119085962212 -104.470251861709 
 3.98107170553497  0.0862860013570657 -7.23879474066859  0.0109186753197047 -84.7226209934403 
 4.16869383470336  0.0824748410959621 -6.90527981985546  0.0109843717092657 -64.5170133470644 
 4.36515832240166  0.0790016828613567 -6.57306492529607  0.0121539073438597 -48.0785558849067 
 4.57088189614875  0.0758366434174967 -6.24356048363296  0.0139217191982517 -36.3291204961791 
 4.78630092322639  0.0729524613765286 -5.91813061459823  0.0159269833414715 -28.1817793776836 
 5.01187233627272  0.0703242689645621 -5.59807091893267  0.0179742486111384 -22.4363619144477 
 5.24807460249773  0.0679293838338360 -5.28458869712666  0.0199673648873281 -18.2600684432451 
 5.49540873857625  0.0657471190800904 -4.97878620420737  0.0218612563847125 -15.1296801811983 
 5.75439937337157  0.0637586097971719 -4.68164737012334  0.0236366071138708 -12.7184088016384 
 6.02559586074358  0.0619466546614553 -4.39402822567040  0.0252873159441018 -10.8174612614508 
 6.30957344480194  0.0602955711866615 -4.11665108555484  0.0268141801389953 -9.28932253458925 
 6.60693448007596  0.0587910634249330 -3.85010236668238  0.0282216011929168 -8.04059688990402 
 6.91830970918937  0.0574201010125862 -3.59483377182332  0.0295158038297888 -7.00601115767507 
 7.24435960074990  0.0561708085690267 -3.35116645357519  0.0307038438025202 -6.13875226523092 
 7.58577575029184  0.0550323645553560 -3.11929769439267  0.0317930436215344 -5.40446323609315 
 7.94328234724282  0.0539949087859835 -2.89930959525703  0.0327906689164791 -4.77740649480860 
 8.31763771102671  0.0530494578629923 -2.69117925533433  0.0337037443041166 -4.23794656887436 
 8.70963589956081  0.0521878278701973 -2.49478994270594  0.0345389521468262 -3.77085776376839 
 9.12010839355910  0.0514025637228882 -2.30994279577117  0.0353025814654374 -3.36416085702146 
 9.54992586021437  0.0506868746213226 -2.13636864967924  0.0360005075357169 -3.00830707641514 
 10.0000000000000  0.0500345751021698 -1.97373964589364  0.0366381903044929 -2.69559503488822 
 10.4712854805090  0.0494400312232790 -1.82168035022022  0.0372206842492431 -2.41974705913654 
 10.9647819614319  0.0488981114541775 -1.67977817085475  0.0377526550209459 -2.17559657841848 
 11.4815362149688  0.0484041418782985 -1.54759292985963  0.0382383998911002 -1.95885419742429 
 12.0226443461741  0.0479538653436431 -1.42466549669252  0.0386818700851046 -1.76593037598240 
 12.5892541179417  0.0475434042268469 -1.31052543968600  0.0390866937656784 -1.59379941133998 
 13.1825673855641  0.0471692265017787 -1.20469769023106  0.0394561988739465 -1.43989395124650 
 13.8038426460289  0.0468281148280967 -1.10670824498172  0.0397934353283690 -1.30202234871540 
 14.4543977074593  0.0465171383978122 -1.01608895424768  0.0401011962761893 -1.17830329767680 
 15.1356124843621  0.0462336272990016 -0.932381460725977  0.0403820382220802 -1.06711367888998 
 15.8489319246111  0.0459751491754614 -0.855140362833586  0.0406382999457337 -0.967046602498400 
 16.5958690743756  0.0457394879794034 -0.783935682173364  0.0408721201782816 -0.876877392552425 
 17.3780082874938  0.0455246246313017 -0.718354716091206  0.0410854540459221 -0.795535809971814 
 18.1970085860998  0.0453287194167919 -0.658003354777328  0.0412800883141617 -0.722083214942745 
 19.0546071796325  0.0451500959651411 -0.602506938730342  0.0414576554818597 -0.655693669620311 
 19.9526231496888  0.0449872266673133 -0.551510727318950  0.0416196467836561 -0.595638206396862 
 20.8929613085404  0.0448387194041016 -0.504680043199202  0.0417674241643594 -0.541271656383164 
 21.8776162394955  0.0447033054662507 -0.461700150916238  0.0419022312908420 -0.492021561677804 
 22.9086765276777  0.0445798285590038 -0.422275921476348  0.0420252036669105 -0.447378793902650 
 23.9883291901949  0.0444672347931374 -0.386131328266623  0.0421373779151566 -0.406889577912046 
 25.1188643150958  0.0443645635733612 -0.353008813600139  0.0422397002874447 -0.370148679060014 
 26.3026799189538  0.0442709393030053 -0.322668559488282  0.0423330344627735 -0.336793558999643 
 27.5422870333817  0.0441855638312615 -0.294887691055555  0.0424181686880235 -0.306499341713732 
 28.8403150312661  0.0441077095759362 -0.269459436346210  0.0424958223137164 -0.278974460596911 
 30.1995172040202  0.0440367132607664 -0.246192262129953  0.0425666517734965 -0.253956880632550 
 31.6227766016838  0.0439719702118922 -0.224909001680557  0.0426312560526768 -0.231210808327747 
 33.1131121482591  0.0439129291631241 -0.205445987347976  0.0426901816879228 -0.210523817076121 
 34.6736850452532  0.0438590875242213 -0.187652198035636  0.0427439273370130 -0.191704327772491 
 36.3078054770102  0.0438099870705661 -0.171388429389320  0.0427929479546443 -0.174579394394632 
 38.0189396320561  0.0437652100163949 -0.156526492560721  0.0428376586074405 -0.158992752353550 
 39.8107170553497  0.0437243754371897 -0.142948445785650  0.0428784379586964 -0.144803094053581 
 41.6869383470336  0.0436871360099465 -0.130545861674411  0.0429156314509294 -0.131882541579218 
 43.6515832240166  0.0436531750428757 -0.119219132012727  0.0429495542120278 -0.120115290959610 
 45.7088189614875  0.0436222037686601 -0.108876810981791  0.0429804937086642 -0.109396406231179 
 47.8630092322639  0.0435939588777348 -0.0994349969948095  0.0430087121686792 -0.0996307446649622 
 50.1187233627273  0.0435682002701770 -0.0908167527872152  0.0430344487923292 -0.0907319971610311 
 52.4807460249773  0.0435447090067201 -0.0829515629645881  0.0430579217706211 -0.0826218300288078 
 54.9540873857625  0.0435232854411632 -0.0757748278849458  0.0430793301274153 -0.0752291162425996 
 57.5439937337157  0.0435037475180359 -0.0692273925122661  0.0430988554005660 -0.0684892458458521 
 60.2559586074358  0.0434859292208297 -0.0632551087101312  0.0431166631760637 -0.0623435065239037 
 63.0957344480194  0.0434696791574203 -0.0578084293348401  0.0431329044879552 -0.0567385265130111 
 66.0693448007596  0.0434548592705044 -0.0528420324248473  0.0431477170957157 -0.0516257729955109 
 69.1830970918937  0.0434413436619620 -0.0483144737583839  0.0431612266497480 -0.0469610999738919 
 72.4435960074990  0.0434290175210449 -0.0441878660555762  0.0431735477547622 -0.0427043403422344 
 75.8577575029185  0.0434177761471926 -0.0404275831286360  0.0431847849399461 -0.0388189375001702 
 79.4328234724283  0.0434075240590986 -0.0370019873282210  0.0431950335440668 -0.0352716123973115 
 83.1763771102672  0.0433981741823914 -0.0338821786913439  0.0432043805229375 -0.0320320623675910 
 87.0963589956082  0.0433896471089787 -0.0310417642625381  0.0432129051860392 -0.0290726885236648 
 91.2010839355910  0.0433818704217162 -0.0284566461323637  0.0432206798684954 -0.0263683488402303 
 95.4992586021437  0.0433747780786291 -0.0261048268133888  0.0432277705440593 -0.0238961343692409 
 100.000000000000  0.0433683098514232 -0.0239662306515700  0.0432342373842813 -0.0216351663057549 
 104.712854805090  0.0433624108134920 -0.0220225400490108  0.0432401352685706 -0.0195664118658261 
 109.647819614319  0.0433570308730489 -0.0202570453512218  0.0432455142494568 -0.0176725171518857 
 114.815362149688  0.0433521243474016 -0.0186545073273816  0.0432504199769799 -0.0159376553702675 
 120.226443461741  0.0433476495747383 -0.0172010312450335  0.0432548940857928 -0.0143473889331312 
 125.892541179417  0.0433435685601160 -0.0158839516106963  0.0432589745482486 -0.0128885441258003 
 131.825673855641  0.0433398466526348 -0.0146917267147000  0.0432626959964579 -0.0115490971528187 
 138.038426460289  0.0433364522510470 -0.0136138421819742  0.0432660900160400 -0.0103180704938819 
 144.543977074593  0.0433333565352959 -0.0126407227904219  0.0432691854140528 -0.00918543860596122 
 151.356124843621  0.0433305332216957 -0.0117636518748780  0.0432720084633697 -0.00814204210193440 
 158.489319246111  0.0433279583396719 -0.0109746976874958  0.0432745831255724 -0.00717950962016928 
 165.958690743756  0.0433256100281597 -0.0102666461348160  0.0432769312542453 -0.00629018667492118 
 173.780082874938  0.0433234683499302 -0.00963293935783997  0.0432790727803957 -0.00546707084509250 
 181.970085860999  0.0433215151222630 -0.00906761966428815  0.0432810258815691 -0.00470375271972458 
 190.546071796325  0.0433197337625271 -0.00856527836202029  0.0432828071360920 -0.00399436207331364 
 199.526231496888  0.0433181091473552 -0.00812100907947273  0.0432844316637516 -0.00333351879332096 
 208.929613085404  0.0433166274842159 -0.00773036519309873  0.0432859132541013 -0.00271628812667173 
 218.776162394955  0.0433152761942900 -0.00738932101333456  0.0432872644834835 -0.00213813985211868 
 229.086765276777  0.0433140438056573 -0.00709423640972116  0.0432884968217580 -0.00159491102154208 
 239.883291901949  0.0433129198558848 -0.00684182458264615  0.0432896207296445 -0.00108277194596753 
 251.188643150958  0.0433118948031886 -0.00662912271388543  0.0432906457475014 -0.000598195131664286 
 263.026799189538  0.0433109599454157 -0.00645346525086714  0.0432915805762964 -0.000137926898455215 
 275.422870333817  0.0433101073461554 -0.00631245960049274  0.0432924331514537  0.000301038563392391 
 288.403150312661  0.0433093297673548 -0.00620396402756606  0.0432932107102064  0.000721482919368517 
 301.995172040202  0.0433086206078643 -0.00612606757052676  0.0432939198530218  0.00112598540178645 
 316.227766016838  0.0433079738473907 -0.00607707180338099  0.0432945665996256  0.00151694268943896 
 331.131121482591  0.0433073839953847 -0.00605547428757961  0.0432951564400953  0.00189658712320198 
 346.736850452532  0.0433068460444242 -0.00605995357121960  0.0432956943814602  0.00226700341008967 
 363.078054770102  0.0433063554277021 -0.00608935560543409  0.0432961849902011  0.00263014395478403 
 380.189396320562  0.0433059079802536 -0.00614268145928283  0.0432966324310111  0.00298784294542258 
 398.107170553498  0.0433054999035969 -0.00621907622494221  0.0432970405021462  0.00334182930931470 
 416.869383470336  0.0433051277334841 -0.00631781901460017  0.0432974126676662  0.00369373864416400 
 436.515832240167  0.0433047883104914 -0.00643831395926077  0.0432977520868388  0.00404512422120686 
 457.088189614876  0.0433044787531962 -0.00658008212772113  0.0432980616409567  0.00439746714835115 
 478.630092322639  0.0433041964337150 -0.00674275429136351  0.0432983439577950  0.00475218577383573 
 501.187233627273  0.0433039389553941 -0.00692606446716383  0.0432986014339178  0.00511064440406196 
 524.807460249773  0.0433037041324626 -0.00712984417750808  0.0432988362550209  0.00547416140300975 
 549.540873857625  0.0433034899714771 -0.00735401737107852  0.0432990504144855  0.00584401673498613 
 575.439937337158  0.0433032946543980 -0.00759859595426630  0.0432992457302997  0.00622145900731117 
 602.559586074359  0.0433031165231555 -0.00786367588732805  0.0432994238604901  0.00660771206487915 
 630.957344480194  0.0433029540655737 -0.00814943380386870  0.0432995863171967  0.00700398118429907 
 660.693448007597  0.0433028059025333 -0.00845612411623483  0.0432997344795092  0.00741145891147863 
 691.830970918937  0.0433026707762637 -0.00878407657307596  0.0432998696051735  0.00783133058303751 
 724.435960074991  0.0433025475396654 -0.00913369423870288  0.0432999928412682  0.00826477956878451 
 758.577575029184  0.0433024351465721 -0.00950545186696978  0.0433001052339426  0.00871299226964232 
 794.328234724282  0.0433023326428696 -0.00989989464525550  0.0433002077372967  0.00917716290282731 
 831.763771102671  0.0433022391583958 -0.0103176372867406  0.0433003012214807  0.00965849810376483 
 870.963589956083  0.0433021538995540 -0.0107593634515921  0.0433003864800815  0.0101582213721235 
 912.010839355911  0.0433020761425759 -0.0112258254798950  0.0433004642368592  0.0106775773874642 
 954.992586021438  0.0433020052273770 -0.0117178444212289  0.0433005351518913  0.0112178362183044 
 1000.00000000000  0.0433019405519536 -0.0122363103476906  0.0433005998271760  0.0117802974468782 
 1047.12854805090  0.0433018815672720 -0.0127821829389279  0.0433006588117422  0.0123662942305172 
 1096.47819614319  0.0433018277726076 -0.0133564923293891  0.0433007126063106  0.0129771973193653 
 1148.15362149688  0.0433017787112945 -0.0139603402095180  0.0433007616675440  0.0136144190490721 
 1202.26443461741  0.0433017339668483 -0.0145949011740438  0.0433008064119237  0.0142794173261617 
 1258.92541179417  0.0433016931594311 -0.0152614243118491  0.0433008472192857  0.0149736996229444 
 1318.25673855641  0.0433016559426265 -0.0159612350331465  0.0433008844360445  0.0156988269981191 
 1380.38426460289  0.0433016220004991 -0.0166957371308658  0.0433009183781337  0.0164564181585899 
 1445.43977074593  0.0433015910449125 -0.0174664150742691  0.0433009493336884  0.0172481535774924 
 1513.56124843621  0.0433015628130833 -0.0182748365338554  0.0433009775654912  0.0180757796829828 
 1584.89319246112  0.0433015370653501 -0.0191226551376220  0.0433010033132024  0.0189411131319795 
 1659.58690743756  0.0433015135831392 -0.0200116134597029  0.0433010267953950  0.0198460451827595 
 1737.80082874938  0.0433014921671091 -0.0209435462433221  0.0433010482114099  0.0207925461800971 
 1819.70085860999  0.0433014726354581 -0.0219203838608834  0.0433010677430483  0.0217826701664793 
 1905.46071796325  0.0433014548223812 -0.0229441560148746  0.0433010855561146  0.0228185596328508 
 1995.26231496888  0.0433014385766624 -0.0240169956840966  0.0433011018018247  0.0239024504223073 
 2089.29613085404  0.0433014237603911 -0.0251411433205409  0.0433011166180887  0.0250366768001925 
 2187.76162394956  0.0433014102477914 -0.0263189513030412  0.0433011301306824  0.0262236767041339 
 2290.86765276778  0.0433013979241542 -0.0275528886546094  0.0433011424543145  0.0274659971876907 
 2398.83291901949  0.0433013866848638 -0.0288455460311529  0.0433011536936008  0.0287663000714757 
 2511.88643150958  0.0433013764345092 -0.0301996409900469  0.0433011639439519  0.0301273678158462 
 2630.26799189538  0.0433013670860748 -0.0316180235478126  0.0433011732923833  0.0315521096295470 
 2754.22870333817  0.0433013585602015 -0.0331036820369395  0.0433011818182543  0.0330435678290169 
 2884.03150312661  0.0433013507845127 -0.0346597492726727  0.0433011895939410  0.0346049244634480 
 3019.95172040202  0.0433013436930003 -0.0362895090413892  0.0433011966854518  0.0362395082211107 
 3162.27766016839  0.0433013372254642 -0.0379964029229951  0.0433012031529865  0.0379508016329245 
 3311.31121482592  0.0433013313270013 -0.0397840374606009  0.0433012090514483  0.0397424485897679 
 3467.36850452532  0.0433013259475392 -0.0416561916915777  0.0433012144309095  0.0416182621905814 
 3630.78054770102  0.0433013210414114 -0.0436168250549577  0.0433012193370364  0.0435822329389177 
 3801.89396320562  0.0433013165669698 -0.0456700856910334  0.0433012238114773  0.0456385373062487 
 3981.07170553498  0.0433013124862306 -0.0478203191499179  0.0433012278922160  0.0477915466810301 
 4168.69383470336  0.0433013087645522 -0.0500720775267758  0.0433012316138940  0.0500458367232751 
 4365.15832240166  0.0433013053703411 -0.0524301290424004  0.0433012350081046  0.0524061971451744 
 4570.88189614875  0.0433013022747839 -0.0548994680888249  0.0433012381036615  0.0548776419391483 
 4786.30092322639  0.0433012994516022 -0.0574853257606925  0.0433012409268430  0.0574654200756061 
 5011.87233627273  0.0433012968768299 -0.0601931808941960  0.0433012435016151  0.0601750266936324 
 5248.07460249774  0.0433012945286096 -0.0630287716365178  0.0433012458498352  0.0630122148088239 
 5495.40873857625  0.0433012923870073 -0.0659981075698701  0.0433012479914373  0.0659830075635480 
 5754.39937337158  0.0433012904338427 -0.0691074824154509  0.0433012499446017  0.0690937110460108 
 6025.59586074359  0.0433012886525355 -0.0723634873438953  0.0433012517259089  0.0723509277056932 
 6309.57344480194  0.0433012870279640 -0.0757730249201215  0.0433012533504803  0.0757615703939427 
 6606.93448007597  0.0433012855463372 -0.0793433237118453  0.0433012548321070  0.0793328770598106 
 6918.30970918937  0.0433012841950775 -0.0830819535924728  0.0433012561833666  0.0830724261325822 
 7244.35960074992  0.0433012829627140 -0.0869968417705752  0.0433012574157301  0.0869881526238834 
 7585.77575029185  0.0433012818387852 -0.0910962895797165  0.0433012585396589  0.0910883649837488 
 7943.28234724283  0.0433012808137499 -0.0953889900640376  0.0433012595646942  0.0953817627466176 
 8317.63771102672  0.0433012798789066 -0.0998840463967034  0.0433012604995374  0.0998774550048769 
 8709.63589956082  0.0433012790263193 -0.104590991170107  0.0433012613521246  0.104584979749315 
 9120.10839355911  0.0433012782487506 -0.109519806598589  0.0433012621296934  0.109514324117667 
 9549.92586021437  0.0433012775395994 -0.114680945676376  0.0433012628388445  0.114675945594348 
 10000.0000000000  0.0433012768928459 -0.120085354335485  0.0433012634855981  0.120080794206478 
 10471.2854805090  0.0433012763029996 -0.125744494650479  0.0433012640754443  0.125740335763396 
 10964.7819614319  0.0433012757650534 -0.131670369139167  0.0433012646133905  0.131666576189068 
 11481.5362149689  0.0433012752744407 -0.137875546210711  0.0433012651040032  0.137872086999107 
 12022.6443461742  0.0433012748269966 -0.144373186815018  0.0433012655514473  0.144370031976539 
 12589.2541179417  0.0433012744189227 -0.151177072349854  0.0433012659595212  0.151174195102965 
 13182.5673855641  0.0433012740467548 -0.158301633884815  0.0433012663316890  0.158299009804465 
 13803.8426460289  0.0433012737073338 -0.165761982764054  0.0433012666711101  0.165759589574332 
 14454.3977074593  0.0433012733977781 -0.173573942652627  0.0433012669806658  0.173571760037660 
 15135.6124843621  0.0433012731154599 -0.181754083094367  0.0433012672629840  0.181752092525858 
 15848.9319246111  0.0433012728579827 -0.190319754652413  0.0433012675204612  0.190317939232357 
 16595.8690743756  0.0433012726231607 -0.199289125706898  0.0433012677552832  0.199287470024128 
 17378.0082874938  0.0433012724090004 -0.208681220987776  0.0433012679694434  0.208679710987144 
 18197.0085860999  0.0433012722136840 -0.218515961924514  0.0433012681647599  0.218514584787570 
 19054.6071796325  0.0433012720355533 -0.228814208898175  0.0433012683428906  0.228812952934355 
 19952.6231496888  0.0433012718730961 -0.239597805485490  0.0433012685053477  0.239596660032872 
 20892.9613085404  0.0433012717249334 -0.250889624788741  0.0433012686535104  0.250888580123538 
 21877.6162394955  0.0433012715898075 -0.262713617949689  0.0433012687886364  0.262712665203700 
 22908.6765276778  0.0433012714665711 -0.275094864950433  0.0433012689118727  0.275093996035764 
 23988.3291901949  0.0433012713541782 -0.288059627808928  0.0433012690242656  0.288058835349331 
 25118.8643150959  0.0433012712516747 -0.301635406281986  0.0433012691267691  0.301634683550244 
 26302.6799189539  0.0433012711581904 -0.315850996193872  0.0433012692202535  0.315850337054690 
 27542.2870333817  0.0433012710729317 -0.330736550514233  0.0433012693055122  0.330735949372154 
 28840.3150312661  0.0433012709951748 -0.346323643314863  0.0433012693832691  0.346323095066771 
 30199.5172040202  0.0433012709242597 -0.362645336740978  0.0433012694541842  0.362644836732775 
 31622.7766016838  0.0433012708595843 -0.379736251139030  0.0433012695188595  0.379735795126129 
 33113.1121482591  0.0433012708005997 -0.397632638489795  0.0433012695778442  0.397632222601087 
 34673.6850452532  0.0433012707468051 -0.416372459302503  0.0433012696316388  0.416372080007493 
 36307.8054770102  0.0433012706977438 -0.435995463133077  0.0433012696807001  0.435995117211916 
 38018.9396320562  0.0433012706529994 -0.456543272897282  0.0433012697254445  0.456542957413434 
 39810.7170553498  0.0433012706121920 -0.478059473157610  0.0433012697662519  0.478059185432921 
 41686.9383470336  0.0433012705749752 -0.500589702571155  0.0433012698034686  0.500589440163120 
 43651.5832240167  0.0433012705410331 -0.524181750694580  0.0433012698374108  0.524181511375607 
 45708.8189614876  0.0433012705100775 -0.548885659351478  0.0433012698683663  0.548885441089982 
 47863.0092322639  0.0433012704818457 -0.574753828777177  0.0433012698965981  0.574753629720327 
 50118.7233627273  0.0433012704560980 -0.601841128766088  0.0433012699223459  0.601840947224083 
 52480.7460249773  0.0433012704326158 -0.630205015057379  0.0433012699458281  0.630204849489102 
 54954.0873857625  0.0433012704111998 -0.659905651205825  0.0433012699672441  0.659905500205762 
 57543.9937337158  0.0433012703916681 -0.691006036196349  0.0433012699867757  0.691005898482654 
 60255.9586074359  0.0433012703738551 -0.723572138072911  0.0433012700045888  0.723572012476528 
 63095.7344480195  0.0433012703576093 -0.757673033865224  0.0433012700208345  0.757672919319962 
 66069.3448007597  0.0433012703427931 -0.793381056110065  0.0433012700356508  0.793380951643545 
 69183.0970918938  0.0433012703292805 -0.830771946277983  0.0433012700491634  0.830771851003385 
 72443.5960074991  0.0433012703169568 -0.869925015430842  0.0433012700614870  0.869924928539375 
 75857.7575029185  0.0433012703057176 -0.910923312450966  0.0433012700727263  0.910923233205006 
 79432.8234724282  0.0433012702954672 -0.953853800198729  0.0433012700829767  0.953853727925555 
 83176.3771102672  0.0433012702861188 -0.998807539972235  0.0433012700923251  0.998807474058317 
 87096.3589956081  0.0433012702775929 -1.04587988466035  0.0433012701008509  1.04587982454614 
 91201.0839355912  0.0433012702698172 -1.09517068099879  0.0433012701086266  1.09517062617398 
 95499.2586021438  0.0433012702627257 -1.14678448135827  0.0433012701157181  1.14678443135745 
 100000.000000000  0.0433012702562582 -1.20083076551399  0.0433012701221857  1.20083071991270 
 104712.854805090  0.0433012702503597 -1.25742417286675  0.0433012701280841  1.25742413127788 
 109647.819614319  0.0433012702449802 -1.31668474560836  0.0433012701334636  1.31668470767886 
 114815.362149688  0.0433012702400741 -1.37873818334718  0.0433012701383697  1.37873814875506 
 120226.443461741  0.0433012702355997 -1.44371610973366  0.0433012701428442  1.44371607818528 
 125892.541179417  0.0433012702315189 -1.51175635165173  0.0433012701469249  1.51175632287926 
 131825.673855641  0.0433012702277973 -1.58300323156797  0.0433012701506466  1.58300320532716 
 138038.426460289  0.0433012702244030 -1.65760787365885  0.0433012701540408  1.65760784972696 
 144543.977074593  0.0433012702213075 -1.73572852436532  0.0433012701571364  1.73572850253917 
 151356.124843621  0.0433012702184843 -1.81753088805464  0.0433012701599596  1.81753086814895 
 158489.319246112  0.0433012702159095 -1.90318847850151  0.0433012701625343  1.90318846034731 
 165958.690743756  0.0433012702135613 -1.99288298693401  0.0433012701648825  1.99288297037718 
 173780.082874938  0.0433012702114197 -2.08680466742499  0.0433012701670241  2.08680465232498 
 181970.085860999  0.0433012702094665 -2.18515274044643  0.0433012701689773  2.18515272667506 
 190546.071796325  0.0433012702076852 -2.28813581544274  0.0433012701707586  2.28813580288310 
 199526.231496888  0.0433012702060607 -2.39597233331930  0.0433012701723832  2.39597232186477 
 208929.613085404  0.0433012702045790 -2.50889102978491  0.0433012701738648  2.50889101933826 
 218776.162394956  0.0433012702032278 -2.62713142053084  0.0433012701752161  2.62713141100338 
 229086.765276778  0.0433012702019954 -2.75094430927569  0.0433012701764484  2.75094430058654 
 239883.291901950  0.0433012702008715 -2.88059231975370  0.0433012701775724  2.88059231182911 
 251188.643150958  0.0433012701998465 -3.01635045277489  0.0433012701785974  3.01635044554758 
 263026.799189539  0.0433012701989116 -3.15850666953858  0.0433012701795322  3.15850666294718 
 275422.870333817  0.0433012701980590 -3.30736250243771  0.0433012701803848  3.30736249642628 
 288403.150312661  0.0433012701972815 -3.46323369464946  0.0433012701811624  3.46323368916698 
 301995.172040202  0.0433012701965723 -3.62645086986885  0.0433012701818716  3.62645086486877 
 316227.766016839  0.0433012701959256 -3.79736023360590  0.0433012701825183  3.79736022904577 
 331131.121482592  0.0433012701953357 -3.97632430753389  0.0433012701831081  3.97632430337500 
 346736.850452532  0.0433012701947978 -4.16372269844649  0.0433012701836461  4.16372269465354 
 363078.054770102  0.0433012701943071 -4.35995290345460  0.0433012701841367  4.35995289999538 
 380189.396320562  0.0433012701938597 -4.56543115313101  0.0433012701845841  4.56543114997618 
 398107.170553498  0.0433012701934516 -4.78059329439128  0.0433012701849922  4.78059329151404 
 416869.383470336  0.0433012701930795 -5.00589571498343  0.0433012701853644  5.00589571235935 
 436515.832240166  0.0433012701927400 -5.24181631154754  0.0433012701857038  5.24181630915434 
 457088.189614875  0.0433012701924305 -5.48885550329861  0.0433012701860134  5.48885550111599 
 478630.092322640  0.0433012701921482 -5.74753729348282  0.0433012701862957  5.74753729149225 
 501187.233627273  0.0433012701918907 -6.01841038085858  0.0433012701865532  6.01841037904316 
 524807.460249774  0.0433012701916559 -6.30204932356025  0.0433012701867880  6.30204932190457 
 549540.873857626  0.0433012701914417 -6.59905575781295  0.0433012701870022  6.59905575630294 
 575439.937337158  0.0433012701912464 -6.91005967408358  0.0433012701871975  6.91005967270645 
 602559.586074359  0.0433012701910683 -7.23572075337518  0.0433012701873756  7.23572075211921 
 630957.344480194  0.0433012701909058 -7.57672976649866  0.0433012701875381  7.57672976535320 
 660693.448007597  0.0433012701907576 -7.93381003929038  0.0433012701876862  7.93381003824572 
 691830.970918937  0.0433012701906225 -8.30771898688321  0.0433012701878213  8.30771898593046 
 724435.960074992  0.0433012701904993 -8.69924972028555  0.0433012701879446  8.69924971941664 
 758577.575029186  0.0433012701903869 -9.10923272867610  0.0433012701880570  9.10923272788364 
 794328.234724283  0.0433012701902844 -9.53853764098280  0.0433012701881595  9.53853764026007 
 831763.771102673  0.0433012701901909 -9.98807507048234  0.0433012701882530  9.98807506982320 
 870963.589956082  0.0433012701901056 -10.4587985463330  0.0433012701883382  10.4587985457319 
 912010.839355911  0.0433012701900279 -10.9517065361379  0.0433012701884160  10.9517065355897 
 954992.586021437  0.0433012701899570 -11.4678445638286  0.0433012701884869  11.4678445633286 
 1000000.00000000  0.0433012701898923 -12.0083074273615  0.0433012701885516  12.0083074269055 
 1047128.54805090  0.0433012701898333 -12.5742415209311  0.0433012701886105  12.5742415205152 
 1096478.19614319  0.0433012701897795 -13.1668472666258  0.0433012701886644  13.1668472662465 
 1148153.62149688  0.0433012701897304 -13.7873816606842  0.0433012701887134  13.7873816603383 
 1202264.43461741  0.0433012701896857 -14.4371609397525  0.0433012701887582  14.4371609394370 
 1258925.41179417  0.0433012701896449 -15.1175633727988  0.0433012701887990  15.1175633725111 
 1318256.73855641  0.0433012701896077 -15.8300321846069  0.0433012701888362  15.8300321843445 
 1380384.26460289  0.0433012701895737 -16.5760786170487  0.0433012701888701  16.5760786168094 
 1445439.77074593  0.0433012701895428 -17.3572851346316  0.0433012701889011  17.3572851344134 
 1513561.24843621  0.0433012701895146 -18.1753087811175  0.0433012701889293  18.1753087809185 
 1584893.19246112  0.0433012701894888 -19.0318846943349  0.0433012701889550  19.0318846941534 
 1659586.90743757  0.0433012701894653 -19.9288297866388  0.0433012701889785  19.9288297864732 
 1737800.82874938  0.0433012701894439 -20.8680465988254  0.0433012701889999  20.8680465986744 
 1819700.85860999  0.0433012701894244 -21.8515273356763  0.0433012701890195  21.8515273355386 
 1905460.71796325  0.0433012701894066 -22.8813580916920  0.0433012701890373  22.8813580915664 
 1995262.31496888  0.0433012701893903 -23.9597232759776  0.0433012701890535  23.9597232758631 
 2089296.13085404  0.0433012701893755 -25.0889102456681  0.0433012701890684  25.0889102455636 
 2187761.62394956  0.0433012701893620 -26.2713141577187  0.0433012701890819  26.2713141576234 
 2290867.65276778  0.0433012701893497 -27.5094430493546  0.0433012701890942  27.5094430492677 
 2398832.91901949  0.0433012701893384 -28.8059231579537  0.0433012701891054  28.8059231578744 
 2511886.43150958  0.0433012701893282 -30.1635044916485  0.0433012701891157  30.1635044915762 
 2630267.99189538  0.0433012701893188 -31.5850666624617  0.0433012701891250  31.5850666623958 
 2754228.70333817  0.0433012701893103 -33.0736249943500  0.0433012701891336  33.0736249942899 
 2884031.50312661  0.0433012701893025 -34.6323369191096  0.0433012701891413  34.6323369190547 
 3019951.72040202  0.0433012701892954 -36.2645086737131  0.0433012701891484  36.2645086736631 
 3162277.66016839  0.0433012701892890 -37.9736023132811  0.0433012701891549  37.9736023132356 
 3311311.21482592  0.0433012701892831 -39.7632430545653  0.0433012701891608  39.7632430545237 
 3467368.50452533  0.0433012701892777 -41.6372269655191  0.0433012701891662  41.6372269654812 
 3630780.54770102  0.0433012701892728 -43.5995290172673  0.0433012701891711  43.5995290172327 
 3801893.96320562  0.0433012701892683 -45.6543115155518  0.0433012701891755  45.6543115155202 
 3981071.70553498  0.0433012701892642 -47.8059329295410  0.0433012701891796  47.8059329295123 
 4168693.83470336  0.0433012701892605 -50.0589571367270  0.0433012701891834  50.0589571367008 
 4365158.32240167  0.0433012701892571 -52.4181631035214  0.0433012701891867  52.4181631034975 
 4570881.89614876  0.0433012701892540 -54.8885550220840  0.0433012701891898  54.8885550220622 
 4786300.92322639  0.0433012701892512 -57.4753729248853  0.0433012701891927  57.4753729248653 
 5011872.33627273  0.0433012701892486 -60.1841037995177  0.0433012701891952  60.1841037994996 
 5248074.60249773  0.0433012701892463 -63.0204932273324  0.0433012701891976  63.0204932273158 
 5495408.73857625  0.0433012701892441 -65.9905575705870  0.0433012701891997  65.9905575705719 
 5754399.37337158  0.0433012701892422 -69.1005967339570  0.0433012701892017  69.1005967339432 
 6025595.86074358  0.0433012701892404 -72.3572075274782  0.0433012701892035  72.3572075274656 
 6309573.44480194  0.0433012701892388 -75.7672976592650  0.0433012701892051  75.7672976592535 
 6606934.48007596  0.0433012701892373 -79.3381003876856  0.0433012701892066  79.3381003876752 
 6918309.70918937  0.0433012701892359 -83.0771898640731  0.0433012701892079  83.0771898640635 
 7244359.60074990  0.0433012701892347 -86.9924971985151  0.0433012701892091  86.9924971985064 
 7585775.75029186  0.0433012701892336 -91.0923272828028  0.0433012701892103  91.0923272827948 
 7943282.34724284  0.0433012701892326 -95.3853764062180  0.0433012701892113  95.3853764062108 
 8317637.71102674  0.0433012701892316 -99.8807507015311  0.0433012701892122  99.8807507015245 
 8709635.89956083  0.0433012701892308 -104.587985460328  0.0433012701892131  104.587985460322 
 9120108.39355911  0.0433012701892300 -109.517065358641  0.0433012701892139  109.517065358635 
 9549925.86021437  0.0433012701892293 -114.678445635789  0.0433012701892146  114.678445635784 
 10000000.0000000  0.0433012701892286 -120.083074271337  0.0433012701892152  120.083074271333 
