-180.000000000000 -437.294474748315 
-176.400000000000 -429.227389262648 
-172.800000000000 -422.005867861082 
-169.200000000000 -418.117759561780 
-165.600000000000 -415.463372081797 
-162.000000000000 -413.459313576026 
-158.400000000000 -411.860128542461 
-154.800000000000 -410.539294942065 
-151.200000000000 -409.423043192921 
-147.600000000000 -408.464624662167 
-144.000000000000 -407.632578838158 
-140.400000000000 -406.904753483190 
-136.800000000000 -406.264994227632 
-133.200000000000 -405.701190874016 
-129.600000000000 -405.204064085568 
-126.000000000000 -404.766379974687 
-122.400000000000 -404.382424004070 
-118.800000000000 -404.047638461447 
-115.200000000000 -403.758366751656 
-111.600000000000 -403.511669614588 
-108.000000000000 -403.305191149464 
-104.400000000000 -403.137060258382 
-100.800000000000 -403.005817958222 
-97.2000000000000 -402.910364129418 
-93.6000000000000 -402.849919346438 
-90.0000000000000 -402.823998866275 
-86.4000000000000 -402.832396882401 
-82.8000000000000 -402.875179939442 
-79.2000000000000 -402.952689055931 
-75.6000000000000 -403.065550700442 
-72.0000000000000 -403.214697381623 
-68.4000000000000 -403.401399319835 
-64.8000000000000 -403.627309559215 
-61.2000000000000 -403.894526082260 
-57.6000000000000 -404.205676198166 
-54.0000000000000 -404.564031000176 
-50.4000000000000 -404.973661538933 
-46.8000000000000 -405.439654420631 
-43.2000000000000 -405.968414383366 
-39.6000000000000 -406.568097944885 
-36.0000000000000 -407.249251078852 
-32.4000000000000 -408.025776488676 
-28.8000000000000 -408.916456950452 
-25.2000000000000 -409.947466792078 
-21.6000000000000 -411.156754470730 
-18.0000000000000 -412.602263024667 
-14.4000000000000 -414.378886914183 
-10.8000000000000 -416.658364313037 
-7.19999999999999 -419.803474312054 
-3.59999999999999 -424.825172053230 
 0.00000000000000 -437.294474748315 
 3.59999999999999 -429.227389262648 
 7.20000000000002 -422.005867861082 
 10.8000000000000 -418.117759561780 
 14.4000000000000 -415.463372081797 
 18.0000000000000 -413.459313576026 
 21.6000000000000 -411.860128542461 
 25.2000000000000 -410.539294942065 
 28.8000000000000 -409.423043192921 
 32.4000000000000 -408.464624662167 
 36.0000000000000 -407.632578838158 
 39.6000000000000 -406.904753483190 
 43.2000000000000 -406.264994227632 
 46.8000000000000 -405.701190874016 
 50.4000000000000 -405.204064085568 
 54.0000000000000 -404.766379974687 
 57.6000000000000 -404.382424004070 
 61.2000000000000 -404.047638461447 
 64.8000000000000 -403.758366751656 
 68.4000000000000 -403.511669614588 
 72.0000000000000 -403.305191149464 
 75.6000000000000 -403.137060258382 
 79.2000000000000 -403.005817958222 
 82.8000000000000 -402.910364129418 
 86.4000000000000 -402.849919346438 
 90.0000000000000 -402.823998866275 
 93.6000000000000 -402.832396882401 
 97.2000000000000 -402.875179939442 
 100.800000000000 -402.952689055931 
 104.400000000000 -403.065550700442 
 108.000000000000 -403.214697381623 
 111.600000000000 -403.401399319835 
 115.200000000000 -403.627309559215 
 118.800000000000 -403.894526082260 
 122.400000000000 -404.205676198166 
 126.000000000000 -404.564031000176 
 129.600000000000 -404.973661538933 
 133.200000000000 -405.439654420631 
 136.800000000000 -405.968414383366 
 140.400000000000 -406.568097944885 
 144.000000000000 -407.249251078852 
 147.600000000000 -408.025776488676 
 151.200000000000 -408.916456950452 
 154.800000000000 -409.947466792078 
 158.400000000000 -411.156754470730 
 162.000000000000 -412.602263024667 
 165.600000000000 -414.378886914183 
 169.200000000000 -416.658364313037 
 172.800000000000 -419.803474312054 
 176.400000000000 -424.825172053230 
 180.000000000000 -437.294474748315 
