 1.00000000000000  14763123345.1125  89.9939958462864 
 1000.99000000000  14736064737.2818  83.9899021742568 
 2000.98000000000  14655175020.4348  77.9858085022272 
 3000.97000000000  14520986526.7864  71.9817148301976 
 4000.96000000000  14334381603.3702  65.9776211581680 
 5000.95000000000  14096585701.7343  59.9735274861384 
 6000.94000000000  13809157787.3093  53.9694338141088 
 7000.93000000000  13473978150.2179  47.9653401420792 
 8000.92000000000  13093233721.3863  41.9612464700496 
 9000.91000000000  12669401018.9815  35.9571527980200 
 10000.9000000000  12205226870.2361  29.9530591259904 
 11000.8900000000  11703707072.4647  23.9489654539608 
 12000.8800000000  11168063174.3520  17.9448717819312 
 13000.8700000000  10601717574.2457  11.9407781099016 
 14000.8600000000  10008267146.0885  5.93668443787201 
 15000.8500000000  9391455615.64190 -0.0674092341575800 
 16000.8400000000  8755144919.68913 -6.07150290618718 
 17000.8300000000  8103285788.87148 -12.0755965782168 
 18000.8200000000  7439887800.63925 -18.0796902502464 
 19000.8100000000  6768989152.44323 -24.0837839222760 
 20000.8000000000  6094626406.72372 -30.0878775943056 
 21000.7900000000  5420804458.46745 -36.0919712663352 
 22000.7800000000  4751466973.10930 -42.0960649383648 
 23000.7700000000  4090467537.39088 -48.1001586103944 
 24000.7600000000  3441541758.50383 -54.1042522824240 
 25000.7500000000  2808280537.51488 -60.1083459544536 
 26000.7400000000  2194104731.78421 -66.1124396264832 
 27000.7300000000  1602241407.95591 -72.1165332985128 
 28000.7200000000  1035701872.24599 -78.1206269705424 
 29000.7100000000  497261648.319129 -84.1247206425720 
 30000.7000000000  10557444.8138886  89.8711856853984 
 31000.6900000000  485502981.564249  83.8670920133688 
 32000.6800000000  925605272.082470  77.8629983413392 
 33000.6700000000  1329188266.09910  71.8589046693096 
 34000.6600000000  1694877948.05025  65.8548109972800 
 35000.6500000000  2021608175.53362  59.8507173252504 
 36000.6400000000  2308623935.71712  53.8466236532208 
 37000.6300000000  2555482016.98470  47.8425299811912 
 38000.6200000000  2762049115.64611  41.8384363091616 
 39000.6100000000  2928497419.75594  35.8343426371320 
 40000.6000000000  3055297733.78074  29.8302489651024 
 41000.5900000000  3143210228.82861  23.8261552930728 
 42000.5800000000  3193272923.22542  17.8220616210432 
 43000.5700000000  3206788017.20903  11.8179679490136 
 44000.5600000000  3185306223.25060  5.81387427698400 
 45000.5500000000  3130609249.84649 -0.190219395045636 
 46000.5400000000  3044690611.41527 -6.19431306707525 
 47000.5300000000  2929734950.05624 -12.1984067391048 
 48000.5200000000  2788096066.27020 -18.2025004111344 
 49000.5100000000  2622273865.21819 -24.2065940831640 
 50000.5000000000  2434890432.62480 -30.2106877551936 
 51000.4900000000  2228665459.96531 -36.2147814272232 
 52000.4800000000  2006391242.07236 -42.2188750992528 
 53000.4700000000  1770907471.74231 -48.2229687712825 
 54000.4600000000  1525076055.31420 -54.2270624433120 
 55000.4500000000  1271756170.55798 -60.2311561153417 
 56000.4400000000  1013779783.58181 -66.2352497873712 
 57000.4300000000  753927834.909953 -72.2393434594008 
 58000.4200000000  494907296.468317 -78.2434371314304 
 59000.4100000000  239329291.037149 -84.2475308034601 
 60000.4000000000  10311546.1020628  89.7483755245104 
 61000.3900000000  251656296.962074  83.7442818524808 
 62000.3800000000  482499430.482594  77.7401881804512 
 63000.3700000000  700804776.399009  71.7360945084215 
 64000.3600000000  904719684.835789  65.7320008363920 
 65000.3500000000  1092587271.12073  59.7279071643624 
 66000.3400000000  1262956664.06498  53.7238134923328 
 67000.3300000000  1414591195.26276  47.7197198203031 
 68000.3200000000  1546474486.64741  41.7156261482736 
 69000.3100000000  1657814413.41062  35.7115324762440 
 70000.3000000000  1748044939.25971  29.7074388042143 
 71000.2900000000  1816825840.66914  23.7033451321848 
 72000.2800000000  1864040356.09198  17.6992514601552 
 73000.2700000000  1889790814.85833  11.6951577881255 
 74000.2600000000  1894392318.52801  5.69106411609595 
 75000.2500000000  1878364564.62133 -0.313029555933641 
 76000.2400000000  1842421918.77130 -6.31712322796323 
 77000.2300000000  1787461856.28012 -12.3212168999928 
 78000.2200000000  1714551907.69320 -18.3253105720225 
 79000.2100000000  1624915255.20789 -24.3294042440520 
 80000.2000000000  1519915137.41148 -30.3334979160816 
 81000.1900000000  1401038228.90564 -36.3375915881113 
 82000.1800000000  1269877168.75431 -42.3416852601409 
 83000.1700000000  1128112417.33418 -48.3457789321704 
 84000.1600000000  977493625.036570 -54.3498726042001 
 85000.1500000000  819820698.346833 -60.3539662762296 
 86000.1400000000  656924749.111630 -66.3580599482593 
 87000.1300000000  490649111.311472 -72.3621536202889 
 88000.1200000000  322830606.417957 -78.3662472923185 
 89000.1100000000  155281233.482439 -84.3703409643481 
 90000.1000000000  10229546.4599729  89.6255653636223 
 91000.0900000000  171991770.199440  83.6214716915928 
 92000.0800000000  328371024.468800  77.6173780195631 
 93000.0700000000  477823449.378703  71.6132843475334 
 94000.0600000000  618909564.320817  65.6091906755039 
 95000.0500000000  750306800.726702  59.6050970034742 
 96000.0400000000  870820640.263426  53.6010033314447 
 97000.0300000000  979394272.048642  47.5969096594152 
 98000.0200000000  1075116698.12300  41.5928159873855 
 99000.0100000000  1157229232.56710  35.5887223153560 
 100000.000000000  1225130356.13099  29.5846286433264 
