-3.00000000000000  0.643213163898856  0.00000000000000  0.643213163898856  0.00000000000000  0.465797281045866  167.072383917392  0.465797281045866  167.072383917392 
-2.94000000000000  0.906868925233811  0.00000000000000  0.906868925233811  0.00000000000000  0.537943440664431  179.594428166208  0.537943440664431  179.594428166208 
-2.88000000000000  1.26836751138131  0.00000000000000  1.26836751138131  0.00000000000000  0.618630118577831 -168.085578502637  0.618630118577831 -168.085578502637 
-2.82000000000000  1.75968240464913  0.00000000000000  1.75968240464913  0.00000000000000  0.708360159379139 -155.969780535953  0.708360159379139 -155.969780535953 
-2.76000000000000  2.42153887269256  0.00000000000000  2.42153887269256  0.00000000000000  0.807564627282095 -144.060093149720  0.807564627282095 -144.060093149720 
-2.70000000000000  3.30520027113669  0.00000000000000  3.30520027113669  0.00000000000000  0.916578746705191 -132.358187119134  0.916578746705191 -132.358187119134 
-2.64000000000000  4.47441600420346  0.00000000000000  4.47441600420346  0.00000000000000  1.03561601103990 -120.865479028536  1.03561601103990 -120.865479028536 
-2.58000000000000  6.00747675340582  0.00000000000000  6.00747675340582  0.00000000000000  1.16474102987089 -109.583126850845  1.16474102987089 -109.583126850845 
-2.52000000000000  7.99929529771393  0.00000000000000  7.99929529771393  0.00000000000000  1.30384184645487 -98.5120305612642  1.30384184645487 -98.5120305612642 
-2.46000000000000  10.5634005335346  0.00000000000000  10.5634005335346  0.00000000000000  1.45260261303845 -87.6528373596557  1.45260261303845 -87.6528373596557 
-2.40000000000000  13.8336996242581  0.00000000000000  13.8336996242581  0.00000000000000  1.61047765206454 -77.0059509827078  1.61047765206454 -77.0059509827078 
-2.34000000000000  17.9658307157668  0.00000000000000  17.9658307157668  0.00000000000000  1.77666804627593 -66.5715445301503  1.77666804627593 -66.5715445301503 
-2.28000000000000  23.1378991808360  0.00000000000000  23.1378991808360  0.00000000000000  1.95010197987059 -56.3495762057413  1.95010197987059 -56.3495762057413 
-2.22000000000000  29.5503673487293  0.00000000000000  29.5503673487293  0.00000000000000  2.12942008646175 -46.3398073785343  2.12942008646175 -46.3398073785343 
-2.16000000000000  37.4248550320011  0.00000000000000  37.4248550320011  0.00000000000000  2.31296703920150 -36.5418223970043  2.31296703920150 -36.5418223970043 
-2.10000000000000  47.0016099638419  0.00000000000000  47.0016099638419  0.00000000000000  2.49879053762308 -26.9550496314859  2.49879053762308 -26.9550496314859 
-2.04000000000000  58.5354274221342  0.00000000000000  58.5354274221342  0.00000000000000  2.68464870084641 -17.5787832727485  2.68464870084641 -17.5787832727485 
-1.98000000000000  72.2898401550903  0.00000000000000  72.2898401550903  0.00000000000000  2.86802666738742 -8.41220547055749  2.86802666738742 -8.41220547055749 
-1.92000000000000  88.5294654659155  0.00000000000000  88.5294654659155  0.00000000000000  3.04616293126643  0.545591549322901  3.04616293126643  0.545591549322901 
-1.86000000000000  107.510486608581  0.00000000000000  107.510486608581  0.00000000000000  3.21608561972549  9.29558370235551  3.21608561972549  9.29558370235551 
-1.80000000000000  129.469359112286  0.00000000000000  129.469359112286  0.00000000000000  3.37465855083754  17.8387938698108  3.37465855083754  17.8387938698108 
-1.74000000000000  154.609965532349  0.00000000000000  154.609965532349  0.00000000000000  3.51863651437899  26.1762715767318  3.51863651437899  26.1762715767318 
-1.68000000000000  183.089588108782  0.00000000000000  183.089588108782  0.00000000000000  3.64472881422396  34.3090737577001  3.64472881422396  34.3090737577001 
-1.62000000000000  215.004219075490  0.00000000000000  215.004219075490  0.00000000000000  3.74966971490427  42.2382468522169  3.74966971490427  42.2382468522169 
-1.56000000000000  250.373871869632  0.00000000000000  250.373871869632  0.00000000000000  3.83029406945269  49.9648105029598  3.83029406945269  49.9648105029598 
-1.50000000000000  289.128680592950  0.00000000000000  289.128680592950  0.00000000000000  3.88361609039220  57.4897431938003  3.88361609039220  57.4897431938003 
-1.44000000000000  331.096666382826  0.00000000000000  331.096666382826  0.00000000000000  3.90690897918606  64.8139702744047  3.90690897918606  64.8139702744047 
-1.38000000000000  375.994094841265  0.00000000000000  375.994094841265  0.00000000000000  3.89778296700071  71.9383549999450  3.89778296700071  71.9383549999450 
-1.32000000000000  423.419336984696  0.00000000000000  423.419336984696  0.00000000000000  3.85425925243727  78.8636935149789  3.85425925243727  78.8636935149789 
-1.26000000000000  472.851068964353  0.00000000000000  472.851068964353  0.00000000000000  3.77483735606896  85.5907152194004  3.77483735606896  85.5907152194004 
-1.20000000000000  523.651499003661  0.00000000000000  523.651499003661  0.00000000000000  3.65855354770564  92.1200908472182  3.65855354770564  92.1200908472182 
-1.14000000000000  575.075094894318  0.00000000000000  575.075094894318  0.00000000000000  3.50502823514973  98.4524522248751  3.50502823514973  98.4524522248751 
-1.08000000000000  626.283009318935  0.00000000000000  626.283009318935  0.00000000000000  3.31450052235962  104.588430824949  3.31450052235962  104.588430824949 
-1.02000000000000  676.363076786665  0.00000000000000  676.363076786665  0.00000000000000  3.08784853546913  110.528728642910  3.08784853546913  110.528728642910 
-0.960000000000000  724.354904449810  0.00000000000000  724.354904449810  0.00000000000000  2.82659455885837  116.274248859816  2.82659455885837  116.274248859816 
-0.900000000000000  769.279223622281  0.00000000000000  769.279223622281  0.00000000000000  2.53289450075337  121.826346498991  2.53289450075337  121.826346498991 
-0.840000000000000  810.170336593573  0.00000000000000  810.170336593573  0.00000000000000  2.20951170000573  127.187344012674  2.20951170000573  127.187344012674 
-0.780000000000000  846.110212292085  0.00000000000000  846.110212292085  0.00000000000000  1.85977558058791  132.361704701233  1.85977558058791  132.361704701233 
-0.720000000000000  876.262580722552  0.00000000000000  876.262580722552  0.00000000000000  1.48752617139859  137.359112489052  1.48752617139859  137.359112489052 
-0.660000000000000  899.905271706014  0.00000000000000  899.905271706014  0.00000000000000  1.09704618125085  142.204442878963  1.09704618125085  142.204442878963 
-0.600000000000000  916.459053244837  0.00000000000000  916.459053244837  0.00000000000000  0.692984350189477  146.983441009842  0.692984350189477  146.983441009842 
-0.540000000000000  925.511354947276  0.00000000000000  925.511354947276  0.00000000000000  0.280298129085962  152.295161422340  0.280298129085962  152.295161422340 
-0.480000000000000  926.833508472353  0.00000000000000  926.833508472353  0.00000000000000  0.136393807667612 -28.6010321921602  0.136393807667612 -28.6010321921602 
-0.420000000000000  920.390485730095  0.00000000000000  920.390485730095  0.00000000000000  0.550970356259815 -22.1299807158105  0.550970356259815 -22.1299807158105 
-0.360000000000000  906.342542998713  0.00000000000000  906.342542998713  0.00000000000000  0.958975883429240 -18.0518174922034  0.958975883429240 -18.0518174922034 
-0.300000000000000  885.038654045335  0.00000000000000  885.038654045335  0.00000000000000  1.35525992411155 -14.3939678263063  1.35525992411155 -14.3939678263063 
-0.240000000000000  857.002101795946  0.00000000000000  857.002101795946  0.00000000000000  1.73502843157396 -11.0078598159369  1.73502843157396 -11.0078598159369 
-0.180000000000000  822.909058660015  0.00000000000000  822.909058660015  0.00000000000000  2.09381718420649 -7.85697558231551  2.09381718420649 -7.85697558231551 
-0.120000000000000  783.561384944336  0.00000000000000  783.561384944336  0.00000000000000  2.42757130744239 -4.92823044905759  2.42757130744239 -4.92823044905759 
-0.0600000000000001  739.855183045628  0.00000000000000  739.855183045628  0.00000000000000  2.73271980190512 -2.21590768578316  2.73271980190512 -2.21590768578316 
 0.00000000000000  692.746840748714  0.00000000000000  692.746840748714  0.00000000000000  3.00623886448392  0.282841251779610  3.00623886448392  0.282841251779610 
 0.0600000000000001  643.218368640874  0.00000000000000  643.218368640874  0.00000000000000  3.24570176797759  2.56960879712937  3.24570176797759  2.56960879712937 
 0.120000000000000  592.243784050332  0.00000000000000  592.243784050332  0.00000000000000  3.44931390053842  4.64541078541117  3.44931390053842  4.64541078541117 
 0.180000000000000  540.758127312452  0.00000000000000  540.758127312452  0.00000000000000  3.61593207901108  6.51100742866825  3.61593207901108  6.51100742866825 
 0.240000000000000  489.630434979180  0.00000000000000  489.630434979180  0.00000000000000  3.74506773570447  8.16706706166266  3.74506773570447  8.16706706166266 
 0.300000000000000  439.641665004592  0.00000000000000  439.641665004592  0.00000000000000  3.83687407632019  9.61425298500688  3.83687407632019  9.61425298500688 
 0.360000000000000  391.468200997719  0.00000000000000  391.468200997719  0.00000000000000  3.89211781315508  10.8532687800171  3.89211781315508  10.8532687800171 
 0.420000000000000  345.671187102224  0.00000000000000  345.671187102224  0.00000000000000  3.91213657565813  11.8848789424702  3.91213657565813  11.8848789424702 
 0.480000000000000  302.691590508933  0.00000000000000  302.691590508933  0.00000000000000  3.89878356885582  12.7099133986571  3.89878356885582  12.7099133986571 
 0.540000000000000  262.850578961506  0.00000000000000  262.850578961506  0.00000000000000  3.85436146664026  13.3292605215840  3.85436146664026  13.3292605215840 
 0.600000000000000  226.354553456045  0.00000000000000  226.354553456045  0.00000000000000  3.78154786988782  13.7438513015366  3.78154786988782  13.7438513015366 
 0.660000000000000  193.304002015743  0.00000000000000  193.304002015743  0.00000000000000  3.68331491007508  13.9546363334243  3.68331491007508  13.9546363334243 
 0.720000000000000  163.705242034696  0.00000000000000  163.705242034696  0.00000000000000  3.56284572315223  13.9625568052674  3.56284572315223  13.9625568052674 
 0.780000000000000  137.484092762682  0.00000000000000  137.484092762682  0.00000000000000  3.42345054733289  13.7685104911463  3.42345054733289  13.7685104911463 
 0.840000000000000  114.500557271442  0.00000000000000  114.500557271442  0.00000000000000  3.26848511014486  13.3733137620368  3.26848511014486  13.3733137620368 
 0.900000000000000  94.5636822151156  0.00000000000000  94.5636822151156  0.00000000000000  3.10127376941087  12.7776607755006  3.10127376941087  12.7776607755006 
 0.960000000000000  77.4458893722172  0.00000000000000  77.4458893722172  0.00000000000000  2.92503957125553  11.9820812603076  2.92503957125553  11.9820812603076 
 1.02000000000000  62.8962204284186  0.00000000000000  62.8962204284186  0.00000000000000  2.74284300307041  10.9868986536167  2.74284300307041  10.9868986536167 
 1.08000000000000  50.6520917786910  0.00000000000000  50.6520917786910  0.00000000000000  2.55753077254854  9.79219075545086  2.55753077254854  9.79219075545086 
 1.14000000000000  40.4493073146727  0.00000000000000  40.4493073146727  0.00000000000000  2.37169546047007  8.39775551196608  2.37169546047007  8.39775551196608 
 1.20000000000000  32.0302148401935  0.00000000000000  32.0302148401935  0.00000000000000  2.18764640134069  6.80308499178855  2.18764640134069  6.80308499178855 
 1.26000000000000  25.1500094081184  0.00000000000000  25.1500094081184  0.00000000000000  2.00739166838932  5.00735103675148  2.00739166838932  5.00735103675148 
 1.32000000000000  19.5812807831346  0.00000000000000  19.5812807831346  0.00000000000000  1.83263060199053  3.00940640220302  1.83263060199053  3.00940640220302 
 1.38000000000000  15.1169712027436  0.00000000000000  15.1169712027436  0.00000000000000  1.66475594405599  0.807805405096760  1.66475594405599  0.807805405096760 
 1.44000000000000  11.5719544804396  0.00000000000000  11.5719544804396  0.00000000000000  1.50486434152757 -1.59915186849046  1.50486434152757 -1.59915186849046 
 1.50000000000000  8.78347064351618  0.00000000000000  8.78347064351618  0.00000000000000  1.35377377059066 -4.21334789893896  1.35377377059066 -4.21334789893896 
 1.56000000000000  6.61065508624989  0.00000000000000  6.61065508624989  0.00000000000000  1.21204631451000 -7.03674503952745  1.21204631451000 -7.03674503952745 
 1.62000000000000  4.93339151235296  0.00000000000000  4.93339151235296  0.00000000000000  1.08001470098892 -10.0712486529029  1.08001470098892 -10.0712486529029 
 1.68000000000000  3.65069769538269  0.00000000000000  3.65069769538269  0.00000000000000  0.957811062869410 -13.3185333494731  0.957811062869410 -13.3185333494731 
 1.74000000000000  2.67882603553264  0.00000000000000  2.67882603553264  0.00000000000000  0.845396516983085 -16.7798298011154  0.845396516983085 -16.7798298011154 
 1.80000000000000  1.94923032755545  0.00000000000000  1.94923032755545  0.00000000000000  0.742590344164493 -20.4556693298247  0.742590344164493 -20.4556693298247 
 1.86000000000000  1.40651879907953  0.00000000000000  1.40651879907953  0.00000000000000  0.649097780320160 -24.3455823839980  0.649097780320160 -24.3455823839980 
 1.92000000000000  1.00648343096047  0.00000000000000  1.00648343096047  0.00000000000000  0.564535674411613 -28.4477446960265  0.564535674411613 -28.4477446960265 
 1.98000000000000  0.714268317539741  0.00000000000000  0.714268317539741  0.00000000000000  0.488455515297296 -32.7585608415540  0.488455515297296 -32.7585608415540 
 2.04000000000000  0.502716288841900  0.00000000000000  0.502716288841900  0.00000000000000  0.420363558884604 -37.2721684162083  0.420363558884604 -37.2721684162083 
 2.10000000000000  0.350913640736702  0.00000000000000  0.350913640736702  0.00000000000000  0.359737986871069 -41.9798361791618  0.359737986871069 -41.9798361791618 
 2.16000000000000  0.242937657005173  0.00000000000000  0.242937657005173  0.00000000000000  0.306043189897163 -46.8692149322983  0.306043189897163 -46.8692149322983 
 2.22000000000000  0.166800423375747  0.00000000000000  0.166800423375747  0.00000000000000  0.258741387399009 -51.9233785751093  0.258741387399009 -51.9233785751093 
 2.28000000000000  0.113574795928178  0.00000000000000  0.113574795928178  0.00000000000000  0.217301874594554 -57.1195616161442  0.217301874594554 -57.1195616161442 
 2.34000000000000  0.0766837496369993  0.00000000000000  0.0766837496369993  0.00000000000000  0.181208228413772 -62.4274538599309  0.181208228413772 -62.4274538599309 
 2.40000000000000  0.0513321082063441  0.00000000000000  0.0513321082063441  0.00000000000000  0.149963816049539 -67.8068466614997  0.149963816049539 -67.8068466614997 
 2.46000000000000  0.0340592646398097  0.00000000000000  0.0340592646398097  0.00000000000000  0.123095940862446 -73.2043305436093  0.123095940862446 -73.2043305436093 
 2.52000000000000  0.0223924123502836  0.00000000000000  0.0223924123502836  0.00000000000000  0.100158939367673 -78.5486166921101  0.100158939367673 -78.5486166921101 
 2.58000000000000  0.0145815604436494  0.00000000000000  0.0145815604436494  0.00000000000000  0.0807365168383827 -83.7439094635738  0.0807365168383827 -83.7439094635738 
 2.64000000000000  0.00939982941394595  0.00000000000000  0.00939982941394595  0.00000000000000  0.0644435787078738 -88.6606782720689  0.0644435787078738 -88.6606782720689 
 2.70000000000000  0.00599492591156435  0.00000000000000  0.00599492591156435  0.00000000000000  0.0509277650128295 -93.1234712249884  0.0509277650128295 -93.1234712249884 
 2.76000000000000  0.00378006890300306  0.00000000000000  0.00378006890300306  0.00000000000000  0.0398707644105377 -96.8970168436599  0.0398707644105377 -96.8970168436599 
 2.82000000000000  0.00235484616412337  0.00000000000000  0.00235484616412337  0.00000000000000  0.0309890932133721 -99.6772737034997  0.0309890932133721 -99.6772737034997 
 2.88000000000000  0.00144843919911386  0.00000000000000  0.00144843919911386  0.00000000000000  0.0240329481681731 -101.108538072427  0.0240329481681731 -101.108538072427 
 2.94000000000000  0.000879330600245915  0.00000000000000  0.000879330600245915  0.00000000000000  0.0187793704059253 -100.875521989438  0.0187793704059253 -100.875521989438 
 3.00000000000000  0.000526997028292714  0.00000000000000  0.000526997028292714  0.00000000000000  0.0150131268911300 -98.9348161236591  0.0150131268911300 -98.9348161236591 